v 1.3979317941432685e-16 -1.1414979696273804 -4.989646029684991e-08
v 1.5245838661858758e-16 -1.108328104019165 0.27317824959754944
v 0.06448187679052353 -1.0457199811935425 0.25774672627449036
v 0.06448187679052353 -1.077015995979309 -4.707786516178203e-08
v -0.06448187679052353 -1.077015995979309 -4.707786516178203e-08
v -0.06448187679052353 -1.0457199811935425 0.25774672627449036
v 1.5245838661858758e-16 -1.108328104019165 0.27317824959754944
v 1.3979317941432685e-16 -1.1414979696273804 -4.989646029684991e-08
v -1.1900368216625611e-16 1.108328104019165 0.2731785178184509
v -1.3979316617943705e-16 1.1414979696273804 2.2225785301088763e-07
v 0.06448187679052353 1.077015995979309 2.0970276182197267e-07
v 0.06448187679052353 1.045719861984253 0.25774699449539185
v 0.06448187679052353 1.0457199811935425 -0.2577465772628784
v -1.5245837338369778e-16 1.108328104019165 -0.2731781005859375
v 0.06448187679052353 0.9536504149436951 -0.5005142092704773
v -1.562632850874335e-16 1.0107463598251343 -0.5304804444313049
v 0.06448187679052353 0.8061581254005432 -0.7141937613487244
v -1.5098671981229243e-16 0.8544235229492188 -0.7569531798362732
v 0.06448187679052353 0.6118147969245911 -0.8863669037818909
v -1.3693534318985005e-16 0.648444652557373 -0.9394344091415405
v 0.06448187679052353 0.38191497325897217 -1.0070276260375977
v -1.149257743905983e-16 0.4047805666923523 -1.0673192739486694
v 0.06448187679052353 0.12981964647769928 -1.06916344165802
v -8.623713242656466e-17 0.13759206235408783 -1.133175253868103
v 0.06448187679052353 -0.1298203319311142 -1.0691633224487305
v -5.2536705701468196e-17 -0.13759279251098633 -1.1331751346588135
v 0.06448187679052353 -0.3819155991077423 -1.007027268409729
v -1.578303125834662e-17 -0.4047812521457672 -1.0673189163208008
v 0.06448187679052353 -0.611815333366394 -0.8863665461540222
v 2.1887902111673782e-17 -0.6484453082084656 -0.9394340515136719
v 0.06448187679052353 -0.8061585426330566 -0.7141932249069214
v 5.828677893773666e-17 -0.854423999786377 -0.7569526433944702
v 0.06448187679052353 -0.953650712966919 -0.5005135536193848
v 9.129824031319281e-17 -1.0107465982437134 -0.5304797887802124
v 0.06448187679052353 -1.045720100402832 -0.2577458918094635
v 1.1900378804537452e-16 -1.1083283424377441 -0.2731773853302002
v 0.06448187679052353 -1.077015995979309 -4.707786516178203e-08
v 1.3979317941432685e-16 -1.1414979696273804 -4.989646029684991e-08
v -0.06448187679052353 1.045719861984253 0.25774699449539185
v -0.06448187679052353 1.077015995979309 2.0970276182197267e-07
v -1.3979316617943705e-16 1.1414979696273804 2.2225785301088763e-07
v -1.1900368216625611e-16 1.108328104019165 0.2731785178184509
v -1.5245837338369778e-16 1.108328104019165 -0.2731781005859375
v -0.06448187679052353 1.0457199811935425 -0.2577465772628784
v -1.562632850874335e-16 1.0107463598251343 -0.5304804444313049
v -0.06448187679052353 0.9536504149436951 -0.5005142092704773
v -1.5098671981229243e-16 0.8544235229492188 -0.7569531798362732
v -0.06448187679052353 0.8061581254005432 -0.7141937613487244
v -1.3693534318985005e-16 0.648444652557373 -0.9394344091415405
v -0.06448187679052353 0.6118147969245911 -0.8863669037818909
v -1.149257743905983e-16 0.4047805666923523 -1.0673192739486694
v -0.06448187679052353 0.38191497325897217 -1.0070276260375977
v -8.623713242656466e-17 0.13759206235408783 -1.133175253868103
v -0.06448187679052353 0.12981964647769928 -1.06916344165802
v -5.2536705701468196e-17 -0.13759279251098633 -1.1331751346588135
v -0.06448187679052353 -0.1298203319311142 -1.0691633224487305
v -1.578303125834662e-17 -0.4047812521457672 -1.0673189163208008
v -0.06448187679052353 -0.3819155991077423 -1.007027268409729
v 2.1887902111673782e-17 -0.6484453082084656 -0.9394340515136719
v -0.06448187679052353 -0.611815333366394 -0.8863665461540222
v 5.828677893773666e-17 -0.854423999786377 -0.7569526433944702
v -0.06448187679052353 -0.8061585426330566 -0.7141932249069214
v 9.129824031319281e-17 -1.0107465982437134 -0.5304797887802124
v -0.06448187679052353 -0.953650712966919 -0.5005135536193848
v 1.1900378804537452e-16 -1.1083283424377441 -0.2731773853302002
v -0.06448187679052353 -1.045720100402832 -0.2577458918094635
v 1.3979317941432685e-16 -1.1414979696273804 -4.989646029684991e-08
v -0.06448187679052353 -1.077015995979309 -4.707786516178203e-08
vn -0.0 -1.0 0.0
vn -0.0 -0.9927088022232056 0.12053659558296204
vn 0.7045148015022278 -0.7045148611068726 0.08554353564977646
vn 0.7071070075035095 -0.7071065306663513 0.0
vn -0.7071069478988647 -0.7071065902709961 0.0
vn -0.7045148015022278 -0.7045148611068726 0.08554353564977646
vn -0.0 -0.9927088022232056 0.12053659558296204
vn -0.0 -1.0 0.0
vn -0.0 0.9927088022232056 0.12053676694631577
vn -0.0 1.0 0.0
vn 0.7071068286895752 0.7071067094802856 0.0
vn 0.7045149803161621 0.7045146226882935 0.08554362505674362
vn 0.7071067690849304 0.6865596175193787 -0.16922152042388916
vn -0.0 0.9709419012069702 -0.239315465092659
vn 0.7071069478988647 0.6261118650436401 -0.3286086618900299
vn -0.0 0.8854560852050781 -0.46472302079200745
vn 0.70710688829422 0.5292768478393555 -0.4688984751701355
vn -0.0 0.7485107183456421 -0.6631227135658264
vn 0.7071068286895752 0.4016823470592499 -0.5819374918937683
vn -0.0 0.5680647492408752 -0.822983980178833
vn 0.7071069478988647 0.2507432997226715 -0.6611561179161072
vn -0.0 0.35460472106933594 -0.9350162744522095
vn 0.7071070671081543 0.08523201197385788 -0.7019508481025696
vn -0.0 0.12053637206554413 -0.9927089214324951
vn 0.7071070671081543 -0.08523253351449966 -0.7019507884979248
vn -0.0 -0.12053708732128143 -0.9927088022232056
vn 0.7071069478988647 -0.25074368715286255 -0.6611559987068176
vn -0.0 -0.35460522770881653 -0.9350160956382751
vn 0.7071068286895752 -0.40168264508247375 -0.5819371938705444
vn -0.0 -0.5680652260780334 -0.8229835629463196
vn 0.7071070075035095 -0.5292771458625793 -0.4688979685306549
vn -0.0 -0.7485112547874451 -0.6631221175193787
vn 0.7071071267127991 -0.6261118650436401 -0.3286081850528717
vn -0.0 -0.8854563236236572 -0.46472248435020447
vn 0.7071072459220886 -0.6865591406822205 -0.16922122240066528
vn -0.0 -0.9709419012069702 -0.23931509256362915
vn 0.7071070075035095 -0.7071065306663513 0.0
vn -0.0 -1.0 0.0
vn -0.7045149803161621 0.7045146226882935 0.08554362505674362
vn -0.70710688829422 0.7071066498756409 0.0
vn -0.0 1.0 0.0
vn -0.0 0.9927088022232056 0.12053676694631577
vn -0.0 0.9709419012069702 -0.239315465092659
vn -0.7071067690849304 0.6865596175193787 -0.16922153532505035
vn -0.0 0.8854560852050781 -0.46472302079200745
vn -0.7071069478988647 0.6261118650436401 -0.3286086916923523
vn -0.0 0.7485107183456421 -0.6631227135658264
vn -0.70710688829422 0.5292768478393555 -0.4688984751701355
vn -0.0 0.5680647492408752 -0.822983980178833
vn -0.7071067690849304 0.4016823172569275 -0.5819374918937683
vn -0.0 0.35460472106933594 -0.9350162744522095
vn -0.7071070075035095 0.2507433295249939 -0.6611561179161072
vn -0.0 0.12053637206554413 -0.9927089214324951
vn -0.7071070671081543 0.08523204177618027 -0.7019508481025696
vn -0.0 -0.12053708732128143 -0.9927088022232056
vn -0.7071070671081543 -0.08523253351449966 -0.7019507884979248
vn -0.0 -0.35460522770881653 -0.9350160956382751
vn -0.7071069478988647 -0.25074365735054016 -0.6611559987068176
vn -0.0 -0.5680652260780334 -0.8229835629463196
vn -0.70710688829422 -0.40168261528015137 -0.5819371938705444
vn -0.0 -0.7485112547874451 -0.6631221175193787
vn -0.7071070075035095 -0.5292771458625793 -0.46889790892601013
vn -0.0 -0.8854563236236572 -0.46472248435020447
vn -0.7071071267127991 -0.6261118650436401 -0.3286081850528717
vn -0.0 -0.9709419012069702 -0.23931509256362915
vn -0.7071071863174438 -0.6865592002868652 -0.16922123730182648
vn -0.0 -1.0 0.0
vn -0.7071069478988647 -0.7071065902709961 0.0
vt 0.07427465915679932 0.49190032482147217
vt 0.008989393711090088 0.49190032482147217
vt 0.008989393711090088 0.006400763988494873
vt 0.07427465915679932 0.006400763988494873
vt 0.07427459955215454 0.9872625637799501
vt 0.008989334106445312 0.9872625581920147
vt 0.008989393711090088 0.5017629563808441
vt 0.07427465915679932 0.5017629861831665
vt 0.9870457053184509 0.49190038442611694
vt 0.9217603206634521 0.49190038442611694
vt 0.9217603802680969 0.0064008235931396484
vt 0.9870457053184509 0.0064008235931396484
vt 0.8564749360084534 0.0064008235931396484
vt 0.8564748764038086 0.49190038442611694
vt 0.7911896109580994 0.0064008235931396484
vt 0.7911896109580994 0.49190038442611694
vt 0.7259041666984558 0.0064008235931396484
vt 0.725904107093811 0.49190038442611694
vt 0.6606189012527466 0.0064008235931396484
vt 0.6606188416481018 0.49190038442611694
vt 0.595333456993103 0.006400763988494873
vt 0.5953333377838135 0.49190032482147217
vt 0.5300480723381042 0.006400763988494873
vt 0.5300480127334595 0.49190032482147217
vt 0.46476268768310547 0.006400763988494873
vt 0.46476268768310547 0.49190032482147217
vt 0.39947736263275146 0.006400763988494873
vt 0.39947736263275146 0.49190032482147217
vt 0.33419185876846313 0.006400763988494873
vt 0.33419185876846313 0.49190032482147217
vt 0.2689065933227539 0.006400763988494873
vt 0.2689065933227539 0.49190032482147217
vt 0.20362114906311035 0.006400763988494873
vt 0.20362114906311035 0.49190032482147217
vt 0.13833588361740112 0.006400763988494873
vt 0.13833588361740112 0.49190032482147217
vt 0.07305037975311279 0.006400763988494873
vt 0.07305037975311279 0.49190032482147217
vt 0.9870456457138062 0.9872626326978207
vt 0.9217602610588074 0.9872626271098852
vt 0.9217603206634521 0.5017630457878113
vt 0.9870457053184509 0.5017630457878113
vt 0.8564748764038086 0.5017630457878113
vt 0.8564748764038086 0.9872626233845949
vt 0.7911895513534546 0.5017630159854889
vt 0.7911895513534546 0.9872626177966595
vt 0.725904107093811 0.5017630159854889
vt 0.725904107093811 0.987262612208724
vt 0.6606188416481018 0.5017630159854889
vt 0.660618782043457 0.9872626084834337
vt 0.5953333377838135 0.5017630159854889
vt 0.5953333377838135 0.9872626028954983
vt 0.5300480127334595 0.5017630159854889
vt 0.5300480127334595 0.9872625982388854
vt 0.46476268768310547 0.5017630159854889
vt 0.4647626280784607 0.9872625935822725
vt 0.39947736263275146 0.5017629861831665
vt 0.3994773030281067 0.9872625879943371
vt 0.33419185876846313 0.5017629861831665
vt 0.33419179916381836 0.9872625833377242
vt 0.2689065933227539 0.5017629861831665
vt 0.26890653371810913 0.9872625786811113
vt 0.20362114906311035 0.5017629861831665
vt 0.20362108945846558 0.9872625730931759
vt 0.13833588361740112 0.5017629861831665
vt 0.13833582401275635 0.987262568436563
vt 0.07305037975311279 0.5017629861831665
vt 0.07305032014846802 0.9872625637799501

g Torus001
s 1
usemtl Torus001
f 3/3/3 2/2/2 1/1/1 
f 4/4/4 3/3/3 1/1/1 
f 7/7/7 6/6/6 5/5/5 
f 8/8/8 7/7/7 5/5/5 
f 11/11/11 10/10/10 9/9/9 
f 12/12/12 11/11/11 9/9/9 
f 11/11/11 13/13/13 10/10/10 
f 13/13/13 14/14/14 10/10/10 
f 13/13/13 15/15/15 14/14/14 
f 15/15/15 16/16/16 14/14/14 
f 15/15/15 17/17/17 16/16/16 
f 17/17/17 18/18/18 16/16/16 
f 17/17/17 19/19/19 18/18/18 
f 19/19/19 20/20/20 18/18/18 
f 19/19/19 21/21/21 20/20/20 
f 21/21/21 22/22/22 20/20/20 
f 21/21/21 23/23/23 22/22/22 
f 23/23/23 24/24/24 22/22/22 
f 23/23/23 25/25/25 24/24/24 
f 25/25/25 26/26/26 24/24/24 
f 25/25/25 27/27/27 26/26/26 
f 27/27/27 28/28/28 26/26/26 
f 27/27/27 29/29/29 28/28/28 
f 29/29/29 30/30/30 28/28/28 
f 29/29/29 31/31/31 30/30/30 
f 31/31/31 32/32/32 30/30/30 
f 31/31/31 33/33/33 32/32/32 
f 33/33/33 34/34/34 32/32/32 
f 33/33/33 35/35/35 34/34/34 
f 35/35/35 36/36/36 34/34/34 
f 35/35/35 37/37/37 36/36/36 
f 37/37/37 38/38/38 36/36/36 
f 41/41/41 40/40/40 39/39/39 
f 42/42/42 41/41/41 39/39/39 
f 41/41/41 43/43/43 40/40/40 
f 43/43/43 44/44/44 40/40/40 
f 43/43/43 45/45/45 44/44/44 
f 45/45/45 46/46/46 44/44/44 
f 45/45/45 47/47/47 46/46/46 
f 47/47/47 48/48/48 46/46/46 
f 47/47/47 49/49/49 48/48/48 
f 49/49/49 50/50/50 48/48/48 
f 49/49/49 51/51/51 50/50/50 
f 51/51/51 52/52/52 50/50/50 
f 51/51/51 53/53/53 52/52/52 
f 53/53/53 54/54/54 52/52/52 
f 53/53/53 55/55/55 54/54/54 
f 55/55/55 56/56/56 54/54/54 
f 55/55/55 57/57/57 56/56/56 
f 57/57/57 58/58/58 56/56/56 
f 57/57/57 59/59/59 58/58/58 
f 59/59/59 60/60/60 58/58/58 
f 59/59/59 61/61/61 60/60/60 
f 61/61/61 62/62/62 60/60/60 
f 61/61/61 63/63/63 62/62/62 
f 63/63/63 64/64/64 62/62/62 
f 63/63/63 65/65/65 64/64/64 
f 65/65/65 66/66/66 64/64/64 
f 65/65/65 67/67/67 66/66/66 
f 67/67/67 68/68/68 66/66/66 

