[
	{
		"ID": 1
	},
	{
		"ID": 2
	},
	{
		"ID": 3
	},
	{
		"ID": 4
	},
	{
		"ID": 5
	},
	{
		"ID": 6
	},
	{
		"ID": 7
	},
	{
		"ID": 8
	},
	{
		"ID": 9
	},
	{
		"ID": 10
	},
	{
		"ID": 11
	},
	{
		"ID": 12
	},
	{
		"ID": 13
	},
	{
		"ID": 14
	},
	{
		"ID": 20
	},
	{
		"ID": 21
	},
	{
		"ID": 22
	},
	{
		"ID": 23
	},
	{
		"ID": 31
	},
	{
		"ID": 32
	},
	{
		"ID": 33
	},
	{
		"ID": 41
	},
	{
		"ID": 42
	},
	{
		"ID": 43
	},
	{
		"ID": 51
	},
	{
		"ID": 52
	},
	{
		"ID": 53
	},
	{
		"ID": 61
	},
	{
		"ID": 62
	},
	{
		"ID": 63
	},
	{
		"ID": 71
	},
	{
		"ID": 72
	},
	{
		"ID": 73
	},
	{
		"ID": 81
	},
	{
		"ID": 82
	},
	{
		"ID": 83
	},
	{
		"ID": 85
	},
	{
		"ID": 91
	},
	{
		"ID": 92
	},
	{
		"ID": 93
	},
	{
		"ID": 95
	},
	{
		"ID": 101
	},
	{
		"ID": 102
	},
	{
		"ID": 103
	},
	{
		"ID": 111
	},
	{
		"ID": 112
	},
	{
		"ID": 113
	},
	{
		"ID": 114
	},
	{
		"ID": 121
	},
	{
		"ID": 122
	},
	{
		"ID": 123
	},
	{
		"ID": 124
	},
	{
		"ID": 131
	},
	{
		"ID": 132
	},
	{
		"ID": 133
	},
	{
		"ID": 141
	},
	{
		"ID": 142
	},
	{
		"ID": 143
	},
	{
		"ID": 144
	},
	{
		"ID": 151
	},
	{
		"ID": 152
	},
	{
		"ID": 153
	},
	{
		"ID": 154
	},
	{
		"ID": 161
	},
	{
		"ID": 162
	},
	{
		"ID": 163
	},
	{
		"ID": 171
	},
	{
		"ID": 172
	},
	{
		"ID": 173
	},
	{
		"ID": 174
	},
	{
		"ID": 181
	},
	{
		"ID": 182
	},
	{
		"ID": 183
	},
	{
		"ID": 184
	},
	{
		"ID": 191
	},
	{
		"ID": 192
	},
	{
		"ID": 193
	},
	{
		"ID": 201
	},
	{
		"ID": 202
	},
	{
		"ID": 203
	},
	{
		"ID": 211
	},
	{
		"ID": 212
	},
	{
		"ID": 213
	},
	{
		"ID": 221
	},
	{
		"ID": 222
	},
	{
		"ID": 223
	},
	{
		"ID": 224
	},
	{
		"ID": 231
	},
	{
		"ID": 232
	},
	{
		"ID": 233
	},
	{
		"ID": 234
	}
]