[
	{
		"ID": 1,
		"Value": 2000,
		"StringValue": "",
		"iname": "Battle_StartDelay"
	},
	{
		"ID": 2,
		"Value": 500,
		"StringValue": "",
		"iname": "Battle_StopDelay"
	},
	{
		"ID": 3,
		"Value": 1800,
		"StringValue": "",
		"iname": "Battle_NextTurnTime"
	},
	{
		"ID": 4,
		"Value": 2100,
		"StringValue": "",
		"iname": "Battle_NextTeamTime"
	},
	{
		"ID": 5,
		"Value": 1800,
		"StringValue": "",
		"iname": "Battle_NextPlayerTime"
	},
	{
		"ID": 6,
		"Value": 200,
		"StringValue": "",
		"iname": "Combat_StartDelay"
	},
	{
		"ID": 7,
		"Value": 0,
		"StringValue": "",
		"iname": "Combat_StopDelay"
	},
	{
		"ID": 8,
		"Value": 580,
		"StringValue": "",
		"iname": "Combat_HeroDistance"
	},
	{
		"ID": 9,
		"Value": 400,
		"StringValue": "",
		"iname": "Combat_SplitScreenDistance"
	},
	{
		"ID": 10,
		"Value": 25,
		"StringValue": "",
		"iname": "Battle_ActorMoveSpeed"
	},
	{
		"ID": 11,
		"Value": 30,
		"StringValue": "",
		"iname": "Battle_CameraMoveSpeed"
	},
	{
		"ID": 12,
		"Value": 650,
		"StringValue": "",
		"iname": "Battle_CameraSize"
	},
	{
		"ID": 13,
		"Value": 650,
		"StringValue": "",
		"iname": "Battle_CameraSizeMin"
	},
	{
		"ID": 14,
		"Value": 800,
		"StringValue": "",
		"iname": "Battle_CameraSizeMax"
	},
	{
		"ID": 15,
		"Value": 450,
		"StringValue": "",
		"iname": "World_CameraHeight"
	},
	{
		"ID": 16,
		"Value": 370,
		"StringValue": "",
		"iname": "World_CameraHeightMin"
	},
	{
		"ID": 17,
		"Value": 850,
		"StringValue": "",
		"iname": "World_CameraHeightMax"
	},
	{
		"ID": 18,
		"Value": 1,
		"StringValue": "",
		"iname": "IsSoundOn"
	},
	{
		"ID": 19,
		"Value": 1,
		"StringValue": "",
		"iname": "IsMusicOn"
	},
	{
		"ID": 20,
		"Value": 10,
		"StringValue": "",
		"iname": "Battle_SoldierCountMax"
	},
	{
		"ID": 21,
		"Value": 500,
		"StringValue": "",
		"iname": "Combat_SoldierMoveDelay"
	},
	{
		"ID": 22,
		"Value": 700,
		"StringValue": "",
		"iname": "Combat_SoldierReturnDelay"
	},
	{
		"ID": 23,
		"Value": 100,
		"StringValue": "",
		"iname": "Combat_TimeScale"
	},
	{
		"ID": 24,
		"Value": 70,
		"StringValue": "",
		"iname": "Battle_MeleeATKPunish_Mult"
	},
	{
		"ID": 25,
		"Value": 20,
		"StringValue": "",
		"iname": "Combat_HeroDieToPauseTime"
	},
	{
		"ID": 26,
		"Value": 0,
		"StringValue": "",
		"iname": "Combat_HeroDiePauseTime"
	},
	{
		"ID": 27,
		"Value": 300,
		"StringValue": "",
		"iname": "Combat_HeroDieSlowMotionTime"
	},
	{
		"ID": 28,
		"Value": 800,
		"StringValue": "",
		"iname": "Combat_HeroDieNormalMotionTime"
	},
	{
		"ID": 29,
		"Value": 5,
		"StringValue": "",
		"iname": "Combat_HeroDieSlowMotionSpeed"
	},
	{
		"ID": 30,
		"Value": 500,
		"StringValue": "",
		"iname": "Combat_HitFlashTime"
	},
	{
		"ID": 31,
		"Value": 20,
		"StringValue": "",
		"iname": "Combat_HitFlashIntensity"
	},
	{
		"ID": 32,
		"Value": 1,
		"StringValue": "",
		"iname": "Combat_HitFlashRepeat"
	},
	{
		"ID": 33,
		"Value": 5,
		"StringValue": "",
		"iname": "Combat_ChargeGhostCount"
	},
	{
		"ID": 34,
		"Value": 80,
		"StringValue": "",
		"iname": "Combat_ChargeGhostDistance"
	},
	{
		"ID": 35,
		"Value": 5,
		"StringValue": "",
		"iname": "Combat_ChargeGhostFadeOut"
	},
	{
		"ID": 36,
		"Value": 500,
		"StringValue": "",
		"iname": "Battle_SkillPauseTime"
	},
	{
		"ID": 37,
		"Value": 300,
		"StringValue": "",
		"iname": "Battle_SkillPreCastDelay"
	},
	{
		"ID": 38,
		"Value": 1500,
		"StringValue": "",
		"iname": "Battle_DamagePostDelay"
	},
	{
		"ID": 39,
		"Value": 800,
		"StringValue": "",
		"iname": "Battle_BuffHitPostDelay"
	},
	{
		"ID": 40,
		"Value": 100,
		"StringValue": "",
		"iname": "Combat_HPBarFxAccumulateTime"
	},
	{
		"ID": 41,
		"Value": 10,
		"StringValue": "",
		"iname": "Combat_HPBarFxAccumulateDamage"
	},
	{
		"ID": 42,
		"Value": 10,
		"StringValue": "",
		"iname": "RageEndTurn_INI"
	},
	{
		"ID": 43,
		"Value": 10,
		"StringValue": "",
		"iname": "RageBeAttack_INI"
	},
	{
		"ID": 44,
		"Value": 10,
		"StringValue": "",
		"iname": "RageKill_INI"
	},
	{
		"ID": 45,
		"Value": 0,
		"StringValue": "",
		"iname": "FlushTime"
	},
	{
		"ID": 46,
		"Value": 1,
		"StringValue": "",
		"iname": "FlushPeriodDay"
	},
	{
		"ID": 47,
		"Value": 32400,
		"StringValue": "",
		"iname": "TimeEventStartTime"
	},
	{
		"ID": 48,
		"Value": 75600,
		"StringValue": "",
		"iname": "TimeEventEndTime"
	},
	{
		"ID": 49,
		"Value": 5,
		"StringValue": "",
		"iname": "TimeEventMinCount"
	},
	{
		"ID": 50,
		"Value": 5,
		"StringValue": "",
		"iname": "TimeEventMaxCount"
	},
	{
		"ID": 51,
		"Value": 3000,
		"StringValue": "",
		"iname": "RiftLevelActionEventProbality"
	},
	{
		"ID": 52,
		"Value": 4000,
		"StringValue": "",
		"iname": "ScenarioActionEventProbality"
	},
	{
		"ID": 53,
		"Value": 3000,
		"StringValue": "",
		"iname": "EventActionEventProbality"
	},
	{
		"ID": 54,
		"Value": 10000,
		"StringValue": "",
		"iname": "ProbalityMax"
	},
	{
		"ID": 55,
		"Value": 2,
		"StringValue": "",
		"iname": "ActionEventMaxCount"
	},
	{
		"ID": 56,
		"Value": 7,
		"StringValue": "",
		"iname": "MapRandomEventMaxCount"
	},
	{
		"ID": 57,
		"Value": 300,
		"StringValue": "",
		"iname": "EnergyAddPeriod"
	},
	{
		"ID": 58,
		"Value": 120,
		"StringValue": "",
		"iname": "EnergyMax"
	},
	{
		"ID": 59,
		"Value": 120,
		"StringValue": "",
		"iname": "BuyEnergyCount"
	},
	{
		"ID": 60,
		"Value": 5000,
		"StringValue": "",
		"iname": "BagMaxCapacity"
	},
	{
		"ID": 61,
		"Value": 5,
		"StringValue": "",
		"iname": "HeroJobRankMax"
	},
	{
		"ID": 62,
		"Value": 1,
		"StringValue": "",
		"iname": "HeroLevelUpCeiling"
	},
	{
		"ID": 63,
		"Value": 3,
		"StringValue": "",
		"iname": "SelectSkillsMaxCount"
	},
	{
		"ID": 64,
		"Value": 999999,
		"StringValue": "",
		"iname": "BagGridMaxCapacity"
	},
	{
		"ID": 65,
		"Value": 6,
		"StringValue": "",
		"iname": "HeroStarLevelMax"
	},
	{
		"ID": 66,
		"Value": 3,
		"StringValue": "",
		"iname": "RiftLevelMaxStar"
	},
	{
		"ID": 67,
		"Value": 0,
		"StringValue": "",
		"iname": "JobStartLevel"
	},
	{
		"ID": 68,
		"Value": 1,
		"StringValue": "",
		"iname": "FirstScenarioId"
	},
	{
		"ID": 69,
		"Value": 1,
		"StringValue": "",
		"iname": "FirstWayPointId"
	},
	{
		"ID": 70,
		"Value": 100,
		"StringValue": "",
		"iname": "MailBoxMaxSize"
	},
	{
		"ID": 71,
		"Value": 1,
		"StringValue": "",
		"iname": "FirstInitId"
	},
	{
		"ID": 72,
		"Value": 8,
		"StringValue": "",
		"iname": "UnLockRandomEventPlayerLevel"
	},
	{
		"ID": 73,
		"Value": 10,
		"StringValue": "",
		"iname": "UnLockRandomEventSecnarioId"
	},
	{
		"ID": 74,
		"Value": 150,
		"StringValue": "",
		"iname": "ChatMessageMaxLength"
	},
	{
		"ID": 75,
		"Value": 20,
		"StringValue": "",
		"iname": "WorldChatIntervalTime"
	},
	{
		"ID": 76,
		"Value": 5,
		"StringValue": "",
		"iname": "AllowChatPlayerLevel"
	},
	{
		"ID": 77,
		"Value": 1,
		"StringValue": "",
		"iname": "SystemSelectCardHeroBroadcast"
	},
	{
		"ID": 78,
		"Value": 3009,
		"StringValue": "",
		"iname": "MagicStoneId"
	},
	{
		"ID": 79,
		"Value": 100,
		"StringValue": "",
		"iname": "HeroCommentMaxLength"
	},
	{
		"ID": 80,
		"Value": 50,
		"StringValue": "",
		"iname": "HeroCommentMaxNums"
	},
	{
		"ID": 81,
		"Value": 3,
		"StringValue": "",
		"iname": "PlayerSingleHeroCommentMaxNums"
	},
	{
		"ID": 82,
		"Value": 10,
		"StringValue": "",
		"iname": "MaxPopularCommentEntry"
	},
	{
		"ID": 83,
		"Value": 20,
		"StringValue": "",
		"iname": "AllowArenaPlayerLevel"
	},
	{
		"ID": 84,
		"Value": 5,
		"StringValue": "",
		"iname": "ArenaGivenTicketMaxNums"
	},
	{
		"ID": 85,
		"Value": 10,
		"StringValue": "",
		"iname": "ArenaFindOpponentExpandPecent"
	},
	{
		"ID": 86,
		"Value": 1100,
		"StringValue": "",
		"iname": "ArenaDowngradeMinAttackVictoriesNums"
	},
	{
		"ID": 87,
		"Value": 4008,
		"StringValue": "",
		"iname": "LevelRaidTicketID"
	},
	{
		"ID": 88,
		"Value": 3600,
		"StringValue": "",
		"iname": "ArenaFightExpiredTimeInterval"
	},
	{
		"ID": 89,
		"Value": 1,
		"StringValue": "",
		"iname": "ProtagonistHeroID"
	},
	{
		"ID": 90,
		"Value": 16,
		"StringValue": "",
		"iname": "PlayerNameMaxLength"
	},
	{
		"ID": 91,
		"Value": 100,
		"StringValue": "",
		"iname": "ArenaTopRankPlayerNums"
	},
	{
		"ID": 92,
		"Value": 10,
		"StringValue": "",
		"iname": "ArenaBattleReportMaxNums"
	},
	{
		"ID": 93,
		"Value": 100,
		"StringValue": "",
		"iname": "ArenaSelectGuardDeltaPoints"
	},
	{
		"ID": 94,
		"Value": 25,
		"StringValue": "",
		"iname": "ArenaChallengeGuardWinPoints"
	},
	{
		"ID": 95,
		"Value": 25,
		"StringValue": "",
		"iname": "ArenaChallengeGuardLosePoints"
	},
	{
		"ID": 96,
		"Value": 5,
		"StringValue": "",
		"iname": "ArenaOneTimeGiveTicketsNums"
	},
	{
		"ID": 97,
		"Value": 1000,
		"StringValue": "",
		"iname": "ArenaInitialPoints"
	},
	{
		"ID": 98,
		"Value": 1,
		"StringValue": "",
		"iname": "ArenaOneTimeAttackUseTicketsNums"
	},
	{
		"ID": 99,
		"Value": 1,
		"StringValue": "",
		"iname": "ArenaAttackSuccessRandomDropRewardID"
	},
	{
		"ID": 100,
		"Value": 1800,
		"StringValue": "",
		"iname": "ArenaRealWeekSettleDeltaTime"
	},
	{
		"ID": 101,
		"Value": 1000,
		"StringValue": "",
		"iname": "ArenaFindOpponentOneDirectionMaxOpponentNums"
	},
	{
		"ID": 102,
		"Value": 50,
		"StringValue": "",
		"iname": "ChangeNameCostNums"
	},
	{
		"ID": 103,
		"Value": 5,
		"StringValue": "",
		"iname": "PlayerInitialHeroInteractNums"
	},
	{
		"ID": 104,
		"Value": 1800,
		"StringValue": "",
		"iname": "HeroInteractNumsRecoveryPeriod"
	},
	{
		"ID": 105,
		"Value": 5,
		"StringValue": "",
		"iname": "HeroIteractMaxNums"
	},
	{
		"ID": 106,
		"Value": 100,
		"StringValue": "",
		"iname": "HeroIntimateMaxValue"
	},
	{
		"ID": 107,
		"Value": 20,
		"StringValue": "",
		"iname": "EnhanceEquipmentConsumeGoldPerExp"
	},
	{
		"ID": 108,
		"Value": 1000,
		"StringValue": "",
		"iname": "LevelUpEquipmentStarConsumeGoldPerStar"
	},
	{
		"ID": 109,
		"Value": 5,
		"StringValue": "",
		"iname": "BuyArenaTicketCount"
	},
	{
		"ID": 110,
		"Value": 500,
		"StringValue": "",
		"iname": "ArenaPointsParameter"
	},
	{
		"ID": 111,
		"Value": 3,
		"StringValue": "",
		"iname": "HeroDungeonLevelMaxStar"
	},
	{
		"ID": 112,
		"Value": 50,
		"StringValue": "",
		"iname": "ArenaAddHeroExp"
	},
	{
		"ID": 113,
		"Value": 0,
		"StringValue": "",
		"iname": "ArenaAddPlayerExp"
	},
	{
		"ID": 114,
		"Value": 300,
		"StringValue": "",
		"iname": "OpenUILoadingFadeoutTime"
	},
	{
		"ID": 115,
		"Value": 300,
		"StringValue": "",
		"iname": "OpenUILoadingFadeinTime"
	},
	{
		"ID": 116,
		"Value": 2,
		"StringValue": "",
		"iname": "SystemSelectCardEquipmentBroadcast"
	},
	{
		"ID": 117,
		"Value": 3,
		"StringValue": "",
		"iname": "GoldRank"
	},
	{
		"ID": 118,
		"Value": 3,
		"StringValue": "",
		"iname": "CrystalRank"
	},
	{
		"ID": 119,
		"Value": 3,
		"StringValue": "",
		"iname": "ArenaHonourRank"
	},
	{
		"ID": 120,
		"Value": 16,
		"StringValue": "",
		"iname": "UserGuideSelectCardGotHeroId"
	},
	{
		"ID": 121,
		"Value": 3,
		"StringValue": "",
		"iname": "EnergyRank"
	},
	{
		"ID": 122,
		"Value": 8,
		"StringValue": "",
		"iname": "PlayerTeleportDistance"
	},
	{
		"ID": 123,
		"Value": 3,
		"StringValue": "",
		"iname": "PlayerExpRank"
	},
	{
		"ID": 124,
		"Value": 1023,
		"StringValue": "",
		"iname": "UserGuideRandomEventId"
	},
	{
		"ID": 125,
		"Value": 100,
		"StringValue": "",
		"iname": "FirstBattleID"
	},
	{
		"ID": 126,
		"Value": 1,
		"StringValue": "",
		"iname": "IsVoiceOn"
	},
	{
		"ID": 127,
		"Value": 3,
		"StringValue": "",
		"iname": "ArenaTicketRank"
	},
	{
		"ID": 128,
		"Value": 2,
		"StringValue": "",
		"iname": "ArenaDowngradeMinLevelId"
	},
	{
		"ID": 129,
		"Value": 1,
		"StringValue": "",
		"iname": "ArenaGuardMinLevelId"
	},
	{
		"ID": 130,
		"Value": 6,
		"StringValue": "",
		"iname": "WriteSurveyPlayerLevel"
	},
	{
		"ID": 131,
		"Value": 1,
		"StringValue": "",
		"iname": "AutoEquipmentDeltaTime"
	},
	{
		"ID": 132,
		"Value": 30,
		"StringValue": "",
		"iname": "MaxLevelDanmakuEntryLength"
	},
	{
		"ID": 133,
		"Value": 20,
		"StringValue": "",
		"iname": "MaxLevelDanmakuEntryNumsPerTurn"
	},
	{
		"ID": 134,
		"Value": 1,
		"StringValue": "",
		"iname": "DanmakuIntervalTime"
	},
	{
		"ID": 135,
		"Value": 9,
		"StringValue": "",
		"iname": "DanmakuMoveSpeedMax"
	},
	{
		"ID": 136,
		"Value": 7,
		"StringValue": "",
		"iname": "DanmakuMoveSpeedMin"
	},
	{
		"ID": 137,
		"Value": 4,
		"StringValue": "",
		"iname": "GuaranteedAccumulatedValueResetHeroRank"
	},
	{
		"ID": 138,
		"Value": 1,
		"StringValue": "",
		"iname": "ArenaDefenderBehaviorID"
	},
	{
		"ID": 139,
		"Value": -1,
		"StringValue": "",
		"iname": "ArenaDefenderGroupBehaviorID"
	},
	{
		"ID": 140,
		"Value": 1,
		"StringValue": "",
		"iname": "MovePixelToSliderRatio"
	},
	{
		"ID": 141,
		"Value": 120,
		"StringValue": "",
		"iname": "PublicTeamRoomLeaderKickOutDeltaTime"
	},
	{
		"ID": 142,
		"Value": 300,
		"StringValue": "",
		"iname": "NonPublicTeamRoomLeaderKickOutDeltaTime"
	},
	{
		"ID": 143,
		"Value": 20,
		"StringValue": "",
		"iname": "ViewTeamRoomMaxNums"
	},
	{
		"ID": 144,
		"Value": 10,
		"StringValue": "",
		"iname": "GlobalRankingListOpenPlayerLevel"
	},
	{
		"ID": 145,
		"Value": 11,
		"StringValue": "",
		"iname": "HeroRankingListOpenHeroLevel"
	},
	{
		"ID": 146,
		"Value": 3,
		"StringValue": "",
		"iname": "TeamRoomInviteDeltaTime"
	},
	{
		"ID": 147,
		"Value": 100,
		"StringValue": "",
		"iname": "BusinessCardDescMaxLength"
	},
	{
		"ID": 148,
		"Value": 5,
		"StringValue": "",
		"iname": "BusinessCardHeroMaxNums"
	},
	{
		"ID": 149,
		"Value": 5,
		"StringValue": "",
		"iname": "SendFriendShipPointsEverytime"
	},
	{
		"ID": 150,
		"Value": 80,
		"StringValue": "",
		"iname": "SendFriendShipPointsMaxTimes"
	},
	{
		"ID": 151,
		"Value": 60,
		"StringValue": "",
		"iname": "ReceiveFriendShipPointsMaxTimes"
	},
	{
		"ID": 152,
		"Value": 20,
		"StringValue": "",
		"iname": "PixelIntervalForVoice"
	},
	{
		"ID": 153,
		"Value": 50,
		"StringValue": "",
		"iname": "SearchUserByNameResultMax"
	},
	{
		"ID": 154,
		"Value": 60,
		"StringValue": "",
		"iname": "MaxDomesticFriends"
	},
	{
		"ID": 155,
		"Value": 60,
		"StringValue": "",
		"iname": "MaxForeignFriends"
	},
	{
		"ID": 156,
		"Value": 50,
		"StringValue": "",
		"iname": "MaxBlacklist"
	},
	{
		"ID": 157,
		"Value": 30,
		"StringValue": "",
		"iname": "MaxInvites"
	},
	{
		"ID": 158,
		"Value": 4,
		"StringValue": "",
		"iname": "MaxSuggestedUsers"
	},
	{
		"ID": 159,
		"Value": 5,
		"StringValue": "",
		"iname": "SuggestedUserLevelDiff"
	},
	{
		"ID": 160,
		"Value": 5,
		"StringValue": "",
		"iname": "MaxLevelDiffMultiply"
	},
	{
		"ID": 161,
		"Value": 86400,
		"StringValue": "",
		"iname": "InviteExpireSeconds"
	},
	{
		"ID": 162,
		"Value": 10,
		"StringValue": "",
		"iname": "RecentContactsMaxCount"
	},
	{
		"ID": 163,
		"Value": 3,
		"StringValue": "",
		"iname": "HeroAssistantTaskHeroAssignMaxCount"
	},
	{
		"ID": 164,
		"Value": 60,
		"StringValue": "",
		"iname": "BattleRoomReadyTimeOutTime"
	},
	{
		"ID": 165,
		"Value": 20,
		"StringValue": "",
		"iname": "MaxGroupsPerUser"
	},
	{
		"ID": 166,
		"Value": 30,
		"StringValue": "",
		"iname": "MaxGroupMembers"
	},
	{
		"ID": 167,
		"Value": 120,
		"StringValue": "",
		"iname": "BattleInviteFriendsToPracticeMaxWaitInterval"
	},
	{
		"ID": 168,
		"Value": 100,
		"StringValue": "",
		"iname": "DecomposeEquipmentBackGoldPercent"
	},
	{
		"ID": 169,
		"Value": 2,
		"StringValue": "",
		"iname": "DayBonusNum_Aniki"
	},
	{
		"ID": 170,
		"Value": 1,
		"StringValue": "",
		"iname": "DayBonusNum_ThearchyTrial"
	},
	{
		"ID": 171,
		"Value": 2,
		"StringValue": "",
		"iname": "DayBonusNum_HeroTrain"
	},
	{
		"ID": 172,
		"Value": 1,
		"StringValue": "",
		"iname": "DayBonusNum_MemoryCorridor"
	},
	{
		"ID": 173,
		"Value": 2,
		"StringValue": "",
		"iname": "DayBonusNum_Crusade"
	},
	{
		"ID": 174,
		"Value": 99,
		"StringValue": "",
		"iname": "AlchemyMaxNum"
	},
	{
		"ID": 175,
		"Value": 5,
		"StringValue": "",
		"iname": "FriendPointsFightWithFriends"
	},
	{
		"ID": 176,
		"Value": 100,
		"StringValue": "",
		"iname": "MaxFriendPointsFightWithFriendsEveryday"
	},
	{
		"ID": 177,
		"Value": 120,
		"StringValue": "",
		"iname": "BattleRoomPlayerReconnectTimeOutTime"
	},
	{
		"ID": 178,
		"Value": 90,
		"StringValue": "",
		"iname": "TeamBattleRoomPlayerActionClientTimeOutTime"
	},
	{
		"ID": 179,
		"Value": 60,
		"StringValue": "",
		"iname": "PVPBattleRoomPlayerActionClientTimeOutTime"
	},
	{
		"ID": 180,
		"Value": 10000,
		"StringValue": "",
		"iname": "TeamBattleRoomPlayerActionServerTimeOutTime"
	},
	{
		"ID": 181,
		"Value": 600,
		"StringValue": "",
		"iname": "PVPBattleRoomPlayerActionServerTimeOutTime"
	},
	{
		"ID": 182,
		"Value": 5000,
		"StringValue": "",
		"iname": "ChatVoiceToTextTimeOutTime"
	},
	{
		"ID": 183,
		"Value": 5,
		"StringValue": "",
		"iname": "TeamFriendShipPointRewardPerFriend"
	},
	{
		"ID": 184,
		"Value": 1,
		"StringValue": "",
		"iname": "MaxEnchantSamePropertyNums"
	},
	{
		"ID": 185,
		"Value": 7,
		"StringValue": "",
		"iname": "ChatHistoryRecordStoreTimeLimit"
	},
	{
		"ID": 186,
		"Value": 10,
		"StringValue": "",
		"iname": "ChatHistoryRecordStoreMessageLengthLimit"
	},
	{
		"ID": 187,
		"Value": 5,
		"StringValue": "",
		"iname": "ChatHistoryRecordSaveMessageLengthOnClear"
	},
	{
		"ID": 188,
		"Value": 10,
		"StringValue": "",
		"iname": "ChatPrivateChatRecentLinkPlayerCountLimit"
	},
	{
		"ID": 189,
		"Value": 10,
		"StringValue": "",
		"iname": "ChatPrivateChatRecentLinkGroupCountLimit"
	},
	{
		"ID": 190,
		"Value": 120,
		"StringValue": "",
		"iname": "TeamInvitationTimeoutTime"
	},
	{
		"ID": 191,
		"Value": 10,
		"StringValue": "",
		"iname": "RecentContactsChatMaxCount"
	},
	{
		"ID": 192,
		"Value": 10,
		"StringValue": "",
		"iname": "RecentContactsTeamBattleMaxCount"
	},
	{
		"ID": 193,
		"Value": 2,
		"StringValue": "",
		"iname": "DayBonusNum_CooperateBattle"
	},
	{
		"ID": 194,
		"Value": 3,
		"StringValue": "",
		"iname": "HeroAssistantTaskSlotCount"
	},
	{
		"ID": 195,
		"Value": 16,
		"StringValue": "",
		"iname": "ChatGroupNameMaxLength"
	},
	{
		"ID": 196,
		"Value": 23,
		"StringValue": "",
		"iname": "FirstBattleUserGuideID"
	},
	{
		"ID": 197,
		"Value": 5000,
		"StringValue": "",
		"iname": "TeamChatBubbleStayTime"
	},
	{
		"ID": 198,
		"Value": 3,
		"StringValue": "",
		"iname": "ChatGroupCreateMinUserCount"
	},
	{
		"ID": 199,
		"Value": 2,
		"StringValue": "",
		"iname": "ChatGroupDisbandUserCount"
	},
	{
		"ID": 200,
		"Value": 5,
		"StringValue": "",
		"iname": "OpenServiceActivityUnlockLevel"
	},
	{
		"ID": 201,
		"Value": 10,
		"StringValue": "",
		"iname": "UseBoxItemMaxCount"
	},
	{
		"ID": 202,
		"Value": 9,
		"StringValue": "",
		"iname": "ServerTolerateClientSpeedUpMaxNums"
	},
	{
		"ID": 203,
		"Value": 6,
		"StringValue": "",
		"iname": "ServerCheckClientHeartBeatReachMinPeriod"
	},
	{
		"ID": 204,
		"Value": 10,
		"StringValue": "",
		"iname": "ClientSendHeartBeatPeriod"
	},
	{
		"ID": 205,
		"Value": 26,
		"StringValue": "",
		"iname": "DragHeroToBattleUserGuideID"
	},
	{
		"ID": 206,
		"Value": 9,
		"StringValue": "",
		"iname": "FriendshipPointsRank"
	},
	{
		"ID": 207,
		"Value": 600,
		"StringValue": "",
		"iname": "ClientPauseReloginTimeout"
	},
	{
		"ID": 208,
		"Value": 8,
		"StringValue": "",
		"iname": "ClientLogFileExpireDays"
	},
	{
		"ID": 209,
		"Value": 500,
		"StringValue": "",
		"iname": "BuffDisplayTime"
	},
	{
		"ID": 210,
		"Value": 10,
		"StringValue": "",
		"iname": "TeamRoomInviteeLevelInfoGetTime"
	},
	{
		"ID": 211,
		"Value": 1050,
		"StringValue": "",
		"iname": "ArenaNewbiePoints"
	},
	{
		"ID": 212,
		"Value": 5,
		"StringValue": "",
		"iname": "ArenaFindingOpponentDeltaLevel"
	},
	{
		"ID": 213,
		"Value": 3600,
		"StringValue": "",
		"iname": "ArenaFlushOpponentDeltaTime"
	},
	{
		"ID": 214,
		"Value": 3,
		"StringValue": "",
		"iname": "BattleRegretCountMax"
	},
	{
		"ID": 215,
		"Value": 20000,
		"StringValue": "",
		"iname": "ChatRoomPlayerMaxNums"
	},
	{
		"ID": 216,
		"Value": 2000,
		"StringValue": "",
		"iname": "ArenaLevelMaxPoints"
	},
	{
		"ID": 217,
		"Value": 1,
		"StringValue": "",
		"iname": "DefaultHeadFrameId"
	},
	{
		"ID": 218,
		"Value": 1000,
		"StringValue": "",
		"iname": "RealTimePVPInitialScore"
	},
	{
		"ID": 219,
		"Value": 28,
		"StringValue": "",
		"iname": "RealTimePVPMinRequiredLevel"
	},
	{
		"ID": 220,
		"Value": 1,
		"StringValue": "",
		"iname": "RealTimePVPSilverHeroCount_Turn1"
	},
	{
		"ID": 221,
		"Value": 2,
		"StringValue": "",
		"iname": "RealTimePVPSilverHeroCount_Turn2"
	},
	{
		"ID": 222,
		"Value": 3,
		"StringValue": "",
		"iname": "RealTimePVPSilverHeroCount_Turn3"
	},
	{
		"ID": 223,
		"Value": 4,
		"StringValue": "",
		"iname": "RealTimePVPSilverHeroCount_Turn4"
	},
	{
		"ID": 224,
		"Value": 5,
		"StringValue": "",
		"iname": "RealTimePVPSilverHeroCount_Turn5"
	},
	{
		"ID": 225,
		"Value": 5,
		"StringValue": "",
		"iname": "RealTimePVPSilverHeroCount_Turn6"
	},
	{
		"ID": 226,
		"Value": 1,
		"StringValue": "",
		"iname": "RealTimePVPGoldHeroCount_Turn1"
	},
	{
		"ID": 227,
		"Value": 2,
		"StringValue": "",
		"iname": "RealTimePVPGoldHeroCount_Turn2"
	},
	{
		"ID": 228,
		"Value": 3,
		"StringValue": "",
		"iname": "RealTimePVPGoldHeroCount_Turn3"
	},
	{
		"ID": 229,
		"Value": 4,
		"StringValue": "",
		"iname": "RealTimePVPGoldHeroCount_Turn4"
	},
	{
		"ID": 230,
		"Value": 5,
		"StringValue": "",
		"iname": "RealTimePVPGoldHeroCount_Turn5"
	},
	{
		"ID": 231,
		"Value": 6,
		"StringValue": "",
		"iname": "RealTimePVPGoldHeroCount_Turn6"
	},
	{
		"ID": 232,
		"Value": 6,
		"StringValue": "",
		"iname": "RealTimePVPGoldHeroCount_Turn7"
	},
	{
		"ID": 233,
		"Value": 1,
		"StringValue": "",
		"iname": "RealTimePVPGoldProtectHeroCount"
	},
	{
		"ID": 234,
		"Value": 1,
		"StringValue": "",
		"iname": "RealTimePVPGoldBanHeroCount"
	},
	{
		"ID": 235,
		"Value": 60000,
		"StringValue": "",
		"iname": "RealTimePVPTurnInterval"
	},
	{
		"ID": 236,
		"Value": 30000,
		"StringValue": "",
		"iname": "RealTimePVPSilverCountdown"
	},
	{
		"ID": 237,
		"Value": 30000,
		"StringValue": "",
		"iname": "RealTimePVPGoldCountdown"
	},
	{
		"ID": 238,
		"Value": 60000,
		"StringValue": "",
		"iname": "RealTimePVPBattleStartTime"
	},
	{
		"ID": 239,
		"Value": 30000,
		"StringValue": "",
		"iname": "RealTimePVPMatchmakingExpectedTime"
	},
	{
		"ID": 240,
		"Value": 10000,
		"StringValue": "",
		"iname": "RealTimePVPMatchmakingExpectedTimeAdjust"
	},
	{
		"ID": 241,
		"Value": 100,
		"StringValue": "",
		"iname": "RealTimePVPTopRankPlayerNums"
	},
	{
		"ID": 242,
		"Value": 20,
		"StringValue": "",
		"iname": "RequestAppReviewInScenario"
	},
	{
		"ID": 243,
		"Value": 1,
		"StringValue": "",
		"iname": "IsRequestAppReviewOn"
	},
	{
		"ID": 244,
		"Value": 10000,
		"StringValue": "",
		"iname": "GainMaximum"
	},
	{
		"ID": 245,
		"Value": 300,
		"StringValue": "",
		"iname": "UpdateServerListIntervalSeconds"
	},
	{
		"ID": 246,
		"Value": 30,
		"StringValue": "",
		"iname": "RealTimePVPPromotionSucceedScoreBonus"
	},
	{
		"ID": 247,
		"Value": 50,
		"StringValue": "",
		"iname": "RealTimePVPPromotionFailedScorePenalty"
	},
	{
		"ID": 248,
		"Value": 10000,
		"StringValue": "",
		"iname": "RealTimePVPScoreMax"
	},
	{
		"ID": 249,
		"Value": 790,
		"StringValue": "",
		"iname": "RealTimePVPBattleCameraSize"
	},
	{
		"ID": 250,
		"Value": 3,
		"StringValue": "",
		"iname": "SkinTicketRank"
	},
	{
		"ID": 251,
		"Value": 4,
		"StringValue": "",
		"iname": "UnLockJobUpTipScenarioId"
	},
	{
		"ID": 252,
		"Value": 0,
		"StringValue": "12:00-14:00/19:00-21:00",
		"iname": "RealTimePVPAvailableTime"
	},
	{
		"ID": 253,
		"Value": 4,
		"StringValue": "",
		"iname": "PrivilegeItemRank"
	},
	{
		"ID": 254,
		"Value": 3000,
		"StringValue": "",
		"iname": "RealTimePVPBotPlayDeadIntervalMin"
	},
	{
		"ID": 255,
		"Value": 5000,
		"StringValue": "",
		"iname": "RealTimePVPBotPlayDeadIntervalMax"
	},
	{
		"ID": 256,
		"Value": 20,
		"StringValue": "",
		"iname": "RealTimePVPBattleReportMaxNums"
	},
	{
		"ID": 257,
		"Value": 5,
		"StringValue": "",
		"iname": "Battle_ClientCheckOnlinePeriod"
	},
	{
		"ID": 258,
		"Value": 20,
		"StringValue": "",
		"iname": "BattleRoomPlayerPauseDisconnectTime"
	},
	{
		"ID": 259,
		"Value": 10000,
		"StringValue": "",
		"iname": "RealTimePVPSystemPlayerCountForNewSeasonAutoGeneration"
	},
	{
		"ID": 260,
		"Value": 1,
		"StringValue": "",
		"iname": "Rift_FirstChapterId"
	},
	{
		"ID": 261,
		"Value": 31,
		"StringValue": "",
		"iname": "NewUserAccumulatedMinValue"
	},
	{
		"ID": 262,
		"Value": 40,
		"StringValue": "",
		"iname": "NewUserAccumulatedMaxValue"
	},
	{
		"ID": 263,
		"Value": 91,
		"StringValue": "",
		"iname": "OldUserAccumulatedMinValue"
	},
	{
		"ID": 264,
		"Value": 100,
		"StringValue": "",
		"iname": "OldUserAccumulatedMaxValue"
	},
	{
		"ID": 265,
		"Value": 15,
		"StringValue": "",
		"iname": "PVPBattleRoomPlayerOfflineAutoBattleTimeOutTime"
	},
	{
		"ID": 266,
		"Value": 15,
		"StringValue": "",
		"iname": "BattleRoomPlayerActionCountdownBigNumberTime"
	},
	{
		"ID": 267,
		"Value": 3,
		"StringValue": "",
		"iname": "MemoryEssenceRank"
	},
	{
		"ID": 268,
		"Value": 5,
		"StringValue": "",
		"iname": "TeamRoomViewRefreshClientTime"
	},
	{
		"ID": 269,
		"Value": 2000,
		"StringValue": "",
		"iname": "GoddessCharImageId"
	},
	{
		"ID": 270,
		"Value": 25,
		"StringValue": "",
		"iname": "GuildCreateJoinLevel"
	},
	{
		"ID": 271,
		"Value": 3012,
		"StringValue": "",
		"iname": "GuildCreateItemId"
	},
	{
		"ID": 272,
		"Value": 50,
		"StringValue": "",
		"iname": "GuildMemberCountMax"
	},
	{
		"ID": 273,
		"Value": 1440,
		"StringValue": "",
		"iname": "GuildReJoinCoolDownTime"
	},
	{
		"ID": 274,
		"Value": 20,
		"StringValue": "",
		"iname": "GuildJoinApplicationPlayerCountMax"
	},
	{
		"ID": 275,
		"Value": 9,
		"StringValue": "",
		"iname": "GuildInviteCountMax"
	},
	{
		"ID": 276,
		"Value": 200,
		"StringValue": "",
		"iname": "GuildChatHistoryCount"
	},
	{
		"ID": 277,
		"Value": 100,
		"StringValue": "",
		"iname": "GuildHiringDeclarationMaxLength"
	},
	{
		"ID": 278,
		"Value": 3,
		"StringValue": "",
		"iname": "GuildVicePresidentMaxNums"
	},
	{
		"ID": 279,
		"Value": 1200,
		"StringValue": "",
		"iname": "GuildEliteMinTotalActivities"
	},
	{
		"ID": 280,
		"Value": 10,
		"StringValue": "",
		"iname": "RankListGuildNums"
	},
	{
		"ID": 281,
		"Value": 336,
		"StringValue": "",
		"iname": "GuildVicePresidentCanUsurpTime"
	},
	{
		"ID": 282,
		"Value": 720,
		"StringValue": "",
		"iname": "GuildEliteCanUsurpTime"
	},
	{
		"ID": 283,
		"Value": 300,
		"StringValue": "",
		"iname": "GuildChangeNameCrystalCost"
	},
	{
		"ID": 284,
		"Value": 240,
		"StringValue": "",
		"iname": "GuildDailyMaxActivities"
	},
	{
		"ID": 285,
		"Value": 100,
		"StringValue": "",
		"iname": "GuildAnnouncementMaxLength"
	},
	{
		"ID": 286,
		"Value": 10000,
		"StringValue": "",
		"iname": "GuildWeeklyMaxActivities"
	},
	{
		"ID": 287,
		"Value": 16,
		"StringValue": "",
		"iname": "GuildNameMaxLength"
	},
	{
		"ID": 288,
		"Value": 60,
		"StringValue": "",
		"iname": "GuildLogMaxNUms"
	},
	{
		"ID": 289,
		"Value": 61,
		"StringValue": "",
		"iname": "NewUserSecondAccumulatedMinValue"
	},
	{
		"ID": 290,
		"Value": 70,
		"StringValue": "",
		"iname": "NewUserSecondAccumulatedMaxValue"
	},
	{
		"ID": 291,
		"Value": 0,
		"StringValue": "",
		"iname": "RealTimePVP_ClientGlobalRankingEnable"
	},
	{
		"ID": 292,
		"Value": 120,
		"StringValue": "",
		"iname": "GenericPauseDisconnectTime"
	},
	{
		"ID": 293,
		"Value": 30,
		"StringValue": "",
		"iname": "RandomStoreManualFlushMaxNums"
	},
	{
		"ID": 294,
		"Value": 10,
		"StringValue": "",
		"iname": "AutoClimbFactor"
	},
	{
		"ID": 295,
		"Value": 35,
		"StringValue": "",
		"iname": "AutoClimbMax"
	},
	{
		"ID": 296,
		"Value": 50,
		"StringValue": "",
		"iname": "ClimbTowerFloorMax"
	},
	{
		"ID": 297,
		"Value": 5,
		"StringValue": "",
		"iname": "CanAutoClimbTowerHistoryFloorMax"
	},
	{
		"ID": 298,
		"Value": 301,
		"StringValue": "",
		"iname": "PrimaryHammer"
	},
	{
		"ID": 299,
		"Value": 302,
		"StringValue": "",
		"iname": "MiddleLevelHammer"
	},
	{
		"ID": 300,
		"Value": 303,
		"StringValue": "",
		"iname": "AdvancedHammer"
	},
	{
		"ID": 301,
		"Value": 304,
		"StringValue": "",
		"iname": "SpecialHammer"
	},
	{
		"ID": 302,
		"Value": 3,
		"StringValue": "",
		"iname": "MithralStoneRank"
	},
	{
		"ID": 303,
		"Value": 4,
		"StringValue": "",
		"iname": "BrillianceMithralStoneRank"
	},
	{
		"ID": 304,
		"Value": 72,
		"StringValue": "",
		"iname": "GuildPresidentRelieveMailTemplateId"
	},
	{
		"ID": 305,
		"Value": 9,
		"StringValue": "",
		"iname": "HeroDungeonDailyChallengeMaxNums"
	},
	{
		"ID": 306,
		"Value": 3000,
		"StringValue": "",
		"iname": "Battle_CriticalDamage_Base"
	},
	{
		"ID": 307,
		"Value": 0,
		"StringValue": "",
		"iname": "UseCenceredAsset"
	},
	{
		"ID": 308,
		"Value": 1,
		"StringValue": "",
		"iname": "IsShowClientDanmakuIcon"
	},
	{
		"ID": 309,
		"Value": 20,
		"StringValue": "",
		"iname": "CanSendCommentMinLevel"
	},
	{
		"ID": 310,
		"Value": 0,
		"StringValue": "",
		"iname": "EnableXFVoiceTranslate"
	},
	{
		"ID": 311,
		"Value": 1500,
		"StringValue": "",
		"iname": "GuildWarTeamRoomLeaderKickOutDeltaTime"
	},
	{
		"ID": 312,
		"Value": 2,
		"StringValue": "",
		"iname": "GuildMassiveCombatAvailableCountPerWeek"
	},
	{
		"ID": 313,
		"Value": 0,
		"StringValue": "1/2",
		"iname": "GuildMassiveCombatRandomHeroTagIds"
	},
	{
		"ID": 314,
		"Value": 4,
		"StringValue": "",
		"iname": "GuildMassiveCombatMinTitleToStart"
	},
	{
		"ID": 315,
		"Value": 3,
		"StringValue": "",
		"iname": "GuildMassiveCombatMinTitleToSurrender"
	},
	{
		"ID": 316,
		"Value": 1,
		"StringValue": "",
		"iname": "GuildMassiveCombatMaxHeroTagIdForStronghold"
	},
	{
		"ID": 317,
		"Value": 3,
		"StringValue": "",
		"iname": "GuildMedalRank"
	},
	{
		"ID": 318,
		"Value": 76000,
		"StringValue": "",
		"iname": "Battle_AnikiUnchartedBlessingPassiveSkillId"
	},
	{
		"ID": 319,
		"Value": 76000,
		"StringValue": "",
		"iname": "Battle_ThearchyUnchartedBlessingPassiveSkillId"
	},
	{
		"ID": 320,
		"Value": 1,
		"StringValue": "",
		"iname": "EternalShrineDailyChallengeCountMax"
	},
	{
		"ID": 321,
		"Value": 76000,
		"StringValue": "",
		"iname": "Battle_EternalShrineBlessingPassiveSkillId"
	},
	{
		"ID": 322,
		"Value": 3,
		"StringValue": "",
		"iname": "PVEBattleRoomPlayerOfflineAutoBattleTimeOutTime"
	},
	{
		"ID": 323,
		"Value": 76000,
		"StringValue": "",
		"iname": "Battle_MemoryCorridorUnchartedBlessingPassiveSkillId"
	},
	{
		"ID": 324,
		"Value": 76000,
		"StringValue": "",
		"iname": "Battle_HeroTrainningUnchartedBlessingPassiveSkillId"
	},
	{
		"ID": 325,
		"Value": 15,
		"StringValue": "",
		"iname": "RefluxBeginLevelLimit"
	},
	{
		"ID": 326,
		"Value": 5,
		"StringValue": "",
		"iname": "Fetter_HeroConfessionCorrectAnswerDaysMaxOffset"
	},
	{
		"ID": 327,
		"Value": 1,
		"StringValue": "",
		"iname": "AppleSubscribeMonthCardCanRepeatlyBuy"
	},
	{
		"ID": 377,
		"Value": 1,
		"StringValue": "",
		"iname": "PeakArenaOpenWeekDay"
	},
	{
		"ID": 392,
		"Value": 7,
		"StringValue": "",
		"iname": "RecommendGiftBoxShowLevel"
	},
	{
		"ID": 500,
		"Value": 0,
		"StringValue": "",
		"iname": "IsShowWorldChatNoticeBar"
	},
	{
		"ID": 501,
		"Value": 0,
		"StringValue": "",
		"iname": "IsShowSystemNoticeBar"
	},
	{
		"ID": 502,
		"Value": 1,
		"StringValue": "",
		"iname": "IsShowGuildChatNoticeBar"
	},
	{
		"ID": 1000,
		"Value": 1,
		"StringValue": ""
	},
	{
		"ID": 1001,
		"Value": 300,
		"StringValue": ""
	}
]