[
	{
		"ID": 1,
		"Name": "礼物老人何处寻？",
		"NextScenarioID": 2,
		"DaysBeforeActivate": 0,
		"MonsterLevel": 0,
		"BattleID": 0,
		"DialogBeforeBattle": 8031001,
		"DialogAfterBattle": 0,
		"WayPointsStateAfterBattle": [
			{
				"ID": 4,
				"State": "CollectionActivityWaypointStateType_Unlocked"
			}
		],
		"ActorResourceAfterBattle": "",
		"PlayerExp": 0,
		"HeroExp": 0,
		"GoldReward": 0,
		"EnergyCostSuccess": 0,
		"EnergyCostFail": 0,
		"FirstClearDrop": [
			{
				"GoodsType": "GoodsType_Item",
				"Id": 3505,
				"Count": 2
			}
		],
		"DropDisplayCount": 1
	},
	{
		"ID": 2,
		"Name": "礼物老人何处寻？",
		"NextScenarioID": 3,
		"DaysBeforeActivate": 0,
		"MonsterLevel": 0,
		"BattleID": 0,
		"DialogBeforeBattle": 8031034,
		"DialogAfterBattle": 0,
		"WayPointsStateAfterBattle": [
			{
				"ID": 1,
				"State": "CollectionActivityWaypointStateType_Unlocked"
			},
			{
				"ID": 3,
				"State": "CollectionActivityWaypointStateType_Unlocked"
			}
		],
		"ActorResourceAfterBattle": "",
		"PlayerExp": 0,
		"HeroExp": 0,
		"GoldReward": 0,
		"EnergyCostSuccess": 0,
		"EnergyCostFail": 0,
		"FirstClearDrop": [
			{
				"GoodsType": "GoodsType_Item",
				"Id": 3506,
				"Count": 2
			}
		],
		"DropDisplayCount": 1
	},
	{
		"ID": 3,
		"Name": "礼物老人何处寻？",
		"NextScenarioID": 4,
		"DaysBeforeActivate": 0,
		"MonsterLevel": 0,
		"BattleID": 0,
		"DialogBeforeBattle": 8031056,
		"DialogAfterBattle": 0,
		"ActorResourceAfterBattle": "",
		"PlayerExp": 0,
		"HeroExp": 0,
		"GoldReward": 0,
		"EnergyCostSuccess": 0,
		"EnergyCostFail": 0,
		"FirstClearDrop": [
			{
				"GoodsType": "GoodsType_Item",
				"Id": 3507,
				"Count": 2
			}
		],
		"DropDisplayCount": 1
	},
	{
		"ID": 4,
		"Name": "礼物老人何处寻？",
		"NextScenarioID": 5,
		"DaysBeforeActivate": 0,
		"MonsterLevel": 0,
		"BattleID": 0,
		"DialogBeforeBattle": 8031079,
		"DialogAfterBattle": 0,
		"WayPointsStateAfterBattle": [
			{
				"ID": 5,
				"State": "CollectionActivityWaypointStateType_Unlocked"
			}
		],
		"ActorResourceAfterBattle": "",
		"PlayerExp": 0,
		"HeroExp": 0,
		"GoldReward": 0,
		"EnergyCostSuccess": 0,
		"EnergyCostFail": 0,
		"FirstClearDrop": [
			{
				"GoodsType": "GoodsType_Item",
				"Id": 3508,
				"Count": 2
			}
		],
		"DropDisplayCount": 1
	},
	{
		"ID": 5,
		"Name": "礼物老人何处寻？",
		"NextScenarioID": 6,
		"DaysBeforeActivate": 0,
		"MonsterLevel": 50,
		"BattleID": 6601,
		"DialogBeforeBattle": 8031098,
		"DialogAfterBattle": 8031112,
		"ActorResourceAfterBattle": "Spine/General/Sherry_ABS/Sherry_Skin04/Sherry_Skin04_Prefab.prefab",
		"PlayerExp": 5,
		"HeroExp": 35,
		"GoldReward": 502,
		"EnergyCostSuccess": 5,
		"EnergyCostFail": 1,
		"FirstClearDrop": [
			{
				"GoodsType": "GoodsType_Crystal",
				"Id": 0,
				"Count": 30
			},
			{
				"GoodsType": "GoodsType_Item",
				"Id": 3505,
				"Count": 6
			},
			{
				"GoodsType": "GoodsType_Item",
				"Id": 3506,
				"Count": 6
			}
		],
		"DropDisplayCount": 3
	},
	{
		"ID": 6,
		"Name": "逃学终结者",
		"NextScenarioID": 7,
		"DaysBeforeActivate": 1,
		"MonsterLevel": 0,
		"BattleID": 0,
		"DialogBeforeBattle": 8032001,
		"DialogAfterBattle": 0,
		"ActorResourceAfterBattle": "",
		"PlayerExp": 0,
		"HeroExp": 0,
		"GoldReward": 0,
		"EnergyCostSuccess": 0,
		"EnergyCostFail": 0,
		"FirstClearDrop": [
			{
				"GoodsType": "GoodsType_Item",
				"Id": 3505,
				"Count": 2
			}
		],
		"DropDisplayCount": 1
	},
	{
		"ID": 7,
		"Name": "逃学终结者",
		"NextScenarioID": 8,
		"DaysBeforeActivate": 1,
		"MonsterLevel": 0,
		"BattleID": 0,
		"DialogBeforeBattle": 8032016,
		"DialogAfterBattle": 0,
		"ActorResourceAfterBattle": "",
		"PlayerExp": 0,
		"HeroExp": 0,
		"GoldReward": 0,
		"EnergyCostSuccess": 0,
		"EnergyCostFail": 0,
		"FirstClearDrop": [
			{
				"GoodsType": "GoodsType_Item",
				"Id": 3506,
				"Count": 2
			}
		],
		"DropDisplayCount": 1
	},
	{
		"ID": 8,
		"Name": "逃学终结者",
		"NextScenarioID": 9,
		"DaysBeforeActivate": 1,
		"MonsterLevel": 50,
		"BattleID": 6602,
		"DialogBeforeBattle": 0,
		"DialogAfterBattle": 8032051,
		"ActorResourceAfterBattle": "Spine/General/Chris_ABS/Chris_Bishop/Chris_Avatar03_Prefab.prefab",
		"PlayerExp": 5,
		"HeroExp": 35,
		"GoldReward": 502,
		"EnergyCostSuccess": 5,
		"EnergyCostFail": 1,
		"FirstClearDrop": [
			{
				"GoodsType": "GoodsType_Crystal",
				"Id": 0,
				"Count": 30
			},
			{
				"GoodsType": "GoodsType_Item",
				"Id": 3507,
				"Count": 6
			},
			{
				"GoodsType": "GoodsType_Item",
				"Id": 3508,
				"Count": 6
			}
		],
		"DropDisplayCount": 3
	},
	{
		"ID": 9,
		"Name": "双龙之猎",
		"NextScenarioID": 10,
		"DaysBeforeActivate": 2,
		"MonsterLevel": 0,
		"BattleID": 0,
		"DialogBeforeBattle": 8033001,
		"DialogAfterBattle": 0,
		"ActorResourceAfterBattle": "",
		"PlayerExp": 0,
		"HeroExp": 0,
		"GoldReward": 0,
		"EnergyCostSuccess": 0,
		"EnergyCostFail": 0,
		"FirstClearDrop": [
			{
				"GoodsType": "GoodsType_Item",
				"Id": 3507,
				"Count": 2
			}
		],
		"DropDisplayCount": 1
	},
	{
		"ID": 10,
		"Name": "双龙之猎",
		"NextScenarioID": 11,
		"DaysBeforeActivate": 2,
		"MonsterLevel": 0,
		"BattleID": 0,
		"DialogBeforeBattle": 8033017,
		"DialogAfterBattle": 0,
		"ActorResourceAfterBattle": "",
		"PlayerExp": 0,
		"HeroExp": 0,
		"GoldReward": 0,
		"EnergyCostSuccess": 0,
		"EnergyCostFail": 0,
		"FirstClearDrop": [
			{
				"GoodsType": "GoodsType_Item",
				"Id": 3508,
				"Count": 2
			}
		],
		"DropDisplayCount": 1
	},
	{
		"ID": 11,
		"Name": "双龙之猎",
		"NextScenarioID": 12,
		"DaysBeforeActivate": 2,
		"MonsterLevel": 0,
		"BattleID": 0,
		"DialogBeforeBattle": 8033029,
		"DialogAfterBattle": 0,
		"ActorResourceAfterBattle": "",
		"PlayerExp": 0,
		"HeroExp": 0,
		"GoldReward": 0,
		"EnergyCostSuccess": 0,
		"EnergyCostFail": 0,
		"FirstClearDrop": [
			{
				"GoodsType": "GoodsType_Item",
				"Id": 3505,
				"Count": 2
			}
		],
		"DropDisplayCount": 1
	},
	{
		"ID": 12,
		"Name": "双龙之猎",
		"NextScenarioID": 13,
		"DaysBeforeActivate": 2,
		"MonsterLevel": 0,
		"BattleID": 0,
		"DialogBeforeBattle": 8033040,
		"DialogAfterBattle": 0,
		"ActorResourceAfterBattle": "",
		"PlayerExp": 0,
		"HeroExp": 0,
		"GoldReward": 0,
		"EnergyCostSuccess": 0,
		"EnergyCostFail": 0,
		"FirstClearDrop": [
			{
				"GoodsType": "GoodsType_Item",
				"Id": 3506,
				"Count": 2
			}
		],
		"DropDisplayCount": 1
	},
	{
		"ID": 13,
		"Name": "双龙之猎",
		"NextScenarioID": 14,
		"DaysBeforeActivate": 2,
		"MonsterLevel": 50,
		"BattleID": 6603,
		"DialogBeforeBattle": 0,
		"DialogAfterBattle": 8033060,
		"ActorResourceAfterBattle": "",
		"PlayerExp": 5,
		"HeroExp": 35,
		"GoldReward": 502,
		"EnergyCostSuccess": 5,
		"EnergyCostFail": 1,
		"FirstClearDrop": [
			{
				"GoodsType": "GoodsType_Crystal",
				"Id": 0,
				"Count": 30
			},
			{
				"GoodsType": "GoodsType_Item",
				"Id": 3506,
				"Count": 9
			},
			{
				"GoodsType": "GoodsType_Item",
				"Id": 3507,
				"Count": 9
			}
		],
		"DropDisplayCount": 3
	},
	{
		"ID": 14,
		"Name": "副官斗技！",
		"NextScenarioID": 15,
		"DaysBeforeActivate": 3,
		"MonsterLevel": 0,
		"BattleID": 0,
		"DialogBeforeBattle": 8034005,
		"DialogAfterBattle": 0,
		"ActorResourceAfterBattle": "",
		"PlayerExp": 0,
		"HeroExp": 0,
		"GoldReward": 0,
		"EnergyCostSuccess": 0,
		"EnergyCostFail": 0,
		"FirstClearDrop": [
			{
				"GoodsType": "GoodsType_Item",
				"Id": 3507,
				"Count": 2
			}
		],
		"DropDisplayCount": 1
	},
	{
		"ID": 15,
		"Name": "副官斗技！",
		"NextScenarioID": 16,
		"DaysBeforeActivate": 3,
		"MonsterLevel": 50,
		"BattleID": 6604,
		"DialogBeforeBattle": 0,
		"DialogAfterBattle": 8034025,
		"ActorResourceAfterBattle": "",
		"PlayerExp": 5,
		"HeroExp": 35,
		"GoldReward": 502,
		"EnergyCostSuccess": 5,
		"EnergyCostFail": 1,
		"FirstClearDrop": [
			{
				"GoodsType": "GoodsType_Crystal",
				"Id": 0,
				"Count": 30
			},
			{
				"GoodsType": "GoodsType_Item",
				"Id": 3508,
				"Count": 9
			},
			{
				"GoodsType": "GoodsType_Item",
				"Id": 3505,
				"Count": 9
			}
		],
		"DropDisplayCount": 3
	},
	{
		"ID": 16,
		"Name": "妹控大作战！",
		"NextScenarioID": 17,
		"DaysBeforeActivate": 4,
		"MonsterLevel": 0,
		"BattleID": 0,
		"DialogBeforeBattle": 8035001,
		"DialogAfterBattle": 0,
		"ActorResourceAfterBattle": "Spine/General/Schelfaniel_ABS/Schelfaniel_Skin02/Schelfaniel_Skin02_Prefab.prefab",
		"PlayerExp": 0,
		"HeroExp": 0,
		"GoldReward": 0,
		"EnergyCostSuccess": 0,
		"EnergyCostFail": 0,
		"FirstClearDrop": [
			{
				"GoodsType": "GoodsType_Item",
				"Id": 3508,
				"Count": 2
			}
		],
		"DropDisplayCount": 1
	},
	{
		"ID": 17,
		"Name": "妹控大作战！",
		"NextScenarioID": 18,
		"DaysBeforeActivate": 4,
		"MonsterLevel": 0,
		"BattleID": 0,
		"DialogBeforeBattle": 8035015,
		"DialogAfterBattle": 0,
		"ActorResourceAfterBattle": "",
		"PlayerExp": 0,
		"HeroExp": 0,
		"GoldReward": 0,
		"EnergyCostSuccess": 0,
		"EnergyCostFail": 0,
		"FirstClearDrop": [
			{
				"GoodsType": "GoodsType_Item",
				"Id": 3505,
				"Count": 2
			}
		],
		"DropDisplayCount": 1
	},
	{
		"ID": 18,
		"Name": "妹控大作战！",
		"NextScenarioID": 19,
		"DaysBeforeActivate": 4,
		"MonsterLevel": 50,
		"BattleID": 6605,
		"DialogBeforeBattle": 0,
		"DialogAfterBattle": 8035040,
		"ActorResourceAfterBattle": "",
		"PlayerExp": 5,
		"HeroExp": 35,
		"GoldReward": 502,
		"EnergyCostSuccess": 5,
		"EnergyCostFail": 1,
		"FirstClearDrop": [
			{
				"GoodsType": "GoodsType_Crystal",
				"Id": 0,
				"Count": 30
			},
			{
				"GoodsType": "GoodsType_Item",
				"Id": 3505,
				"Count": 12
			},
			{
				"GoodsType": "GoodsType_Item",
				"Id": 3507,
				"Count": 12
			}
		],
		"DropDisplayCount": 3
	},
	{
		"ID": 19,
		"Name": "消失的礼物",
		"NextScenarioID": 20,
		"DaysBeforeActivate": 5,
		"MonsterLevel": 0,
		"BattleID": 0,
		"DialogBeforeBattle": 8036001,
		"DialogAfterBattle": 0,
		"ActorResourceAfterBattle": "",
		"PlayerExp": 0,
		"HeroExp": 0,
		"GoldReward": 0,
		"EnergyCostSuccess": 0,
		"EnergyCostFail": 0,
		"FirstClearDrop": [
			{
				"GoodsType": "GoodsType_Item",
				"Id": 3506,
				"Count": 2
			}
		],
		"DropDisplayCount": 1
	},
	{
		"ID": 20,
		"Name": "消失的礼物",
		"NextScenarioID": 21,
		"DaysBeforeActivate": 5,
		"MonsterLevel": 0,
		"BattleID": 0,
		"DialogBeforeBattle": 8036021,
		"DialogAfterBattle": 0,
		"ActorResourceAfterBattle": "",
		"PlayerExp": 0,
		"HeroExp": 0,
		"GoldReward": 0,
		"EnergyCostSuccess": 0,
		"EnergyCostFail": 0,
		"FirstClearDrop": [
			{
				"GoodsType": "GoodsType_Item",
				"Id": 3507,
				"Count": 2
			}
		],
		"DropDisplayCount": 1
	},
	{
		"ID": 21,
		"Name": "消失的礼物",
		"NextScenarioID": 22,
		"DaysBeforeActivate": 5,
		"MonsterLevel": 50,
		"BattleID": 6606,
		"DialogBeforeBattle": 0,
		"DialogAfterBattle": 8036051,
		"ActorResourceAfterBattle": "Spine/General/Angelina_ABS/Angelina_Skin02/Angelina_Skin02_Prefab.prefab",
		"PlayerExp": 5,
		"HeroExp": 35,
		"GoldReward": 502,
		"EnergyCostSuccess": 5,
		"EnergyCostFail": 1,
		"FirstClearDrop": [
			{
				"GoodsType": "GoodsType_Crystal",
				"Id": 0,
				"Count": 30
			},
			{
				"GoodsType": "GoodsType_Item",
				"Id": 3506,
				"Count": 12
			},
			{
				"GoodsType": "GoodsType_Item",
				"Id": 3508,
				"Count": 12
			}
		],
		"DropDisplayCount": 3
	},
	{
		"ID": 22,
		"Name": "激斗！冬泳！",
		"NextScenarioID": 23,
		"DaysBeforeActivate": 6,
		"MonsterLevel": 0,
		"BattleID": 0,
		"DialogBeforeBattle": 8037001,
		"DialogAfterBattle": 0,
		"ActorResourceAfterBattle": "",
		"PlayerExp": 0,
		"HeroExp": 0,
		"GoldReward": 0,
		"EnergyCostSuccess": 0,
		"EnergyCostFail": 0,
		"FirstClearDrop": [
			{
				"GoodsType": "GoodsType_Item",
				"Id": 3508,
				"Count": 2
			}
		],
		"DropDisplayCount": 1
	},
	{
		"ID": 23,
		"Name": "激斗！冬泳！",
		"NextScenarioID": 24,
		"DaysBeforeActivate": 6,
		"MonsterLevel": 0,
		"BattleID": 0,
		"DialogBeforeBattle": 8037021,
		"DialogAfterBattle": 0,
		"ActorResourceAfterBattle": "",
		"PlayerExp": 0,
		"HeroExp": 0,
		"GoldReward": 0,
		"EnergyCostSuccess": 0,
		"EnergyCostFail": 0,
		"FirstClearDrop": [
			{
				"GoodsType": "GoodsType_Item",
				"Id": 3505,
				"Count": 2
			}
		],
		"DropDisplayCount": 1
	},
	{
		"ID": 24,
		"Name": "激斗！冬泳！",
		"NextScenarioID": 25,
		"DaysBeforeActivate": 6,
		"MonsterLevel": 0,
		"BattleID": 0,
		"DialogBeforeBattle": 8037041,
		"DialogAfterBattle": 0,
		"ActorResourceAfterBattle": "",
		"PlayerExp": 0,
		"HeroExp": 0,
		"GoldReward": 0,
		"EnergyCostSuccess": 0,
		"EnergyCostFail": 0,
		"FirstClearDrop": [
			{
				"GoodsType": "GoodsType_Item",
				"Id": 3506,
				"Count": 2
			}
		],
		"DropDisplayCount": 1
	},
	{
		"ID": 25,
		"Name": "激斗！冬泳！",
		"NextScenarioID": 26,
		"DaysBeforeActivate": 6,
		"MonsterLevel": 50,
		"BattleID": 6607,
		"DialogBeforeBattle": 0,
		"DialogAfterBattle": 8037071,
		"ActorResourceAfterBattle": "",
		"PlayerExp": 5,
		"HeroExp": 35,
		"GoldReward": 502,
		"EnergyCostSuccess": 5,
		"EnergyCostFail": 1,
		"FirstClearDrop": [
			{
				"GoodsType": "GoodsType_Crystal",
				"Id": 0,
				"Count": 30
			},
			{
				"GoodsType": "GoodsType_Item",
				"Id": 3508,
				"Count": 15
			},
			{
				"GoodsType": "GoodsType_Item",
				"Id": 3505,
				"Count": 15
			}
		],
		"DropDisplayCount": 3
	},
	{
		"ID": 26,
		"Name": "真·逃学终结者",
		"NextScenarioID": 27,
		"DaysBeforeActivate": 7,
		"MonsterLevel": 0,
		"BattleID": 0,
		"DialogBeforeBattle": 8038001,
		"DialogAfterBattle": 0,
		"ActorResourceAfterBattle": "",
		"PlayerExp": 0,
		"HeroExp": 0,
		"GoldReward": 0,
		"EnergyCostSuccess": 0,
		"EnergyCostFail": 0,
		"FirstClearDrop": [
			{
				"GoodsType": "GoodsType_Item",
				"Id": 3507,
				"Count": 2
			}
		],
		"DropDisplayCount": 1
	},
	{
		"ID": 27,
		"Name": "真·逃学终结者",
		"NextScenarioID": 28,
		"DaysBeforeActivate": 7,
		"MonsterLevel": 0,
		"BattleID": 0,
		"DialogBeforeBattle": 8038017,
		"DialogAfterBattle": 0,
		"ActorResourceAfterBattle": "",
		"PlayerExp": 0,
		"HeroExp": 0,
		"GoldReward": 0,
		"EnergyCostSuccess": 0,
		"EnergyCostFail": 0,
		"FirstClearDrop": [
			{
				"GoodsType": "GoodsType_Item",
				"Id": 3508,
				"Count": 2
			}
		],
		"DropDisplayCount": 1
	},
	{
		"ID": 28,
		"Name": "真·逃学终结者",
		"NextScenarioID": 0,
		"DaysBeforeActivate": 7,
		"MonsterLevel": 50,
		"BattleID": 6608,
		"DialogBeforeBattle": 0,
		"DialogAfterBattle": 0,
		"ActorResourceAfterBattle": "Spine/General/Chris_ABS/Chris_Bishop/Chris_Avatar03_Prefab.prefab",
		"PlayerExp": 5,
		"HeroExp": 35,
		"GoldReward": 502,
		"EnergyCostSuccess": 5,
		"EnergyCostFail": 1,
		"FirstClearDrop": [
			{
				"GoodsType": "GoodsType_Crystal",
				"Id": 0,
				"Count": 30
			},
			{
				"GoodsType": "GoodsType_Item",
				"Id": 3507,
				"Count": 15
			},
			{
				"GoodsType": "GoodsType_Item",
				"Id": 3506,
				"Count": 15
			}
		],
		"DropDisplayCount": 3
	}
]