[
	{
		"ID": 1,
		"LoseConditionType": "BattleLoseConditionType_ActorDie",
		"Param1": [
			1014
		],
		"Param2": [
			0
		]
	},
	{
		"ID": 2,
		"LoseConditionType": "BattleLoseConditionType_ActorReachPosition",
		"Param1": [
			0
		],
		"Param2": [
			0
		]
	},
	{
		"ID": 3,
		"LoseConditionType": "BattleLoseConditionType_None",
		"Param1": [
			0
		],
		"Param2": [
			0
		]
	},
	{
		"ID": 4,
		"LoseConditionType": "BattleLoseConditionType_ActorDie",
		"Param1": [
			1
		]
	},
	{
		"ID": 5,
		"LoseConditionType": "BattleLoseConditionType_ActorDie",
		"Param1": [
			4
		]
	},
	{
		"ID": 6,
		"LoseConditionType": "BattleLoseConditionType_ActorDie",
		"Param1": [
			1505
		]
	},
	{
		"ID": 7,
		"LoseConditionType": "BattleLoseConditionType_ActorDie",
		"Param1": [
			1509
		]
	},
	{
		"ID": 8,
		"LoseConditionType": "BattleLoseConditionType_ActorDie",
		"Param1": [
			1518
		]
	},
	{
		"ID": 9,
		"LoseConditionType": "BattleLoseConditionType_ActorDie",
		"Param1": [
			1523
		]
	},
	{
		"ID": 10,
		"LoseConditionType": "BattleLoseConditionType_ActorDie",
		"Param1": [
			1526
		]
	},
	{
		"ID": 11,
		"LoseConditionType": "BattleLoseConditionType_ActorDie",
		"Param1": [
			1527
		]
	},
	{
		"ID": 12,
		"LoseConditionType": "BattleLoseConditionType_ActorDie",
		"Param1": [
			1532
		]
	},
	{
		"ID": 13,
		"LoseConditionType": "BattleLoseConditionType_NpcDieCount",
		"Param2": [
			3
		]
	},
	{
		"ID": 14,
		"LoseConditionType": "BattleLoseConditionType_ActorReachPosition",
		"Param2": [
			1
		],
		"Param3": [
			{
				"X": 6,
				"Y": 0
			},
			{
				"X": 7,
				"Y": 0
			},
			{
				"X": 8,
				"Y": 0
			}
		]
	},
	{
		"ID": 15,
		"LoseConditionType": "BattleLoseConditionType_ActorDie",
		"Param1": [
			1506
		]
	},
	{
		"ID": 16,
		"LoseConditionType": "BattleLoseConditionType_ActorDie",
		"Param1": [
			1
		]
	},
	{
		"ID": 17,
		"LoseConditionType": "BattleLoseConditionType_DieCount",
		"Param2": [
			1
		]
	},
	{
		"ID": 18,
		"LoseConditionType": "BattleLoseConditionType_ActorDie",
		"Param1": [
			3507
		]
	},
	{
		"ID": 19,
		"LoseConditionType": "BattleLoseConditionType_PlayerDieCount",
		"Param2": [
			1
		]
	},
	{
		"ID": 20,
		"LoseConditionType": "BattleLoseConditionType_NpcDieCount",
		"Param1": [
			1513
		],
		"Param2": [
			1
		]
	},
	{
		"ID": 21,
		"LoseConditionType": "BattleLoseConditionType_NpcDieCount",
		"Param2": [
			3
		]
	},
	{
		"ID": 22,
		"LoseConditionType": "BattleLoseConditionType_ActorDie",
		"Param1": [
			1504
		]
	},
	{
		"ID": 23,
		"LoseConditionType": "BattleLoseConditionType_ActorDie",
		"Param1": [
			1544
		]
	},
	{
		"ID": 24,
		"LoseConditionType": "BattleLoseConditionType_ActorDie",
		"Param1": [
			1512
		]
	},
	{
		"ID": 25,
		"LoseConditionType": "BattleLoseConditionType_ActorReachPosition",
		"Param1": [
			300
		],
		"Param3": [
			{
				"X": 0,
				"Y": 15
			}
		]
	},
	{
		"ID": 26,
		"LoseConditionType": "BattleLoseConditionType_ActorDie",
		"Param1": [
			3506
		]
	},
	{
		"ID": 27,
		"LoseConditionType": "BattleLoseConditionType_ActorDie",
		"Param1": [
			3907
		]
	},
	{
		"ID": 28,
		"LoseConditionType": "BattleLoseConditionType_ActorDie",
		"Param1": [
			3906
		]
	},
	{
		"ID": 29,
		"LoseConditionType": "BattleLoseConditionType_ActorDie",
		"Param1": [
			385
		]
	},
	{
		"ID": 30,
		"LoseConditionType": "BattleLoseConditionType_ActorDie",
		"Param1": [
			401
		]
	},
	{
		"ID": 31,
		"LoseConditionType": "BattleLoseConditionType_NpcDieCount",
		"Param1": [
			3507
		],
		"Param2": [
			3
		]
	},
	{
		"ID": 32,
		"LoseConditionType": "BattleLoseConditionType_ActorDie",
		"Param1": [
			3506
		]
	},
	{
		"ID": 33,
		"LoseConditionType": "BattleLoseConditionType_ActorDie",
		"Param1": [
			401
		]
	},
	{
		"ID": 34,
		"LoseConditionType": "BattleLoseConditionType_ActorDie",
		"Param1": [
			402
		]
	},
	{
		"ID": 35,
		"LoseConditionType": "BattleLoseConditionType_ActorDie",
		"Param1": [
			402
		]
	},
	{
		"ID": 36,
		"LoseConditionType": "BattleLoseConditionType_ActorDie",
		"Param1": [
			403
		]
	},
	{
		"ID": 37,
		"LoseConditionType": "BattleLoseConditionType_ActorDie",
		"Param1": [
			403
		]
	},
	{
		"ID": 38,
		"LoseConditionType": "BattleLoseConditionType_ActorDie",
		"Param1": [
			403
		]
	},
	{
		"ID": 39,
		"LoseConditionType": "BattleLoseConditionType_ActorReachPosition",
		"Param2": [
			1
		],
		"Param3": [
			{
				"X": 9,
				"Y": 3
			},
			{
				"X": 10,
				"Y": 3
			},
			{
				"X": 11,
				"Y": 3
			},
			{
				"X": 12,
				"Y": 3
			},
			{
				"X": 9,
				"Y": 4
			},
			{
				"X": 10,
				"Y": 4
			},
			{
				"X": 11,
				"Y": 4
			},
			{
				"X": 12,
				"Y": 4
			}
		]
	},
	{
		"ID": 40,
		"LoseConditionType": "BattleLoseConditionType_ActorDie",
		"Param1": [
			1005
		]
	},
	{
		"ID": 41,
		"LoseConditionType": "BattleLoseConditionType_ActorDie",
		"Param1": [
			1028
		]
	},
	{
		"ID": 42,
		"LoseConditionType": "BattleLoseConditionType_ActorDie",
		"Param1": [
			1051
		]
	},
	{
		"ID": 43,
		"LoseConditionType": "BattleLoseConditionType_ActorDie",
		"Param1": [
			1546
		]
	},
	{
		"ID": 44,
		"LoseConditionType": "BattleLoseConditionType_ActorDie",
		"Param1": [
			1547
		]
	},
	{
		"ID": 45,
		"LoseConditionType": "BattleLoseConditionType_ActorDie",
		"Param1": [
			1548
		]
	},
	{
		"ID": 46,
		"LoseConditionType": "BattleLoseConditionType_ActorDie",
		"Param1": [
			6
		]
	},
	{
		"ID": 47,
		"LoseConditionType": "BattleLoseConditionType_ActorDie",
		"Param1": [
			904
		]
	},
	{
		"ID": 48,
		"LoseConditionType": "BattleLoseConditionType_ActorDie",
		"Param1": [
			7
		]
	},
	{
		"ID": 49,
		"LoseConditionType": "BattleLoseConditionType_NpcDieCount",
		"Param2": [
			1
		]
	},
	{
		"ID": 50,
		"LoseConditionType": "BattleLoseConditionType_ActorDie",
		"Param1": [
			12
		]
	},
	{
		"ID": 51,
		"LoseConditionType": "BattleLoseConditionType_ActorReachPosition",
		"Param2": [
			1
		],
		"Param3": [
			{
				"X": 3,
				"Y": 0
			},
			{
				"X": 4,
				"Y": 0
			},
			{
				"X": 5,
				"Y": 0
			},
			{
				"X": 6,
				"Y": 0
			}
		]
	},
	{
		"ID": 52,
		"LoseConditionType": "BattleLoseConditionType_ActorDie",
		"Param1": [
			13
		]
	},
	{
		"ID": 53,
		"LoseConditionType": "BattleLoseConditionType_ActorDie",
		"Param1": [
			1045
		]
	},
	{
		"ID": 54,
		"LoseConditionType": "BattleLoseConditionType_NpcDieCount",
		"Param2": [
			3
		]
	},
	{
		"ID": 55,
		"LoseConditionType": "BattleLoseConditionType_ActorDie",
		"Param1": [
			17
		]
	},
	{
		"ID": 56,
		"LoseConditionType": "BattleLoseConditionType_ActorDie",
		"Param1": [
			1546
		]
	},
	{
		"ID": 57,
		"LoseConditionType": "BattleLoseConditionType_ActorDie",
		"Param1": [
			217
		]
	},
	{
		"ID": 58,
		"LoseConditionType": "BattleLoseConditionType_ActorDie",
		"Param1": [
			19
		]
	},
	{
		"ID": 59,
		"LoseConditionType": "BattleLoseConditionType_ActorReachPosition",
		"Param1": [
			912
		],
		"Param3": [
			{
				"X": 0,
				"Y": 0
			},
			{
				"X": 1,
				"Y": 0
			},
			{
				"X": 2,
				"Y": 0
			},
			{
				"X": 3,
				"Y": 0
			},
			{
				"X": 4,
				"Y": 0
			},
			{
				"X": 5,
				"Y": 0
			},
			{
				"X": 6,
				"Y": 0
			},
			{
				"X": 7,
				"Y": 0
			},
			{
				"X": 8,
				"Y": 0
			},
			{
				"X": 9,
				"Y": 0
			},
			{
				"X": 10,
				"Y": 0
			}
		]
	},
	{
		"ID": 60,
		"LoseConditionType": "BattleLoseConditionType_ActorDie",
		"Param1": [
			21
		]
	},
	{
		"ID": 61,
		"LoseConditionType": "BattleLoseConditionType_ActorDie",
		"Param1": [
			3502
		]
	},
	{
		"ID": 62,
		"LoseConditionType": "BattleLoseConditionType_ActorDie",
		"Param1": [
			3507
		]
	},
	{
		"ID": 63,
		"LoseConditionType": "BattleLoseConditionType_ActorDie",
		"Param1": [
			807
		]
	},
	{
		"ID": 64,
		"LoseConditionType": "BattleLoseConditionType_ActorDie",
		"Param1": [
			1600
		]
	},
	{
		"ID": 65,
		"LoseConditionType": "BattleLoseConditionType_ActorDie",
		"Param1": [
			1601
		]
	},
	{
		"ID": 66,
		"LoseConditionType": "BattleLoseConditionType_ActorDie",
		"Param1": [
			1367
		]
	},
	{
		"ID": 67,
		"LoseConditionType": "BattleLoseConditionType_ActorDie",
		"Param1": [
			1368
		]
	},
	{
		"ID": 68,
		"LoseConditionType": "BattleLoseConditionType_ActorDie",
		"Param1": [
			1369
		]
	},
	{
		"ID": 69,
		"LoseConditionType": "BattleLoseConditionType_ActorDie",
		"Param1": [
			1364
		]
	},
	{
		"ID": 70,
		"LoseConditionType": "BattleLoseConditionType_ActorDie",
		"Param1": [
			1365
		]
	},
	{
		"ID": 71,
		"LoseConditionType": "BattleLoseConditionType_ActorDie",
		"Param1": [
			1366
		]
	},
	{
		"ID": 72,
		"LoseConditionType": "BattleLoseConditionType_ActorDie",
		"Param1": [
			1397
		]
	},
	{
		"ID": 73,
		"LoseConditionType": "BattleLoseConditionType_ActorDie",
		"Param1": [
			1399
		]
	},
	{
		"ID": 74,
		"LoseConditionType": "BattleLoseConditionType_ActorDie",
		"Param1": [
			1400
		]
	},
	{
		"ID": 75,
		"LoseConditionType": "BattleLoseConditionType_NpcDieCount",
		"Param1": [
			1406
		],
		"Param2": [
			3
		]
	},
	{
		"ID": 76,
		"LoseConditionType": "BattleLoseConditionType_PlayerDieCount",
		"Param2": [
			2
		]
	},
	{
		"ID": 77,
		"LoseConditionType": "BattleLoseConditionType_PlayerDieCount",
		"Param2": [
			4
		]
	},
	{
		"ID": 78,
		"LoseConditionType": "BattleLoseConditionType_NpcDieCount",
		"Param1": [
			1407
		],
		"Param2": [
			4
		]
	},
	{
		"ID": 79,
		"LoseConditionType": "BattleLoseConditionType_ActorDie",
		"Param1": [
			1404
		]
	},
	{
		"ID": 94,
		"LoseConditionType": "BattleLoseConditionType_ActorDie",
		"Param1": [
			2404
		]
	},
	{
		"ID": 95,
		"LoseConditionType": "BattleLoseConditionType_ActorDie",
		"Param1": [
			2391
		]
	},
	{
		"ID": 96,
		"LoseConditionType": "BattleLoseConditionType_ActorDie",
		"Param1": [
			2397
		]
	},
	{
		"ID": 97,
		"LoseConditionType": "BattleLoseConditionType_ActorDie",
		"Param1": [
			2384
		]
	},
	{
		"ID": 98,
		"LoseConditionType": "BattleLoseConditionType_ActorDie",
		"Param1": [
			2380
		]
	},
	{
		"ID": 99,
		"LoseConditionType": "BattleLoseConditionType_ActorDie",
		"Param1": [
			2393
		]
	},
	{
		"ID": 100,
		"LoseConditionType": "BattleLoseConditionType_EventTrigger",
		"Param1": [
			3634
		]
	},
	{
		"ID": 101,
		"LoseConditionType": "BattleLoseConditionType_EventTrigger",
		"Param1": [
			3654
		]
	},
	{
		"ID": 102,
		"LoseConditionType": "BattleLoseConditionType_PlayerDieCount",
		"Param2": [
			2
		]
	},
	{
		"ID": 104,
		"LoseConditionType": "BattleLoseConditionType_ActorDie",
		"Param1": [
			1505
		]
	},
	{
		"ID": 105,
		"LoseConditionType": "BattleLoseConditionType_PlayerDieCount",
		"Param2": [
			3
		]
	},
	{
		"ID": 127,
		"LoseConditionType": "BattleLoseConditionType_ActorReachPosition",
		"Param1": [
			4536
		],
		"Param2": [
			1
		],
		"Param3": [
			{
				"X": 0,
				"Y": 0
			},
			{
				"X": 1,
				"Y": 0
			},
			{
				"X": 15,
				"Y": 17
			},
			{
				"X": 16,
				"Y": 17
			}
		]
	},
	{
		"ID": 348,
		"LoseConditionType": "BattleLoseConditionType_ActorDie",
		"Param1": [
			1795
		]
	},
	{
		"ID": 801,
		"LoseConditionType": "BattleLoseConditionType_ActorDie",
		"Param1": [
			2472
		]
	},
	{
		"ID": 802,
		"LoseConditionType": "BattleLoseConditionType_ActorDie",
		"Param1": [
			2479
		]
	},
	{
		"ID": 999,
		"LoseConditionType": "BattleLoseConditionType_DieAll"
	},
	{
		"ID": 1001,
		"LoseConditionType": "BattleLoseConditionType_DieCount",
		"Param2": [
			2
		]
	},
	{
		"ID": 1002,
		"LoseConditionType": "BattleLoseConditionType_ActorDie",
		"Param1": [
			1513
		]
	},
	{
		"ID": 1003,
		"LoseConditionType": "BattleLoseConditionType_ActorDie",
		"Param1": [
			1540
		]
	},
	{
		"ID": 1004,
		"LoseConditionType": "BattleLoseConditionType_NpcDieCount",
		"Param1": [
			3507
		],
		"Param2": [
			3
		]
	},
	{
		"ID": 1005,
		"LoseConditionType": "BattleLoseConditionType_ActorReachPosition",
		"Param1": [
			324
		],
		"Param3": [
			{
				"X": 8,
				"Y": 1
			}
		]
	},
	{
		"ID": 1006,
		"LoseConditionType": "BattleLoseConditionType_ActorReachPosition",
		"Param1": [
			330
		],
		"Param3": [
			{
				"X": 8,
				"Y": 1
			}
		]
	},
	{
		"ID": 1007,
		"LoseConditionType": "BattleLoseConditionType_ActorReachPosition",
		"Param2": [
			1
		],
		"Param3": [
			{
				"X": 0,
				"Y": 16
			},
			{
				"X": 1,
				"Y": 16
			},
			{
				"X": 2,
				"Y": 16
			},
			{
				"X": 3,
				"Y": 16
			},
			{
				"X": 4,
				"Y": 16
			},
			{
				"X": 5,
				"Y": 16
			},
			{
				"X": 6,
				"Y": 16
			},
			{
				"X": 7,
				"Y": 16
			},
			{
				"X": 8,
				"Y": 16
			},
			{
				"X": 9,
				"Y": 16
			},
			{
				"X": 10,
				"Y": 16
			},
			{
				"X": 11,
				"Y": 16
			},
			{
				"X": 12,
				"Y": 16
			},
			{
				"X": 13,
				"Y": 16
			},
			{
				"X": 14,
				"Y": 16
			},
			{
				"X": 15,
				"Y": 16
			}
		]
	},
	{
		"ID": 1008,
		"LoseConditionType": "BattleLoseConditionType_ActorDie",
		"Param1": [
			1541
		]
	},
	{
		"ID": 1009,
		"LoseConditionType": "BattleLoseConditionType_DieCount",
		"Param2": [
			3
		]
	},
	{
		"ID": 1010,
		"LoseConditionType": "BattleLoseConditionType_ActorDie",
		"Param1": [
			1375
		]
	},
	{
		"ID": 1011,
		"LoseConditionType": "BattleLoseConditionType_ActorReachPosition",
		"Param2": [
			1
		],
		"Param3": [
			{
				"X": 0,
				"Y": 0
			},
			{
				"X": 1,
				"Y": 0
			},
			{
				"X": 2,
				"Y": 0
			}
		]
	},
	{
		"ID": 1012,
		"LoseConditionType": "BattleLoseConditionType_ActorDie",
		"Param1": [
			1380
		]
	},
	{
		"ID": 1013,
		"LoseConditionType": "BattleLoseConditionType_ActorDie",
		"Param1": [
			1387
		]
	},
	{
		"ID": 1014,
		"LoseConditionType": "BattleLoseConditionType_NpcDieCount",
		"Param2": [
			5
		]
	},
	{
		"ID": 1015,
		"LoseConditionType": "BattleLoseConditionType_ActorDie",
		"Param1": [
			1712
		]
	},
	{
		"ID": 1016,
		"LoseConditionType": "BattleLoseConditionType_ActorDie",
		"Param1": [
			1787
		]
	},
	{
		"ID": 1056,
		"LoseConditionType": "BattleLoseConditionType_ActorDie",
		"Param1": [
			1919
		]
	},
	{
		"ID": 1057,
		"LoseConditionType": "BattleLoseConditionType_ActorDie",
		"Param1": [
			1963
		]
	},
	{
		"ID": 1058,
		"LoseConditionType": "BattleLoseConditionType_ActorDie",
		"Param1": [
			1542
		]
	},
	{
		"ID": 1999,
		"LoseConditionType": "BattleLoseConditionType_PlayerDieCount",
		"Param2": [
			1
		]
	},
	{
		"ID": 525,
		"LoseConditionType": "BattleLoseConditionType_ActorReachPosition",
		"Param1": [
			350
		],
		"Param3": [
			{
				"X": 0,
				"Y": 15
			}
		]
	},
	{
		"ID": 508,
		"LoseConditionType": "BattleLoseConditionType_ActorDie",
		"Param1": [
			1568
		]
	},
	{
		"ID": 509,
		"LoseConditionType": "BattleLoseConditionType_ActorDie",
		"Param1": [
			1573
		]
	},
	{
		"ID": 510,
		"LoseConditionType": "BattleLoseConditionType_ActorDie",
		"Param1": [
			1576
		]
	},
	{
		"ID": 511,
		"LoseConditionType": "BattleLoseConditionType_ActorDie",
		"Param1": [
			1577
		]
	},
	{
		"ID": 512,
		"LoseConditionType": "BattleLoseConditionType_ActorDie",
		"Param1": [
			1582
		]
	},
	{
		"ID": 513,
		"LoseConditionType": "BattleLoseConditionType_ActorDie",
		"Param1": [
			1504
		]
	},
	{
		"ID": 514,
		"LoseConditionType": "BattleLoseConditionType_ActorDie",
		"Param1": [
			1505
		]
	},
	{
		"ID": 1502,
		"LoseConditionType": "BattleLoseConditionType_ActorDie",
		"Param1": [
			1563
		]
	},
	{
		"ID": 1503,
		"LoseConditionType": "BattleLoseConditionType_ActorDie",
		"Param1": [
			1590
		]
	},
	{
		"ID": 1504,
		"LoseConditionType": "BattleLoseConditionType_NpcDieCount",
		"Param1": [
			3507
		],
		"Param2": [
			3
		]
	},
	{
		"ID": 1505,
		"LoseConditionType": "BattleLoseConditionType_ActorReachPosition",
		"Param1": [
			374
		],
		"Param3": [
			{
				"X": 8,
				"Y": 1
			}
		]
	},
	{
		"ID": 1506,
		"LoseConditionType": "BattleLoseConditionType_ActorReachPosition",
		"Param1": [
			380
		],
		"Param3": [
			{
				"X": 8,
				"Y": 1
			}
		]
	},
	{
		"ID": 1507,
		"LoseConditionType": "BattleLoseConditionType_ActorReachPosition",
		"Param2": [
			1
		],
		"Param3": [
			{
				"X": 0,
				"Y": 16
			},
			{
				"X": 1,
				"Y": 16
			},
			{
				"X": 2,
				"Y": 16
			},
			{
				"X": 3,
				"Y": 16
			},
			{
				"X": 4,
				"Y": 16
			},
			{
				"X": 5,
				"Y": 16
			},
			{
				"X": 6,
				"Y": 16
			},
			{
				"X": 7,
				"Y": 16
			},
			{
				"X": 8,
				"Y": 16
			},
			{
				"X": 9,
				"Y": 16
			},
			{
				"X": 10,
				"Y": 16
			},
			{
				"X": 11,
				"Y": 16
			},
			{
				"X": 12,
				"Y": 16
			},
			{
				"X": 13,
				"Y": 16
			},
			{
				"X": 14,
				"Y": 16
			},
			{
				"X": 15,
				"Y": 16
			}
		]
	},
	{
		"ID": 1508,
		"LoseConditionType": "BattleLoseConditionType_ActorDie",
		"Param1": [
			1591
		]
	},
	{
		"ID": 1510,
		"LoseConditionType": "BattleLoseConditionType_ActorDie",
		"Param1": [
			1605
		]
	},
	{
		"ID": 1511,
		"LoseConditionType": "BattleLoseConditionType_ActorReachPosition",
		"Param2": [
			1
		],
		"Param3": [
			{
				"X": 0,
				"Y": 0
			},
			{
				"X": 1,
				"Y": 0
			},
			{
				"X": 2,
				"Y": 0
			}
		]
	},
	{
		"ID": 1512,
		"LoseConditionType": "BattleLoseConditionType_ActorDie",
		"Param1": [
			1610
		]
	},
	{
		"ID": 1513,
		"LoseConditionType": "BattleLoseConditionType_ActorDie",
		"Param1": [
			1617
		]
	},
	{
		"ID": 1514,
		"LoseConditionType": "BattleLoseConditionType_NpcDieCount",
		"Param2": [
			5
		]
	},
	{
		"ID": 1515,
		"LoseConditionType": "BattleLoseConditionType_ActorDie",
		"Param1": [
			1731
		]
	},
	{
		"ID": 1516,
		"LoseConditionType": "BattleLoseConditionType_ActorDie",
		"Param1": [
			1788
		]
	},
	{
		"ID": 1517,
		"LoseConditionType": "BattleLoseConditionType_ActorDie",
		"Param1": [
			1592
		]
	},
	{
		"ID": 1556,
		"LoseConditionType": "BattleLoseConditionType_ActorDie",
		"Param1": [
			1933
		]
	},
	{
		"ID": 1557,
		"LoseConditionType": "BattleLoseConditionType_ActorDie",
		"Param1": [
			1964
		]
	},
	{
		"ID": 2360,
		"LoseConditionType": "BattleLoseConditionType_ActorDie",
		"Param1": [
			1593
		]
	},
	{
		"ID": 2390,
		"LoseConditionType": "BattleLoseConditionType_NpcDieCount",
		"Param2": [
			2
		]
	},
	{
		"ID": 2440,
		"LoseConditionType": "BattleLoseConditionType_NpcDieCount",
		"Param2": [
			1
		]
	},
	{
		"ID": 2450,
		"LoseConditionType": "BattleLoseConditionType_ActorDie",
		"Param1": [
			1549
		]
	},
	{
		"ID": 2460,
		"LoseConditionType": "BattleLoseConditionType_ActorDie",
		"Param1": [
			1550
		]
	},
	{
		"ID": 2470,
		"LoseConditionType": "BattleLoseConditionType_ActorDie",
		"Param1": [
			1551
		]
	},
	{
		"ID": 2480,
		"LoseConditionType": "BattleLoseConditionType_ActorDie",
		"Param1": [
			1546
		]
	},
	{
		"ID": 2490,
		"LoseConditionType": "BattleLoseConditionType_ActorDie",
		"Param1": [
			1547
		]
	},
	{
		"ID": 2500,
		"LoseConditionType": "BattleLoseConditionType_ActorDie",
		"Param1": [
			1552
		]
	},
	{
		"ID": 2510,
		"LoseConditionType": "BattleLoseConditionType_ActorDie",
		"Param1": [
			1553
		]
	},
	{
		"ID": 2520,
		"LoseConditionType": "BattleLoseConditionType_ActorDie",
		"Param1": [
			1554
		]
	},
	{
		"ID": 2530,
		"LoseConditionType": "BattleLoseConditionType_ActorDie",
		"Param1": [
			1555
		]
	},
	{
		"ID": 2531,
		"LoseConditionType": "BattleLoseConditionType_ActorDie",
		"Param1": [
			5517
		]
	},
	{
		"ID": 2640,
		"LoseConditionType": "BattleLoseConditionType_ActorReachPosition",
		"Param2": [
			1
		],
		"Param3": [
			{
				"X": 7,
				"Y": 2
			}
		]
	},
	{
		"ID": 2730,
		"LoseConditionType": "BattleLoseConditionType_ActorReachPosition",
		"Param2": [
			1
		],
		"Param3": [
			{
				"X": 14,
				"Y": 5
			}
		]
	},
	{
		"ID": 2800,
		"LoseConditionType": "BattleLoseConditionType_ActorReachPosition",
		"Param2": [
			1
		],
		"Param3": [
			{
				"X": 13,
				"Y": 1
			}
		]
	},
	{
		"ID": 2810,
		"LoseConditionType": "BattleLoseConditionType_ActorReachPosition",
		"Param2": [
			1
		],
		"Param3": [
			{
				"X": 10,
				"Y": 2
			}
		]
	},
	{
		"ID": 2830,
		"LoseConditionType": "BattleLoseConditionType_NpcDieCount",
		"Param2": [
			1
		]
	},
	{
		"ID": 2850,
		"LoseConditionType": "BattleLoseConditionType_NpcDieCount",
		"Param2": [
			1
		]
	},
	{
		"ID": 2855,
		"LoseConditionType": "BattleLoseConditionType_ActorDie",
		"Param1": [
			3907
		]
	},
	{
		"ID": 2865,
		"LoseConditionType": "BattleLoseConditionType_NpcDieCount",
		"Param2": [
			2
		]
	},
	{
		"ID": 2870,
		"LoseConditionType": "BattleLoseConditionType_NpcDieCount",
		"Param2": [
			1
		]
	},
	{
		"ID": 2875,
		"LoseConditionType": "BattleLoseConditionType_NpcDieCount",
		"Param2": [
			3
		]
	},
	{
		"ID": 2880,
		"LoseConditionType": "BattleLoseConditionType_NpcDieCount",
		"Param2": [
			3
		]
	},
	{
		"ID": 2885,
		"LoseConditionType": "BattleLoseConditionType_NpcDieCount",
		"Param2": [
			1
		]
	},
	{
		"ID": 2905,
		"LoseConditionType": "BattleLoseConditionType_ActorReachPosition",
		"Param2": [
			1
		],
		"Param3": [
			{
				"X": 13,
				"Y": 6
			}
		]
	},
	{
		"ID": 2915,
		"LoseConditionType": "BattleLoseConditionType_ActorReachPosition",
		"Param2": [
			1
		],
		"Param3": [
			{
				"X": 8,
				"Y": 1
			}
		]
	},
	{
		"ID": 3000,
		"LoseConditionType": "BattleLoseConditionType_ActorDie",
		"Param1": [
			10
		]
	},
	{
		"ID": 3001,
		"LoseConditionType": "BattleLoseConditionType_ActorDie",
		"Param1": [
			26
		]
	},
	{
		"ID": 3002,
		"LoseConditionType": "BattleLoseConditionType_ActorDie",
		"Param1": [
			1203
		]
	},
	{
		"ID": 3003,
		"LoseConditionType": "BattleLoseConditionType_ActorDie",
		"Param1": [
			31
		]
	},
	{
		"ID": 3004,
		"LoseConditionType": "BattleLoseConditionType_ActorDie",
		"Param1": [
			1134
		]
	},
	{
		"ID": 3005,
		"LoseConditionType": "BattleLoseConditionType_NpcDieCount",
		"Param1": [
			1136
		],
		"Param2": [
			4
		]
	},
	{
		"ID": 3006,
		"LoseConditionType": "BattleLoseConditionType_ActorDie",
		"Param1": [
			1145
		]
	},
	{
		"ID": 3007,
		"LoseConditionType": "BattleLoseConditionType_ActorDie",
		"Param1": [
			1146
		]
	},
	{
		"ID": 3008,
		"LoseConditionType": "BattleLoseConditionType_ActorDie",
		"Param1": [
			1147
		]
	},
	{
		"ID": 3009,
		"LoseConditionType": "BattleLoseConditionType_ActorDie",
		"Param1": [
			34
		]
	},
	{
		"ID": 3010,
		"LoseConditionType": "BattleLoseConditionType_ActorDie",
		"Param1": [
			1203
		]
	},
	{
		"ID": 3011,
		"LoseConditionType": "BattleLoseConditionType_ActorDie",
		"Param1": [
			1204
		]
	},
	{
		"ID": 3012,
		"LoseConditionType": "BattleLoseConditionType_ActorDie",
		"Param1": [
			36
		]
	},
	{
		"ID": 3013,
		"LoseConditionType": "BattleLoseConditionType_ActorDie",
		"Param1": [
			1504
		]
	},
	{
		"ID": 3014,
		"LoseConditionType": "BattleLoseConditionType_ActorDie",
		"Param1": [
			2148,
			2149,
			2150
		]
	},
	{
		"ID": 3015,
		"LoseConditionType": "BattleLoseConditionType_ActorDie",
		"Param1": [
			2151,
			2152,
			2153
		]
	},
	{
		"ID": 3016,
		"LoseConditionType": "BattleLoseConditionType_ActorDie",
		"Param1": [
			2137
		]
	},
	{
		"ID": 3017,
		"LoseConditionType": "BattleLoseConditionType_ActorDie",
		"Param1": [
			2138
		]
	},
	{
		"ID": 3018,
		"LoseConditionType": "BattleLoseConditionType_ActorDie",
		"Param1": [
			2124
		]
	},
	{
		"ID": 3019,
		"LoseConditionType": "BattleLoseConditionType_ActorDie",
		"Param1": [
			49
		]
	},
	{
		"ID": 3020,
		"LoseConditionType": "BattleLoseConditionType_ActorDie",
		"Param1": [
			2169
		]
	},
	{
		"ID": 3021,
		"LoseConditionType": "BattleLoseConditionType_ActorDie",
		"Param1": [
			2345
		]
	},
	{
		"ID": 3022,
		"LoseConditionType": "BattleLoseConditionType_ActorDie",
		"Param1": [
			2352
		]
	},
	{
		"ID": 3023,
		"LoseConditionType": "BattleLoseConditionType_ActorDie",
		"Param1": [
			2356
		]
	},
	{
		"ID": 3024,
		"LoseConditionType": "BattleLoseConditionType_ActorDie",
		"Param1": [
			2359
		]
	},
	{
		"ID": 3025,
		"LoseConditionType": "BattleLoseConditionType_EventTrigger",
		"Param1": [
			120481
		]
	},
	{
		"ID": 3026,
		"LoseConditionType": "BattleLoseConditionType_EventTrigger",
		"Param1": [
			120511
		]
	},
	{
		"ID": 3027,
		"LoseConditionType": "BattleLoseConditionType_ActorDie",
		"Param1": [
			2463
		]
	},
	{
		"ID": 3028,
		"LoseConditionType": "BattleLoseConditionType_ActorDie",
		"Param1": [
			2469
		]
	},
	{
		"ID": 6021,
		"LoseConditionType": "BattleLoseConditionType_ActorDie",
		"Param1": [
			1051
		]
	},
	{
		"ID": 6102,
		"LoseConditionType": "BattleLoseConditionType_NpcDieCount",
		"Param2": [
			3
		]
	},
	{
		"ID": 6601,
		"LoseConditionType": "BattleLoseConditionType_ActorDie",
		"Param1": [
			2431
		]
	},
	{
		"ID": 6602,
		"LoseConditionType": "BattleLoseConditionType_ActorDie",
		"Param1": [
			2432
		]
	},
	{
		"ID": 7070,
		"LoseConditionType": "BattleLoseConditionType_ActorDie",
		"Param1": [
			8
		]
	},
	{
		"ID": 7072,
		"LoseConditionType": "BattleLoseConditionType_NpcDieCount",
		"Param2": [
			2
		]
	},
	{
		"ID": 7073,
		"LoseConditionType": "BattleLoseConditionType_NpcDieCount",
		"Param1": [
			3906
		],
		"Param2": [
			2
		]
	},
	{
		"ID": 7076,
		"LoseConditionType": "BattleLoseConditionType_PlayerDieCount",
		"Param2": [
			2
		]
	},
	{
		"ID": 7077,
		"LoseConditionType": "BattleLoseConditionType_NpcDieCount",
		"Param2": [
			1
		]
	},
	{
		"ID": 7080,
		"LoseConditionType": "BattleLoseConditionType_ActorDie",
		"Param1": [
			9
		]
	},
	{
		"ID": 7083,
		"LoseConditionType": "BattleLoseConditionType_EventTrigger",
		"Param1": [
			2835
		]
	},
	{
		"ID": 7130,
		"LoseConditionType": "BattleLoseConditionType_ActorDie",
		"Param1": [
			14
		]
	},
	{
		"ID": 7131,
		"LoseConditionType": "BattleLoseConditionType_ActorDie",
		"Param1": [
			1037
		]
	},
	{
		"ID": 7132,
		"LoseConditionType": "BattleLoseConditionType_ActorDie",
		"Param1": [
			1211
		]
	},
	{
		"ID": 7133,
		"LoseConditionType": "BattleLoseConditionType_ActorDie",
		"Param1": [
			316
		]
	},
	{
		"ID": 7136,
		"LoseConditionType": "BattleLoseConditionType_ActorDie",
		"Param1": [
			313
		]
	},
	{
		"ID": 7140,
		"LoseConditionType": "BattleLoseConditionType_ActorDie",
		"Param1": [
			5
		]
	},
	{
		"ID": 7141,
		"LoseConditionType": "BattleLoseConditionType_NpcDieCount",
		"Param2": [
			3
		]
	},
	{
		"ID": 7142,
		"LoseConditionType": "BattleLoseConditionType_NpcDieCount",
		"Param2": [
			1
		]
	},
	{
		"ID": 7143,
		"LoseConditionType": "BattleLoseConditionType_ActorDie",
		"Param1": [
			1067
		]
	},
	{
		"ID": 7144,
		"LoseConditionType": "BattleLoseConditionType_NpcDieCount",
		"Param2": [
			4
		]
	},
	{
		"ID": 7150,
		"LoseConditionType": "BattleLoseConditionType_ActorDie",
		"Param1": [
			15
		]
	},
	{
		"ID": 7151,
		"LoseConditionType": "BattleLoseConditionType_NpcDieCount",
		"Param1": [
			1370
		],
		"Param2": [
			2
		]
	},
	{
		"ID": 7152,
		"LoseConditionType": "BattleLoseConditionType_ActorDie",
		"Param1": [
			618
		]
	},
	{
		"ID": 7153,
		"LoseConditionType": "BattleLoseConditionType_ActorDie",
		"Param1": [
			619
		]
	},
	{
		"ID": 7154,
		"LoseConditionType": "BattleLoseConditionType_ActorDie",
		"Param1": [
			1371
		]
	},
	{
		"ID": 7155,
		"LoseConditionType": "BattleLoseConditionType_NpcDieCount",
		"Param2": [
			3
		]
	},
	{
		"ID": 7156,
		"LoseConditionType": "BattleLoseConditionType_ActorDie",
		"Param1": [
			1217
		]
	},
	{
		"ID": 7180,
		"LoseConditionType": "BattleLoseConditionType_ActorDie",
		"Param1": [
			18
		]
	},
	{
		"ID": 7200,
		"LoseConditionType": "BattleLoseConditionType_ActorDie",
		"Param1": [
			16,
			1624
		]
	},
	{
		"ID": 7201,
		"LoseConditionType": "BattleLoseConditionType_ActorDie",
		"Param1": [
			16,
			1625
		]
	},
	{
		"ID": 7202,
		"LoseConditionType": "BattleLoseConditionType_ActorDie",
		"Param1": [
			16,
			1626
		]
	},
	{
		"ID": 7203,
		"LoseConditionType": "BattleLoseConditionType_ActorDie",
		"Param1": [
			16,
			1627
		]
	},
	{
		"ID": 7204,
		"LoseConditionType": "BattleLoseConditionType_ActorDie",
		"Param1": [
			16
		]
	},
	{
		"ID": 7205,
		"LoseConditionType": "BattleLoseConditionType_NpcDieCount",
		"Param1": [
			1629
		],
		"Param2": [
			2
		]
	},
	{
		"ID": 7206,
		"LoseConditionType": "BattleLoseConditionType_NpcDieCount",
		"Param1": [
			1630
		],
		"Param2": [
			2
		]
	},
	{
		"ID": 7210,
		"LoseConditionType": "BattleLoseConditionType_ActorDie",
		"Param1": [
			25
		]
	},
	{
		"ID": 7211,
		"LoseConditionType": "BattleLoseConditionType_ActorDie",
		"Param1": [
			25,
			1766
		]
	},
	{
		"ID": 7212,
		"LoseConditionType": "BattleLoseConditionType_ActorDie",
		"Param1": [
			29
		]
	},
	{
		"ID": 7213,
		"LoseConditionType": "BattleLoseConditionType_EventTrigger",
		"Param1": [
			125105
		]
	},
	{
		"ID": 7214,
		"LoseConditionType": "BattleLoseConditionType_ActorDie",
		"Param1": [
			11
		]
	},
	{
		"ID": 7215,
		"LoseConditionType": "BattleLoseConditionType_NpcDieCount",
		"Param2": [
			2
		]
	},
	{
		"ID": 7216,
		"LoseConditionType": "BattleLoseConditionType_ActorDie",
		"Param1": [
			1882
		]
	},
	{
		"ID": 7217,
		"LoseConditionType": "BattleLoseConditionType_ActorDie",
		"Param1": [
			1883
		]
	},
	{
		"ID": 7218,
		"LoseConditionType": "BattleLoseConditionType_DieCount",
		"Param2": [
			2
		]
	},
	{
		"ID": 7219,
		"LoseConditionType": "BattleLoseConditionType_ActorDie",
		"Param1": [
			1890
		]
	},
	{
		"ID": 7220,
		"LoseConditionType": "BattleLoseConditionType_ActorDie",
		"Param1": [
			20
		]
	},
	{
		"ID": 7221,
		"LoseConditionType": "BattleLoseConditionType_NpcDieCount",
		"Param2": [
			1
		]
	},
	{
		"ID": 7222,
		"LoseConditionType": "BattleLoseConditionType_DieCount",
		"Param2": [
			3
		]
	},
	{
		"ID": 7223,
		"LoseConditionType": "BattleLoseConditionType_ActorReachPosition",
		"Param2": [
			1
		],
		"Param3": [
			{
				"X": 9,
				"Y": 1
			},
			{
				"X": 10,
				"Y": 1
			},
			{
				"X": 9,
				"Y": 2
			},
			{
				"X": 10,
				"Y": 2
			},
			{
				"X": 9,
				"Y": 3
			},
			{
				"X": 10,
				"Y": 3
			}
		]
	},
	{
		"ID": 7224,
		"LoseConditionType": "BattleLoseConditionType_ActorDie",
		"Param1": [
			53
		]
	},
	{
		"ID": 7270,
		"LoseConditionType": "BattleLoseConditionType_ActorDie",
		"Param1": [
			27
		]
	},
	{
		"ID": 7271,
		"LoseConditionType": "BattleLoseConditionType_ActorDie",
		"Param1": [
			1680
		]
	},
	{
		"ID": 7272,
		"LoseConditionType": "BattleLoseConditionType_ActorReachPosition",
		"Param1": [
			1661
		],
		"Param2": [
			1
		],
		"Param3": [
			{
				"X": 2,
				"Y": 20
			},
			{
				"X": 3,
				"Y": 20
			}
		]
	},
	{
		"ID": 7273,
		"LoseConditionType": "BattleLoseConditionType_ActorDie",
		"Param1": [
			1681
		]
	},
	{
		"ID": 7274,
		"LoseConditionType": "BattleLoseConditionType_ActorDie",
		"Param1": [
			1682
		]
	},
	{
		"ID": 7275,
		"LoseConditionType": "BattleLoseConditionType_ActorDie",
		"Param1": [
			1683
		]
	},
	{
		"ID": 7276,
		"LoseConditionType": "BattleLoseConditionType_ActorDie",
		"Param1": [
			1684
		]
	},
	{
		"ID": 7280,
		"LoseConditionType": "BattleLoseConditionType_ActorDie",
		"Param1": [
			28
		]
	},
	{
		"ID": 7281,
		"LoseConditionType": "BattleLoseConditionType_ActorDie",
		"Param1": [
			1023
		]
	},
	{
		"ID": 7282,
		"LoseConditionType": "BattleLoseConditionType_NpcDieCount",
		"Param2": [
			1
		]
	},
	{
		"ID": 7320,
		"LoseConditionType": "BattleLoseConditionType_ActorDie",
		"Param1": [
			32
		]
	},
	{
		"ID": 7321,
		"LoseConditionType": "BattleLoseConditionType_NpcDieCount",
		"Param2": [
			4
		]
	},
	{
		"ID": 7322,
		"LoseConditionType": "BattleLoseConditionType_NpcDieCount",
		"Param2": [
			3
		]
	},
	{
		"ID": 7323,
		"LoseConditionType": "BattleLoseConditionType_NpcDieCount",
		"Param2": [
			4
		]
	},
	{
		"ID": 7324,
		"LoseConditionType": "BattleLoseConditionType_ActorDie",
		"Param1": [
			1959
		]
	},
	{
		"ID": 7325,
		"LoseConditionType": "BattleLoseConditionType_ActorDie",
		"Param1": [
			1960
		]
	},
	{
		"ID": 7326,
		"LoseConditionType": "BattleLoseConditionType_ActorDie",
		"Param1": [
			1961
		]
	},
	{
		"ID": 7330,
		"LoseConditionType": "BattleLoseConditionType_ActorDie",
		"Param1": [
			33
		]
	},
	{
		"ID": 7340,
		"LoseConditionType": "BattleLoseConditionType_ActorDie",
		"Param1": [
			51
		]
	},
	{
		"ID": 7341,
		"LoseConditionType": "BattleLoseConditionType_ActorDie",
		"Param1": [
			2076
		]
	},
	{
		"ID": 7350,
		"LoseConditionType": "BattleLoseConditionType_ActorDie",
		"Param1": [
			37
		]
	},
	{
		"ID": 7355,
		"LoseConditionType": "BattleLoseConditionType_ActorDie",
		"Param1": [
			38
		]
	},
	{
		"ID": 7520,
		"LoseConditionType": "BattleLoseConditionType_ActorDie",
		"Param1": [
			52
		]
	},
	{
		"ID": 7521,
		"LoseConditionType": "BattleLoseConditionType_NpcDieCount",
		"Param2": [
			1
		]
	},
	{
		"ID": 7522,
		"LoseConditionType": "BattleLoseConditionType_ActorDie",
		"Param1": [
			54
		]
	},
	{
		"ID": 7523,
		"LoseConditionType": "BattleLoseConditionType_ActorDie",
		"Param1": [
			691
		]
	},
	{
		"ID": 8000,
		"LoseConditionType": "BattleLoseConditionType_PlayerDieCount",
		"Param2": [
			2
		]
	}
]