[
	{
		"ID": 1,
		"Name": "Valkyrie",
		"Desc": "",
		"TeamName": "Eternal Temple",
		"LevelList": [
			1,
			2,
			3
		],
		"StartTimeList": [
			1,
			4
		],
		"Model": "Spine/Summon/Valkyrie_ABS/Valkyrie_prefab.prefab",
		"UIModelScale": 170,
		"UIModelOffsetX": 50,
		"UIModelOffsetY": -15,
		"UpHeroTagIDS": [
			3,
			4
		],
		"UpSkillID": 75000
	},
	{
		"ID": 2,
		"Name": "Leviar",
		"Desc": "",
		"TeamName": "Eternal Temple",
		"LevelList": [
			11,
			12,
			13
		],
		"StartTimeList": [
			2,
			5
		],
		"Model": "Spine/Monster/Dragon_ABS/Dragon_Prefab.prefab",
		"UIModelScale": 130,
		"UIModelOffsetX": 0,
		"UIModelOffsetY": -65,
		"UpHeroTagIDS": [
			5,
			6
		],
		"UpSkillID": 75000
	},
	{
		"ID": 3,
		"Name": "Scylla",
		"Desc": "",
		"TeamName": "Eternal Temple",
		"LevelList": [
			21,
			22,
			23
		],
		"StartTimeList": [
			3,
			6
		],
		"Model": "Spine/Boss/Scylla_ABS/Scylla_Prefab.prefab",
		"UIModelScale": 130,
		"UIModelOffsetX": 0,
		"UIModelOffsetY": -30,
		"UpHeroTagIDS": [
			2,
			8
		],
		"UpSkillID": 75000
	},
	{
		"ID": 4,
		"Name": "Phoenix",
		"Desc": "",
		"TeamName": "Eternal Temple",
		"LevelList": [
			31,
			32,
			33
		],
		"StartTimeList": [
			7
		],
		"Model": "Spine/Summon/Phoenix_ABS/Phoenix_Prefab.prefab",
		"UIModelScale": 170,
		"UIModelOffsetX": 0,
		"UIModelOffsetY": 0,
		"UpHeroTagIDS": [
			1,
			7
		],
		"UpSkillID": 75000
	}
]