[
	{
		"ID": 101,
		"Word": "Our adventure will carry on... along this path!"
	},
	{
		"ID": 102,
		"Word": "How much blood has been spilled by darkness? We must end it all!"
	},
	{
		"ID": 103,
		"Word": "It's windy..."
	},
	{
		"ID": 104,
		"Word": "In this world, there is no destined good and evil... at least this is what I believe now."
	},
	{
		"ID": 105,
		"Word": "Well! It's a step closer to the target. Well done!"
	},
	{
		"ID": 106,
		"Word": "Our adventure will carry on... along this path!"
	},
	{
		"ID": 107,
		"Word": "Well! It's a step closer to the target. Well done!"
	},
	{
		"ID": 108,
		"Word": "Well... I successfully upgraded! It's time to treat everyone to a meal again..."
	},
	{
		"ID": 301,
		"Word": "This is my first time away from the village! The outside world isn't really that special after all."
	},
	{
		"ID": 302,
		"Word": "No time to explain! Let's solve our problems like men! -- with our fists, ha-ha!"
	},
	{
		"ID": 303,
		"Word": "What... My luck stat is just the worst..."
	},
	{
		"ID": 304,
		"Word": "Your massage skills are insane!"
	},
	{
		"ID": 305,
		"Word": "Stop it!"
	},
	{
		"ID": 306,
		"Word": "Can't keep your hands where they belong? Are you looking for a fight?"
	},
	{
		"ID": 307,
		"Word": "It's a pleasure to meet you. I hope we have another chance to work together in the near future."
	},
	{
		"ID": 308,
		"Word": "Ahhh! You played me again!"
	},
	{
		"ID": 309,
		"Word": "Hey! How about some barbecue, buddy!"
	},
	{
		"ID": 310,
		"Word": "Strategy? That's totally above me. I just want a good fight!"
	},
	{
		"ID": 311,
		"Word": "That was easy! We sure are strong! Ha-ha-ha-ha! Time to celebrate -- let's get some meat in us!"
	},
	{
		"ID": 312,
		"Word": "Don't worry too much. I don't get those lofty ideals, but I'll be with you even if it means I have to go to hell!"
	},
	{
		"ID": 313,
		"Word": "Is there news from the mainland? Tell me!"
	},
	{
		"ID": 314,
		"Word": "Oh! Lookin' good today! Lady killer coming through -- watch out now!"
	},
	{
		"ID": 315,
		"Word": "Hey! How about some barbecue, buddy!"
	},
	{
		"ID": 316,
		"Word": "Spectacular! Such power! This feeling is... Anyway, it's getting stronger, ha-ha-ha!"
	},
	{
		"ID": 317,
		"Word": "Oh! Lookin' good today! Lady killer coming through -- watch out now!"
	},
	{
		"ID": 401,
		"Word": "Langrisser's Memory, please light the way!"
	},
	{
		"ID": 402,
		"Word": "What you really hate is the thought of being worthless. Don't you realize that?"
	},
	{
		"ID": 403,
		"Word": "How carefree I used to be in Kalxath forest... I can't go back there anymore..."
	},
	{
		"ID": 404,
		"Word": "Although I shoulder an incredible fate... I'm just a girl, after all..."
	},
	{
		"ID": 405,
		"Word": "Eh... Someone will see us!"
	},
	{
		"ID": 406,
		"Word": "Light... Be gentle..."
	},
	{
		"ID": 407,
		"Word": "Ah! Stop it!"
	},
	{
		"ID": 408,
		"Word": "Ha!? Here... Not there!"
	},
	{
		"ID": 409,
		"Word": "Please tidy up this messy room!"
	},
	{
		"ID": 410,
		"Word": "Seriously... How can you be so careless! Does your wound still hurt?"
	},
	{
		"ID": 411,
		"Word": "Hey... What a beautiful morning! Do you want to go for a walk?"
	},
	{
		"ID": 412,
		"Word": "What will the future hold? Eh? No, no... Nothing, it's a secret!"
	},
	{
		"ID": 413,
		"Word": "At first, I was a bit scared, but you're always by my side, so I'm not afraid anymore. Silly, isn't it?"
	},
	{
		"ID": 414,
		"Word": "There is something extraordinary brewing in my body... Get ready to protect me at a moment's notice!"
	},
	{
		"ID": 415,
		"Word": "Whoo-hoo... Is that all right? Feel a little more reliable?"
	},
	{
		"ID": 416,
		"Word": "Langrisser's Memory, please light the way!"
	},
	{
		"ID": 417,
		"Word": "Whoo-hoo... Is that all right? Feel a little more reliable?"
	},
	{
		"ID": 418,
		"Word": "Eh? Is it going to work this time? I feel like we can do it! Alright!"
	},
	{
		"ID": 501,
		"Word": "It is a great honor for the Blue Dragon Knights to serve you!"
	},
	{
		"ID": 502,
		"Word": "We need to unite the world. Strength is a must in order to create peace! Even dark power will do the trick!"
	},
	{
		"ID": 503,
		"Word": "War will not do us any good and will only bring sorrow. But if we remain silent, the fight will never end."
	},
	{
		"ID": 504,
		"Word": "It is my greatest honor to receive your trust and friendship."
	},
	{
		"ID": 505,
		"Word": "Please be modest, the knights are watching..."
	},
	{
		"ID": 506,
		"Word": "Please stop..."
	},
	{
		"ID": 507,
		"Word": "Do you have any instructions for me, Your Excellency? I will take care of them immediately..."
	},
	{
		"ID": 508,
		"Word": "This war is meant to save the world. We shoulder a heavy responsibility."
	},
	{
		"ID": 509,
		"Word": "...Regret? I have no regrets. As a knight, I need to fulfill my duty and stay loyal to my country..."
	},
	{
		"ID": 510,
		"Word": "Maybe... I was really wrong... If justice is lost along the way, how can the result be fair? I was such a fool..."
	},
	{
		"ID": 511,
		"Word": "Thank you for believing in me. I will carry my sins to my grave, but this time I want to change this world under your guidance!"
	},
	{
		"ID": 512,
		"Word": "I will be your sword and restore order and peace to the continent."
	},
	{
		"ID": 513,
		"Word": "When you're with me like this, I feel even fate can be changed."
	},
	{
		"ID": 514,
		"Word": "Leon Klaus, General of the Blue Dragon Knights reporting for duty! May the Emperor's will be done!"
	},
	{
		"ID": 515,
		"Word": "\"All the past, a prelude...\" This era of chaos must be reformed."
	},
	{
		"ID": 516,
		"Word": "When you're with me like this, I feel even fate can be changed."
	},
	{
		"ID": 601,
		"Word": "What a joke! \"Give up\" and \"Defeat\" are not in my vocabulary. Behold my power!"
	},
	{
		"ID": 602,
		"Word": "There's nothing I cannot possess! Langrisser! Alhazard! Even the world!"
	},
	{
		"ID": 603,
		"Word": "Look at this aging body. How much time do I have to accomplish this great cause?"
	},
	{
		"ID": 604,
		"Word": "Interesting..."
	},
	{
		"ID": 605,
		"Word": "Hum..."
	},
	{
		"ID": 606,
		"Word": "I am very pleased..."
	},
	{
		"ID": 607,
		"Word": "Don't be so disrespectful in front of me!"
	},
	{
		"ID": 608,
		"Word": "How dare you!"
	},
	{
		"ID": 609,
		"Word": "Remember, I'm your ruler. Don't forget your place."
	},
	{
		"ID": 610,
		"Word": "Fool! Who allowed you to come in without an announcing yourself?"
	},
	{
		"ID": 611,
		"Word": "Well, your voice is full of strength! How remarkable! These are exactly the soldiers I need fighting for me!"
	},
	{
		"ID": 612,
		"Word": "What?! Save them? They're just a bunch of deserters... Use your brain sometimes and try to think like a king, you fool!"
	},
	{
		"ID": 613,
		"Word": "These soldiers put their lives on the line just for you? What's more convincing than my torture methods? Well..."
	},
	{
		"ID": 614,
		"Word": "Maybe I'm getting old! I should hand this world over to young people like you. Hopefully you will live up to my expectations!"
	},
	{
		"ID": 615,
		"Word": "What the world needs is a powerful and decisive king."
	},
	{
		"ID": 616,
		"Word": "I'm the great Emperor of the Rayguard Empire, Bernhardt. Are you the outstanding warrior who fought for me?"
	},
	{
		"ID": 617,
		"Word": "Very well. You don't need to worry anymore. Just leave it to me."
	},
	{
		"ID": 618,
		"Word": "I'm the great Emperor of the Rayguard Empire, Bernhardt. Are you the outstanding warrior who fought for me?"
	},
	{
		"ID": 619,
		"Word": "Ha-ha-ha-ha-ha-ha-ha-ha! Good! For my feast!"
	},
	{
		"ID": 620,
		"Word": "Very well. You don't need to worry anymore. Just leave it to me."
	},
	{
		"ID": 701,
		"Word": "Are you asking me to choose a companion...? If only there was a handsome gentleman - like Leon... My sister? Well, better not..."
	},
	{
		"ID": 702,
		"Word": "Don't give me that look! You are just a servant and I'm the princess! A servant should act like a servant!"
	},
	{
		"ID": 703,
		"Word": "I was once able to lift the seal of the Langrisser, waking it from the darkness and into the light..."
	},
	{
		"ID": 704,
		"Word": "Ha-ha... If you and I are together, there is nothing to be afraid of."
	},
	{
		"ID": 705,
		"Word": "I was careless to let you slip into my heart..."
	},
	{
		"ID": 706,
		"Word": "How dare you!"
	},
	{
		"ID": 707,
		"Word": "Where do you get the guts to speak to me like that? You'll regret this one day!"
	},
	{
		"ID": 708,
		"Word": "Uh... How annoying..."
	},
	{
		"ID": 709,
		"Word": "Sorry, I'm not interested in an idiot's mind games!"
	},
	{
		"ID": 710,
		"Word": "Please don't come in when I'm changing, unless you want to die..."
	},
	{
		"ID": 711,
		"Word": "You just want to dig up secrets that other people want to hide. Your curiosity is getting on my nerves..."
	},
	{
		"ID": 712,
		"Word": "My sister? She is just a simple and good-natured child... But isn't it rude to talk about her when you're with me?"
	},
	{
		"ID": 713,
		"Word": "You're always staring at my body... Don't get any funny ideas! If you try to kiss me, I'll bite off your tongue!"
	},
	{
		"ID": 714,
		"Word": "I stand ready to end this war!"
	},
	{
		"ID": 715,
		"Word": "Well, is this summoning? Let me complete the ceremony first! No, I do NOT want a hug!"
	},
	{
		"ID": 716,
		"Word": "Please don't stare at me all the time. I'm not used to being stared at by simple-minded creatures..."
	},
	{
		"ID": 717,
		"Word": "Well, is this summoning? Let me complete the ceremony first! No, I do NOT want a hug!"
	},
	{
		"ID": 718,
		"Word": "Please don't stare at me all the time. I'm not used to being stared at by simple-minded creatures..."
	},
	{
		"ID": 719,
		"Word": "...I am not trying to build up my strength for you."
	},
	{
		"ID": 801,
		"Word": "Ha-ha-ha! Hell's forces will overrun the human world! The Demon Tribe is about to reach its finest moment!"
	},
	{
		"ID": 802,
		"Word": "I have ten thousand ways to make you suffer... But I won't...because you still have some value to me!"
	},
	{
		"ID": 803,
		"Word": "Bozel... ? A name... It's just the one the Alhazard recognizes..."
	},
	{
		"ID": 804,
		"Word": "Uh-ha-ha-ha-ha-ha-ha-ha-ha-ha!"
	},
	{
		"ID": 805,
		"Word": "Did you feel it... Pure power... The trembling of Chaos!"
	},
	{
		"ID": 806,
		"Word": "Ha! Do you even have the right to touch me?"
	},
	{
		"ID": 807,
		"Word": "Don't put the patience of the Dark Prince to the test!"
	},
	{
		"ID": 808,
		"Word": "Lower your head before you talk to me! You're being very disrespectful to your prince!"
	},
	{
		"ID": 809,
		"Word": "Ha-ha-ha! How can you call this a battle? This is but a minor diversion for me!"
	},
	{
		"ID": 810,
		"Word": "Goal? Do you honestly think I care about your throne? Cough, that was the old me."
	},
	{
		"ID": 811,
		"Word": "Limits? My life doesn't have any limits! Darkness will never end, unless..."
	},
	{
		"ID": 812,
		"Word": "You're mortals, but you really give your all... Hm, this world doesn't seem so dull now. It's time to show my true colors!"
	},
	{
		"ID": 813,
		"Word": "When darkness achieves absolute power, the world will be cleansed! Ha-ha-ha!"
	},
	{
		"ID": 814,
		"Word": "Ha-ha-ha-ha-ha-ha-ha! You're very lucky to have summoned me! Fool..."
	},
	{
		"ID": 815,
		"Word": "I can feel the power... It's one step closer to me..."
	},
	{
		"ID": 816,
		"Word": "Ha-ha-ha-ha-ha-ha-ha! You're very lucky to have summoned me! Fool..."
	},
	{
		"ID": 817,
		"Word": "Strength is surging... I don't have to restrain myself anymore? A-ha-ha-ha-ha!"
	},
	{
		"ID": 818,
		"Word": "I can feel the power... It's one step closer to me..."
	},
	{
		"ID": 901,
		"Word": "I was surprised to be summoned to this faraway era... But every day with you just makes me happy!"
	},
	{
		"ID": 902,
		"Word": "I can't stand demons, but I find ghosts pretty easy to deal with!"
	},
	{
		"ID": 903,
		"Word": "Watching the clouds on the grassland... Are the clouds watching us, too...?"
	},
	{
		"ID": 904,
		"Word": "This is not good..."
	},
	{
		"ID": 905,
		"Word": "Ah... Woo..."
	},
	{
		"ID": 906,
		"Word": "This is... It's not what I want..."
	},
	{
		"ID": 907,
		"Word": "No... I can't keep doing this... I...I'm a good girl..."
	},
	{
		"ID": 908,
		"Word": "Please... Stop it!"
	},
	{
		"ID": 909,
		"Word": "That was fun! Don't you think so, too?"
	},
	{
		"ID": 910,
		"Word": "Well? Is there anything interesting you'd like to share?"
	},
	{
		"ID": 911,
		"Word": "Hey, let's chat! Shouldn't one get to know their Commander better?"
	},
	{
		"ID": 912,
		"Word": "I was hoping you could be my friend rather than my Commander... It's really fun chatting with you."
	},
	{
		"ID": 913,
		"Word": "I've been with you for some time now... Is time flying by or passing too slowly? I feel... Erm... Please keep this a secret!"
	},
	{
		"ID": 914,
		"Word": "Why are you always so gentle with me? Are you lying to me? If so, can you please lie to me forever?"
	},
	{
		"ID": 915,
		"Word": "Erm, my name is Chris. I'm not much of a leader, so if you have any orders, just speak up!"
	},
	{
		"ID": 916,
		"Word": "Ah, did I just grow up?"
	},
	{
		"ID": 917,
		"Word": "Erm, Chris, I'm not that stubborn! If you have any suggestions, just speak up!"
	},
	{
		"ID": 918,
		"Word": "Ah, did I just grow up?"
	},
	{
		"ID": 919,
		"Word": "That was fun! Don't you think so, too?"
	},
	{
		"ID": 1001,
		"Word": "You mean... Hundreds of years after I died, people are living happily and prosperously? This is music to my ears!"
	},
	{
		"ID": 1002,
		"Word": "If I must sacrifice my life, it will only be in the battle against the Alhazard and the forces of darkness!"
	},
	{
		"ID": 1003,
		"Word": "Losing your cool can cost you dearly in battle. Winning through anger and hatred only leads to the dark side..."
	},
	{
		"ID": 1004,
		"Word": "Ha!"
	},
	{
		"ID": 1005,
		"Word": "I don't want here to be any ill feelings between us."
	},
	{
		"ID": 1006,
		"Word": "No! That's so rude!"
	},
	{
		"ID": 1007,
		"Word": "I hope it wasn't a mistake trusting you."
	},
	{
		"ID": 1008,
		"Word": "Why don't we face our enemy head-on? Are you too afraid?"
	},
	{
		"ID": 1009,
		"Word": "Other possibilities? It's not that I didn't consider it... I have also fantasized about becoming an overlord, but..."
	},
	{
		"ID": 1010,
		"Word": "I think I will be happier like this. Nothing makes me happier than protecting everyone else's happiness."
	},
	{
		"ID": 1011,
		"Word": "My sword and strength are yours to command. This is the vow that I, Elwin, promise you."
	},
	{
		"ID": 1012,
		"Word": "It's not only the strength of Langrisser, it's our spirits united that will conquer all evil."
	},
	{
		"ID": 1013,
		"Word": "I'm Elwin. I'm just an ordinary soldier, forced to save the world..."
	},
	{
		"ID": 1014,
		"Word": "I will choose my own path with no regrets. I will fight for everyone's happiness... forever!"
	},
	{
		"ID": 1015,
		"Word": "I'm Elwin. I'm just an ordinary soldier, forced to save the world..."
	},
	{
		"ID": 1016,
		"Word": "Well, this has been fascinating so far! Who knows where it will lead?"
	},
	{
		"ID": 1017,
		"Word": "I will choose my own path and have no regrets. I will protect everyone's happiness forever!"
	},
	{
		"ID": 1101,
		"Word": "Erm... I'll try the secret spell Jessica taught me next time! I'm very strong, you know?"
	},
	{
		"ID": 1102,
		"Word": "Hey... How many times do we need to beat the forces of darkness before they finally give up? Don't they know they'll never win?"
	},
	{
		"ID": 1103,
		"Word": "Let's put a stop to the Dark Prince, quickly! If we don't act now, the demons will be revived!"
	},
	{
		"ID": 1104,
		"Word": "Heh-heh..."
	},
	{
		"ID": 1105,
		"Word": "Don't do this! This is so weird!"
	},
	{
		"ID": 1106,
		"Word": "Thank you for accompanying me!"
	},
	{
		"ID": 1107,
		"Word": "Hey! Don't use my only staff to cook BBQ chicken wings! You're crossing the line!"
	},
	{
		"ID": 1108,
		"Word": "What?! I have to cut my hair to upgrade?! Wait, that was a joke? Thank god... Don't scare me like that!"
	},
	{
		"ID": 1109,
		"Word": "No, no. I don't have any grand dreams or anything. I just love studying various types of magic!"
	},
	{
		"ID": 1110,
		"Word": "Well... Even though I don't look reliable, I will continue to work hard to protect you and everyone around me!"
	},
	{
		"ID": 1111,
		"Word": "I feel so blessed to be reunited with everyone again! Luck is definitely on my side this time around."
	},
	{
		"ID": 1112,
		"Word": "What? My legendary magical prowess isn't in the history books?! They must not understand how amazing I am!"
	},
	{
		"ID": 1113,
		"Word": "Hey, I'm Hein! I started as a novice mage, but I'm one of the strongest wizards in the land now. You've heard of me right?"
	},
	{
		"ID": 1114,
		"Word": "Well, I definitely have some room for improvement..."
	},
	{
		"ID": 1115,
		"Word": "Hey, I'm Hein! I started as a novice mage, but I'm one of the strongest wizards in the land now. You've heard of me right?"
	},
	{
		"ID": 1116,
		"Word": "Well, I definitely have some room for improvement..."
	},
	{
		"ID": 1117,
		"Word": "I wonder if I can control my immense power...?"
	},
	{
		"ID": 1201,
		"Word": "You're the Commander and I'm the Princess. So obviously, it's your job to show ME around. Let's take the grand tour... Outside!"
	},
	{
		"ID": 1202,
		"Word": "Ahhh! Don't make me fight creepy crawlies and those weird Aniki people! Promise me?"
	},
	{
		"ID": 1203,
		"Word": "Hey, Keith is teaching again today... Let's find a way to ditch class! A princess shouldn't be forced to go to school!"
	},
	{
		"ID": 1204,
		"Word": "Ahh, this feels so nice!!! Huh? Did you say something?"
	},
	{
		"ID": 1205,
		"Word": "I don't have time to play with you here!"
	},
	{
		"ID": 1206,
		"Word": "Ouch! What are you doing?!"
	},
	{
		"ID": 1207,
		"Word": "Don't make me angry! No one can stop me once I've snapped!"
	},
	{
		"ID": 1208,
		"Word": "Strategy classes are soooo boring. I'm using my royal veto rights to skip today. Let's go!"
	},
	{
		"ID": 1209,
		"Word": "Huh? I'm not immature! I'm a P-R-I-N-C-E-S-S!"
	},
	{
		"ID": 1210,
		"Word": "Okay, I promise! I'll take training more seriously from now on! But next week I get to go explore the dragon's cave! Promise!"
	},
	{
		"ID": 1211,
		"Word": "Simply put, picking on you is so much fun. I like to see that embarrassed look on your face. Heehee!"
	},
	{
		"ID": 1212,
		"Word": "I know, we've had each other's back this whole time. Before I leave the world, stay with me as long as possible. Promise me?"
	},
	{
		"ID": 1213,
		"Word": "A Commander like you can tell I don't like being cooped up around the castle with these dusty textbooks. Let's go outside!"
	},
	{
		"ID": 1214,
		"Word": "Hi there! My name is Cherie! I'm a Hawk Knight! Oh! And.. nice to meet you!"
	},
	{
		"ID": 1215,
		"Word": "Don't force me to work. Let me play a bit more... Come on!"
	},
	{
		"ID": 1216,
		"Word": "Hi there! My name is Cherie! I'm a Hawk Knight! Oh! And.. nice to meet you!"
	},
	{
		"ID": 1217,
		"Word": "Wow! A successful upgrade! It looks like a lot of fun! Come on, let me try!"
	},
	{
		"ID": 1218,
		"Word": "Don't force me to work. Let me play a bit more... Come on!"
	},
	{
		"ID": 1301,
		"Word": "For a long time, I was under the spell of the Dark Prince... This time, there is no need to worry about him, is there?"
	},
	{
		"ID": 1302,
		"Word": "We must not let the Alhazard awaken... This time, I shall seal it forever!"
	},
	{
		"ID": 1303,
		"Word": "Even the Langrisser and the Alhazard did not survive this epic struggle. This is so sad..."
	},
	{
		"ID": 1304,
		"Word": "Sorry, I'm a bit shy... It's so embarrassing..."
	},
	{
		"ID": 1305,
		"Word": "I'm sorry, this... I don't know how to express myself... Do you know what I mean?"
	},
	{
		"ID": 1306,
		"Word": "Don't..."
	},
	{
		"ID": 1307,
		"Word": "Hmmm! This is so frustrating! We can't let anyone find out about this!"
	},
	{
		"ID": 1308,
		"Word": "Are you okay? Are you hurt?"
	},
	{
		"ID": 1309,
		"Word": "Why... Why would you do this to protect me...?"
	},
	{
		"ID": 1310,
		"Word": "Can you take me with you, please? I don't want to see anyone bleeding for me anymore... Okay?"
	},
	{
		"ID": 1311,
		"Word": "Thank you... Thank you for everything you've done for me. I... No, nothing..."
	},
	{
		"ID": 1312,
		"Word": "I know the meaning of life now, after meeting you, so... Please stay with me..."
	},
	{
		"ID": 1313,
		"Word": "We have taken every step with firm beliefs and made it this far. That's why the Langrisser granted us power!"
	},
	{
		"ID": 1314,
		"Word": "Nice to meet you! I'm Liana!"
	},
	{
		"ID": 1315,
		"Word": "It's so peaceful here... Well, you... you should take a rest, too!"
	},
	{
		"ID": 1316,
		"Word": "Nice to meet you! I'm Liana!"
	},
	{
		"ID": 1317,
		"Word": "Oh, I'm used to it. Thank you for taking care of me."
	},
	{
		"ID": 1318,
		"Word": "It's so peaceful here... Well, you... you should take a rest, too!"
	},
	{
		"ID": 1401,
		"Word": "I like you too, Commander. I'd offer to give you a tour of my kingdom, but Baldea isn't what it used to be."
	},
	{
		"ID": 1402,
		"Word": "Just get rid of the enemy blocking our way! What? Didn't I already defeat the Dark Prince Bozel?"
	},
	{
		"ID": 1403,
		"Word": "The war fought over Langrisser & Alhazard seems endless... Humans will never learn, will they?"
	},
	{
		"ID": 1404,
		"Word": "It's always nice chatting with you, Commander."
	},
	{
		"ID": 1405,
		"Word": "My old injury... It seems to be acting up..."
	},
	{
		"ID": 1406,
		"Word": "Hey! Cheer up! This is not the expression a warrior should have."
	},
	{
		"ID": 1407,
		"Word": "Justice awaits! Let us make haste!"
	},
	{
		"ID": 1408,
		"Word": "The enemy was too weak! Well was more than boring... But you have grown quite a lot. Would you like to try me on for size?"
	},
	{
		"ID": 1409,
		"Word": "Oh! What a great battle this was! My blood is boiling again! You're very good!"
	},
	{
		"ID": 1410,
		"Word": "I didn't expect our commander to grow in strength so quickly. Let's work together from now on -- I've got your back."
	},
	{
		"ID": 1411,
		"Word": "If you stand in the light, even courage alone can bring victory!"
	},
	{
		"ID": 1412,
		"Word": "Yup, swordsman Ledin, here to answer your summon. In a nutshell, let's have a good time!"
	},
	{
		"ID": 1413,
		"Word": "Oh! How much can I improve!"
	},
	{
		"ID": 1414,
		"Word": "Yup, swordsman Ledin, here to answer your summon. In a nutshell, let's have a good time!"
	},
	{
		"ID": 1415,
		"Word": "What? I'm strong. I'm not taking this for granted!"
	},
	{
		"ID": 1416,
		"Word": "Oh! How much can I improve!"
	},
	{
		"ID": 1501,
		"Word": "One for all and all for one! Only when people truly believe can we rely on each other and hold on until the very end!"
	},
	{
		"ID": 1502,
		"Word": "What a selfish move! In the war against darkness, this is suicidal!"
	},
	{
		"ID": 1503,
		"Word": "Dalsis Empire also disappeared in the midst of war? *sigh* Let nature take its course..."
	},
	{
		"ID": 1504,
		"Word": "What? Who did you say I married in the end? How...? How is this possible...? How did this happen...?"
	},
	{
		"ID": 1505,
		"Word": "Erm... No one saw that, right...?"
	},
	{
		"ID": 1506,
		"Word": "Eh? What are you doing...?"
	},
	{
		"ID": 1507,
		"Word": "No! Stop it now!"
	},
	{
		"ID": 1508,
		"Word": "Say, you're too weak! You need to exercise more!"
	},
	{
		"ID": 1509,
		"Word": "Ah! I'm so tired. He really knows how to push people. Huh? What's the matter?"
	},
	{
		"ID": 1510,
		"Word": "Hurry up! Come on, move quickly!"
	},
	{
		"ID": 1511,
		"Word": "Finally... When I'm with you, I don't need to care about ladylike etiquette! It's like there's no distance between us at all!"
	},
	{
		"ID": 1512,
		"Word": "Clothes?! Don't you know you should wear light clothes when exercising. Take off your armor, so we can sweat together!"
	},
	{
		"ID": 1513,
		"Word": "Every day, we are using our influence to change the world step by step! When I think about it, it fills me with energy!"
	},
	{
		"ID": 1514,
		"Word": "It can show you what you want to see... Let me see? Ah, so that's what you like!"
	},
	{
		"ID": 1515,
		"Word": "Hee, I'm getting excited!"
	},
	{
		"ID": 1516,
		"Word": "I'm the Pegasus Knight, Narm. Erm, I'm very capable, very much indeed!"
	},
	{
		"ID": 1517,
		"Word": "It can show you what you want to see... Let me see? Ah, so that's what you like!"
	},
	{
		"ID": 1518,
		"Word": "Hee, I'm getting excited!"
	},
	{
		"ID": 1601,
		"Word": "Everyone studying the art of magic knows my name, Egbert!"
	},
	{
		"ID": 1602,
		"Word": "The Alhazard will consume your mind? Only weak-minded people will endure this fate. His Majesty Bernhardt will prove it to you!"
	},
	{
		"ID": 1603,
		"Word": "Ha-ha-ha! If we combine my strength with yours, maybe our power will break all boundaries!"
	},
	{
		"ID": 1604,
		"Word": "Hmn... I will use your strength to give this a try!"
	},
	{
		"ID": 1605,
		"Word": "I don't think I will listen to you from now on!"
	},
	{
		"ID": 1606,
		"Word": "What's wrong with you?"
	},
	{
		"ID": 1607,
		"Word": "Humph! Stupid..."
	},
	{
		"ID": 1608,
		"Word": "Help? Do you really think I'm going to help you? Ha-ha-ha..."
	},
	{
		"ID": 1609,
		"Word": "My life? It's not worth mentioning... If you worry about things like this, how will you ever fulfill your destiny?"
	},
	{
		"ID": 1610,
		"Word": "Strength... Where does real power lie? Only real strength can achieve the justice I'm seeking!"
	},
	{
		"ID": 1611,
		"Word": "I... I have seen my fate, doomed for failure. But I have no regrets. I sacrificed everything for my lofty ideals..."
	},
	{
		"ID": 1612,
		"Word": "Power too can be wielded!"
	},
	{
		"ID": 1613,
		"Word": "I am the General of the Dark Dragon Sorcerers, Egbert. If your power is sufficient, I may be willing to follow you."
	},
	{
		"ID": 1614,
		"Word": "Whoa, whoa, whoa, whoa, whoa, whoa, whoa, whoa! Genius..."
	},
	{
		"ID": 1615,
		"Word": "I am the General of the Dark Dragon Sorcerers, Egbert. If your power is sufficient, I may be willing to follow you."
	},
	{
		"ID": 1616,
		"Word": "Whoa, whoa, whoa, whoa, whoa, whoa, whoa, whoa! Genius..."
	},
	{
		"ID": 1617,
		"Word": "Hmph, such insignificant power... However, as long as you manage to accumulate more, little by little..."
	},
	{
		"ID": 1701,
		"Word": "Now that I know I can trust my companions with my life, we can fight on for peace!"
	},
	{
		"ID": 1702,
		"Word": "Although I cannot say that it is for mankind, I will fight to create a world where my brother and I can live in peace!"
	},
	{
		"ID": 1703,
		"Word": "Ikklus... The warmth of a helping hand in a cold forest! He was just like a real father to us..."
	},
	{
		"ID": 1704,
		"Word": "I hate humans! You're a reckless bunch!"
	},
	{
		"ID": 1705,
		"Word": "Ahhhh!"
	},
	{
		"ID": 1706,
		"Word": "Don't come near me! Do you want to get beaten up?!"
	},
	{
		"ID": 1707,
		"Word": "From east to west, all I see are dirty human beings. Hmph! I don't want to even see them!"
	},
	{
		"ID": 1708,
		"Word": "It's so annoying! YOU are so annoying! But, why are you so... No, I didn't say anything! Forget it!"
	},
	{
		"ID": 1709,
		"Word": "Hey! Are you all right? You think I care? I... I don't! I just wanted to see if I could take two bones of you to feed my pet!"
	},
	{
		"ID": 1710,
		"Word": "Why... Why... Even though... You're getting on my nerves, why would I like you? You're truly just... annoying!"
	},
	{
		"ID": 1711,
		"Word": "I have friends who believe in me. That's why I can stand up, time and again. Those with no friends will never understand..."
	},
	{
		"ID": 1712,
		"Word": "Hmph! Is it another despicable human...? Whatever, it's always the same."
	},
	{
		"ID": 1713,
		"Word": "Hmmph! Stupid! Stop staring at strange places!"
	},
	{
		"ID": 1714,
		"Word": "Hmph! Is it another despicable human...? Whatever, it's always the same."
	},
	{
		"ID": 1715,
		"Word": "Hmmph! Stupid! Stop staring at strange places!"
	},
	{
		"ID": 1716,
		"Word": "Hmph! This is exactly what I expected! I'm not doing this because I like it!"
	},
	{
		"ID": 1801,
		"Word": "Oh... Ha-ha-ha... It seems that I'm quite famous, too. Then I will bet on my reputation that I will end this war!"
	},
	{
		"ID": 1802,
		"Word": "Come back here, pig! I'll kill you myself before I allow you to flee!"
	},
	{
		"ID": 1803,
		"Word": "Indeed, it is not my nature to bend the knee before dark forces and listen to their orders..."
	},
	{
		"ID": 1804,
		"Word": "Be careful of this beautiful rose... you might get pricked."
	},
	{
		"ID": 1805,
		"Word": "Don't get the wrong idea. I just have no use for whelps in my navy. Let's get you in shape."
	},
	{
		"ID": 1806,
		"Word": "Get your filthy hands off of me!"
	},
	{
		"ID": 1807,
		"Word": "Huh? I am a female general. Is that so surprising?"
	},
	{
		"ID": 1808,
		"Word": "If you want to turn me down, you should let me see how strong you are."
	},
	{
		"ID": 1809,
		"Word": "If you really want to follow me, you'll need to get stronger! I won't be responsible for your life... or your death!"
	},
	{
		"ID": 1810,
		"Word": "Remember to hide behind me during battle! Don't get me wrong - it's not a suggestion, it's an order!"
	},
	{
		"ID": 1811,
		"Word": "Are you there? Erm... Would you like a drink? Sorry, I still can't die here. I have already seen my fate."
	},
	{
		"ID": 1812,
		"Word": "I am General Imelda of the Water Dragon Navy! My men call me the Queen. How about you?"
	},
	{
		"ID": 1813,
		"Word": "You really are a leader with great vision to have chosen me!"
	},
	{
		"ID": 1814,
		"Word": "Hmm... As for the next battle, even I am beginning to look forward to it."
	},
	{
		"ID": 1815,
		"Word": "You really are a leader with great vision to have chosen me!"
	},
	{
		"ID": 1816,
		"Word": "It's not enough. Now that you've reached this point, you have to take responsibility for me."
	},
	{
		"ID": 1817,
		"Word": "Hmm... As for the next battle, even I am beginning to look forward to it."
	},
	{
		"ID": 1901,
		"Word": "Okay, let's go. Don't let desire control you! As long as you remember this, there is hope for victory!"
	},
	{
		"ID": 1902,
		"Word": "I will protect Jessica! I won't let anyone touch her!"
	},
	{
		"ID": 1903,
		"Word": "Idiot!"
	},
	{
		"ID": 1904,
		"Word": "You don't need to say anything! You're my best buddy!"
	},
	{
		"ID": 1905,
		"Word": "Yo! Boss! What's the deal?"
	},
	{
		"ID": 1906,
		"Word": "Aren't those who help others supposed to be called heroes? I'm not an expert, though."
	},
	{
		"ID": 1907,
		"Word": "Popularity? As you can see, I'm not popular. I'll never meet a nice girl in this line of work! Hah!"
	},
	{
		"ID": 1908,
		"Word": "Boss, I've been through many fierce battles, but I'm not ready to stop."
	},
	{
		"ID": 1909,
		"Word": "Ha! What a pair we are, Boss! Let those scrubs see how strong we are! Even if Neptune stands before you, I'll take him on!"
	},
	{
		"ID": 1910,
		"Word": "I am a pirate... But I am also a disciple of Jessica. I keep the bad guys at bay around here!"
	},
	{
		"ID": 1911,
		"Word": "I used to have a group of lackeys, but they were just too dumb... Want some advice? You only have one life, so live it well!"
	},
	{
		"ID": 1912,
		"Word": "The pirate king - that's me, Lester! Pleasure to make your acquaintance."
	},
	{
		"ID": 1913,
		"Word": "That's right! I'm simply the best!"
	},
	{
		"ID": 1914,
		"Word": "The pirate king - that's me, Lester! Pleasure to make your acquaintance."
	},
	{
		"ID": 1915,
		"Word": "Hah! This guy deserves to be the most powerful pirate! Alright, it's not that much of an exaggeration, is it?"
	},
	{
		"ID": 1916,
		"Word": "That's right! I'm simply the best!"
	},
	{
		"ID": 2001,
		"Word": "I found my own legend in a library of this era. It seems that... I did the right thing after all."
	},
	{
		"ID": 2002,
		"Word": "Indeed... I betrayed my emperor. Even if I have to carry this stain to my name, I will always defend justice in my heart!"
	},
	{
		"ID": 2003,
		"Word": "Ha-ha-ha... Sorry, maybe my sense of humor isn't so refined..."
	},
	{
		"ID": 2004,
		"Word": "Commander, if you have no orders, may I leave?"
	},
	{
		"ID": 2005,
		"Word": "It's a pleasure talking with you."
	},
	{
		"ID": 2006,
		"Word": "Hello. What would you like to talk about?"
	},
	{
		"ID": 2007,
		"Word": "Please be extra careful. Every single one of your moves can be imitated."
	},
	{
		"ID": 2008,
		"Word": "My strength is limited, but I'd still like to help you."
	},
	{
		"ID": 2009,
		"Word": "For all the lives that were lost because of me... Please let me be fight on the front line! Destiny shall test my faith!"
	},
	{
		"ID": 2010,
		"Word": "You are indeed a respectable leader. Let me give you a hand and calm the storm in these troubled times!"
	},
	{
		"ID": 2011,
		"Word": "Lance. To me, this name stands for honor and duty."
	},
	{
		"ID": 2012,
		"Word": "Power is not what I seek... These only lead to darkness."
	},
	{
		"ID": 2013,
		"Word": "Knight of the Dalsis Empire, Lance, at your command! I've come here to fulfill my duty, Commander!"
	},
	{
		"ID": 2014,
		"Word": "Thank you, but... It seems we can take this even further."
	},
	{
		"ID": 2015,
		"Word": "Knight of the Dalsis Empire, Lance, at your command! I've come here to fulfill my duty, Commander!"
	},
	{
		"ID": 2016,
		"Word": "Thank you, but... It seems we can take this even further."
	},
	{
		"ID": 2017,
		"Word": "Now my sharp blade is even sharper!"
	},
	{
		"ID": 2101,
		"Word": "Oh! That's the spirit!"
	},
	{
		"ID": 2102,
		"Word": "Want to harm my men? Over my dead body!"
	},
	{
		"ID": 2103,
		"Word": "Wow! Thank you for your kindness!"
	},
	{
		"ID": 2104,
		"Word": "Don't stop!"
	},
	{
		"ID": 2105,
		"Word": "Ha-ha-ha! You look so energized!"
	},
	{
		"ID": 2106,
		"Word": "Oh! Good! That's the spirit! This will boost the morale of our soldiers for sure!"
	},
	{
		"ID": 2107,
		"Word": "Regret? Of course I have regrets -- I didn't get to see my child in the end... But I must march on. After all, I am a soldier."
	},
	{
		"ID": 2108,
		"Word": "This is... A history book? Let me see... I was remembered as a hero?... It's really... Thank you so much!"
	},
	{
		"ID": 2109,
		"Word": "You certainly are an admirable leader. I swear on my honor as a soldier that you can count on my loyalty forever!"
	},
	{
		"ID": 2110,
		"Word": "As a General, I will lead by example! A soldier should treat death in battle as the ultimate honor!"
	},
	{
		"ID": 2111,
		"Word": "There is no 'if' on the battlefield. If there were, I would hope to glance at my newborn child, so very far away..."
	},
	{
		"ID": 2112,
		"Word": "Ha-ha-ha, it looks like it's that time again! General Vargas of the Blazing Dragon Brigade will clear the way for you!"
	},
	{
		"ID": 2113,
		"Word": "Hoorah! This is great! Congratulations!"
	},
	{
		"ID": 2114,
		"Word": "Ha-ha-ha, it looks like it's that time again! General Vargas of the Blazing Dragon Brigade will clear the way for you!"
	},
	{
		"ID": 2115,
		"Word": "Oh! This is great! Thank you for these valuable resources!"
	},
	{
		"ID": 2116,
		"Word": "Hoorah! This is great! Congratulations!"
	},
	{
		"ID": 2201,
		"Word": "All warriors blessed by the Goddess, please take the world in your hands and witness its miracles!"
	},
	{
		"ID": 2202,
		"Word": "As long as there is still darkness in the world, the holy flames of light must never be extinguished!"
	},
	{
		"ID": 2203,
		"Word": "If the Alhazard is sealed forever... Will I no longer have a reason to exist?"
	},
	{
		"ID": 2204,
		"Word": "Even if I've been blessed with a long life, I still feel shy sometimes..."
	},
	{
		"ID": 2205,
		"Word": "What a lovely child..."
	},
	{
		"ID": 2206,
		"Word": "I am the incarnation of the Goddess of Light! You can't disrespect me!"
	},
	{
		"ID": 2207,
		"Word": "Such ignorance!"
	},
	{
		"ID": 2208,
		"Word": "May the light be with you."
	},
	{
		"ID": 2209,
		"Word": "It's great that your beliefs are so firm..."
	},
	{
		"ID": 2210,
		"Word": "Your eyes are always so clear and determined. What a brave man!"
	},
	{
		"ID": 2211,
		"Word": "Only the bravest of warriors can receive my blessing. This was decided by fate, but this seems a little different... Never mind."
	},
	{
		"ID": 2212,
		"Word": "I actually... You already know? No wonder, as smart as you are... Then let me bless you with endless love. It's only for you..."
	},
	{
		"ID": 2213,
		"Word": "In my endless reincarnations, I have merely been fulfilling my duty. Maybe... I can no longer feel the shifting winds of time."
	},
	{
		"ID": 2214,
		"Word": "I'm Jessica. Yes, that's right, I'm the incarnation of the Goddess. The fate of light is calling you!"
	},
	{
		"ID": 2215,
		"Word": "Fortuna's wheel is turning again..."
	},
	{
		"ID": 2216,
		"Word": "I'm Jessica. Yes, that's right, I'm the incarnation of the Goddess. The fate of light is calling you!"
	},
	{
		"ID": 2217,
		"Word": "Fortuna's wheel is turning again..."
	},
	{
		"ID": 2218,
		"Word": "It's not my finest hour, but it's very good indeed."
	},
	{
		"ID": 2301,
		"Word": "Ha-ha-ha! It's a great honor to work for you!"
	},
	{
		"ID": 2302,
		"Word": "If someone blocks my way, I will not hesitate to put them in their place!"
	},
	{
		"ID": 2303,
		"Word": "Ah-ha-ha-ha-ha-ha-ha..."
	},
	{
		"ID": 2304,
		"Word": "Shut up!"
	},
	{
		"ID": 2305,
		"Word": "Don't stare at my sister. Not even you, Commander!"
	},
	{
		"ID": 2306,
		"Word": "Something bothering you? If it's related to the opposite sex, leave it to me. Of course, the same sex is not a problem, either..."
	},
	{
		"ID": 2307,
		"Word": "I once dreamt of becoming like Emperor Bernhardt and rising up to rule the continent, leaving my mark in history forever..."
	},
	{
		"ID": 2308,
		"Word": "Come to think of it, I couldn't even protect my sister, and I'm still acting like a big shot... I should be ashamed..."
	},
	{
		"ID": 2309,
		"Word": "This is kind of sudden, but please protect Sonya with me! If anyone can make her happy, it's you!"
	},
	{
		"ID": 2310,
		"Word": "Ah! Even a nobody like me will do his best for the happiness of his family!"
	},
	{
		"ID": 2311,
		"Word": "Even though I'm just a mercenary, I will not allow others to laugh at my dreams!"
	},
	{
		"ID": 2312,
		"Word": "Are you my new boss? I'm Rohga, a mercenary. Let's try to get along."
	},
	{
		"ID": 2313,
		"Word": "The road ahead of me... Which is the right path?"
	},
	{
		"ID": 2314,
		"Word": "Are you my new boss? I'm Rohga, a mercenary. Let's try to get along."
	},
	{
		"ID": 2315,
		"Word": "Woo... Getting better!"
	},
	{
		"ID": 2316,
		"Word": "The road ahead of me... Which is the right path?"
	},
	{
		"ID": 2401,
		"Word": "That's a very enlightening idea!"
	},
	{
		"ID": 2402,
		"Word": "I swear on behalf of knights everywhere, I will do my best to seal the Alhazard once again!"
	},
	{
		"ID": 2403,
		"Word": "Violating the code of chivalry in battle? You're making me mad!"
	},
	{
		"ID": 2404,
		"Word": "Ha-ha, I have learned a lot from discussing tactics with you!"
	},
	{
		"ID": 2405,
		"Word": "Commander, please give me your orders!"
	},
	{
		"ID": 2406,
		"Word": "Oh, Commander! Did you want to study strategy together?"
	},
	{
		"ID": 2407,
		"Word": "Say... Do you think that I can become a better lord than my father? Erm, is that so?"
	},
	{
		"ID": 2408,
		"Word": "My dream? Of course, it's to become a strong knight and leave my mark on history. But let's focus on the battle in front of us!"
	},
	{
		"ID": 2409,
		"Word": "I will give my sword, honor, and even my life to you! Even though I'm not a fully-fledged knight yet... Is that okay?"
	},
	{
		"ID": 2410,
		"Word": "The battlefield changes rapidly, and you need to keep your calm and seek out weaknesses in order to win."
	},
	{
		"ID": 2411,
		"Word": "I'm Scott, a knight from Salrath. Nice to meet you!"
	},
	{
		"ID": 2412,
		"Word": "Make a vow of victory, right here! Glory shall be with you."
	},
	{
		"ID": 2413,
		"Word": "I'm Scott, a knight from Salrath. Nice to meet you!"
	},
	{
		"ID": 2414,
		"Word": "Make a vow of victory, right here! Glory shall be with you."
	},
	{
		"ID": 2415,
		"Word": "How about it? Did you get any stronger?"
	}
]