[
	{
		"ID": 1,
		"Prefab": "UI/DialogEvent_ABS/Prefab/Event_10Chaper_119UIPrefab.prefab",
		"State": "Open",
		"IsLoop": false
	},
	{
		"ID": 2,
		"Prefab": "UI/DialogEvent_ABS/Prefab/Event_10Chaper_119UIPrefab.prefab",
		"State": "Close",
		"IsLoop": false
	},
	{
		"ID": 100011,
		"Prefab": "UI/DialogEvent_ABS/Prefab/Event_1Chaper_2UIPrefab.prefab",
		"State": "Open",
		"IsLoop": false
	},
	{
		"ID": 230011,
		"Prefab": "UI/DialogEvent_ABS/Prefab/Event_2_3Story_7UIPrefab.prefab",
		"State": "Open",
		"IsLoop": true
	},
	{
		"ID": 230012,
		"Prefab": "UI/DialogEvent_ABS/Prefab/Event_2_3Story_7UIPrefab.prefab",
		"State": "Close",
		"IsLoop": false
	},
	{
		"ID": 229141,
		"Prefab": "UI/DialogEvent_ABS/Prefab/Event_2_2Dialog_20UIPrefab.prefab",
		"State": "Open",
		"IsLoop": false
	},
	{
		"ID": 229142,
		"Prefab": "UI/DialogEvent_ABS/Prefab/Event_2_2Dialog_20UIPrefab.prefab",
		"State": "Standby",
		"IsLoop": true
	},
	{
		"ID": 229143,
		"Prefab": "UI/DialogEvent_ABS/Prefab/Event_2_2Dialog_20UIPrefab.prefab",
		"State": "Close",
		"IsLoop": false
	},
	{
		"ID": 230081,
		"Prefab": "UI/DialogEvent_ABS/Prefab/Event_2_3Story_14UIPrefab.prefab",
		"State": "Open",
		"IsLoop": false
	},
	{
		"ID": 230082,
		"Prefab": "UI/DialogEvent_ABS/Prefab/Event_2_3Story_14UIPrefab.prefab",
		"State": "Standby",
		"IsLoop": true
	},
	{
		"ID": 230083,
		"Prefab": "UI/DialogEvent_ABS/Prefab/Event_2_3Story_14UIPrefab.prefab",
		"State": "Close",
		"IsLoop": false
	},
	{
		"ID": 440091,
		"Prefab": "UI/DialogEvent_ABS/Prefab/Event_4_4Dialog_15UIPrefab.prefab",
		"State": "Open",
		"IsLoop": false
	},
	{
		"ID": 440092,
		"Prefab": "UI/DialogEvent_ABS/Prefab/Event_4_4Dialog_15UIPrefab.prefab",
		"State": "Standby",
		"IsLoop": true
	},
	{
		"ID": 440093,
		"Prefab": "UI/DialogEvent_ABS/Prefab/Event_4_4Dialog_15UIPrefab.prefab",
		"State": "Close",
		"IsLoop": false
	},
	{
		"ID": 400061,
		"Prefab": "UI/DialogEvent_ABS/Prefab/Event_4Chaper_11UIPrefab.prefab",
		"State": "RightOpen",
		"IsLoop": false
	},
	{
		"ID": 400062,
		"Prefab": "UI/DialogEvent_ABS/Prefab/Event_4Chaper_11UIPrefab.prefab",
		"State": "RightStandy",
		"IsLoop": true
	},
	{
		"ID": 400063,
		"Prefab": "UI/DialogEvent_ABS/Prefab/Event_4Chaper_11UIPrefab.prefab",
		"State": "RightClose",
		"IsLoop": false
	},
	{
		"ID": 1690061,
		"Prefab": "UI/DialogEvent_ABS/Prefab/Event_4Chaper_11UIPrefab.prefab",
		"State": "LeftOpen",
		"IsLoop": false
	},
	{
		"ID": 1690062,
		"Prefab": "UI/DialogEvent_ABS/Prefab/Event_4Chaper_11UIPrefab.prefab",
		"State": "LeftStandy",
		"IsLoop": true
	},
	{
		"ID": 1690063,
		"Prefab": "UI/DialogEvent_ABS/Prefab/Event_4Chaper_11UIPrefab.prefab",
		"State": "LeftClose",
		"IsLoop": false
	},
	{
		"ID": 400131,
		"Prefab": "UI/DialogEvent_ABS/Prefab/Event_4Chaper_17UIPrefab.prefab",
		"State": "Open",
		"IsLoop": false
	},
	{
		"ID": 400132,
		"Prefab": "UI/DialogEvent_ABS/Prefab/Event_4Chaper_17UIPrefab.prefab",
		"State": "Standby",
		"IsLoop": true
	},
	{
		"ID": 400133,
		"Prefab": "UI/DialogEvent_ABS/Prefab/Event_4Chaper_17UIPrefab.prefab",
		"State": "Close",
		"IsLoop": false
	},
	{
		"ID": 400134,
		"Prefab": "UI/DialogEvent_ABS/Prefab/Event_4Chaper_18UIPrefab.prefab",
		"State": "Open",
		"IsLoop": false
	},
	{
		"ID": 400135,
		"Prefab": "UI/DialogEvent_ABS/Prefab/Event_4Chaper_18UIPrefab.prefab",
		"State": "Standby",
		"IsLoop": true
	},
	{
		"ID": 400136,
		"Prefab": "UI/DialogEvent_ABS/Prefab/Event_4Chaper_18UIPrefab.prefab",
		"State": "Close",
		"IsLoop": false
	},
	{
		"ID": 440201,
		"Prefab": "UI/DialogEvent_ABS/Prefab/Event_5Chaper_4UIPrefab.prefab",
		"State": "Open",
		"IsLoop": false
	},
	{
		"ID": 440202,
		"Prefab": "UI/DialogEvent_ABS/Prefab/Event_5Chaper_4UIPrefab.prefab",
		"State": "Standby",
		"IsLoop": true
	},
	{
		"ID": 440203,
		"Prefab": "UI/DialogEvent_ABS/Prefab/Event_5Chaper_4UIPrefab.prefab",
		"State": "Close",
		"IsLoop": false
	},
	{
		"ID": 500031,
		"Prefab": "UI/DialogEvent_ABS/Prefab/Event_5Chaper_6_9UIPrefab.prefab",
		"State": "Open",
		"IsLoop": false
	},
	{
		"ID": 500032,
		"Prefab": "UI/DialogEvent_ABS/Prefab/Event_5Chaper_6_9UIPrefab.prefab",
		"State": "Standby",
		"IsLoop": true
	},
	{
		"ID": 500033,
		"Prefab": "UI/DialogEvent_ABS/Prefab/Event_5Chaper_6_9UIPrefab.prefab",
		"State": "Close",
		"IsLoop": false
	},
	{
		"ID": 600141,
		"Prefab": "UI/DialogEvent_ABS/Prefab/Event_6Chaper_17UIPrefab.prefab",
		"State": "Open",
		"IsLoop": false
	},
	{
		"ID": 600142,
		"Prefab": "UI/DialogEvent_ABS/Prefab/Event_6Chaper_17UIPrefab.prefab",
		"State": "Standby",
		"IsLoop": true
	},
	{
		"ID": 600143,
		"Prefab": "UI/DialogEvent_ABS/Prefab/Event_6Chaper_17UIPrefab.prefab",
		"State": "Close",
		"IsLoop": false
	},
	{
		"ID": 810021,
		"Prefab": "UI/DialogEvent_ABS/Prefab/Event_8_1Story_8UIPrefab.prefab",
		"State": "Left",
		"IsLoop": false
	},
	{
		"ID": 810022,
		"Prefab": "UI/DialogEvent_ABS/Prefab/Event_8_1Story_8UIPrefab.prefab",
		"State": "Right",
		"IsLoop": false
	},
	{
		"ID": 800081,
		"Prefab": "UI/DialogEvent_ABS/Prefab/Event_8Chaper_14UIPrefab.prefab",
		"State": "Open",
		"IsLoop": false
	},
	{
		"ID": 800082,
		"Prefab": "UI/DialogEvent_ABS/Prefab/Event_8Chaper_14UIPrefab.prefab",
		"State": "Standby",
		"IsLoop": true
	},
	{
		"ID": 800083,
		"Prefab": "UI/DialogEvent_ABS/Prefab/Event_8Chaper_14UIPrefab.prefab",
		"State": "Close",
		"IsLoop": false
	},
	{
		"ID": 810551,
		"Prefab": "UI/DialogEvent_ABS/Prefab/Event_17Chaper_191UIPrefab.prefab",
		"State": "LeftOpen",
		"IsLoop": false
	},
	{
		"ID": 810552,
		"Prefab": "UI/DialogEvent_ABS/Prefab/Event_17Chaper_191UIPrefab.prefab",
		"State": "LeftStandby",
		"IsLoop": true
	},
	{
		"ID": 810553,
		"Prefab": "UI/DialogEvent_ABS/Prefab/Event_17Chaper_191UIPrefab.prefab",
		"State": "LeftClose",
		"IsLoop": false
	},
	{
		"ID": 810554,
		"Prefab": "UI/DialogEvent_ABS/Prefab/Event_17Chaper_191UIPrefab.prefab",
		"State": "RightOpen",
		"IsLoop": false
	},
	{
		"ID": 810555,
		"Prefab": "UI/DialogEvent_ABS/Prefab/Event_17Chaper_191UIPrefab.prefab",
		"State": "RightStandby",
		"IsLoop": true
	},
	{
		"ID": 810556,
		"Prefab": "UI/DialogEvent_ABS/Prefab/Event_17Chaper_191UIPrefab.prefab",
		"State": "RightClose",
		"IsLoop": false
	},
	{
		"ID": 1090171,
		"Prefab": "UI/DialogEvent_ABS/Prefab/Event_10Chaper_119UIPrefab.prefab",
		"State": "Open",
		"IsLoop": false
	},
	{
		"ID": 1090172,
		"Prefab": "UI/DialogEvent_ABS/Prefab/Event_10Chaper_119UIPrefab.prefab",
		"State": "Standby",
		"IsLoop": true
	},
	{
		"ID": 1090173,
		"Prefab": "UI/DialogEvent_ABS/Prefab/Event_10Chaper_119UIPrefab.prefab",
		"State": "Close",
		"IsLoop": false
	},
	{
		"ID": 1300351,
		"Prefab": "UI/DialogEvent_ABS/Prefab/Event_13Chaper_44UIPrefab.prefab",
		"State": "Open",
		"IsLoop": false
	},
	{
		"ID": 1300352,
		"Prefab": "UI/DialogEvent_ABS/Prefab/Event_13Chaper_44UIPrefab.prefab",
		"State": "Standby",
		"IsLoop": true
	},
	{
		"ID": 1300353,
		"Prefab": "UI/DialogEvent_ABS/Prefab/Event_13Chaper_44UIPrefab.prefab",
		"State": "Close",
		"IsLoop": false
	},
	{
		"ID": 1420071,
		"Prefab": "UI/DialogEvent_ABS/Prefab/Event_14_2Story_13UIPrefab.prefab",
		"State": "Open",
		"IsLoop": false
	},
	{
		"ID": 1420072,
		"Prefab": "UI/DialogEvent_ABS/Prefab/Event_14_2Story_13UIPrefab.prefab",
		"State": "Standby",
		"IsLoop": true
	},
	{
		"ID": 1420073,
		"Prefab": "UI/DialogEvent_ABS/Prefab/Event_14_2Story_13UIPrefab.prefab",
		"State": "Close",
		"IsLoop": false
	},
	{
		"ID": 1490041,
		"Prefab": "UI/DialogEvent_ABS/Prefab/Event_14Chaper_162UIPrefab.prefab",
		"State": "Open",
		"IsLoop": false
	},
	{
		"ID": 1490042,
		"Prefab": "UI/DialogEvent_ABS/Prefab/Event_14Chaper_162UIPrefab.prefab",
		"State": "Standby",
		"IsLoop": true
	},
	{
		"ID": 1490043,
		"Prefab": "UI/DialogEvent_ABS/Prefab/Event_14Chaper_162UIPrefab.prefab",
		"State": "Close",
		"IsLoop": false
	},
	{
		"ID": 1490071,
		"Prefab": "UI/DialogEvent_ABS/Prefab/Event_14Chaper_163_165UIPrefab.prefab",
		"State": "Open",
		"IsLoop": false
	},
	{
		"ID": 1490072,
		"Prefab": "UI/DialogEvent_ABS/Prefab/Event_14Chaper_163_165UIPrefab.prefab",
		"State": "Standby",
		"IsLoop": true
	},
	{
		"ID": 1490073,
		"Prefab": "UI/DialogEvent_ABS/Prefab/Event_14Chaper_163_165UIPrefab.prefab",
		"State": "Close",
		"IsLoop": false
	},
	{
		"ID": 1690021,
		"Prefab": "UI/DialogEvent_ABS/Prefab/Event_16Chaper_81_83UIPrefab.prefab",
		"State": "Open",
		"IsLoop": false
	},
	{
		"ID": 1690022,
		"Prefab": "UI/DialogEvent_ABS/Prefab/Event_16Chaper_81_83UIPrefab.prefab",
		"State": "HandIn",
		"IsLoop": true
	},
	{
		"ID": 1690023,
		"Prefab": "UI/DialogEvent_ABS/Prefab/Event_16Chaper_81_83UIPrefab.prefab",
		"State": "Close",
		"IsLoop": false
	},
	{
		"ID": 1700071,
		"Prefab": "UI/DialogEvent_ABS/Prefab/Event_17Chaper_10UIPrefab.prefab",
		"State": "Open",
		"IsLoop": false
	},
	{
		"ID": 1700072,
		"Prefab": "UI/DialogEvent_ABS/Prefab/Event_17Chaper_10UIPrefab.prefab",
		"State": "Standby",
		"IsLoop": true
	},
	{
		"ID": 1700073,
		"Prefab": "UI/DialogEvent_ABS/Prefab/Event_17Chaper_10UIPrefab.prefab",
		"State": "Close",
		"IsLoop": false
	},
	{
		"ID": 1820021,
		"Prefab": "UI/DialogEvent_ABS/Prefab/Event_18_2Story_8UIPrefab.prefab",
		"State": "Open",
		"IsLoop": false
	},
	{
		"ID": 1820022,
		"Prefab": "UI/DialogEvent_ABS/Prefab/Event_18_2Story_8UIPrefab.prefab",
		"State": "Standby",
		"IsLoop": true
	},
	{
		"ID": 1820023,
		"Prefab": "UI/DialogEvent_ABS/Prefab/Event_18_2Story_8UIPrefab.prefab",
		"State": "Close",
		"IsLoop": false
	},
	{
		"ID": 1800071,
		"Prefab": "UI/DialogEvent_ABS/Prefab/Event_18Chaper_13UIPrefab.prefab",
		"State": "Open",
		"IsLoop": false
	},
	{
		"ID": 1800072,
		"Prefab": "UI/DialogEvent_ABS/Prefab/Event_18Chaper_13UIPrefab.prefab",
		"State": "Standby",
		"IsLoop": true
	},
	{
		"ID": 1800073,
		"Prefab": "UI/DialogEvent_ABS/Prefab/Event_18Chaper_13UIPrefab.prefab",
		"State": "Close",
		"IsLoop": false
	},
	{
		"ID": 1990171,
		"Prefab": "UI/DialogEvent_ABS/Prefab/Event_19Chaper_117UIPrefab.prefab",
		"State": "Open",
		"IsLoop": false
	},
	{
		"ID": 1990173,
		"Prefab": "UI/DialogEvent_ABS/Prefab/Event_19Chaper_117UIPrefab.prefab",
		"State": "Close",
		"IsLoop": false
	},
	{
		"ID": 2110011,
		"Prefab": "UI/DialogEvent_ABS/Prefab/Event_21Story_1_6UIPrefab.prefab",
		"State": "Open",
		"IsLoop": false
	},
	{
		"ID": 2110012,
		"Prefab": "UI/DialogEvent_ABS/Prefab/Event_21Story_1_6UIPrefab.prefab",
		"State": "Standby",
		"IsLoop": true
	},
	{
		"ID": 2110013,
		"Prefab": "UI/DialogEvent_ABS/Prefab/Event_21Story_1_6UIPrefab.prefab",
		"State": "Close",
		"IsLoop": false
	},
	{
		"ID": 2210021,
		"Prefab": "UI/DialogEvent_ABS/Prefab/Event_22Story_1_8UIPrefab.prefab",
		"State": "Open",
		"IsLoop": false
	},
	{
		"ID": 2210022,
		"Prefab": "UI/DialogEvent_ABS/Prefab/Event_22Story_1_8UIPrefab.prefab",
		"State": "Standby",
		"IsLoop": true
	},
	{
		"ID": 2210023,
		"Prefab": "UI/DialogEvent_ABS/Prefab/Event_22Story_1_8UIPrefab.prefab",
		"State": "Close",
		"IsLoop": false
	},
	{
		"ID": 2490131,
		"Prefab": "UI/DialogEvent_ABS/Prefab/Event_24Chaper_7UIPrefab.prefab",
		"State": "Open",
		"IsLoop": false
	},
	{
		"ID": 2490132,
		"Prefab": "UI/DialogEvent_ABS/Prefab/Event_24Chaper_7UIPrefab.prefab",
		"State": "Standby",
		"IsLoop": true
	},
	{
		"ID": 2490133,
		"Prefab": "UI/DialogEvent_ABS/Prefab/Event_24Chaper_7UIPrefab.prefab",
		"State": "Close",
		"IsLoop": false
	},
	{
		"ID": 2590061,
		"Prefab": "UI/DialogEvent_ABS/Prefab/Event_25Chaper_127UIPrefab.prefab",
		"State": "Open",
		"IsLoop": false
	},
	{
		"ID": 2590062,
		"Prefab": "UI/DialogEvent_ABS/Prefab/Event_25Chaper_127UIPrefab.prefab",
		"State": "Standby",
		"IsLoop": true
	},
	{
		"ID": 2590063,
		"Prefab": "UI/DialogEvent_ABS/Prefab/Event_25Chaper_127UIPrefab.prefab",
		"State": "Close",
		"IsLoop": false
	},
	{
		"ID": 2600081,
		"Prefab": "UI/DialogEvent_ABS/Prefab/Event_26Chaper_13UIPrefab.prefab",
		"State": "Open",
		"IsLoop": false
	},
	{
		"ID": 2600082,
		"Prefab": "UI/DialogEvent_ABS/Prefab/Event_26Chaper_13UIPrefab.prefab",
		"State": "Standby",
		"IsLoop": true
	},
	{
		"ID": 2600083,
		"Prefab": "UI/DialogEvent_ABS/Prefab/Event_26Chaper_13UIPrefab.prefab",
		"State": "Close",
		"IsLoop": false
	},
	{
		"ID": 2600121,
		"Prefab": "UI/DialogEvent_ABS/Prefab/Event_26Chaper_17UIPrefab.prefab",
		"State": "Open",
		"IsLoop": false
	},
	{
		"ID": 2600122,
		"Prefab": "UI/DialogEvent_ABS/Prefab/Event_26Chaper_17UIPrefab.prefab",
		"State": "Standby",
		"IsLoop": true
	},
	{
		"ID": 2600123,
		"Prefab": "UI/DialogEvent_ABS/Prefab/Event_26Chaper_17UIPrefab.prefab",
		"State": "Close",
		"IsLoop": false
	},
	{
		"ID": 2610011,
		"Prefab": "UI/DialogEvent_ABS/Prefab/Event_26Story_1_6UIPrefab.prefab",
		"State": "Open",
		"IsLoop": false
	},
	{
		"ID": 2610012,
		"Prefab": "UI/DialogEvent_ABS/Prefab/Event_26Story_1_6UIPrefab.prefab",
		"State": "Standby",
		"IsLoop": true
	},
	{
		"ID": 2610013,
		"Prefab": "UI/DialogEvent_ABS/Prefab/Event_26Story_1_6UIPrefab.prefab",
		"State": "Close",
		"IsLoop": false
	},
	{
		"ID": 93301151,
		"Prefab": "UI/DialogEvent_ABS/Prefab/Event_EmmaLink_01UIPrefab.prefab",
		"State": "Open",
		"IsLoop": false
	},
	{
		"ID": 93301152,
		"Prefab": "UI/DialogEvent_ABS/Prefab/Event_EmmaLink_01UIPrefab.prefab",
		"State": "Standby",
		"IsLoop": true
	},
	{
		"ID": 93301153,
		"Prefab": "UI/DialogEvent_ABS/Prefab/Event_EmmaLink_01UIPrefab.prefab",
		"State": "Close",
		"IsLoop": false
	},
	{
		"ID": 3100011,
		"Prefab": "UI/DialogEvent_ABS/Prefab/Event_31Chaper_10UIPrefab.prefab",
		"State": "Open",
		"IsLoop": false
	},
	{
		"ID": 3100012,
		"Prefab": "UI/DialogEvent_ABS/Prefab/Event_31Chaper_10UIPrefab.prefab",
		"State": "Standby",
		"IsLoop": true
	},
	{
		"ID": 3100013,
		"Prefab": "UI/DialogEvent_ABS/Prefab/Event_31Chaper_10UIPrefab.prefab",
		"State": "Close",
		"IsLoop": false
	},
	{
		"ID": 3200011,
		"Prefab": "UI/DialogEvent_ABS/Prefab/Event_Fane_01UIPrefab.prefab",
		"State": "Open",
		"IsLoop": false
	},
	{
		"ID": 3200012,
		"Prefab": "UI/DialogEvent_ABS/Prefab/Event_Fane_01UIPrefab.prefab",
		"State": "Standby",
		"IsLoop": true
	},
	{
		"ID": 3200013,
		"Prefab": "UI/DialogEvent_ABS/Prefab/Event_Fane_01UIPrefab.prefab",
		"State": "Close",
		"IsLoop": false
	},
	{
		"ID": 3280011,
		"Prefab": "UI/DialogEvent_ABS/Prefab/Event_Zalrahda_01UIPrefab.prefab",
		"State": "Open",
		"IsLoop": false
	},
	{
		"ID": 3280012,
		"Prefab": "UI/DialogEvent_ABS/Prefab/Event_Zalrahda_01UIPrefab.prefab",
		"State": "Standby",
		"IsLoop": true
	},
	{
		"ID": 3280013,
		"Prefab": "UI/DialogEvent_ABS/Prefab/Event_Zalrahda_01UIPrefab.prefab",
		"State": "Close",
		"IsLoop": false
	},
	{
		"ID": 2720271,
		"Prefab": "UI/DialogEvent_ABS/Prefab/Event_Zalrahda_02UIPrefab.prefab",
		"State": "Open",
		"IsLoop": false
	},
	{
		"ID": 2720272,
		"Prefab": "UI/DialogEvent_ABS/Prefab/Event_Zalrahda_02UIPrefab.prefab",
		"State": "Standby",
		"IsLoop": true
	},
	{
		"ID": 2720273,
		"Prefab": "UI/DialogEvent_ABS/Prefab/Event_Zalrahda_02UIPrefab.prefab",
		"State": "Close",
		"IsLoop": false
	},
	{
		"ID": 80311021,
		"Prefab": "UI/DialogEvent_ABS/Prefab/Event_ChristmasDress_UIPrefab.prefab",
		"State": "Open",
		"IsLoop": false
	},
	{
		"ID": 80311022,
		"Prefab": "UI/DialogEvent_ABS/Prefab/Event_ChristmasDress_UIPrefab.prefab",
		"State": "Standby",
		"IsLoop": true
	},
	{
		"ID": 80311023,
		"Prefab": "UI/DialogEvent_ABS/Prefab/Event_ChristmasDress_UIPrefab.prefab",
		"State": "Close",
		"IsLoop": false
	}
]