[
	{
		"ID": 1,
		"Name": "The Gift of the Goddess",
		"ValidDays": 30,
		"Desc": "Valid for: <color=#DC143C>30</color> days\n1. Get <color=#DC143C>50</color> Trinity Crystals on a daily basis (via Daily Missions)\n2. Hero gets extra EXP: +<color=#DC143C>10%</color>\n3. Hero gets extra Intimacy: +<color=#DC143C>10%</color>",
		"Reward": [
			{
				"GoodsType": "GoodsType_Crystal",
				"Id": 0,
				"Count": 300
			}
		],
		"OpenEverydayTaskId": 2011,
		"HeroExpAddRate": 1000,
		"HeroFavourabilityExpAddRate": 1000,
		"OpenGameFunc": "GameFunctionType_None",
		"IsAppleSubscribe": false,
		"FightFailEnergyDecreaseRate": 0,
		"Icon": "UI/Icon/Item_ABS/Special_PowerItem1.png"
	},
	{
		"ID": 2,
		"Name": "The Flag of Courage",
		"ValidDays": 30,
		"Desc": "Valid for: <color=#DC143C>30</color> days\n1. Goddess Trial Daily Reward +<color=#DC143C>1</color>\n2. Aniki's Gym Daily Reward +<color=#DC143C>1</color>",
		"Reward": [
			{
				"GoodsType": "GoodsType_Crystal",
				"Id": 0,
				"Count": 240
			}
		],
		"OpenEverydayTaskId": 0,
		"HeroExpAddRate": 0,
		"HeroFavourabilityExpAddRate": 0,
		"DayBonusAdd": [
			{
				"GameFuncId": "GameFunctionType_AnikiGym",
				"Nums": 1
			},
			{
				"GameFuncId": "GameFunctionType_ThearchyTrial",
				"Nums": 1
			}
		],
		"OpenGameFunc": "GameFunctionType_None",
		"IsAppleSubscribe": false,
		"FightFailEnergyDecreaseRate": 0,
		"Icon": "UI/Icon/Item_ABS/Special_PowerItem2.png"
	},
	{
		"ID": 3,
		"Name": "Clock of Forgiveness",
		"ValidDays": 30,
		"Desc": "Valid for: <color=#DC143C>30</color> days\n1. Able to take back any action during battle (3 times per battle, not available in team mode or PvP battle)\n2. Only consume <color=#DC143C>50%</color> Stamina when losing a battle.",
		"OpenEverydayTaskId": 0,
		"HeroExpAddRate": 0,
		"HeroFavourabilityExpAddRate": 0,
		"OpenGameFunc": "GameFunctionType_Regret",
		"IsAppleSubscribe": true,
		"FightFailEnergyDecreaseRate": 5000,
		"Icon": "UI/Icon/Item_ABS/Special_PowerItem3.png"
	}
]