v -0.2615993022918701 0.9763023257255554 0.014269241131842136
v -0.2592136859893799 0.9673987627029419 0.02067786082625389
v -0.5007622838020325 0.8673459887504578 0.051918935030698776
v -0.5053710341453552 0.8753290176391602 0.042678430676460266
v -0.7081847786903381 0.7081845998764038 0.09430062025785446
v -0.7147026062011719 0.7147031426429749 0.0805099830031395
v -0.8673456907272339 0.5007630586624146 0.1370975226163864
v -0.8753283619880676 0.5053715705871582 0.11724875122308731
v -0.9673984050750732 0.259213924407959 0.17114518582820892
v -0.9763020277023315 0.2616000175476074 0.14397525787353516
v -1.001524567604065 2.9067993523312907e-07 0.1914956420660019
v -1.0107423067092896 4.844665681957849e-07 0.1560344249010086
v -0.9673987030982971 -0.25921300053596497 0.19810201227664948
v -0.9763021469116211 -0.26159894466400146 0.1537703424692154
v -0.8673461079597473 -0.5007619857788086 0.19459988176822662
v -0.8753287196159363 -0.5053706765174866 0.1413649171590805
v -0.7081853747367859 -0.7081844806671143 0.18610283732414246
v -0.7147031426429749 -0.714702308177948 0.12464840710163116
v -0.5007628202438354 -0.8673455715179443 0.17719051241874695
v -0.5053713917732239 -0.8753283619880676 0.10902465134859085
v -0.2592140734195709 -0.9673984050750732 0.17088191211223602
v -0.26159971952438354 -0.976301908493042 0.09830185025930405
v -6.782531727367314e-07 -1.001524567604065 0.16864508390426636
v -3.875732375036023e-07 -1.0107423067092896 0.0945233404636383
v 0.259212851524353 -0.9673985838890076 0.17088191211223602
v 0.26159894466400146 -0.9763021469116211 0.09830186516046524
v -0.9584950804710388 -0.2568275034427643 0.24226665496826172
v -0.8593632578849792 -0.4961530864238739 0.24749062955379486
v -0.701667308807373 -0.701666533946991 0.2470378428697586
v -0.4961537718772888 -0.8593628406524658 0.24468481540679932
v -0.2568283677101135 -0.9584947824478149 0.24268534779548645
v -2.9067993523312907e-07 -0.9923069477081299 0.2419527918100357
v 0.25682735443115234 -0.9584950804710388 0.24268540740013123
v -0.851380467414856 -0.4915441572666168 0.3000376522541046
v -0.949591338634491 -0.2544417679309845 0.28626441955566406
v -0.9923069477081299 4.844665681957849e-07 0.22695685923099518
v -0.9584949016571045 0.25682851672172546 0.19846801459789276
v -0.8593630194664001 0.49615392088890076 0.15723805129528046
v -0.7016667723655701 0.701667308807373 0.10850569605827332
v -0.49615344405174255 0.8593629598617554 0.06167362257838249
v -0.2568279802799225 0.9584952592849731 0.027667058631777763
v -0.49154454469680786 0.8513808846473694 0.07194140553474426
v -0.25444212555885315 0.9495915174484253 0.03523530066013336
v -0.6951488256454468 0.6951495409011841 0.12312471121549606
v -0.8513801097869873 0.49154508113861084 0.17767024040222168
v -0.9495911598205566 0.2544426918029785 0.2259439080953598
v -0.9830893278121948 5.813598704662581e-07 0.26241812109947205
v -0.4869357645511627 0.8433976173400879 0.08272141218185425
v -0.25205641984939575 0.9406880140304565 0.04338108375668526
v -0.6886311173439026 0.6886312961578369 0.1381572186946869
v -0.843397319316864 0.4869362711906433 0.1983940452337265
v -0.9406876564025879 0.25205689668655396 0.2535726726055145
v -0.9738715291023254 2.9067993523312907e-07 0.29787924885749817
v -0.9406878352165222 -0.2520560622215271 0.33009541034698486
v -0.843397855758667 -0.4869353473186493 0.3522419333457947
v -0.6886315941810608 -0.6886307001113892 0.36735615134239197
v -0.6951494216918945 -0.6951485276222229 0.3074550926685333
v -0.4915449917316437 -0.8513801097869873 0.3115100562572479
v -0.254442423582077 -0.9495911598205566 0.31371599435806274
v -3.875732375036023e-07 -0.9830892086029053 0.3144504129886627
v 0.2544415295124054 -0.949591338634491 0.31371602416038513
v -0.48693615198135376 -0.843397319316864 0.37766921520233154
v -0.25205695629119873 -0.9406875371932983 0.3839776813983917
v -1.9378661875180114e-07 -0.9738715291023254 0.38614243268966675
v 0.2520561218261719 -0.9406878352165222 0.38397762179374695
v -0.48232725262641907 -0.8354145288467407 0.4431651532649994
v -0.24967129528522491 -0.9317840337753296 0.4534737765789032
v -3.875732375036023e-07 -0.9646539092063904 0.4570324718952179
v 0.24967032670974731 -0.9317842125892639 0.4534738063812256
v -0.682113766670227 -0.6821129322052002 0.42674264311790466
v -0.8354150056838989 -0.48232659697532654 0.40410399436950684
v -0.9317842721939087 -0.2496703714132309 0.3737596571445465
v -0.9646539092063904 4.844665681957849e-07 0.33334052562713623
v -0.9317840337753296 0.24967099726200104 0.28135451674461365
v -0.835414707660675 0.48232725262641907 0.21940922737121582
v -0.6821132302284241 0.6821137070655823 0.15360280871391296
v -0.482326865196228 0.8354147672653198 0.09401262551546097
v -0.24967080354690552 0.9317845106124878 0.052102845162153244
vn -0.16856877505779266 0.6315279006958008 0.7568070888519287
vn -0.1702791154384613 0.6427738666534424 0.7468914985656738
vn -0.2875456213951111 0.6692692637443542 0.6851249933242798
vn -0.27977824211120605 0.658639669418335 0.6985111832618713
vn -0.5306528806686401 0.6466550230979919 0.547946035861969
vn -0.5216866731643677 0.6440970301628113 0.5594478845596313
vn -0.75461345911026 0.5033254027366638 0.4209774434566498
vn -0.7493183016777039 0.5054159164428711 0.42787471413612366
vn -0.9050682783126831 0.27614688873291016 0.32341063022613525
vn -0.903731644153595 0.27721890807151794 0.32621869444847107
vn -0.9671105742454529 0.012715915217995644 0.2540381848812103
vn -0.9670402407646179 0.010140788741409779 0.2544216811656952
vn -0.9454975128173828 -0.25228267908096313 0.20588353276252747
vn -0.944144606590271 -0.2578587234020233 0.20518247783184052
vn -0.8509261012077332 -0.4960651099681854 0.17275483906269073
vn -0.8473853468894958 -0.5024358630180359 0.17174525558948517
vn -0.6954034566879272 -0.7027125358581543 0.15036314725875854
vn -0.6904364228248596 -0.7077984809875488 0.14939525723457336
vn -0.4918212294578552 -0.860014021396637 0.13596954941749573
vn -0.48709142208099365 -0.8628315329551697 0.13514286279678345
vn -0.25461345911026 -0.9585450291633606 0.12791964411735535
vn -0.25176554918289185 -0.9593914747238159 0.12720903754234314
vn -7.748584494038369e-07 -0.9921151995658875 0.125328928232193
vn -0.0 -0.9921993613243103 0.12466134876012802
vn 0.12845654785633087 -0.9838948845863342 0.1242976114153862
vn 0.12812073528766632 -0.9840222001075745 0.12363441288471222
vn -0.9471108317375183 -0.24556095898151398 0.20659354329109192
vn -0.8535391092300415 -0.49117350578308105 0.17383792996406555
vn -0.6982350945472717 -0.6996287703514099 0.15161588788032532
vn -0.494167685508728 -0.8584563732147217 0.13729897141456604
vn -0.25593510270118713 -0.9580101370811462 0.1292816400527954
vn -0.0 -0.9919410943984985 0.12669986486434937
vn 0.1291351616382599 -0.9836353063583374 0.12564106285572052
vn -0.8561503887176514 -0.48621827363967896 0.17492331564426422
vn -0.9486876130104065 -0.23878943920135498 0.2072955071926117
vn -0.9669963121414185 0.0209893099963665 0.25392434000968933
vn -0.9028811454772949 0.28538569808006287 0.3214975595474243
vn -0.7511440515518188 0.5130816698074341 0.41536688804626465
vn -0.5284567475318909 0.6583698987960815 0.5359874963760376
vn -0.28899621963500977 0.6879453659057617 0.6657418012619019
vn -0.17388634383678436 0.666841447353363 0.7246281504631042
vn -0.29019200801849365 0.7050722241401672 0.6470407247543335
vn -0.17710396647453308 0.6887753009796143 0.703009843826294
vn -0.5262131690979004 0.6693757176399231 0.5244386196136475
vn -0.7476593255996704 0.5225107669830322 0.40986356139183044
vn -0.9006356596946716 0.2944889962673187 0.3195803463459015
vn -0.9668158888816833 0.029251135885715485 0.2537940442562103
vn -0.2911786735057831 0.7207945585250854 0.6290231943130493
vn -0.1799735724925995 0.7087646722793579 0.6821012496948242
vn -0.5239430665969849 0.679732620716095 0.513271152973175
vn -0.7441695928573608 0.531623899936676 0.40445950627326965
vn -0.8983346819877625 0.3034595251083374 0.3176586627960205
vn -0.9665701389312744 0.03749873489141464 0.2536453902721405
vn -0.950226366519928 -0.2319689244031906 0.2079910784959793
vn -0.8587589263916016 -0.4811983108520508 0.1760149747133255
vn -0.7039633393287659 -0.6933043003082275 0.15415814518928528
vn -0.7010887265205383 -0.6964929699897766 0.15287938714027405
vn -0.49654245376586914 -0.8568681478500366 0.1386454552412033
vn -0.2572747468948364 -0.9574636220932007 0.13066424429416656
vn -5.59722252546635e-07 -0.9917621612548828 0.1280927062034607
vn 0.12982381880283356 -0.9833694100379944 0.12700599431991577
vn -0.49894511699676514 -0.8552486300468445 0.14001226425170898
vn -0.258634090423584 -0.956904411315918 0.132069393992424
vn -0.0 -0.9915783405303955 0.12950851023197174
vn 0.13052265346050262 -0.983096718788147 0.12839287519454956
vn -0.49636659026145935 -0.8566640019416809 0.14052434265613556
vn -0.2571099102497101 -0.9572228193283081 0.1327362060546875
vn -6.112996402407589e-07 -0.9914843440055847 0.13022558391094208
vn 0.13088098168373108 -0.9829556941986084 0.12910594046115875
vn -0.7009474039077759 -0.6963043808937073 0.15437884628772736
vn -0.8559176325798035 -0.48634520173072815 0.1757085919380188
vn -0.9485096335411072 -0.2400013655424118 0.20670920610427856
vn -0.9677276611328125 0.026340888813138008 0.25061771273612976
vn -0.9045233130455017 0.2908605933189392 0.31182950735092163
vn -0.7559717893600464 0.5220562219619751 0.39492252469062805
vn -0.5380009412765503 0.6784523725509644 0.5002573132514954
vn -0.30161020159721375 0.7289462685585022 0.6145475506782532
vn -0.18147963285446167 0.7194170355796814 0.6704506874084473
vt 0.013804726302623749 0.9860690236091614
vt 0.013804726302623749 0.7888551950454712
vt 0.09494243562221527 0.7888551950454712
vt 0.09494243562221527 0.9860690236091614
vt 0.1760801523923874 0.7888551950454712
vt 0.1760801523923874 0.9860690236091614
vt 0.2572178542613983 0.7888551950454712
vt 0.2572178542613983 0.9860690236091614
vt 0.3383556008338928 0.7888551950454712
vt 0.3383556008338928 0.9860690236091614
vt 0.41949331760406494 0.7888551950454712
vt 0.41949331760406494 0.9860690236091614
vt 0.5006310343742371 0.7888551950454712
vt 0.5006310343742371 0.9860690236091614
vt 0.5817686915397644 0.7888551950454712
vt 0.5817686915397644 0.9860690236091614
vt 0.6629064679145813 0.7888551950454712
vt 0.6629064679145813 0.9860690236091614
vt 0.7440442442893982 0.7888551950454712
vt 0.7440443634986877 0.9860690236091614
vt 0.8251819610595703 0.7888551950454712
vt 0.8251819610595703 0.9860690236091614
vt 0.9063196182250977 0.7888551950454712
vt 0.9063196182250977 0.9860690236091614
vt 0.9874573349952698 0.7888551950454712
vt 0.9874573349952698 0.9860690236091614
vt 0.5006310343742371 0.591641366481781
vt 0.5817686915397644 0.591641366481781
vt 0.6629064679145813 0.591641366481781
vt 0.7440442442893982 0.591641366481781
vt 0.8251819610595703 0.591641366481781
vt 0.9063196182250977 0.591641366481781
vt 0.9874573349952698 0.591641366481781
vt 0.5817686915397644 0.3944275975227356
vt 0.5006310343742371 0.3944275975227356
vt 0.41949331760406494 0.591641366481781
vt 0.3383556008338928 0.591641366481781
vt 0.2572178542613983 0.591641366481781
vt 0.1760801523923874 0.591641366481781
vt 0.09494243562221527 0.591641366481781
vt 0.013804726302623749 0.591641366481781
vt 0.09494243562221527 0.3944275975227356
vt 0.013804726302623749 0.3944275975227356
vt 0.1760801523923874 0.3944275975227356
vt 0.2572178542613983 0.3944275975227356
vt 0.3383556008338928 0.3944275975227356
vt 0.41949331760406494 0.3944275975227356
vt 0.09494243562221527 0.19721370935440063
vt 0.013804726302623749 0.19721370935440063
vt 0.1760801523923874 0.19721370935440063
vt 0.2572178542613983 0.19721370935440063
vt 0.3383556008338928 0.19721370935440063
vt 0.41949331760406494 0.19721370935440063
vt 0.5006310343742371 0.19721370935440063
vt 0.5817686915397644 0.19721370935440063
vt 0.6629064679145813 0.19721370935440063
vt 0.6629064679145813 0.3944275975227356
vt 0.7440442442893982 0.3944275975227356
vt 0.8251819610595703 0.3944275975227356
vt 0.9063196182250977 0.3944275975227356
vt 0.9874573349952698 0.3944275975227356
vt 0.7440442442893982 0.19721370935440063
vt 0.8251819610595703 0.19721370935440063
vt 0.9063196182250977 0.19721370935440063
vt 0.9874573349952698 0.19721370935440063
vt 0.7440442442893982 0.0
vt 0.8251819610595703 0.0
vt 0.9063196182250977 0.0
vt 0.9874573349952698 0.0
vt 0.6629064679145813 0.0
vt 0.5817686915397644 0.0
vt 0.5006310343742371 0.0
vt 0.41949331760406494 0.0
vt 0.3383556008338928 0.0
vt 0.2572178542613983 0.0
vt 0.1760801523923874 0.0
vt 0.09494243562221527 0.0
vt 0.013804726302623749 0.0

g Mesh_FX_Cone
s 1
usemtl Mesh_FX_Cone
f 3/3/3 2/2/2 1/1/1 
f 4/4/4 3/3/3 1/1/1 
f 5/5/5 3/3/3 4/4/4 
f 6/6/6 5/5/5 4/4/4 
f 7/7/7 5/5/5 6/6/6 
f 8/8/8 7/7/7 6/6/6 
f 9/9/9 7/7/7 8/8/8 
f 10/10/10 9/9/9 8/8/8 
f 11/11/11 9/9/9 10/10/10 
f 12/12/12 11/11/11 10/10/10 
f 13/13/13 11/11/11 12/12/12 
f 14/14/14 13/13/13 12/12/12 
f 15/15/15 13/13/13 14/14/14 
f 16/16/16 15/15/15 14/14/14 
f 17/17/17 15/15/15 16/16/16 
f 18/18/18 17/17/17 16/16/16 
f 19/19/19 17/17/17 18/18/18 
f 20/20/20 19/19/19 18/18/18 
f 21/21/21 19/19/19 20/20/20 
f 22/22/22 21/21/21 20/20/20 
f 23/23/23 21/21/21 22/22/22 
f 24/24/24 23/23/23 22/22/22 
f 25/25/25 23/23/23 24/24/24 
f 26/26/26 25/25/25 24/24/24 
f 13/13/13 27/27/27 11/11/11 
f 28/28/28 27/27/27 13/13/13 
f 15/15/15 28/28/28 13/13/13 
f 29/29/29 28/28/28 15/15/15 
f 17/17/17 29/29/29 15/15/15 
f 30/30/30 29/29/29 17/17/17 
f 19/19/19 30/30/30 17/17/17 
f 31/31/31 30/30/30 19/19/19 
f 21/21/21 31/31/31 19/19/19 
f 32/32/32 31/31/31 21/21/21 
f 23/23/23 32/32/32 21/21/21 
f 33/33/33 32/32/32 23/23/23 
f 25/25/25 33/33/33 23/23/23 
f 28/28/28 34/34/34 27/27/27 
f 34/34/34 35/35/35 27/27/27 
f 27/27/27 35/35/35 36/36/36 
f 27/27/27 36/36/36 11/11/11 
f 11/11/11 36/36/36 9/9/9 
f 36/36/36 37/37/37 9/9/9 
f 9/9/9 37/37/37 7/7/7 
f 37/37/37 38/38/38 7/7/7 
f 7/7/7 38/38/38 5/5/5 
f 38/38/38 39/39/39 5/5/5 
f 5/5/5 39/39/39 3/3/3 
f 39/39/39 40/40/40 3/3/3 
f 3/3/3 40/40/40 2/2/2 
f 40/40/40 41/41/41 2/2/2 
f 40/40/40 42/42/42 41/41/41 
f 42/42/42 43/43/43 41/41/41 
f 44/44/44 42/42/42 40/40/40 
f 39/39/39 44/44/44 40/40/40 
f 45/45/45 44/44/44 39/39/39 
f 38/38/38 45/45/45 39/39/39 
f 46/46/46 45/45/45 38/38/38 
f 37/37/37 46/46/46 38/38/38 
f 47/47/47 46/46/46 37/37/37 
f 36/36/36 47/47/47 37/37/37 
f 35/35/35 47/47/47 36/36/36 
f 42/42/42 48/48/48 43/43/43 
f 48/48/48 49/49/49 43/43/43 
f 50/50/50 48/48/48 42/42/42 
f 44/44/44 50/50/50 42/42/42 
f 51/51/51 50/50/50 44/44/44 
f 45/45/45 51/51/51 44/44/44 
f 52/52/52 51/51/51 45/45/45 
f 46/46/46 52/52/52 45/45/45 
f 53/53/53 52/52/52 46/46/46 
f 47/47/47 53/53/53 46/46/46 
f 54/54/54 53/53/53 47/47/47 
f 35/35/35 54/54/54 47/47/47 
f 55/55/55 54/54/54 35/35/35 
f 34/34/34 55/55/55 35/35/35 
f 56/56/56 55/55/55 34/34/34 
f 57/57/57 56/56/56 34/34/34 
f 57/57/57 34/34/34 28/28/28 
f 29/29/29 57/57/57 28/28/28 
f 58/58/58 57/57/57 29/29/29 
f 30/30/30 58/58/58 29/29/29 
f 59/59/59 58/58/58 30/30/30 
f 31/31/31 59/59/59 30/30/30 
f 60/60/60 59/59/59 31/31/31 
f 32/32/32 60/60/60 31/31/31 
f 61/61/61 60/60/60 32/32/32 
f 33/33/33 61/61/61 32/32/32 
f 62/62/62 56/56/56 57/57/57 
f 58/58/58 62/62/62 57/57/57 
f 63/63/63 62/62/62 58/58/58 
f 59/59/59 63/63/63 58/58/58 
f 64/64/64 63/63/63 59/59/59 
f 60/60/60 64/64/64 59/59/59 
f 65/65/65 64/64/64 60/60/60 
f 61/61/61 65/65/65 60/60/60 
f 62/62/62 66/66/66 56/56/56 
f 67/67/67 66/66/66 62/62/62 
f 63/63/63 67/67/67 62/62/62 
f 68/68/68 67/67/67 63/63/63 
f 64/64/64 68/68/68 63/63/63 
f 69/69/69 68/68/68 64/64/64 
f 65/65/65 69/69/69 64/64/64 
f 66/66/66 70/70/70 56/56/56 
f 56/56/56 70/70/70 55/55/55 
f 70/70/70 71/71/71 55/55/55 
f 55/55/55 71/71/71 54/54/54 
f 71/71/71 72/72/72 54/54/54 
f 54/54/54 72/72/72 53/53/53 
f 72/72/72 73/73/73 53/53/53 
f 53/53/53 73/73/73 52/52/52 
f 73/73/73 74/74/74 52/52/52 
f 52/52/52 74/74/74 51/51/51 
f 74/74/74 75/75/75 51/51/51 
f 51/51/51 75/75/75 50/50/50 
f 75/75/75 76/76/76 50/50/50 
f 50/50/50 76/76/76 48/48/48 
f 76/76/76 77/77/77 48/48/48 
f 48/48/48 77/77/77 49/49/49 
f 77/77/77 78/78/78 49/49/49 

