[
	{
		"ID": 1,
		"Name": "Top 1",
		"HighRank": 1,
		"LowRank": 1,
		"RankRewardMailTemplateId": 0
	},
	{
		"ID": 2,
		"Name": "Top 2",
		"HighRank": 2,
		"LowRank": 2,
		"RankRewardMailTemplateId": 0
	},
	{
		"ID": 3,
		"Name": "Top 3",
		"HighRank": 3,
		"LowRank": 3,
		"RankRewardMailTemplateId": 0
	},
	{
		"ID": 4,
		"Name": "Top 4-10",
		"HighRank": 4,
		"LowRank": 10,
		"RankRewardMailTemplateId": 0
	},
	{
		"ID": 5,
		"Name": "Top 11-50",
		"HighRank": 11,
		"LowRank": 50,
		"RankRewardMailTemplateId": 0
	},
	{
		"ID": 6,
		"Name": "Top 51-100",
		"HighRank": 51,
		"LowRank": 100,
		"RankRewardMailTemplateId": 0
	},
	{
		"ID": 7,
		"Name": "Top 101-1,000",
		"HighRank": 101,
		"LowRank": 1000,
		"RankRewardMailTemplateId": 0
	},
	{
		"ID": 8,
		"Name": "Top 1,001-5,000",
		"HighRank": 1001,
		"LowRank": 5000,
		"RankRewardMailTemplateId": 0
	},
	{
		"ID": 9,
		"Name": "Top 5,001-10,000",
		"HighRank": 5001,
		"LowRank": 10000,
		"RankRewardMailTemplateId": 0
	},
	{
		"ID": 10,
		"Name": "Top 10,001-30,000",
		"HighRank": 10001,
		"LowRank": 30000,
		"RankRewardMailTemplateId": 0
	},
	{
		"ID": 11,
		"Name": "Top 30,001-49,999",
		"HighRank": 30000,
		"LowRank": 49999,
		"RankRewardMailTemplateId": 0
	}
]