[
	{
		"ID": 1,
		"Name": "Matthew",
		"HeroBiographiesID": [
			100,
			101,
			102,
			103,
			104,
			105
		],
		"HeroFettersID": [
			1,
			2,
			3,
			4,
			5
		],
		"HeroConfession": 0,
		"HeroPerformanceID": 110,
		"IsDungeonLevelsUnLock": false,
		"Reward1Star": 5,
		"Reward1": [
			{
				"GoodsType": "GoodsType_Crystal",
				"Id": 0,
				"Count": 30
			}
		],
		"Reward2Star": 10,
		"Reward2": [
			{
				"GoodsType": "GoodsType_Crystal",
				"Id": 0,
				"Count": 60
			}
		],
		"Reward3Star": 15,
		"Reward3": [
			{
				"GoodsType": "GoodsType_Crystal",
				"Id": 0,
				"Count": 90
			}
		],
		"FavorabilityMaxLevel": 25,
		"FavourabilityLevelUpReward": 2,
		"HeroTouch": [
			{
				"FavorabilityLevel": 1,
				"HeroInteractionId": 1
			}
		],
		"SendRewardsPerformance": 111,
		"InteractHeroPerformancesID": [
			120,
			121,
			122,
			123,
			124
		]
	},
	{
		"ID": 3,
		"Name": "Grenier",
		"HeroBiographiesID": [
			300,
			301,
			302,
			303,
			304,
			305
		],
		"HeroFettersID": [
			6,
			7,
			8,
			9,
			10
		],
		"HeroConfession": 0,
		"HeroPerformanceID": 310,
		"IsDungeonLevelsUnLock": false,
		"Reward1Star": 5,
		"Reward1": [
			{
				"GoodsType": "GoodsType_Crystal",
				"Id": 0,
				"Count": 30
			}
		],
		"Reward2Star": 10,
		"Reward2": [
			{
				"GoodsType": "GoodsType_Crystal",
				"Id": 0,
				"Count": 60
			}
		],
		"Reward3Star": 15,
		"Reward3": [
			{
				"GoodsType": "GoodsType_Crystal",
				"Id": 0,
				"Count": 90
			}
		],
		"FavorabilityMaxLevel": 25,
		"FavourabilityLevelUpReward": 2,
		"HeroTouch": [
			{
				"FavorabilityLevel": 1,
				"HeroInteractionId": 3
			}
		],
		"SendRewardsPerformance": 311,
		"InteractHeroPerformancesID": [
			320,
			321,
			322,
			323,
			324
		]
	},
	{
		"ID": 4,
		"Name": "Almeda",
		"HeroBiographiesID": [
			400,
			401,
			402,
			403,
			404,
			405
		],
		"HeroFettersID": [
			11,
			12,
			13,
			14,
			15
		],
		"HeroConfession": 0,
		"HeroPerformanceID": 410,
		"IsDungeonLevelsUnLock": false,
		"Reward1Star": 5,
		"Reward1": [
			{
				"GoodsType": "GoodsType_Crystal",
				"Id": 0,
				"Count": 30
			}
		],
		"Reward2Star": 10,
		"Reward2": [
			{
				"GoodsType": "GoodsType_Crystal",
				"Id": 0,
				"Count": 60
			}
		],
		"Reward3Star": 15,
		"Reward3": [
			{
				"GoodsType": "GoodsType_Crystal",
				"Id": 0,
				"Count": 90
			}
		],
		"FavorabilityMaxLevel": 25,
		"FavourabilityLevelUpReward": 2,
		"HeroTouch": [
			{
				"FavorabilityLevel": 1,
				"HeroInteractionId": 4
			}
		],
		"SendRewardsPerformance": 411,
		"InteractHeroPerformancesID": [
			420,
			421,
			422,
			423,
			424
		]
	},
	{
		"ID": 5,
		"Name": "Chris",
		"HeroBiographiesID": [
			500,
			501,
			502,
			503,
			504,
			505
		],
		"HeroFettersID": [
			16,
			17,
			18,
			19,
			20
		],
		"HeroConfession": 0,
		"HeroPerformanceID": 510,
		"IsDungeonLevelsUnLock": true,
		"DungeonLevelsID": [
			51,
			52,
			53,
			54,
			55
		],
		"Reward1Star": 5,
		"Reward1": [
			{
				"GoodsType": "GoodsType_Crystal",
				"Id": 0,
				"Count": 30
			}
		],
		"Reward2Star": 10,
		"Reward2": [
			{
				"GoodsType": "GoodsType_Crystal",
				"Id": 0,
				"Count": 60
			}
		],
		"Reward3Star": 15,
		"Reward3": [
			{
				"GoodsType": "GoodsType_Crystal",
				"Id": 0,
				"Count": 90
			}
		],
		"FavorabilityMaxLevel": 25,
		"FavourabilityLevelUpReward": 2,
		"HeroTouch": [
			{
				"FavorabilityLevel": 1,
				"HeroInteractionId": 5
			}
		],
		"SendRewardsPerformance": 511,
		"InteractHeroPerformancesID": [
			520,
			521,
			522,
			523,
			524
		]
	},
	{
		"ID": 6,
		"Name": "Leon",
		"HeroBiographiesID": [
			600,
			601,
			602,
			603,
			604,
			605
		],
		"HeroFettersID": [
			21,
			22,
			23,
			24,
			25
		],
		"HeroConfession": 0,
		"HeroPerformanceID": 610,
		"IsDungeonLevelsUnLock": true,
		"DungeonLevelsID": [
			61,
			62,
			63,
			64,
			65,
			66,
			67
		],
		"Reward1Star": 7,
		"Reward1": [
			{
				"GoodsType": "GoodsType_Crystal",
				"Id": 0,
				"Count": 30
			}
		],
		"Reward2Star": 14,
		"Reward2": [
			{
				"GoodsType": "GoodsType_Crystal",
				"Id": 0,
				"Count": 60
			}
		],
		"Reward3Star": 21,
		"Reward3": [
			{
				"GoodsType": "GoodsType_Crystal",
				"Id": 0,
				"Count": 90
			}
		],
		"FavorabilityMaxLevel": 25,
		"FavourabilityLevelUpReward": 2,
		"HeroTouch": [
			{
				"FavorabilityLevel": 1,
				"HeroInteractionId": 6
			}
		],
		"SendRewardsPerformance": 611,
		"InteractHeroPerformancesID": [
			620,
			621,
			622,
			623,
			624
		]
	},
	{
		"ID": 7,
		"Name": "Bernhardt",
		"HeroBiographiesID": [
			700,
			701,
			702,
			703,
			704,
			705
		],
		"HeroFettersID": [
			26,
			27,
			28,
			29,
			30
		],
		"HeroConfession": 0,
		"HeroPerformanceID": 710,
		"IsDungeonLevelsUnLock": true,
		"DungeonLevelsID": [
			71,
			72,
			73,
			74,
			75,
			76,
			77
		],
		"Reward1Star": 7,
		"Reward1": [
			{
				"GoodsType": "GoodsType_Crystal",
				"Id": 0,
				"Count": 30
			}
		],
		"Reward2Star": 14,
		"Reward2": [
			{
				"GoodsType": "GoodsType_Crystal",
				"Id": 0,
				"Count": 60
			}
		],
		"Reward3Star": 21,
		"Reward3": [
			{
				"GoodsType": "GoodsType_Crystal",
				"Id": 0,
				"Count": 90
			}
		],
		"FavorabilityMaxLevel": 25,
		"FavourabilityLevelUpReward": 2,
		"HeroTouch": [
			{
				"FavorabilityLevel": 1,
				"HeroInteractionId": 7
			}
		],
		"SendRewardsPerformance": 711,
		"InteractHeroPerformancesID": [
			720,
			721,
			722,
			723,
			724
		]
	},
	{
		"ID": 8,
		"Name": "Lana",
		"HeroBiographiesID": [
			800,
			801,
			802,
			803,
			804,
			805
		],
		"HeroFettersID": [
			31,
			32,
			33,
			34,
			35
		],
		"HeroConfession": 8,
		"HeroPerformanceID": 810,
		"IsDungeonLevelsUnLock": true,
		"DungeonLevelsID": [
			81,
			82,
			83,
			84,
			85,
			86,
			87
		],
		"Reward1Star": 7,
		"Reward1": [
			{
				"GoodsType": "GoodsType_Crystal",
				"Id": 0,
				"Count": 30
			}
		],
		"Reward2Star": 14,
		"Reward2": [
			{
				"GoodsType": "GoodsType_Crystal",
				"Id": 0,
				"Count": 60
			}
		],
		"Reward3Star": 21,
		"Reward3": [
			{
				"GoodsType": "GoodsType_Crystal",
				"Id": 0,
				"Count": 90
			}
		],
		"FavorabilityMaxLevel": 25,
		"FavourabilityLevelUpReward": 2,
		"HeroTouch": [
			{
				"FavorabilityLevel": 1,
				"HeroInteractionId": 8
			}
		],
		"SendRewardsPerformance": 811,
		"InteractHeroPerformancesID": [
			820,
			821,
			822,
			823,
			824
		]
	},
	{
		"ID": 9,
		"Name": "Bozel",
		"HeroBiographiesID": [
			900,
			901,
			902,
			903,
			904,
			905
		],
		"HeroFettersID": [
			36,
			37,
			38,
			39,
			40
		],
		"HeroConfession": 0,
		"HeroPerformanceID": 910,
		"IsDungeonLevelsUnLock": true,
		"DungeonLevelsID": [
			91,
			92,
			93,
			94,
			95,
			96,
			97
		],
		"Reward1Star": 7,
		"Reward1": [
			{
				"GoodsType": "GoodsType_Crystal",
				"Id": 0,
				"Count": 30
			}
		],
		"Reward2Star": 14,
		"Reward2": [
			{
				"GoodsType": "GoodsType_Crystal",
				"Id": 0,
				"Count": 60
			}
		],
		"Reward3Star": 21,
		"Reward3": [
			{
				"GoodsType": "GoodsType_Crystal",
				"Id": 0,
				"Count": 90
			}
		],
		"FavorabilityMaxLevel": 25,
		"FavourabilityLevelUpReward": 2,
		"HeroTouch": [
			{
				"FavorabilityLevel": 1,
				"HeroInteractionId": 9
			}
		],
		"SendRewardsPerformance": 911,
		"InteractHeroPerformancesID": [
			920,
			921,
			922,
			923,
			924
		]
	},
	{
		"ID": 10,
		"Name": "Ledin",
		"HeroBiographiesID": [
			1000,
			1001,
			1002,
			1003,
			1004,
			1005
		],
		"HeroFettersID": [
			41,
			42,
			43,
			44,
			45
		],
		"HeroConfession": 0,
		"HeroPerformanceID": 1010,
		"IsDungeonLevelsUnLock": true,
		"DungeonLevelsID": [
			101,
			102,
			103,
			104,
			105,
			106,
			107
		],
		"Reward1Star": 7,
		"Reward1": [
			{
				"GoodsType": "GoodsType_Crystal",
				"Id": 0,
				"Count": 30
			}
		],
		"Reward2Star": 14,
		"Reward2": [
			{
				"GoodsType": "GoodsType_Crystal",
				"Id": 0,
				"Count": 60
			}
		],
		"Reward3Star": 21,
		"Reward3": [
			{
				"GoodsType": "GoodsType_Crystal",
				"Id": 0,
				"Count": 90
			}
		],
		"FavorabilityMaxLevel": 25,
		"FavourabilityLevelUpReward": 2,
		"HeroTouch": [
			{
				"FavorabilityLevel": 1,
				"HeroInteractionId": 10
			}
		],
		"SendRewardsPerformance": 1011,
		"InteractHeroPerformancesID": [
			1020,
			1021,
			1022,
			1023,
			1024
		]
	},
	{
		"ID": 11,
		"Name": "Narm",
		"HeroBiographiesID": [
			1100,
			1101,
			1102,
			1103,
			1104,
			1105
		],
		"HeroFettersID": [
			46,
			47,
			48,
			49,
			50
		],
		"HeroConfession": 0,
		"HeroPerformanceID": 1110,
		"IsDungeonLevelsUnLock": true,
		"DungeonLevelsID": [
			111,
			112,
			113,
			114,
			115
		],
		"Reward1Star": 5,
		"Reward1": [
			{
				"GoodsType": "GoodsType_Crystal",
				"Id": 0,
				"Count": 30
			}
		],
		"Reward2Star": 10,
		"Reward2": [
			{
				"GoodsType": "GoodsType_Crystal",
				"Id": 0,
				"Count": 60
			}
		],
		"Reward3Star": 15,
		"Reward3": [
			{
				"GoodsType": "GoodsType_Crystal",
				"Id": 0,
				"Count": 90
			}
		],
		"FavorabilityMaxLevel": 25,
		"FavourabilityLevelUpReward": 2,
		"HeroTouch": [
			{
				"FavorabilityLevel": 1,
				"HeroInteractionId": 11
			}
		],
		"SendRewardsPerformance": 1111,
		"InteractHeroPerformancesID": [
			1120,
			1121,
			1122,
			1123,
			1124
		]
	},
	{
		"ID": 12,
		"Name": "Elwin",
		"HeroBiographiesID": [
			1200,
			1201,
			1202,
			1203,
			1204,
			1205
		],
		"HeroFettersID": [
			51,
			52,
			53,
			54,
			55
		],
		"HeroConfession": 0,
		"HeroPerformanceID": 1210,
		"IsDungeonLevelsUnLock": true,
		"DungeonLevelsID": [
			121,
			122,
			123,
			124,
			125,
			126,
			127
		],
		"Reward1Star": 7,
		"Reward1": [
			{
				"GoodsType": "GoodsType_Crystal",
				"Id": 0,
				"Count": 30
			}
		],
		"Reward2Star": 14,
		"Reward2": [
			{
				"GoodsType": "GoodsType_Crystal",
				"Id": 0,
				"Count": 60
			}
		],
		"Reward3Star": 21,
		"Reward3": [
			{
				"GoodsType": "GoodsType_Crystal",
				"Id": 0,
				"Count": 90
			}
		],
		"FavorabilityMaxLevel": 25,
		"FavourabilityLevelUpReward": 2,
		"HeroTouch": [
			{
				"FavorabilityLevel": 1,
				"HeroInteractionId": 12
			}
		],
		"SendRewardsPerformance": 1211,
		"InteractHeroPerformancesID": [
			1220,
			1221,
			1222,
			1223,
			1224
		]
	},
	{
		"ID": 13,
		"Name": "Hein",
		"HeroBiographiesID": [
			1300,
			1301,
			1302,
			1303,
			1304,
			1305
		],
		"HeroFettersID": [
			56,
			57,
			58,
			59,
			60
		],
		"HeroConfession": 0,
		"HeroPerformanceID": 1310,
		"IsDungeonLevelsUnLock": true,
		"DungeonLevelsID": [
			131,
			132,
			133,
			134,
			135
		],
		"Reward1Star": 5,
		"Reward1": [
			{
				"GoodsType": "GoodsType_Crystal",
				"Id": 0,
				"Count": 30
			}
		],
		"Reward2Star": 10,
		"Reward2": [
			{
				"GoodsType": "GoodsType_Crystal",
				"Id": 0,
				"Count": 60
			}
		],
		"Reward3Star": 15,
		"Reward3": [
			{
				"GoodsType": "GoodsType_Crystal",
				"Id": 0,
				"Count": 90
			}
		],
		"FavorabilityMaxLevel": 25,
		"FavourabilityLevelUpReward": 2,
		"HeroTouch": [
			{
				"FavorabilityLevel": 1,
				"HeroInteractionId": 13
			}
		],
		"SendRewardsPerformance": 1311,
		"InteractHeroPerformancesID": [
			1320,
			1321,
			1322,
			1323,
			1324
		]
	},
	{
		"ID": 14,
		"Name": "Cherie",
		"HeroBiographiesID": [
			1400,
			1401,
			1402,
			1403,
			1404,
			1405
		],
		"HeroFettersID": [
			61,
			62,
			63,
			64,
			65
		],
		"HeroConfession": 14,
		"HeroPerformanceID": 1410,
		"IsDungeonLevelsUnLock": true,
		"DungeonLevelsID": [
			141,
			142,
			143,
			144,
			145,
			146,
			147
		],
		"Reward1Star": 7,
		"Reward1": [
			{
				"GoodsType": "GoodsType_Crystal",
				"Id": 0,
				"Count": 30
			}
		],
		"Reward2Star": 14,
		"Reward2": [
			{
				"GoodsType": "GoodsType_Crystal",
				"Id": 0,
				"Count": 60
			}
		],
		"Reward3Star": 21,
		"Reward3": [
			{
				"GoodsType": "GoodsType_Crystal",
				"Id": 0,
				"Count": 90
			}
		],
		"FavorabilityMaxLevel": 25,
		"FavourabilityLevelUpReward": 2,
		"HeroTouch": [
			{
				"FavorabilityLevel": 1,
				"HeroInteractionId": 14
			}
		],
		"SendRewardsPerformance": 1411,
		"InteractHeroPerformancesID": [
			1420,
			1421,
			1422,
			1423,
			1424
		]
	},
	{
		"ID": 15,
		"Name": "Liana",
		"HeroBiographiesID": [
			1500,
			1501,
			1502,
			1503,
			1504,
			1505
		],
		"HeroFettersID": [
			66,
			67,
			68,
			69,
			70
		],
		"HeroConfession": 0,
		"HeroPerformanceID": 1510,
		"IsDungeonLevelsUnLock": true,
		"DungeonLevelsID": [
			151,
			152,
			153,
			154,
			155,
			156,
			157
		],
		"Reward1Star": 7,
		"Reward1": [
			{
				"GoodsType": "GoodsType_Crystal",
				"Id": 0,
				"Count": 30
			}
		],
		"Reward2Star": 14,
		"Reward2": [
			{
				"GoodsType": "GoodsType_Crystal",
				"Id": 0,
				"Count": 60
			}
		],
		"Reward3Star": 21,
		"Reward3": [
			{
				"GoodsType": "GoodsType_Crystal",
				"Id": 0,
				"Count": 90
			}
		],
		"FavorabilityMaxLevel": 25,
		"FavourabilityLevelUpReward": 2,
		"HeroTouch": [
			{
				"FavorabilityLevel": 1,
				"HeroInteractionId": 15
			}
		],
		"SendRewardsPerformance": 1511,
		"InteractHeroPerformancesID": [
			1520,
			1521,
			1522,
			1523,
			1524
		]
	},
	{
		"ID": 16,
		"Name": "Lance",
		"HeroBiographiesID": [
			1600,
			1601,
			1602,
			1603,
			1604,
			1605
		],
		"HeroFettersID": [
			71,
			72,
			73,
			74,
			75
		],
		"HeroConfession": 0,
		"HeroPerformanceID": 1610,
		"IsDungeonLevelsUnLock": true,
		"DungeonLevelsID": [
			161,
			162,
			163,
			164,
			165
		],
		"Reward1Star": 5,
		"Reward1": [
			{
				"GoodsType": "GoodsType_Crystal",
				"Id": 0,
				"Count": 30
			}
		],
		"Reward2Star": 10,
		"Reward2": [
			{
				"GoodsType": "GoodsType_Crystal",
				"Id": 0,
				"Count": 60
			}
		],
		"Reward3Star": 15,
		"Reward3": [
			{
				"GoodsType": "GoodsType_Crystal",
				"Id": 0,
				"Count": 90
			}
		],
		"FavorabilityMaxLevel": 25,
		"FavourabilityLevelUpReward": 2,
		"HeroTouch": [
			{
				"FavorabilityLevel": 1,
				"HeroInteractionId": 16
			}
		],
		"SendRewardsPerformance": 1611,
		"InteractHeroPerformancesID": [
			1620,
			1621,
			1622,
			1623,
			1624
		]
	},
	{
		"ID": 17,
		"Name": "Egbert",
		"HeroBiographiesID": [
			1700,
			1701,
			1702,
			1703,
			1704,
			1705
		],
		"HeroFettersID": [
			76,
			77,
			78,
			79,
			80
		],
		"HeroConfession": 0,
		"HeroPerformanceID": 1710,
		"IsDungeonLevelsUnLock": true,
		"DungeonLevelsID": [
			171,
			172,
			173,
			174,
			175
		],
		"Reward1Star": 5,
		"Reward1": [
			{
				"GoodsType": "GoodsType_Crystal",
				"Id": 0,
				"Count": 30
			}
		],
		"Reward2Star": 10,
		"Reward2": [
			{
				"GoodsType": "GoodsType_Crystal",
				"Id": 0,
				"Count": 60
			}
		],
		"Reward3Star": 15,
		"Reward3": [
			{
				"GoodsType": "GoodsType_Crystal",
				"Id": 0,
				"Count": 90
			}
		],
		"FavorabilityMaxLevel": 25,
		"FavourabilityLevelUpReward": 2,
		"HeroTouch": [
			{
				"FavorabilityLevel": 1,
				"HeroInteractionId": 17
			}
		],
		"SendRewardsPerformance": 1711,
		"InteractHeroPerformancesID": [
			1720,
			1721,
			1722,
			1723,
			1724
		]
	},
	{
		"ID": 18,
		"Name": "Imelda",
		"HeroBiographiesID": [
			1800,
			1801,
			1802,
			1803,
			1804,
			1805
		],
		"HeroFettersID": [
			81,
			82,
			83,
			84,
			85
		],
		"HeroConfession": 0,
		"HeroPerformanceID": 1810,
		"IsDungeonLevelsUnLock": true,
		"DungeonLevelsID": [
			181,
			182,
			183,
			184,
			185
		],
		"Reward1Star": 5,
		"Reward1": [
			{
				"GoodsType": "GoodsType_Crystal",
				"Id": 0,
				"Count": 30
			}
		],
		"Reward2Star": 10,
		"Reward2": [
			{
				"GoodsType": "GoodsType_Crystal",
				"Id": 0,
				"Count": 60
			}
		],
		"Reward3Star": 15,
		"Reward3": [
			{
				"GoodsType": "GoodsType_Crystal",
				"Id": 0,
				"Count": 90
			}
		],
		"FavorabilityMaxLevel": 25,
		"FavourabilityLevelUpReward": 2,
		"HeroTouch": [
			{
				"FavorabilityLevel": 1,
				"HeroInteractionId": 18
			}
		],
		"SendRewardsPerformance": 1811,
		"InteractHeroPerformancesID": [
			1820,
			1821,
			1822,
			1823,
			1824
		]
	},
	{
		"ID": 19,
		"Name": "Lester",
		"HeroBiographiesID": [
			1900,
			1901,
			1902,
			1903,
			1904,
			1905
		],
		"HeroFettersID": [
			86,
			87,
			88,
			89,
			90
		],
		"HeroConfession": 0,
		"HeroPerformanceID": 1910,
		"IsDungeonLevelsUnLock": true,
		"DungeonLevelsID": [
			191,
			192,
			193,
			194,
			195
		],
		"Reward1Star": 5,
		"Reward1": [
			{
				"GoodsType": "GoodsType_Crystal",
				"Id": 0,
				"Count": 30
			}
		],
		"Reward2Star": 10,
		"Reward2": [
			{
				"GoodsType": "GoodsType_Crystal",
				"Id": 0,
				"Count": 60
			}
		],
		"Reward3Star": 15,
		"Reward3": [
			{
				"GoodsType": "GoodsType_Crystal",
				"Id": 0,
				"Count": 90
			}
		],
		"FavorabilityMaxLevel": 25,
		"FavourabilityLevelUpReward": 2,
		"HeroTouch": [
			{
				"FavorabilityLevel": 1,
				"HeroInteractionId": 19
			}
		],
		"SendRewardsPerformance": 1911,
		"InteractHeroPerformancesID": [
			1920,
			1921,
			1922,
			1923,
			1924
		]
	},
	{
		"ID": 20,
		"Name": "Sonya",
		"HeroBiographiesID": [
			2000,
			2001,
			2002,
			2003,
			2004,
			2005
		],
		"HeroFettersID": [
			91,
			92,
			93,
			94,
			95
		],
		"HeroConfession": 0,
		"HeroPerformanceID": 2010,
		"IsDungeonLevelsUnLock": true,
		"DungeonLevelsID": [
			201,
			202,
			203,
			204,
			205
		],
		"Reward1Star": 5,
		"Reward1": [
			{
				"GoodsType": "GoodsType_Crystal",
				"Id": 0,
				"Count": 30
			}
		],
		"Reward2Star": 10,
		"Reward2": [
			{
				"GoodsType": "GoodsType_Crystal",
				"Id": 0,
				"Count": 60
			}
		],
		"Reward3Star": 15,
		"Reward3": [
			{
				"GoodsType": "GoodsType_Crystal",
				"Id": 0,
				"Count": 90
			}
		],
		"FavorabilityMaxLevel": 25,
		"FavourabilityLevelUpReward": 2,
		"HeroTouch": [
			{
				"FavorabilityLevel": 1,
				"HeroInteractionId": 20
			}
		],
		"SendRewardsPerformance": 2011,
		"InteractHeroPerformancesID": [
			2020,
			2021,
			2022,
			2023,
			2024
		]
	},
	{
		"ID": 21,
		"Name": "Vargas",
		"HeroBiographiesID": [
			2100,
			2101,
			2102,
			2103,
			2104,
			2105
		],
		"HeroFettersID": [
			96,
			97,
			98,
			99,
			100
		],
		"HeroConfession": 0,
		"HeroPerformanceID": 2110,
		"IsDungeonLevelsUnLock": true,
		"DungeonLevelsID": [
			211,
			212,
			213,
			214,
			215
		],
		"Reward1Star": 5,
		"Reward1": [
			{
				"GoodsType": "GoodsType_Crystal",
				"Id": 0,
				"Count": 30
			}
		],
		"Reward2Star": 10,
		"Reward2": [
			{
				"GoodsType": "GoodsType_Crystal",
				"Id": 0,
				"Count": 60
			}
		],
		"Reward3Star": 15,
		"Reward3": [
			{
				"GoodsType": "GoodsType_Crystal",
				"Id": 0,
				"Count": 90
			}
		],
		"FavorabilityMaxLevel": 25,
		"FavourabilityLevelUpReward": 2,
		"HeroTouch": [
			{
				"FavorabilityLevel": 1,
				"HeroInteractionId": 21
			}
		],
		"SendRewardsPerformance": 2111,
		"InteractHeroPerformancesID": [
			2120,
			2121,
			2122,
			2123,
			2124
		]
	},
	{
		"ID": 22,
		"Name": "Jessica",
		"HeroBiographiesID": [
			2200,
			2201,
			2202,
			2203,
			2204,
			2205
		],
		"HeroFettersID": [
			101,
			102,
			103,
			104,
			105
		],
		"HeroConfession": 0,
		"HeroPerformanceID": 2210,
		"IsDungeonLevelsUnLock": false,
		"Reward1Star": 5,
		"Reward1": [
			{
				"GoodsType": "GoodsType_Crystal",
				"Id": 0,
				"Count": 30
			}
		],
		"Reward2Star": 10,
		"Reward2": [
			{
				"GoodsType": "GoodsType_Crystal",
				"Id": 0,
				"Count": 60
			}
		],
		"Reward3Star": 15,
		"Reward3": [
			{
				"GoodsType": "GoodsType_Crystal",
				"Id": 0,
				"Count": 90
			}
		],
		"FavorabilityMaxLevel": 25,
		"FavourabilityLevelUpReward": 2,
		"HeroTouch": [
			{
				"FavorabilityLevel": 1,
				"HeroInteractionId": 22
			}
		],
		"SendRewardsPerformance": 2211,
		"InteractHeroPerformancesID": [
			2220,
			2221,
			2222,
			2223,
			2224
		]
	},
	{
		"ID": 23,
		"Name": "Rohga",
		"HeroBiographiesID": [
			2300,
			2301,
			2302,
			2303,
			2304,
			2305
		],
		"HeroFettersID": [
			106,
			107,
			108,
			109,
			110
		],
		"HeroConfession": 0,
		"HeroPerformanceID": 2310,
		"IsDungeonLevelsUnLock": false,
		"Reward1Star": 5,
		"Reward1": [
			{
				"GoodsType": "GoodsType_Crystal",
				"Id": 0,
				"Count": 30
			}
		],
		"Reward2Star": 10,
		"Reward2": [
			{
				"GoodsType": "GoodsType_Crystal",
				"Id": 0,
				"Count": 60
			}
		],
		"Reward3Star": 15,
		"Reward3": [
			{
				"GoodsType": "GoodsType_Crystal",
				"Id": 0,
				"Count": 90
			}
		],
		"FavorabilityMaxLevel": 25,
		"FavourabilityLevelUpReward": 2,
		"HeroTouch": [
			{
				"FavorabilityLevel": 1,
				"HeroInteractionId": 23
			}
		],
		"SendRewardsPerformance": 2311,
		"InteractHeroPerformancesID": [
			2320,
			2321,
			2322,
			2323,
			2324
		]
	},
	{
		"ID": 24,
		"Name": "Scott",
		"HeroBiographiesID": [
			2400,
			2401,
			2402,
			2403,
			2404,
			2405
		],
		"HeroFettersID": [
			111,
			112,
			113,
			114,
			115
		],
		"HeroConfession": 0,
		"HeroPerformanceID": 2410,
		"IsDungeonLevelsUnLock": false,
		"Reward1Star": 5,
		"Reward1": [
			{
				"GoodsType": "GoodsType_Crystal",
				"Id": 0,
				"Count": 30
			}
		],
		"Reward2Star": 10,
		"Reward2": [
			{
				"GoodsType": "GoodsType_Crystal",
				"Id": 0,
				"Count": 60
			}
		],
		"Reward3Star": 15,
		"Reward3": [
			{
				"GoodsType": "GoodsType_Crystal",
				"Id": 0,
				"Count": 90
			}
		],
		"FavorabilityMaxLevel": 25,
		"FavourabilityLevelUpReward": 2,
		"HeroTouch": [
			{
				"FavorabilityLevel": 1,
				"HeroInteractionId": 24
			}
		],
		"SendRewardsPerformance": 2411,
		"InteractHeroPerformancesID": [
			2420,
			2421,
			2422,
			2423,
			2424
		]
	},
	{
		"ID": 25,
		"Name": "Altemuller",
		"HeroBiographiesID": [
			2500,
			2501,
			2502,
			2503,
			2504,
			2505
		],
		"HeroFettersID": [
			116,
			117,
			118,
			119,
			120
		],
		"HeroConfession": 0,
		"HeroPerformanceID": 2510,
		"IsDungeonLevelsUnLock": true,
		"DungeonLevelsID": [
			251,
			252,
			253,
			254,
			255,
			256,
			257
		],
		"Reward1Star": 7,
		"Reward1": [
			{
				"GoodsType": "GoodsType_Crystal",
				"Id": 0,
				"Count": 30
			}
		],
		"Reward2Star": 14,
		"Reward2": [
			{
				"GoodsType": "GoodsType_Crystal",
				"Id": 0,
				"Count": 60
			}
		],
		"Reward3Star": 21,
		"Reward3": [
			{
				"GoodsType": "GoodsType_Crystal",
				"Id": 0,
				"Count": 90
			}
		],
		"FavorabilityMaxLevel": 25,
		"FavourabilityLevelUpReward": 2,
		"HeroTouch": [
			{
				"FavorabilityLevel": 1,
				"HeroInteractionId": 25
			}
		],
		"SendRewardsPerformance": 2511,
		"InteractHeroPerformancesID": [
			2520,
			2521,
			2522,
			2523,
			2524
		]
	},
	{
		"ID": 26,
		"Name": "Luna",
		"HeroBiographiesID": [
			2600,
			2601,
			2602,
			2603,
			2604,
			2605
		],
		"HeroFettersID": [
			121,
			122,
			123,
			124,
			125
		],
		"HeroConfession": 26,
		"HeroPerformanceID": 2610,
		"IsDungeonLevelsUnLock": true,
		"DungeonLevelsID": [
			261,
			262,
			263,
			264,
			265,
			266,
			267
		],
		"Reward1Star": 7,
		"Reward1": [
			{
				"GoodsType": "GoodsType_Crystal",
				"Id": 0,
				"Count": 30
			}
		],
		"Reward2Star": 14,
		"Reward2": [
			{
				"GoodsType": "GoodsType_Crystal",
				"Id": 0,
				"Count": 60
			}
		],
		"Reward3Star": 21,
		"Reward3": [
			{
				"GoodsType": "GoodsType_Crystal",
				"Id": 0,
				"Count": 90
			}
		],
		"FavorabilityMaxLevel": 25,
		"FavourabilityLevelUpReward": 2,
		"HeroTouch": [
			{
				"FavorabilityLevel": 1,
				"HeroInteractionId": 26
			}
		],
		"SendRewardsPerformance": 2611,
		"InteractHeroPerformancesID": [
			2620,
			2621,
			2622,
			2623,
			2624
		]
	},
	{
		"ID": 27,
		"Name": "Dieharte",
		"HeroBiographiesID": [
			2700,
			2701,
			2702,
			2703,
			2704,
			2705
		],
		"HeroFettersID": [
			126,
			127,
			128,
			129,
			130
		],
		"HeroConfession": 0,
		"HeroPerformanceID": 2710,
		"IsDungeonLevelsUnLock": true,
		"DungeonLevelsID": [
			271,
			272,
			273,
			274,
			275,
			276,
			277
		],
		"Reward1Star": 7,
		"Reward1": [
			{
				"GoodsType": "GoodsType_Crystal",
				"Id": 0,
				"Count": 30
			}
		],
		"Reward2Star": 14,
		"Reward2": [
			{
				"GoodsType": "GoodsType_Crystal",
				"Id": 0,
				"Count": 60
			}
		],
		"Reward3Star": 21,
		"Reward3": [
			{
				"GoodsType": "GoodsType_Crystal",
				"Id": 0,
				"Count": 90
			}
		],
		"FavorabilityMaxLevel": 25,
		"FavourabilityLevelUpReward": 2,
		"HeroTouch": [
			{
				"FavorabilityLevel": 1,
				"HeroInteractionId": 27
			}
		],
		"SendRewardsPerformance": 2711,
		"InteractHeroPerformancesID": [
			2720,
			2721,
			2722,
			2723,
			2724
		]
	},
	{
		"ID": 28,
		"Name": "Zerida",
		"HeroBiographiesID": [
			2800,
			2801,
			2802,
			2803,
			2804,
			2805
		],
		"HeroFettersID": [
			131,
			132,
			133,
			134,
			135
		],
		"HeroConfession": 0,
		"HeroPerformanceID": 2810,
		"IsDungeonLevelsUnLock": true,
		"DungeonLevelsID": [
			281,
			282,
			283,
			284,
			285
		],
		"Reward1Star": 5,
		"Reward1": [
			{
				"GoodsType": "GoodsType_Crystal",
				"Id": 0,
				"Count": 30
			}
		],
		"Reward2Star": 10,
		"Reward2": [
			{
				"GoodsType": "GoodsType_Crystal",
				"Id": 0,
				"Count": 60
			}
		],
		"Reward3Star": 15,
		"Reward3": [
			{
				"GoodsType": "GoodsType_Crystal",
				"Id": 0,
				"Count": 90
			}
		],
		"FavorabilityMaxLevel": 25,
		"FavourabilityLevelUpReward": 2,
		"HeroTouch": [
			{
				"FavorabilityLevel": 1,
				"HeroInteractionId": 28
			}
		],
		"SendRewardsPerformance": 2811,
		"InteractHeroPerformancesID": [
			2820,
			2821,
			2822,
			2823,
			2824
		]
	},
	{
		"ID": 29,
		"Name": "Tiaris",
		"HeroBiographiesID": [
			2900,
			2901,
			2902,
			2903,
			2904,
			2905
		],
		"HeroFettersID": [
			136,
			137,
			138,
			139,
			140
		],
		"HeroConfession": 0,
		"HeroPerformanceID": 2910,
		"IsDungeonLevelsUnLock": true,
		"DungeonLevelsID": [
			291,
			292,
			293,
			294,
			295,
			296,
			297
		],
		"Reward1Star": 7,
		"Reward1": [
			{
				"GoodsType": "GoodsType_Crystal",
				"Id": 0,
				"Count": 30
			}
		],
		"Reward2Star": 14,
		"Reward2": [
			{
				"GoodsType": "GoodsType_Crystal",
				"Id": 0,
				"Count": 60
			}
		],
		"Reward3Star": 21,
		"Reward3": [
			{
				"GoodsType": "GoodsType_Crystal",
				"Id": 0,
				"Count": 90
			}
		],
		"FavorabilityMaxLevel": 25,
		"FavourabilityLevelUpReward": 2,
		"HeroTouch": [
			{
				"FavorabilityLevel": 1,
				"HeroInteractionId": 29
			}
		],
		"SendRewardsPerformance": 2911,
		"InteractHeroPerformancesID": [
			2920,
			2921,
			2922,
			2923,
			2924
		]
	},
	{
		"ID": 30,
		"Name": "Liffany",
		"HeroBiographiesID": [
			3000,
			3001,
			3002,
			3003,
			3004,
			3005
		],
		"HeroFettersID": [
			141,
			142,
			143,
			144,
			145
		],
		"HeroConfession": 0,
		"HeroPerformanceID": 3010,
		"IsDungeonLevelsUnLock": false,
		"Reward1Star": 5,
		"Reward1": [
			{
				"GoodsType": "GoodsType_Crystal",
				"Id": 0,
				"Count": 30
			}
		],
		"Reward2Star": 10,
		"Reward2": [
			{
				"GoodsType": "GoodsType_Crystal",
				"Id": 0,
				"Count": 60
			}
		],
		"Reward3Star": 15,
		"Reward3": [
			{
				"GoodsType": "GoodsType_Crystal",
				"Id": 0,
				"Count": 90
			}
		],
		"FavorabilityMaxLevel": 25,
		"FavourabilityLevelUpReward": 2,
		"HeroTouch": [
			{
				"FavorabilityLevel": 1,
				"HeroInteractionId": 30
			}
		],
		"SendRewardsPerformance": 3011,
		"InteractHeroPerformancesID": [
			3020,
			3021,
			3022,
			3023,
			3024
		]
	},
	{
		"ID": 31,
		"Name": "Sophia",
		"HeroBiographiesID": [
			3100,
			3101,
			3102,
			3103,
			3104,
			3105
		],
		"HeroFettersID": [
			146,
			147,
			148,
			149,
			150
		],
		"HeroConfession": 0,
		"HeroPerformanceID": 3110,
		"IsDungeonLevelsUnLock": true,
		"DungeonLevelsID": [
			311,
			312,
			313,
			314,
			315
		],
		"Reward1Star": 5,
		"Reward1": [
			{
				"GoodsType": "GoodsType_Crystal",
				"Id": 0,
				"Count": 30
			}
		],
		"Reward2Star": 10,
		"Reward2": [
			{
				"GoodsType": "GoodsType_Crystal",
				"Id": 0,
				"Count": 60
			}
		],
		"Reward3Star": 15,
		"Reward3": [
			{
				"GoodsType": "GoodsType_Crystal",
				"Id": 0,
				"Count": 90
			}
		],
		"FavorabilityMaxLevel": 25,
		"FavourabilityLevelUpReward": 2,
		"HeroTouch": [
			{
				"FavorabilityLevel": 1,
				"HeroInteractionId": 31
			}
		],
		"SendRewardsPerformance": 3111,
		"InteractHeroPerformancesID": [
			3120,
			3121,
			3122,
			3123,
			3124
		]
	},
	{
		"ID": 32,
		"Name": "Emerick",
		"HeroBiographiesID": [
			3200,
			3201,
			3202,
			3203,
			3204,
			3205
		],
		"HeroFettersID": [
			151,
			152,
			153,
			154,
			155
		],
		"HeroConfession": 0,
		"HeroPerformanceID": 3210,
		"IsDungeonLevelsUnLock": true,
		"DungeonLevelsID": [
			321,
			322,
			323,
			324,
			325
		],
		"Reward1Star": 5,
		"Reward1": [
			{
				"GoodsType": "GoodsType_Crystal",
				"Id": 0,
				"Count": 30
			}
		],
		"Reward2Star": 10,
		"Reward2": [
			{
				"GoodsType": "GoodsType_Crystal",
				"Id": 0,
				"Count": 60
			}
		],
		"Reward3Star": 15,
		"Reward3": [
			{
				"GoodsType": "GoodsType_Crystal",
				"Id": 0,
				"Count": 90
			}
		],
		"FavorabilityMaxLevel": 25,
		"FavourabilityLevelUpReward": 2,
		"HeroTouch": [
			{
				"FavorabilityLevel": 1,
				"HeroInteractionId": 32
			}
		],
		"SendRewardsPerformance": 3211,
		"InteractHeroPerformancesID": [
			3220,
			3221,
			3222,
			3223,
			3224
		]
	},
	{
		"ID": 33,
		"Name": "Freya",
		"HeroBiographiesID": [
			3300,
			3301,
			3302,
			3303,
			3304,
			3305
		],
		"HeroFettersID": [
			156,
			157,
			158,
			159,
			160
		],
		"HeroConfession": 0,
		"HeroPerformanceID": 3310,
		"IsDungeonLevelsUnLock": true,
		"DungeonLevelsID": [
			331,
			332,
			333,
			334,
			335
		],
		"Reward1Star": 5,
		"Reward1": [
			{
				"GoodsType": "GoodsType_Crystal",
				"Id": 0,
				"Count": 30
			}
		],
		"Reward2Star": 10,
		"Reward2": [
			{
				"GoodsType": "GoodsType_Crystal",
				"Id": 0,
				"Count": 60
			}
		],
		"Reward3Star": 15,
		"Reward3": [
			{
				"GoodsType": "GoodsType_Crystal",
				"Id": 0,
				"Count": 90
			}
		],
		"FavorabilityMaxLevel": 25,
		"FavourabilityLevelUpReward": 2,
		"HeroTouch": [
			{
				"FavorabilityLevel": 1,
				"HeroInteractionId": 33
			}
		],
		"SendRewardsPerformance": 3311,
		"InteractHeroPerformancesID": [
			3320,
			3321,
			3322,
			3323,
			3324
		]
	},
	{
		"ID": 34,
		"Name": "Kirikaze",
		"HeroBiographiesID": [
			3400,
			3401,
			3402,
			3403,
			3404,
			3405
		],
		"HeroFettersID": [
			161,
			162,
			163,
			164,
			165
		],
		"HeroConfession": 0,
		"HeroPerformanceID": 3410,
		"IsDungeonLevelsUnLock": true,
		"DungeonLevelsID": [
			341,
			342,
			343,
			344,
			345
		],
		"Reward1Star": 5,
		"Reward1": [
			{
				"GoodsType": "GoodsType_Crystal",
				"Id": 0,
				"Count": 30
			}
		],
		"Reward2Star": 10,
		"Reward2": [
			{
				"GoodsType": "GoodsType_Crystal",
				"Id": 0,
				"Count": 60
			}
		],
		"Reward3Star": 15,
		"Reward3": [
			{
				"GoodsType": "GoodsType_Crystal",
				"Id": 0,
				"Count": 90
			}
		],
		"FavorabilityMaxLevel": 25,
		"FavourabilityLevelUpReward": 2,
		"HeroTouch": [
			{
				"FavorabilityLevel": 1,
				"HeroInteractionId": 34
			}
		],
		"SendRewardsPerformance": 3411,
		"InteractHeroPerformancesID": [
			3420,
			3421,
			3422,
			3423,
			3424
		]
	},
	{
		"ID": 35,
		"Name": "Angelica",
		"HeroBiographiesID": [
			3500,
			3501,
			3502,
			3503,
			3504,
			3505
		],
		"HeroFettersID": [
			166,
			167,
			168,
			169,
			170
		],
		"HeroConfession": 0,
		"HeroPerformanceID": 3510,
		"IsDungeonLevelsUnLock": false,
		"Reward1Star": 5,
		"Reward1": [
			{
				"GoodsType": "GoodsType_Crystal",
				"Id": 0,
				"Count": 30
			}
		],
		"Reward2Star": 10,
		"Reward2": [
			{
				"GoodsType": "GoodsType_Crystal",
				"Id": 0,
				"Count": 60
			}
		],
		"Reward3Star": 15,
		"Reward3": [
			{
				"GoodsType": "GoodsType_Crystal",
				"Id": 0,
				"Count": 90
			}
		],
		"FavorabilityMaxLevel": 25,
		"FavourabilityLevelUpReward": 2,
		"HeroTouch": [
			{
				"FavorabilityLevel": 1,
				"HeroInteractionId": 35
			}
		],
		"SendRewardsPerformance": 3511,
		"InteractHeroPerformancesID": [
			3520,
			3521,
			3522,
			3523,
			3524
		]
	},
	{
		"ID": 36,
		"Name": "Silver Wolf",
		"HeroBiographiesID": [
			3600,
			3601,
			3602,
			3603,
			3604,
			3605
		],
		"HeroFettersID": [
			171,
			172,
			173,
			174,
			175
		],
		"HeroConfession": 0,
		"HeroPerformanceID": 3610,
		"IsDungeonLevelsUnLock": true,
		"DungeonLevelsID": [
			361,
			362,
			363,
			364,
			365
		],
		"Reward1Star": 5,
		"Reward1": [
			{
				"GoodsType": "GoodsType_Crystal",
				"Id": 0,
				"Count": 30
			}
		],
		"Reward2Star": 10,
		"Reward2": [
			{
				"GoodsType": "GoodsType_Crystal",
				"Id": 0,
				"Count": 60
			}
		],
		"Reward3Star": 15,
		"Reward3": [
			{
				"GoodsType": "GoodsType_Crystal",
				"Id": 0,
				"Count": 90
			}
		],
		"FavorabilityMaxLevel": 25,
		"FavourabilityLevelUpReward": 2,
		"HeroTouch": [
			{
				"FavorabilityLevel": 1,
				"HeroInteractionId": 36
			}
		],
		"SendRewardsPerformance": 3611,
		"InteractHeroPerformancesID": [
			3620,
			3621,
			3622,
			3623,
			3624
		]
	},
	{
		"ID": 37,
		"Name": "Jugler",
		"HeroBiographiesID": [
			3700,
			3701,
			3702,
			3703,
			3704,
			3705
		],
		"HeroFettersID": [
			176,
			177,
			178,
			179,
			180
		],
		"HeroConfession": 0,
		"HeroPerformanceID": 3710,
		"IsDungeonLevelsUnLock": true,
		"DungeonLevelsID": [
			371,
			372,
			373,
			374,
			375
		],
		"Reward1Star": 5,
		"Reward1": [
			{
				"GoodsType": "GoodsType_Crystal",
				"Id": 0,
				"Count": 30
			}
		],
		"Reward2Star": 10,
		"Reward2": [
			{
				"GoodsType": "GoodsType_Crystal",
				"Id": 0,
				"Count": 60
			}
		],
		"Reward3Star": 15,
		"Reward3": [
			{
				"GoodsType": "GoodsType_Crystal",
				"Id": 0,
				"Count": 90
			}
		],
		"FavorabilityMaxLevel": 25,
		"FavourabilityLevelUpReward": 2,
		"HeroTouch": [
			{
				"FavorabilityLevel": 1,
				"HeroInteractionId": 37
			}
		],
		"SendRewardsPerformance": 3711,
		"InteractHeroPerformancesID": [
			3720,
			3721,
			3722,
			3723,
			3724
		]
	},
	{
		"ID": 38,
		"Name": "Gerold & Layla",
		"HeroBiographiesID": [
			3800,
			3801,
			3802,
			3803,
			3804,
			3805
		],
		"HeroFettersID": [
			181,
			182,
			183,
			184,
			185
		],
		"HeroConfession": 0,
		"HeroPerformanceID": 3810,
		"IsDungeonLevelsUnLock": false,
		"Reward1Star": 5,
		"Reward1": [
			{
				"GoodsType": "GoodsType_Crystal",
				"Id": 0,
				"Count": 30
			}
		],
		"Reward2Star": 10,
		"Reward2": [
			{
				"GoodsType": "GoodsType_Crystal",
				"Id": 0,
				"Count": 60
			}
		],
		"Reward3Star": 15,
		"Reward3": [
			{
				"GoodsType": "GoodsType_Crystal",
				"Id": 0,
				"Count": 90
			}
		],
		"FavorabilityMaxLevel": 25,
		"FavourabilityLevelUpReward": 2,
		"HeroTouch": [
			{
				"FavorabilityLevel": 1,
				"HeroInteractionId": 38
			}
		],
		"SendRewardsPerformance": 3811,
		"InteractHeroPerformancesID": [
			3820,
			3821,
			3822,
			3823,
			3824
		]
	},
	{
		"ID": 39,
		"Name": "Feraquea",
		"HeroBiographiesID": [
			3900,
			3901,
			3902,
			3903,
			3904,
			3905
		],
		"HeroFettersID": [
			186,
			187,
			188,
			189,
			190
		],
		"HeroConfession": 0,
		"HeroPerformanceID": 3910,
		"IsDungeonLevelsUnLock": false,
		"Reward1Star": 5,
		"Reward1": [
			{
				"GoodsType": "GoodsType_Crystal",
				"Id": 0,
				"Count": 30
			}
		],
		"Reward2Star": 10,
		"Reward2": [
			{
				"GoodsType": "GoodsType_Crystal",
				"Id": 0,
				"Count": 60
			}
		],
		"Reward3Star": 15,
		"Reward3": [
			{
				"GoodsType": "GoodsType_Crystal",
				"Id": 0,
				"Count": 90
			}
		],
		"FavorabilityMaxLevel": 25,
		"FavourabilityLevelUpReward": 2,
		"HeroTouch": [
			{
				"FavorabilityLevel": 1,
				"HeroInteractionId": 39
			}
		],
		"SendRewardsPerformance": 3911,
		"InteractHeroPerformancesID": [
			3920,
			3921,
			3922,
			3923,
			3924
		]
	},
	{
		"ID": 40,
		"Name": "Lewin",
		"HeroBiographiesID": [
			4000,
			4001,
			4002,
			4003,
			4004,
			4005
		],
		"HeroFettersID": [
			191,
			192,
			193,
			194,
			195
		],
		"HeroConfession": 0,
		"HeroPerformanceID": 4010,
		"IsDungeonLevelsUnLock": false,
		"Reward1Star": 5,
		"Reward1": [
			{
				"GoodsType": "GoodsType_Crystal",
				"Id": 0,
				"Count": 30
			}
		],
		"Reward2Star": 10,
		"Reward2": [
			{
				"GoodsType": "GoodsType_Crystal",
				"Id": 0,
				"Count": 60
			}
		],
		"Reward3Star": 15,
		"Reward3": [
			{
				"GoodsType": "GoodsType_Crystal",
				"Id": 0,
				"Count": 90
			}
		],
		"FavorabilityMaxLevel": 25,
		"FavourabilityLevelUpReward": 2,
		"HeroTouch": [
			{
				"FavorabilityLevel": 1,
				"HeroInteractionId": 40
			}
		],
		"SendRewardsPerformance": 4011,
		"InteractHeroPerformancesID": [
			4020,
			4021,
			4022,
			4023,
			4024
		]
	},
	{
		"ID": 41,
		"Name": "Pierre",
		"HeroBiographiesID": [
			4100,
			4101,
			4102,
			4103,
			4104,
			4105
		],
		"HeroFettersID": [
			196,
			197,
			198,
			199,
			200
		],
		"HeroConfession": 0,
		"HeroPerformanceID": 4110,
		"IsDungeonLevelsUnLock": false,
		"Reward1Star": 5,
		"Reward1": [
			{
				"GoodsType": "GoodsType_Crystal",
				"Id": 0,
				"Count": 30
			}
		],
		"Reward2Star": 10,
		"Reward2": [
			{
				"GoodsType": "GoodsType_Crystal",
				"Id": 0,
				"Count": 60
			}
		],
		"Reward3Star": 15,
		"Reward3": [
			{
				"GoodsType": "GoodsType_Crystal",
				"Id": 0,
				"Count": 90
			}
		],
		"FavorabilityMaxLevel": 25,
		"FavourabilityLevelUpReward": 2,
		"HeroTouch": [
			{
				"FavorabilityLevel": 1,
				"HeroInteractionId": 41
			}
		],
		"SendRewardsPerformance": 4111,
		"InteractHeroPerformancesID": [
			4120,
			4121,
			4122,
			4123,
			4124
		]
	},
	{
		"ID": 42,
		"Name": "Dios",
		"HeroBiographiesID": [
			4200,
			4201,
			4202,
			4203,
			4204,
			4205
		],
		"HeroFettersID": [
			201,
			202,
			203,
			204,
			205
		],
		"HeroConfession": 0,
		"HeroPerformanceID": 4210,
		"IsDungeonLevelsUnLock": false,
		"Reward1Star": 5,
		"Reward1": [
			{
				"GoodsType": "GoodsType_Crystal",
				"Id": 0,
				"Count": 30
			}
		],
		"Reward2Star": 10,
		"Reward2": [
			{
				"GoodsType": "GoodsType_Crystal",
				"Id": 0,
				"Count": 60
			}
		],
		"Reward3Star": 15,
		"Reward3": [
			{
				"GoodsType": "GoodsType_Crystal",
				"Id": 0,
				"Count": 90
			}
		],
		"FavorabilityMaxLevel": 25,
		"FavourabilityLevelUpReward": 2,
		"HeroTouch": [
			{
				"FavorabilityLevel": 1,
				"HeroInteractionId": 42
			}
		],
		"SendRewardsPerformance": 4211,
		"InteractHeroPerformancesID": [
			4220,
			4221,
			4222,
			4223,
			4224
		]
	},
	{
		"ID": 43,
		"Name": "Anna",
		"HeroBiographiesID": [
			4300,
			4301,
			4302,
			4303,
			4304,
			4305
		],
		"HeroFettersID": [
			206,
			207,
			208,
			209,
			210
		],
		"HeroConfession": 0,
		"HeroPerformanceID": 4310,
		"IsDungeonLevelsUnLock": false,
		"Reward1Star": 5,
		"Reward1": [
			{
				"GoodsType": "GoodsType_Crystal",
				"Id": 0,
				"Count": 30
			}
		],
		"Reward2Star": 10,
		"Reward2": [
			{
				"GoodsType": "GoodsType_Crystal",
				"Id": 0,
				"Count": 60
			}
		],
		"Reward3Star": 15,
		"Reward3": [
			{
				"GoodsType": "GoodsType_Crystal",
				"Id": 0,
				"Count": 90
			}
		],
		"FavorabilityMaxLevel": 25,
		"FavourabilityLevelUpReward": 2,
		"HeroTouch": [
			{
				"FavorabilityLevel": 1,
				"HeroInteractionId": 43
			}
		],
		"SendRewardsPerformance": 4311,
		"InteractHeroPerformancesID": [
			4320,
			4321,
			4322,
			4323,
			4324
		]
	},
	{
		"ID": 44,
		"Name": "Laird",
		"HeroBiographiesID": [
			4400,
			4401,
			4402,
			4403,
			4404,
			4405
		],
		"HeroFettersID": [
			211,
			212,
			213,
			214,
			215
		],
		"HeroConfession": 0,
		"HeroPerformanceID": 4410,
		"IsDungeonLevelsUnLock": false,
		"Reward1Star": 5,
		"Reward1": [
			{
				"GoodsType": "GoodsType_Crystal",
				"Id": 0,
				"Count": 30
			}
		],
		"Reward2Star": 10,
		"Reward2": [
			{
				"GoodsType": "GoodsType_Crystal",
				"Id": 0,
				"Count": 60
			}
		],
		"Reward3Star": 15,
		"Reward3": [
			{
				"GoodsType": "GoodsType_Crystal",
				"Id": 0,
				"Count": 90
			}
		],
		"FavorabilityMaxLevel": 25,
		"FavourabilityLevelUpReward": 2,
		"HeroTouch": [
			{
				"FavorabilityLevel": 1,
				"HeroInteractionId": 44
			}
		],
		"SendRewardsPerformance": 4411,
		"InteractHeroPerformancesID": [
			4420,
			4421,
			4422,
			4423,
			4424
		]
	},
	{
		"ID": 45,
		"Name": "Keith",
		"HeroBiographiesID": [
			4500,
			4501,
			4502,
			4503,
			4504,
			4505
		],
		"HeroFettersID": [
			216,
			217,
			218,
			219,
			220
		],
		"HeroConfession": 0,
		"HeroPerformanceID": 4510,
		"IsDungeonLevelsUnLock": false,
		"Reward1Star": 5,
		"Reward1": [
			{
				"GoodsType": "GoodsType_Crystal",
				"Id": 0,
				"Count": 30
			}
		],
		"Reward2Star": 10,
		"Reward2": [
			{
				"GoodsType": "GoodsType_Crystal",
				"Id": 0,
				"Count": 60
			}
		],
		"Reward3Star": 15,
		"Reward3": [
			{
				"GoodsType": "GoodsType_Crystal",
				"Id": 0,
				"Count": 90
			}
		],
		"FavorabilityMaxLevel": 25,
		"FavourabilityLevelUpReward": 2,
		"HeroTouch": [
			{
				"FavorabilityLevel": 1,
				"HeroInteractionId": 45
			}
		],
		"SendRewardsPerformance": 4511,
		"InteractHeroPerformancesID": [
			4520,
			4521,
			4522,
			4523,
			4524
		]
	},
	{
		"ID": 46,
		"Name": "Celia",
		"HeroBiographiesID": [
			4600,
			4601,
			4602,
			4603,
			4604,
			4605
		],
		"HeroFettersID": [
			221,
			222,
			223,
			224,
			225
		],
		"HeroConfession": 0,
		"HeroPerformanceID": 4610,
		"IsDungeonLevelsUnLock": false,
		"Reward1Star": 5,
		"Reward1": [
			{
				"GoodsType": "GoodsType_Crystal",
				"Id": 0,
				"Count": 30
			}
		],
		"Reward2Star": 10,
		"Reward2": [
			{
				"GoodsType": "GoodsType_Crystal",
				"Id": 0,
				"Count": 60
			}
		],
		"Reward3Star": 15,
		"Reward3": [
			{
				"GoodsType": "GoodsType_Crystal",
				"Id": 0,
				"Count": 90
			}
		],
		"FavorabilityMaxLevel": 25,
		"FavourabilityLevelUpReward": 2,
		"HeroTouch": [
			{
				"FavorabilityLevel": 1,
				"HeroInteractionId": 46
			}
		],
		"SendRewardsPerformance": 4611,
		"InteractHeroPerformancesID": [
			4620,
			4621,
			4622,
			4623,
			4624
		]
	},
	{
		"ID": 47,
		"Name": "Leticia",
		"HeroBiographiesID": [
			4700,
			4701,
			4702,
			4703,
			4704,
			4705
		],
		"HeroFettersID": [
			226,
			227,
			228,
			229,
			230
		],
		"HeroConfession": 0,
		"HeroPerformanceID": 4710,
		"IsDungeonLevelsUnLock": false,
		"Reward1Star": 5,
		"Reward1": [
			{
				"GoodsType": "GoodsType_Crystal",
				"Id": 0,
				"Count": 30
			}
		],
		"Reward2Star": 10,
		"Reward2": [
			{
				"GoodsType": "GoodsType_Crystal",
				"Id": 0,
				"Count": 60
			}
		],
		"Reward3Star": 15,
		"Reward3": [
			{
				"GoodsType": "GoodsType_Crystal",
				"Id": 0,
				"Count": 90
			}
		],
		"FavorabilityMaxLevel": 25,
		"FavourabilityLevelUpReward": 2,
		"HeroTouch": [
			{
				"FavorabilityLevel": 1,
				"HeroInteractionId": 47
			}
		],
		"SendRewardsPerformance": 4711,
		"InteractHeroPerformancesID": [
			4720,
			4721,
			4722,
			4723,
			4724
		]
	},
	{
		"ID": 48,
		"Name": "Aaron",
		"HeroBiographiesID": [
			4800,
			4801,
			4802,
			4803,
			4804,
			4805
		],
		"HeroFettersID": [
			231,
			232,
			233,
			234,
			235
		],
		"HeroConfession": 0,
		"HeroPerformanceID": 4810,
		"IsDungeonLevelsUnLock": false,
		"Reward1Star": 5,
		"Reward1": [
			{
				"GoodsType": "GoodsType_Crystal",
				"Id": 0,
				"Count": 30
			}
		],
		"Reward2Star": 10,
		"Reward2": [
			{
				"GoodsType": "GoodsType_Crystal",
				"Id": 0,
				"Count": 60
			}
		],
		"Reward3Star": 15,
		"Reward3": [
			{
				"GoodsType": "GoodsType_Crystal",
				"Id": 0,
				"Count": 90
			}
		],
		"FavorabilityMaxLevel": 25,
		"FavourabilityLevelUpReward": 2,
		"HeroTouch": [
			{
				"FavorabilityLevel": 1,
				"HeroInteractionId": 48
			}
		],
		"SendRewardsPerformance": 4811,
		"InteractHeroPerformancesID": [
			4820,
			4821,
			4822,
			4823,
			4824
		]
	},
	{
		"ID": 49,
		"Name": "Varna",
		"HeroBiographiesID": [
			4900,
			4901,
			4902,
			4903,
			4904,
			4905
		],
		"HeroFettersID": [
			236,
			237,
			238,
			239,
			240
		],
		"HeroConfession": 0,
		"HeroPerformanceID": 4910,
		"IsDungeonLevelsUnLock": true,
		"DungeonLevelsID": [
			491,
			492,
			493,
			494,
			495
		],
		"Reward1Star": 5,
		"Reward1": [
			{
				"GoodsType": "GoodsType_Crystal",
				"Id": 0,
				"Count": 30
			}
		],
		"Reward2Star": 10,
		"Reward2": [
			{
				"GoodsType": "GoodsType_Crystal",
				"Id": 0,
				"Count": 60
			}
		],
		"Reward3Star": 15,
		"Reward3": [
			{
				"GoodsType": "GoodsType_Crystal",
				"Id": 0,
				"Count": 90
			}
		],
		"FavorabilityMaxLevel": 25,
		"FavourabilityLevelUpReward": 2,
		"HeroTouch": [
			{
				"FavorabilityLevel": 1,
				"HeroInteractionId": 49
			}
		],
		"SendRewardsPerformance": 4911,
		"InteractHeroPerformancesID": [
			4920,
			4921,
			4922,
			4923,
			4924
		]
	},
	{
		"ID": 50,
		"Name": "Zerida",
		"HeroBiographiesID": [
			2800,
			2801,
			2802,
			2803,
			2804,
			2805
		],
		"HeroFettersID": [
			131,
			132,
			133,
			134,
			135
		],
		"HeroConfession": 0,
		"HeroPerformanceID": 5010,
		"IsDungeonLevelsUnLock": false,
		"Reward1Star": 5,
		"Reward1": [
			{
				"GoodsType": "GoodsType_Crystal",
				"Id": 0,
				"Count": 30
			}
		],
		"Reward2Star": 10,
		"Reward2": [
			{
				"GoodsType": "GoodsType_Crystal",
				"Id": 0,
				"Count": 60
			}
		],
		"Reward3Star": 15,
		"Reward3": [
			{
				"GoodsType": "GoodsType_Crystal",
				"Id": 0,
				"Count": 90
			}
		],
		"FavorabilityMaxLevel": 25,
		"FavourabilityLevelUpReward": 2,
		"HeroTouch": [
			{
				"FavorabilityLevel": 1,
				"HeroInteractionId": 28
			}
		],
		"SendRewardsPerformance": 5011,
		"InteractHeroPerformancesID": [
			5020,
			5021,
			5022,
			5023,
			5024
		]
	},
	{
		"ID": 51,
		"Name": "Shelfaniel",
		"HeroBiographiesID": [
			5100,
			5101,
			5102,
			5103,
			5104,
			5105
		],
		"HeroFettersID": [
			246,
			247,
			248,
			249,
			250
		],
		"HeroConfession": 0,
		"HeroPerformanceID": 5110,
		"IsDungeonLevelsUnLock": true,
		"DungeonLevelsID": [
			511,
			512,
			513,
			514,
			515
		],
		"Reward1Star": 5,
		"Reward1": [
			{
				"GoodsType": "GoodsType_Crystal",
				"Id": 0,
				"Count": 30
			}
		],
		"Reward2Star": 10,
		"Reward2": [
			{
				"GoodsType": "GoodsType_Crystal",
				"Id": 0,
				"Count": 60
			}
		],
		"Reward3Star": 15,
		"Reward3": [
			{
				"GoodsType": "GoodsType_Crystal",
				"Id": 0,
				"Count": 90
			}
		],
		"FavorabilityMaxLevel": 25,
		"FavourabilityLevelUpReward": 2,
		"HeroTouch": [
			{
				"FavorabilityLevel": 1,
				"HeroInteractionId": 51
			}
		],
		"SendRewardsPerformance": 5111,
		"InteractHeroPerformancesID": [
			5120,
			5121,
			5122,
			5123,
			5124
		]
	},
	{
		"ID": 52,
		"Name": "Angelina",
		"HeroBiographiesID": [
			5200,
			5201,
			5202,
			5203,
			5204,
			5205
		],
		"HeroFettersID": [
			251,
			252,
			253,
			254,
			255
		],
		"HeroConfession": 0,
		"HeroPerformanceID": 5210,
		"IsDungeonLevelsUnLock": true,
		"DungeonLevelsID": [
			521,
			522,
			523,
			524,
			525
		],
		"Reward1Star": 5,
		"Reward1": [
			{
				"GoodsType": "GoodsType_Crystal",
				"Id": 0,
				"Count": 30
			}
		],
		"Reward2Star": 10,
		"Reward2": [
			{
				"GoodsType": "GoodsType_Crystal",
				"Id": 0,
				"Count": 60
			}
		],
		"Reward3Star": 15,
		"Reward3": [
			{
				"GoodsType": "GoodsType_Crystal",
				"Id": 0,
				"Count": 90
			}
		],
		"FavorabilityMaxLevel": 25,
		"FavourabilityLevelUpReward": 2,
		"HeroTouch": [
			{
				"FavorabilityLevel": 1,
				"HeroInteractionId": 52
			}
		],
		"SendRewardsPerformance": 5211,
		"InteractHeroPerformancesID": [
			5220,
			5221,
			5222,
			5223,
			5224
		]
	},
	{
		"ID": 53,
		"Name": "Lanford",
		"HeroBiographiesID": [
			5300,
			5301,
			5302,
			5303,
			5304,
			5305
		],
		"HeroFettersID": [
			256,
			257,
			258,
			259,
			260
		],
		"HeroConfession": 0,
		"HeroPerformanceID": 5310,
		"IsDungeonLevelsUnLock": true,
		"DungeonLevelsID": [
			531,
			532,
			533,
			534,
			535
		],
		"Reward1Star": 5,
		"Reward1": [
			{
				"GoodsType": "GoodsType_Crystal",
				"Id": 0,
				"Count": 30
			}
		],
		"Reward2Star": 10,
		"Reward2": [
			{
				"GoodsType": "GoodsType_Crystal",
				"Id": 0,
				"Count": 60
			}
		],
		"Reward3Star": 15,
		"Reward3": [
			{
				"GoodsType": "GoodsType_Crystal",
				"Id": 0,
				"Count": 90
			}
		],
		"FavorabilityMaxLevel": 25,
		"FavourabilityLevelUpReward": 2,
		"HeroTouch": [
			{
				"FavorabilityLevel": 1,
				"HeroInteractionId": 53
			}
		],
		"SendRewardsPerformance": 5311,
		"InteractHeroPerformancesID": [
			5320,
			5321,
			5322,
			5323,
			5324
		]
	},
	{
		"ID": 54,
		"Name": "Listell",
		"HeroBiographiesID": [
			5400,
			5401,
			5402,
			5403,
			5404,
			5405
		],
		"HeroFettersID": [
			261,
			262,
			263,
			264,
			265
		],
		"HeroConfession": 0,
		"HeroPerformanceID": 5410,
		"IsDungeonLevelsUnLock": true,
		"DungeonLevelsID": [
			541,
			542,
			543,
			544,
			545
		],
		"Reward1Star": 5,
		"Reward1": [
			{
				"GoodsType": "GoodsType_Crystal",
				"Id": 0,
				"Count": 30
			}
		],
		"Reward2Star": 10,
		"Reward2": [
			{
				"GoodsType": "GoodsType_Crystal",
				"Id": 0,
				"Count": 60
			}
		],
		"Reward3Star": 15,
		"Reward3": [
			{
				"GoodsType": "GoodsType_Crystal",
				"Id": 0,
				"Count": 90
			}
		],
		"FavorabilityMaxLevel": 25,
		"FavourabilityLevelUpReward": 2,
		"HeroTouch": [
			{
				"FavorabilityLevel": 1,
				"HeroInteractionId": 54
			}
		],
		"SendRewardsPerformance": 5411,
		"InteractHeroPerformancesID": [
			5420,
			5421,
			5422,
			5423,
			5424
		]
	},
	{
		"ID": 55,
		"Name": "Landius",
		"HeroBiographiesID": [
			5500,
			5501,
			5502,
			5503,
			5504,
			5505
		],
		"HeroFettersID": [
			266,
			267,
			268,
			269,
			270
		],
		"HeroConfession": 0,
		"HeroPerformanceID": 5510,
		"IsDungeonLevelsUnLock": false,
		"Reward1Star": 5,
		"Reward1": [
			{
				"GoodsType": "GoodsType_Crystal",
				"Id": 0,
				"Count": 30
			}
		],
		"Reward2Star": 10,
		"Reward2": [
			{
				"GoodsType": "GoodsType_Crystal",
				"Id": 0,
				"Count": 60
			}
		],
		"Reward3Star": 15,
		"Reward3": [
			{
				"GoodsType": "GoodsType_Crystal",
				"Id": 0,
				"Count": 90
			}
		],
		"FavorabilityMaxLevel": 25,
		"FavourabilityLevelUpReward": 2,
		"HeroTouch": [
			{
				"FavorabilityLevel": 1,
				"HeroInteractionId": 55
			}
		],
		"SendRewardsPerformance": 5511,
		"InteractHeroPerformancesID": [
			5520,
			5521,
			5522,
			5523,
			5524
		]
	},
	{
		"ID": 56,
		"Name": "Rachel",
		"HeroBiographiesID": [
			5600,
			5601,
			5602,
			5603,
			5604,
			5605
		],
		"HeroFettersID": [
			271,
			272,
			273,
			274,
			275
		],
		"HeroConfession": 0,
		"HeroPerformanceID": 5610,
		"IsDungeonLevelsUnLock": false,
		"Reward1Star": 5,
		"Reward1": [
			{
				"GoodsType": "GoodsType_Crystal",
				"Id": 0,
				"Count": 30
			}
		],
		"Reward2Star": 10,
		"Reward2": [
			{
				"GoodsType": "GoodsType_Crystal",
				"Id": 0,
				"Count": 60
			}
		],
		"Reward3Star": 15,
		"Reward3": [
			{
				"GoodsType": "GoodsType_Crystal",
				"Id": 0,
				"Count": 90
			}
		],
		"FavorabilityMaxLevel": 25,
		"FavourabilityLevelUpReward": 2,
		"HeroTouch": [
			{
				"FavorabilityLevel": 1,
				"HeroInteractionId": 56
			}
		],
		"SendRewardsPerformance": 5611,
		"InteractHeroPerformancesID": [
			5620,
			5621,
			5622,
			5623,
			5624
		]
	}
]