[
	{
		"ID": 12,
		"GameFunctionTypeID": "GameFunctionType_AnikiGym",
		"MaxNums": 0,
		"TicketId": 5006
	},
	{
		"ID": 13,
		"GameFunctionTypeID": "GameFunctionType_ThearchyTrial",
		"MaxNums": 0,
		"TicketId": 5007
	},
	{
		"ID": 41,
		"GameFunctionTypeID": "GameFunctionType_TreasureMap",
		"MaxNums": 3,
		"TicketId": 4009
	},
	{
		"ID": 42,
		"GameFunctionTypeID": "GameFunctionType_MemoryCorridor",
		"MaxNums": 0,
		"TicketId": 4010
	},
	{
		"ID": 51,
		"GameFunctionTypeID": "GameFunctionType_HeroTrainning",
		"MaxNums": 0,
		"TicketId": 4011
	}
]