[
	{
		"ID": 1,
		"WorkSeconds1": 7200,
		"DropCount1": 3,
		"WorkSeconds2": 14400,
		"DropCount2": 5,
		"WorkSeconds3": 28800,
		"DropCount3": 8,
		"RecommandHeroMultiply": 15000,
		"RecommandHeroAdd": 100
	}
]