[
	{
		"ID": 1,
		"Name": "Alastor"
	},
	{
		"ID": 2,
		"Name": "Aldo"
	},
	{
		"ID": 3,
		"Name": "Aldous"
	},
	{
		"ID": 4,
		"Name": "Aldreus"
	},
	{
		"ID": 5,
		"Name": "Allan"
	},
	{
		"ID": 6,
		"Name": "Americ"
	},
	{
		"ID": 7,
		"Name": "Andelf"
	},
	{
		"ID": 8,
		"Name": "Anham"
	},
	{
		"ID": 9,
		"Name": "Ansan"
	},
	{
		"ID": 10,
		"Name": "Anselm"
	},
	{
		"ID": 11,
		"Name": "Anthon"
	},
	{
		"ID": 12,
		"Name": "Arion"
	},
	{
		"ID": 13,
		"Name": "Astin"
	},
	{
		"ID": 14,
		"Name": "Balwin"
	},
	{
		"ID": 15,
		"Name": "Barrett"
	},
	{
		"ID": 16,
		"Name": "Barthol"
	},
	{
		"ID": 17,
		"Name": "Ernhard"
	},
	{
		"ID": 18,
		"Name": "Bernar"
	},
	{
		"ID": 19,
		"Name": "Bernier"
	},
	{
		"ID": 20,
		"Name": "Bertar"
	},
	{
		"ID": 21,
		"Name": "Bertroc"
	},
	{
		"ID": 22,
		"Name": "Bethkim"
	},
	{
		"ID": 23,
		"Name": "Brandan"
	},
	{
		"ID": 24,
		"Name": "Branbas"
	},
	{
		"ID": 25,
		"Name": "Brom"
	},
	{
		"ID": 26,
		"Name": "Bruno"
	},
	{
		"ID": 27,
		"Name": "Bryce"
	},
	{
		"ID": 28,
		"Name": "Caine"
	},
	{
		"ID": 29,
		"Name": "Caspar"
	},
	{
		"ID": 30,
		"Name": "Cecil"
	},
	{
		"ID": 31,
		"Name": "Ceodon"
	},
	{
		"ID": 32,
		"Name": "Cleeves"
	},
	{
		"ID": 33,
		"Name": "Clement"
	},
	{
		"ID": 34,
		"Name": "Cliff"
	},
	{
		"ID": 35,
		"Name": "Conan"
	},
	{
		"ID": 36,
		"Name": "Conneth"
	},
	{
		"ID": 37,
		"Name": "Elric"
	},
	{
		"ID": 38,
		"Name": "Crispin"
	},
	{
		"ID": 39,
		"Name": "Cudbert"
	},
	{
		"ID": 40,
		"Name": "Cynro"
	},
	{
		"ID": 41,
		"Name": "Cyril"
	},
	{
		"ID": 42,
		"Name": "Damian"
	},
	{
		"ID": 43,
		"Name": "Denis"
	},
	{
		"ID": 44,
		"Name": "Deon"
	},
	{
		"ID": 45,
		"Name": "Donson"
	},
	{
		"ID": 46,
		"Name": "Dorian"
	},
	{
		"ID": 47,
		"Name": "Drogo"
	},
	{
		"ID": 48,
		"Name": "Eaduin"
	},
	{
		"ID": 49,
		"Name": "Eagar"
	},
	{
		"ID": 50,
		"Name": "Edwyn"
	},
	{
		"ID": 51,
		"Name": "Egric"
	},
	{
		"ID": 52,
		"Name": "Ehren"
	},
	{
		"ID": 53,
		"Name": "Elduin"
	},
	{
		"ID": 54,
		"Name": "Elbert"
	},
	{
		"ID": 55,
		"Name": "Etienne"
	},
	{
		"ID": 56,
		"Name": "Fabian"
	},
	{
		"ID": 57,
		"Name": "Faldron"
	},
	{
		"ID": 58,
		"Name": "Fendel"
	},
	{
		"ID": 59,
		"Name": "Fredgar"
	},
	{
		"ID": 60,
		"Name": "Fyren"
	},
	{
		"ID": 61,
		"Name": "Gabirel"
	},
	{
		"ID": 62,
		"Name": "Gael"
	},
	{
		"ID": 63,
		"Name": "Gallus"
	},
	{
		"ID": 64,
		"Name": "Garratt"
	},
	{
		"ID": 65,
		"Name": "Gawin"
	},
	{
		"ID": 66,
		"Name": "Enrich"
	},
	{
		"ID": 67,
		"Name": "Martine"
	},
	{
		"ID": 68,
		"Name": "Gouber"
	},
	{
		"ID": 69,
		"Name": "Gregor"
	},
	{
		"ID": 70,
		"Name": "Grimmi"
	},
	{
		"ID": 71,
		"Name": "Guilard"
	},
	{
		"ID": 72,
		"Name": "Gunter"
	},
	{
		"ID": 73,
		"Name": "Gunthar"
	},
	{
		"ID": 74,
		"Name": "Ulston"
	},
	{
		"ID": 75,
		"Name": "Hagen"
	},
	{
		"ID": 76,
		"Name": "Harald"
	},
	{
		"ID": 77,
		"Name": "Heine"
	},
	{
		"ID": 78,
		"Name": "Heinz"
	},
	{
		"ID": 79,
		"Name": "Holne"
	},
	{
		"ID": 80,
		"Name": "Howard"
	},
	{
		"ID": 81,
		"Name": "Howard"
	},
	{
		"ID": 82,
		"Name": "Humbar"
	},
	{
		"ID": 83,
		"Name": "Hunwald"
	},
	{
		"ID": 84,
		"Name": "Ilbert"
	},
	{
		"ID": 85,
		"Name": "Irston"
	},
	{
		"ID": 86,
		"Name": "Isaac"
	},
	{
		"ID": 87,
		"Name": "Isidor"
	},
	{
		"ID": 88,
		"Name": "Ivan"
	},
	{
		"ID": 89,
		"Name": "Ivor"
	},
	{
		"ID": 90,
		"Name": "Jacob"
	},
	{
		"ID": 91,
		"Name": "Jaegel"
	},
	{
		"ID": 92,
		"Name": "Jechiel"
	},
	{
		"ID": 93,
		"Name": "Jesiah"
	},
	{
		"ID": 94,
		"Name": "Johan"
	},
	{
		"ID": 95,
		"Name": "Jonas"
	},
	{
		"ID": 96,
		"Name": "Jourdan"
	},
	{
		"ID": 97,
		"Name": "Judbert"
	},
	{
		"ID": 98,
		"Name": "Kallon"
	},
	{
		"ID": 99,
		"Name": "Karl"
	},
	{
		"ID": 100,
		"Name": "Kennard"
	},
	{
		"ID": 101,
		"Name": "Langdon"
	},
	{
		"ID": 102,
		"Name": "Laurent"
	},
	{
		"ID": 103,
		"Name": "Leheren"
	},
	{
		"ID": 104,
		"Name": "Leigh"
	},
	{
		"ID": 105,
		"Name": "Lett"
	},
	{
		"ID": 106,
		"Name": "Leuric"
	},
	{
		"ID": 107,
		"Name": "Lewin"
	},
	{
		"ID": 108,
		"Name": "Liam"
	},
	{
		"ID": 109,
		"Name": "Linus"
	},
	{
		"ID": 110,
		"Name": "Loren"
	},
	{
		"ID": 111,
		"Name": "Lucien"
	},
	{
		"ID": 112,
		"Name": "Manfred"
	},
	{
		"ID": 113,
		"Name": "Marcus"
	},
	{
		"ID": 114,
		"Name": "Martyn"
	},
	{
		"ID": 115,
		"Name": "Menrich"
	},
	{
		"ID": 116,
		"Name": "Miles"
	},
	{
		"ID": 117,
		"Name": "Nathald"
	},
	{
		"ID": 118,
		"Name": "Thaniel"
	},
	{
		"ID": 119,
		"Name": "Neal"
	},
	{
		"ID": 120,
		"Name": "Ofrid"
	},
	{
		"ID": 121,
		"Name": "Orain"
	},
	{
		"ID": 122,
		"Name": "Orland"
	},
	{
		"ID": 123,
		"Name": "Osbern"
	},
	{
		"ID": 124,
		"Name": "Osment"
	},
	{
		"ID": 125,
		"Name": "Oswyn"
	},
	{
		"ID": 126,
		"Name": "Owain"
	},
	{
		"ID": 127,
		"Name": "Pallas"
	},
	{
		"ID": 128,
		"Name": "Perry"
	},
	{
		"ID": 129,
		"Name": "Peter"
	},
	{
		"ID": 130,
		"Name": "Filbert"
	},
	{
		"ID": 131,
		"Name": "Phipp"
	},
	{
		"ID": 132,
		"Name": "Quaren"
	},
	{
		"ID": 133,
		"Name": "Quintin"
	},
	{
		"ID": 134,
		"Name": "Rafe"
	},
	{
		"ID": 135,
		"Name": "Ragwald"
	},
	{
		"ID": 136,
		"Name": "Rahdun"
	},
	{
		"ID": 137,
		"Name": "Ralph"
	},
	{
		"ID": 138,
		"Name": "Ranald"
	},
	{
		"ID": 139,
		"Name": "Randall"
	},
	{
		"ID": 140,
		"Name": "Regin"
	},
	{
		"ID": 141,
		"Name": "Renaud"
	},
	{
		"ID": 142,
		"Name": "Reynard"
	},
	{
		"ID": 143,
		"Name": "Ricbert"
	},
	{
		"ID": 144,
		"Name": "Ricken"
	},
	{
		"ID": 145,
		"Name": "Riforth"
	},
	{
		"ID": 146,
		"Name": "Ronald"
	},
	{
		"ID": 147,
		"Name": "Ronferd"
	},
	{
		"ID": 148,
		"Name": "Rygard"
	},
	{
		"ID": 149,
		"Name": "Rykor"
	},
	{
		"ID": 150,
		"Name": "Sabin"
	},
	{
		"ID": 151,
		"Name": "Sararoc"
	},
	{
		"ID": 152,
		"Name": "Sean"
	},
	{
		"ID": 153,
		"Name": "Sigbert"
	},
	{
		"ID": 154,
		"Name": "Sigfer"
	},
	{
		"ID": 155,
		"Name": "Sonric"
	},
	{
		"ID": 156,
		"Name": "Stephen"
	},
	{
		"ID": 157,
		"Name": "Taric"
	},
	{
		"ID": 158,
		"Name": "Tedric"
	},
	{
		"ID": 159,
		"Name": "Tellis"
	},
	{
		"ID": 160,
		"Name": "Todbald"
	},
	{
		"ID": 161,
		"Name": "Teodric"
	},
	{
		"ID": 162,
		"Name": "Terrell"
	},
	{
		"ID": 163,
		"Name": "Thales"
	},
	{
		"ID": 164,
		"Name": "Thela"
	},
	{
		"ID": 165,
		"Name": "Theorin"
	},
	{
		"ID": 166,
		"Name": "Theron"
	},
	{
		"ID": 167,
		"Name": "Theon"
	},
	{
		"ID": 168,
		"Name": "Thon"
	},
	{
		"ID": 169,
		"Name": "Faustin"
	},
	{
		"ID": 170,
		"Name": "Tibald"
	},
	{
		"ID": 171,
		"Name": "Timon"
	},
	{
		"ID": 172,
		"Name": "Tol"
	},
	{
		"ID": 173,
		"Name": "Tolthod"
	},
	{
		"ID": 174,
		"Name": "Trevor"
	},
	{
		"ID": 175,
		"Name": "Tybalt"
	},
	{
		"ID": 176,
		"Name": "Tyon"
	},
	{
		"ID": 177,
		"Name": "Ulfert"
	},
	{
		"ID": 178,
		"Name": "Uluric"
	},
	{
		"ID": 179,
		"Name": "Urian"
	},
	{
		"ID": 180,
		"Name": "Urtsin"
	},
	{
		"ID": 181,
		"Name": "Uwen"
	},
	{
		"ID": 182,
		"Name": "Valamir"
	},
	{
		"ID": 183,
		"Name": "Vandil"
	},
	{
		"ID": 184,
		"Name": "Vane"
	},
	{
		"ID": 185,
		"Name": "Varin"
	},
	{
		"ID": 186,
		"Name": "Vincent"
	},
	{
		"ID": 187,
		"Name": "Vitel"
	},
	{
		"ID": 188,
		"Name": "Watkin"
	},
	{
		"ID": 189,
		"Name": "Weinert"
	},
	{
		"ID": 190,
		"Name": "Werner"
	},
	{
		"ID": 191,
		"Name": "Wigret"
	},
	{
		"ID": 192,
		"Name": "Wilfred"
	},
	{
		"ID": 193,
		"Name": "Willelm"
	},
	{
		"ID": 194,
		"Name": "Wulfric"
	},
	{
		"ID": 195,
		"Name": "Mario"
	},
	{
		"ID": 196,
		"Name": "Yorn"
	},
	{
		"ID": 197,
		"Name": "Yorrick"
	},
	{
		"ID": 198,
		"Name": "Yves"
	},
	{
		"ID": 199,
		"Name": "Jacob"
	},
	{
		"ID": 200,
		"Name": "Michael"
	},
	{
		"ID": 201,
		"Name": "Joshua"
	},
	{
		"ID": 202,
		"Name": "Maxwell"
	},
	{
		"ID": 203,
		"Name": "Clint"
	},
	{
		"ID": 204,
		"Name": "Andrew"
	},
	{
		"ID": 205,
		"Name": "Daniel"
	},
	{
		"ID": 206,
		"Name": "Ethan"
	},
	{
		"ID": 207,
		"Name": "Joseph"
	},
	{
		"ID": 208,
		"Name": "William"
	},
	{
		"ID": 209,
		"Name": "Anthony"
	},
	{
		"ID": 210,
		"Name": "Nick"
	},
	{
		"ID": 211,
		"Name": "David"
	},
	{
		"ID": 212,
		"Name": "Alexis"
	},
	{
		"ID": 213,
		"Name": "Ryan"
	},
	{
		"ID": 214,
		"Name": "Tyler"
	},
	{
		"ID": 215,
		"Name": "James"
	},
	{
		"ID": 216,
		"Name": "John"
	},
	{
		"ID": 217,
		"Name": "Jeb"
	},
	{
		"ID": 218,
		"Name": "Brandon"
	},
	{
		"ID": 219,
		"Name": "Gabe"
	},
	{
		"ID": 220,
		"Name": "Dylan"
	},
	{
		"ID": 221,
		"Name": "Zachary"
	},
	{
		"ID": 222,
		"Name": "Noah"
	},
	{
		"ID": 223,
		"Name": "Samuel"
	},
	{
		"ID": 224,
		"Name": "Bert"
	},
	{
		"ID": 225,
		"Name": "Nathan"
	},
	{
		"ID": 226,
		"Name": "Logan"
	},
	{
		"ID": 227,
		"Name": "Justin"
	},
	{
		"ID": 228,
		"Name": "Jose"
	},
	{
		"ID": 229,
		"Name": "Gabriel"
	},
	{
		"ID": 230,
		"Name": "Austin"
	},
	{
		"ID": 231,
		"Name": "Kevin"
	},
	{
		"ID": 232,
		"Name": "Caleb"
	},
	{
		"ID": 233,
		"Name": "Robert"
	},
	{
		"ID": 234,
		"Name": "Elijah"
	},
	{
		"ID": 235,
		"Name": "Thomas"
	},
	{
		"ID": 236,
		"Name": "Jordan"
	},
	{
		"ID": 237,
		"Name": "Cameron"
	},
	{
		"ID": 238,
		"Name": "Hunter"
	},
	{
		"ID": 239,
		"Name": "Jack"
	},
	{
		"ID": 240,
		"Name": "Angel"
	},
	{
		"ID": 241,
		"Name": "Isaiah"
	},
	{
		"ID": 242,
		"Name": "Jackson"
	},
	{
		"ID": 243,
		"Name": "Evan"
	},
	{
		"ID": 244,
		"Name": "Luke"
	},
	{
		"ID": 245,
		"Name": "Jason"
	},
	{
		"ID": 246,
		"Name": "Isaac"
	},
	{
		"ID": 247,
		"Name": "Mason"
	},
	{
		"ID": 248,
		"Name": "Aaron"
	},
	{
		"ID": 249,
		"Name": "Connor"
	},
	{
		"ID": 250,
		"Name": "Gavin"
	},
	{
		"ID": 251,
		"Name": "Kyle"
	},
	{
		"ID": 252,
		"Name": "Jayden"
	},
	{
		"ID": 253,
		"Name": "Aidan"
	},
	{
		"ID": 254,
		"Name": "Juan"
	},
	{
		"ID": 255,
		"Name": "Luis"
	},
	{
		"ID": 256,
		"Name": "Charles"
	},
	{
		"ID": 257,
		"Name": "Aiden"
	},
	{
		"ID": 258,
		"Name": "Adam"
	},
	{
		"ID": 259,
		"Name": "Brian"
	},
	{
		"ID": 260,
		"Name": "Eric"
	},
	{
		"ID": 261,
		"Name": "Lucas"
	},
	{
		"ID": 262,
		"Name": "Seamus"
	},
	{
		"ID": 263,
		"Name": "Norton"
	},
	{
		"ID": 264,
		"Name": "Alex"
	},
	{
		"ID": 265,
		"Name": "Adrian"
	},
	{
		"ID": 266,
		"Name": "Carlos"
	},
	{
		"ID": 267,
		"Name": "Bryan"
	},
	{
		"ID": 268,
		"Name": "Ian"
	},
	{
		"ID": 269,
		"Name": "Callum"
	},
	{
		"ID": 270,
		"Name": "Owen"
	},
	{
		"ID": 271,
		"Name": "Julian"
	},
	{
		"ID": 272,
		"Name": "Cole"
	},
	{
		"ID": 273,
		"Name": "Landon"
	},
	{
		"ID": 274,
		"Name": "Diego"
	},
	{
		"ID": 275,
		"Name": "Steven"
	},
	{
		"ID": 276,
		"Name": "Chase"
	},
	{
		"ID": 277,
		"Name": "Timothy"
	},
	{
		"ID": 278,
		"Name": "Jeremy"
	},
	{
		"ID": 279,
		"Name": "Seb"
	},
	{
		"ID": 280,
		"Name": "Xavier"
	},
	{
		"ID": 281,
		"Name": "Devin"
	},
	{
		"ID": 282,
		"Name": "Cody"
	},
	{
		"ID": 283,
		"Name": "Seth"
	},
	{
		"ID": 284,
		"Name": "Hayden"
	},
	{
		"ID": 285,
		"Name": "Blake"
	},
	{
		"ID": 286,
		"Name": "Richard"
	},
	{
		"ID": 287,
		"Name": "Carter"
	},
	{
		"ID": 288,
		"Name": "Wyatt"
	},
	{
		"ID": 289,
		"Name": "Dominic"
	},
	{
		"ID": 290,
		"Name": "Antonio"
	},
	{
		"ID": 291,
		"Name": "Jaden"
	},
	{
		"ID": 292,
		"Name": "Miguel"
	},
	{
		"ID": 293,
		"Name": "Brayden"
	},
	{
		"ID": 294,
		"Name": "Patrick"
	},
	{
		"ID": 295,
		"Name": "Aldus"
	},
	{
		"ID": 296,
		"Name": "Carson"
	},
	{
		"ID": 297,
		"Name": "Jesse"
	},
	{
		"ID": 298,
		"Name": "Tristan"
	},
	{
		"ID": 299,
		"Name": "Chad"
	},
	{
		"ID": 300,
		"Name": "Ash"
	}
]