[
	{
		"ID": 1,
		"Title": "Arena Weekly Ranking Reward",
		"Content": "Dear Commander:\nYour final score in the Weekly Arena was [0], your rank is [1]. These are your rewards for this week, please have a look.",
		"Attachments": [
			{
				"GoodsType": "GoodsType_ArenaHonour",
				"Id": 0,
				"Count": 500
			},
			{
				"GoodsType": "GoodsType_Gold",
				"Id": 0,
				"Count": 150000
			},
			{
				"GoodsType": "GoodsType_Crystal",
				"Id": 0,
				"Count": 200
			}
		],
		"ExpiredTime": 259200,
		"ReadedExpiredTime": 259200,
		"GotDeleted": false,
		"GameFunctionType": "GameFunctionType_ArenaRanking"
	},
	{
		"ID": 2,
		"Title": "Arena Weekly Ranking Reward",
		"Content": "Dear Commander:\nYour final score in the Weekly Arena was [0], your rank is [1]. These are your rewards for this week, please have a look.",
		"Attachments": [
			{
				"GoodsType": "GoodsType_ArenaHonour",
				"Id": 0,
				"Count": 400
			},
			{
				"GoodsType": "GoodsType_Gold",
				"Id": 0,
				"Count": 120000
			},
			{
				"GoodsType": "GoodsType_Crystal",
				"Id": 0,
				"Count": 170
			}
		],
		"ExpiredTime": 259200,
		"ReadedExpiredTime": 259200,
		"GotDeleted": false,
		"GameFunctionType": "GameFunctionType_ArenaRanking"
	},
	{
		"ID": 3,
		"Title": "Arena Weekly Ranking Reward",
		"Content": "Dear Commander:\nYour final score in the Weekly Arena was [0], your rank is [1]. These are your rewards for this week, please have a look.",
		"Attachments": [
			{
				"GoodsType": "GoodsType_ArenaHonour",
				"Id": 0,
				"Count": 350
			},
			{
				"GoodsType": "GoodsType_Gold",
				"Id": 0,
				"Count": 90000
			},
			{
				"GoodsType": "GoodsType_Crystal",
				"Id": 0,
				"Count": 140
			}
		],
		"ExpiredTime": 259200,
		"ReadedExpiredTime": 259200,
		"GotDeleted": false,
		"GameFunctionType": "GameFunctionType_ArenaRanking"
	},
	{
		"ID": 4,
		"Title": "Arena Weekly Ranking Reward",
		"Content": "Dear Commander:\nYour final score in the Weekly Arena was [0], your rank is [1]. These are your rewards for this week, please have a look.",
		"Attachments": [
			{
				"GoodsType": "GoodsType_ArenaHonour",
				"Id": 0,
				"Count": 300
			},
			{
				"GoodsType": "GoodsType_Gold",
				"Id": 0,
				"Count": 70000
			},
			{
				"GoodsType": "GoodsType_Crystal",
				"Id": 0,
				"Count": 120
			}
		],
		"ExpiredTime": 259200,
		"ReadedExpiredTime": 259200,
		"GotDeleted": false,
		"GameFunctionType": "GameFunctionType_ArenaRanking"
	},
	{
		"ID": 5,
		"Title": "Arena Weekly Ranking Reward",
		"Content": "Dear Commander:\nYour final score in the Weekly Arena was [0], your rank is [1]. These are your rewards for this week, please have a look.",
		"Attachments": [
			{
				"GoodsType": "GoodsType_ArenaHonour",
				"Id": 0,
				"Count": 250
			},
			{
				"GoodsType": "GoodsType_Gold",
				"Id": 0,
				"Count": 50000
			},
			{
				"GoodsType": "GoodsType_Crystal",
				"Id": 0,
				"Count": 100
			}
		],
		"ExpiredTime": 259200,
		"ReadedExpiredTime": 259200,
		"GotDeleted": false,
		"GameFunctionType": "GameFunctionType_ArenaRanking"
	},
	{
		"ID": 6,
		"Title": "Arena Weekly Ranking Reward",
		"Content": "Dear Commander:\nYour final score in the Weekly Arena was [0], your rank is [1]. These are your rewards for this week, please have a look.",
		"Attachments": [
			{
				"GoodsType": "GoodsType_ArenaHonour",
				"Id": 0,
				"Count": 200
			},
			{
				"GoodsType": "GoodsType_Gold",
				"Id": 0,
				"Count": 40000
			},
			{
				"GoodsType": "GoodsType_Crystal",
				"Id": 0,
				"Count": 80
			}
		],
		"ExpiredTime": 259200,
		"ReadedExpiredTime": 259200,
		"GotDeleted": false,
		"GameFunctionType": "GameFunctionType_ArenaRanking"
	},
	{
		"ID": 7,
		"Title": "Arena Weekly Ranking Reward",
		"Content": "Dear Commander:\nYour final score in the Weekly Arena was [0], your rank is [1]. These are your rewards for this week, please have a look.",
		"Attachments": [
			{
				"GoodsType": "GoodsType_ArenaHonour",
				"Id": 0,
				"Count": 180
			},
			{
				"GoodsType": "GoodsType_Gold",
				"Id": 0,
				"Count": 30000
			},
			{
				"GoodsType": "GoodsType_Crystal",
				"Id": 0,
				"Count": 70
			}
		],
		"ExpiredTime": 259200,
		"ReadedExpiredTime": 259200,
		"GotDeleted": false,
		"GameFunctionType": "GameFunctionType_ArenaRanking"
	},
	{
		"ID": 8,
		"Title": "Arena Weekly Ranking Reward",
		"Content": "Dear Commander:\nYour final score in the Weekly Arena was [0], your rank is [1]. These are your rewards for this week, please have a look.",
		"Attachments": [
			{
				"GoodsType": "GoodsType_ArenaHonour",
				"Id": 0,
				"Count": 160
			},
			{
				"GoodsType": "GoodsType_Gold",
				"Id": 0,
				"Count": 20000
			},
			{
				"GoodsType": "GoodsType_Crystal",
				"Id": 0,
				"Count": 60
			}
		],
		"ExpiredTime": 259200,
		"ReadedExpiredTime": 259200,
		"GotDeleted": false,
		"GameFunctionType": "GameFunctionType_ArenaRanking"
	},
	{
		"ID": 9,
		"Title": "Arena Weekly Ranking Reward",
		"Content": "Dear Commander:\nYour final score in the Weekly Arena was [0], your rank is [1]. These are your rewards for this week, please have a look.",
		"Attachments": [
			{
				"GoodsType": "GoodsType_ArenaHonour",
				"Id": 0,
				"Count": 140
			},
			{
				"GoodsType": "GoodsType_Gold",
				"Id": 0,
				"Count": 10000
			},
			{
				"GoodsType": "GoodsType_Crystal",
				"Id": 0,
				"Count": 50
			}
		],
		"ExpiredTime": 259200,
		"ReadedExpiredTime": 259200,
		"GotDeleted": false,
		"GameFunctionType": "GameFunctionType_ArenaRanking"
	},
	{
		"ID": 10,
		"Title": "Arena Weekly Ranking Reward",
		"Content": "Dear Commander:\nYour final score in the Weekly Arena was [0], your rank is [1]. These are your rewards for this week, please have a look.",
		"Attachments": [
			{
				"GoodsType": "GoodsType_ArenaHonour",
				"Id": 0,
				"Count": 120
			}
		],
		"ExpiredTime": 259200,
		"ReadedExpiredTime": 259200,
		"GotDeleted": false,
		"GameFunctionType": "GameFunctionType_ArenaRanking"
	},
	{
		"ID": 11,
		"Title": "Arena Weekly Ranking Reward",
		"Content": "Dear Commander:\nYour final score in the Weekly Arena was [0], your rank is [1]. These are your rewards for this week, please have a look.",
		"Attachments": [
			{
				"GoodsType": "GoodsType_ArenaHonour",
				"Id": 0,
				"Count": 100
			}
		],
		"ExpiredTime": 259200,
		"ReadedExpiredTime": 259200,
		"GotDeleted": false,
		"GameFunctionType": "GameFunctionType_ArenaRanking"
	},
	{
		"ID": 21,
		"Title": "Arena Points Reward",
		"Content": "Dear Commander: \nBased on your score in the Arena, the National Arena Committee has prepared a gift for you. Keep up the good work! \n\nDon't forget to retrieve your reward.",
		"Attachments": [
			{
				"GoodsType": "GoodsType_ArenaHonour",
				"Id": 0,
				"Count": 10
			}
		],
		"ExpiredTime": 259200,
		"ReadedExpiredTime": 259200,
		"GotDeleted": true,
		"GameFunctionType": "GameFunctionType_ArenaGrade"
	},
	{
		"ID": 22,
		"Title": "Arena Points Reward",
		"Content": "Dear Commander: \nBased on your score in the Arena, the National Arena Committee has prepared a gift for you. Keep up the good work! \n\nDon't forget to retrieve your reward.",
		"Attachments": [
			{
				"GoodsType": "GoodsType_ArenaHonour",
				"Id": 0,
				"Count": 20
			}
		],
		"ExpiredTime": 259200,
		"ReadedExpiredTime": 259200,
		"GotDeleted": true,
		"GameFunctionType": "GameFunctionType_ArenaGrade"
	},
	{
		"ID": 23,
		"Title": "Arena Points Reward",
		"Content": "Dear Commander: \nBased on your score in the Arena, the National Arena Committee has prepared a gift for you. Keep up the good work! \n\nDon't forget to retrieve your reward.",
		"Attachments": [
			{
				"GoodsType": "GoodsType_ArenaHonour",
				"Id": 0,
				"Count": 30
			}
		],
		"ExpiredTime": 259200,
		"ReadedExpiredTime": 259200,
		"GotDeleted": true,
		"GameFunctionType": "GameFunctionType_ArenaGrade"
	},
	{
		"ID": 24,
		"Title": "Arena Points Reward",
		"Content": "Dear Commander: \nBased on your score in the Arena, the National Arena Committee has prepared a gift for you. Keep up the good work! \n\nDon't forget to retrieve your reward.",
		"Attachments": [
			{
				"GoodsType": "GoodsType_ArenaHonour",
				"Id": 0,
				"Count": 40
			},
			{
				"GoodsType": "GoodsType_Crystal",
				"Id": 0,
				"Count": 5
			}
		],
		"ExpiredTime": 259200,
		"ReadedExpiredTime": 259200,
		"GotDeleted": true,
		"GameFunctionType": "GameFunctionType_ArenaGrade"
	},
	{
		"ID": 25,
		"Title": "Arena Points Reward",
		"Content": "Dear Commander: \nBased on your score in the Arena, the National Arena Committee has prepared a gift for you. Keep up the good work! \n\nDon't forget to retrieve your reward.",
		"Attachments": [
			{
				"GoodsType": "GoodsType_ArenaHonour",
				"Id": 0,
				"Count": 50
			},
			{
				"GoodsType": "GoodsType_Crystal",
				"Id": 0,
				"Count": 7
			}
		],
		"ExpiredTime": 259200,
		"ReadedExpiredTime": 259200,
		"GotDeleted": true,
		"GameFunctionType": "GameFunctionType_ArenaGrade"
	},
	{
		"ID": 26,
		"Title": "Arena Points Reward",
		"Content": "Dear Commander: \nBased on your score in the Arena, the National Arena Committee has prepared a gift for you. Keep up the good work! \n\nDon't forget to retrieve your reward.",
		"Attachments": [
			{
				"GoodsType": "GoodsType_ArenaHonour",
				"Id": 0,
				"Count": 60
			},
			{
				"GoodsType": "GoodsType_Crystal",
				"Id": 0,
				"Count": 9
			}
		],
		"ExpiredTime": 259200,
		"ReadedExpiredTime": 259200,
		"GotDeleted": true,
		"GameFunctionType": "GameFunctionType_ArenaGrade"
	},
	{
		"ID": 27,
		"Title": "Arena Points Reward",
		"Content": "Dear Commander: \nBased on your score in the Arena, the National Arena Committee has prepared a gift for you. Keep up the good work! \n\nDon't forget to retrieve your reward.",
		"Attachments": [
			{
				"GoodsType": "GoodsType_ArenaHonour",
				"Id": 0,
				"Count": 70
			},
			{
				"GoodsType": "GoodsType_Crystal",
				"Id": 0,
				"Count": 11
			}
		],
		"ExpiredTime": 259200,
		"ReadedExpiredTime": 259200,
		"GotDeleted": true,
		"GameFunctionType": "GameFunctionType_ArenaGrade"
	},
	{
		"ID": 28,
		"Title": "Arena Points Reward",
		"Content": "Dear Commander: \nBased on your score in the Arena, the National Arena Committee has prepared a gift for you. Keep up the good work! \n\nDon't forget to retrieve your reward.",
		"Attachments": [
			{
				"GoodsType": "GoodsType_ArenaHonour",
				"Id": 0,
				"Count": 80
			},
			{
				"GoodsType": "GoodsType_Crystal",
				"Id": 0,
				"Count": 14
			}
		],
		"ExpiredTime": 259200,
		"ReadedExpiredTime": 259200,
		"GotDeleted": true,
		"GameFunctionType": "GameFunctionType_ArenaGrade"
	},
	{
		"ID": 29,
		"Title": "Arena Points Reward",
		"Content": "Dear Commander: \nBased on your score in the Arena, the National Arena Committee has prepared a gift for you. Keep up the good work! \n\nDon't forget to retrieve your reward.",
		"Attachments": [
			{
				"GoodsType": "GoodsType_ArenaHonour",
				"Id": 0,
				"Count": 90
			},
			{
				"GoodsType": "GoodsType_Crystal",
				"Id": 0,
				"Count": 17
			}
		],
		"ExpiredTime": 259200,
		"ReadedExpiredTime": 259200,
		"GotDeleted": true,
		"GameFunctionType": "GameFunctionType_ArenaGrade"
	},
	{
		"ID": 30,
		"Title": "Arena Points Reward",
		"Content": "Dear Commander:\nYour strength is outstanding. All members of the National Arena Committee hereby pay you their deep respect. Keep up the good work, we are looking forward to more exciting matches.\nDon't forget to retrieve your reward.",
		"Attachments": [
			{
				"GoodsType": "GoodsType_ArenaHonour",
				"Id": 0,
				"Count": 100
			},
			{
				"GoodsType": "GoodsType_Crystal",
				"Id": 0,
				"Count": 20
			}
		],
		"ExpiredTime": 259200,
		"ReadedExpiredTime": 259200,
		"GotDeleted": true,
		"GameFunctionType": "GameFunctionType_ArenaGrade"
	},
	{
		"ID": 31,
		"Title": "Gift Pack Exchange",
		"Content": "Dear Commander: Your Gift Pack has been successfully redeemed. We hope you like it.",
		"Attachments": [
			{
				"GoodsType": "GoodsType_Equipment",
				"Id": 19,
				"Count": 1
			}
		],
		"ExpiredTime": 259200,
		"ReadedExpiredTime": 259200,
		"GotDeleted": true,
		"GameFunctionType": "GameFunctionType_ExchangeGiftCDKey"
	},
	{
		"ID": 32,
		"Title": "KSYUN Chauffeur Gift Pack",
		"Content": "Dear Commander:\nYou have received a gift from the Legion of Glory. We hope you like it.",
		"Attachments": [
			{
				"GoodsType": "GoodsType_Gold",
				"Id": 0,
				"Count": 100000
			},
			{
				"GoodsType": "GoodsType_Item",
				"Id": 4001,
				"Count": 10
			},
			{
				"GoodsType": "GoodsType_Item",
				"Id": 3004,
				"Count": 20
			},
			{
				"GoodsType": "GoodsType_Item",
				"Id": 3009,
				"Count": 5
			},
			{
				"GoodsType": "GoodsType_Item",
				"Id": 1032,
				"Count": 30
			}
		],
		"ExpiredTime": 259200,
		"ReadedExpiredTime": 259200,
		"GotDeleted": true,
		"GameFunctionType": "GameFunctionType_ExchangeGiftCDKey"
	},
	{
		"ID": 33,
		"Title": "KSYUN Xiao Mengxin Gift Pack",
		"Content": "Dear Commander:\nYou have received a gift from the Legion of Glory. We hope you like it.",
		"Attachments": [
			{
				"GoodsType": "GoodsType_Gold",
				"Id": 0,
				"Count": 50000
			},
			{
				"GoodsType": "GoodsType_Item",
				"Id": 4001,
				"Count": 3
			},
			{
				"GoodsType": "GoodsType_Item",
				"Id": 3004,
				"Count": 10
			},
			{
				"GoodsType": "GoodsType_Item",
				"Id": 4000,
				"Count": 10
			}
		],
		"ExpiredTime": 259200,
		"ReadedExpiredTime": 259200,
		"GotDeleted": true,
		"GameFunctionType": "GameFunctionType_ExchangeGiftCDKey"
	},
	{
		"ID": 34,
		"Title": "Official Group Gift Pack",
		"Content": "Dear Commander:\nYou have received a gift from the Legion of Glory. We hope you like it.",
		"Attachments": [
			{
				"GoodsType": "GoodsType_Gold",
				"Id": 0,
				"Count": 100000
			},
			{
				"GoodsType": "GoodsType_Item",
				"Id": 4001,
				"Count": 5
			},
			{
				"GoodsType": "GoodsType_Item",
				"Id": 3004,
				"Count": 10
			},
			{
				"GoodsType": "GoodsType_Item",
				"Id": 4008,
				"Count": 20
			}
		],
		"ExpiredTime": 259200,
		"ReadedExpiredTime": 259200,
		"GotDeleted": true,
		"GameFunctionType": "GameFunctionType_ExchangeGiftCDKey"
	},
	{
		"ID": 35,
		"Title": "Legion of Glory Gift",
		"Content": "Dear Commander:\nThank you for supporting us. We wish you some happy gaming! Attached is a gift from the Legion of Glory. We hope you like it!",
		"Attachments": [
			{
				"GoodsType": "GoodsType_Gold",
				"Id": 0,
				"Count": 10000
			},
			{
				"GoodsType": "GoodsType_Item",
				"Id": 4001,
				"Count": 2
			},
			{
				"GoodsType": "GoodsType_Item",
				"Id": 4000,
				"Count": 5
			}
		],
		"ExpiredTime": 259200,
		"ReadedExpiredTime": 259200,
		"GotDeleted": true,
		"GameFunctionType": "GameFunctionType_ExchangeGiftCDKey"
	},
	{
		"ID": 36,
		"Title": "Goddess Q&A Event Gift Pack",
		"Content": "Dear Commander:\nThank you for participating in the event \"Goddess Q&A\". Attached is a gift from the Legion of Glory. We hope you like it!",
		"Attachments": [
			{
				"GoodsType": "GoodsType_Gold",
				"Id": 0,
				"Count": 5000
			},
			{
				"GoodsType": "GoodsType_Item",
				"Id": 4001,
				"Count": 2
			},
			{
				"GoodsType": "GoodsType_Item",
				"Id": 4000,
				"Count": 5
			},
			{
				"GoodsType": "GoodsType_Equipment",
				"Id": 20,
				"Count": 1
			}
		],
		"ExpiredTime": 259200,
		"ReadedExpiredTime": 259200,
		"GotDeleted": true,
		"GameFunctionType": "GameFunctionType_ExchangeGiftCDKey"
	},
	{
		"ID": 37,
		"Title": "Exclusive WeChat Event Gift Pack",
		"Content": "Dear Commander:\nThank you for participating in our WeChat event. Attached is a gift from the Legion of Glory. We hope you like it!",
		"Attachments": [
			{
				"GoodsType": "GoodsType_Gold",
				"Id": 0,
				"Count": 5000
			},
			{
				"GoodsType": "GoodsType_Item",
				"Id": 4001,
				"Count": 5
			},
			{
				"GoodsType": "GoodsType_Item",
				"Id": 4000,
				"Count": 5
			},
			{
				"GoodsType": "GoodsType_Item",
				"Id": 4008,
				"Count": 5
			},
			{
				"GoodsType": "GoodsType_Item",
				"Id": 3009,
				"Count": 1
			}
		],
		"ExpiredTime": 259200,
		"ReadedExpiredTime": 259200,
		"GotDeleted": true,
		"GameFunctionType": "GameFunctionType_ExchangeGiftCDKey"
	},
	{
		"ID": 38,
		"Title": "Official QQ Group Gift Pack",
		"Content": "Dear Commander:\nThank you for joining the official Langrisser QQ Group: more benefits, more information, and more dreams are waiting for you. Attached is a gift from the Legion of Glory. We hope you like it!",
		"Attachments": [
			{
				"GoodsType": "GoodsType_Gold",
				"Id": 0,
				"Count": 5000
			},
			{
				"GoodsType": "GoodsType_Item",
				"Id": 4001,
				"Count": 1
			},
			{
				"GoodsType": "GoodsType_Item",
				"Id": 4000,
				"Count": 5
			},
			{
				"GoodsType": "GoodsType_Item",
				"Id": 3101,
				"Count": 1
			}
		],
		"ExpiredTime": 259200,
		"ReadedExpiredTime": 259200,
		"GotDeleted": true,
		"GameFunctionType": "GameFunctionType_ExchangeGiftCDKey"
	},
	{
		"ID": 39,
		"Title": "Exclusive Media Gift Pack",
		"Content": "Dear Commander:\nYou have received a gift from the Legion of Glory. We hope you like it.",
		"Attachments": [
			{
				"GoodsType": "GoodsType_Gold",
				"Id": 0,
				"Count": 5000
			},
			{
				"GoodsType": "GoodsType_Item",
				"Id": 4001,
				"Count": 2
			},
			{
				"GoodsType": "GoodsType_Item",
				"Id": 4000,
				"Count": 5
			},
			{
				"GoodsType": "GoodsType_Item",
				"Id": 3009,
				"Count": 3
			}
		],
		"ExpiredTime": 259200,
		"ReadedExpiredTime": 259200,
		"GotDeleted": true,
		"GameFunctionType": "GameFunctionType_ExchangeGiftCDKey"
	},
	{
		"ID": 40,
		"Title": "Exclusive TapTap Gift Pack",
		"Content": "Dear Commander:\nYou have received a gift from the Legion of Glory. We hope you like it.",
		"Attachments": [
			{
				"GoodsType": "GoodsType_Gold",
				"Id": 0,
				"Count": 5000
			},
			{
				"GoodsType": "GoodsType_Item",
				"Id": 4001,
				"Count": 2
			},
			{
				"GoodsType": "GoodsType_Item",
				"Id": 4000,
				"Count": 5
			},
			{
				"GoodsType": "GoodsType_Item",
				"Id": 4008,
				"Count": 10
			}
		],
		"ExpiredTime": 259200,
		"ReadedExpiredTime": 259200,
		"GotDeleted": true,
		"GameFunctionType": "GameFunctionType_ExchangeGiftCDKey"
	},
	{
		"ID": 41,
		"Title": "17173 Gift Pack",
		"Content": "Dear Commander:\nYou have received a gift from the Legion of Glory. We hope you like it.",
		"Attachments": [
			{
				"GoodsType": "GoodsType_Gold",
				"Id": 0,
				"Count": 5000
			},
			{
				"GoodsType": "GoodsType_Crystal",
				"Id": 0,
				"Count": 60
			},
			{
				"GoodsType": "GoodsType_Item",
				"Id": 4008,
				"Count": 5
			},
			{
				"GoodsType": "GoodsType_Item",
				"Id": 3101,
				"Count": 1
			}
		],
		"ExpiredTime": 259200,
		"ReadedExpiredTime": 259200,
		"GotDeleted": true,
		"GameFunctionType": "GameFunctionType_ExchangeGiftCDKey"
	},
	{
		"ID": 42,
		"Title": "Tencent Gift Pack",
		"Content": "Dear Commander:\nYou have received a gift from the Legion of Glory. We hope you like it.",
		"Attachments": [
			{
				"GoodsType": "GoodsType_Gold",
				"Id": 0,
				"Count": 5000
			},
			{
				"GoodsType": "GoodsType_Item",
				"Id": 4001,
				"Count": 2
			},
			{
				"GoodsType": "GoodsType_Item",
				"Id": 4008,
				"Count": 5
			},
			{
				"GoodsType": "GoodsType_Equipment",
				"Id": 303,
				"Count": 3
			}
		],
		"ExpiredTime": 259200,
		"ReadedExpiredTime": 259200,
		"GotDeleted": true,
		"GameFunctionType": "GameFunctionType_ExchangeGiftCDKey"
	},
	{
		"ID": 43,
		"Title": "Duowan Gift Pack",
		"Content": "Dear Commander:\nYou have received a gift from the Legion of Glory. We hope you like it.",
		"Attachments": [
			{
				"GoodsType": "GoodsType_Gold",
				"Id": 0,
				"Count": 5000
			},
			{
				"GoodsType": "GoodsType_Item",
				"Id": 4001,
				"Count": 2
			},
			{
				"GoodsType": "GoodsType_Item",
				"Id": 4000,
				"Count": 5
			},
			{
				"GoodsType": "GoodsType_Item",
				"Id": 3004,
				"Count": 5
			}
		],
		"ExpiredTime": 259200,
		"ReadedExpiredTime": 259200,
		"GotDeleted": true,
		"GameFunctionType": "GameFunctionType_ExchangeGiftCDKey"
	},
	{
		"ID": 44,
		"Title": "World Arena Tier Reward",
		"Content": "Dear Commander:\nBased on your tier in the world arena, Bronze III, the National Arena Committee has prepared a special gift for you. Keep up the good work! \nDon't forget to retrieve your reward.",
		"Attachments": [
			{
				"GoodsType": "GoodsType_ArenaHonour",
				"Id": 0,
				"Count": 10
			}
		],
		"ExpiredTime": 259200,
		"ReadedExpiredTime": 259200,
		"GotDeleted": true,
		"GameFunctionType": "GameFunctionType_RealTimePVPDan"
	},
	{
		"ID": 45,
		"Title": "World Arena Tier Reward",
		"Content": "Dear Commander:\nBased on your tier in the world arena, Bronze II, the National Arena Committee has prepared a special gift for you. Keep up the good work! \nDon't forget to retrieve your reward.",
		"Attachments": [
			{
				"GoodsType": "GoodsType_ArenaHonour",
				"Id": 0,
				"Count": 20
			}
		],
		"ExpiredTime": 259200,
		"ReadedExpiredTime": 259200,
		"GotDeleted": true,
		"GameFunctionType": "GameFunctionType_RealTimePVPDan"
	},
	{
		"ID": 46,
		"Title": "World Arena Tier Reward",
		"Content": "Dear Commander:\nBased on your tier in the world arena, Bronze I, the National Arena Committee has prepared a special gift for you. Keep up the good work! \nDon't forget to retrieve your reward.",
		"Attachments": [
			{
				"GoodsType": "GoodsType_ArenaHonour",
				"Id": 0,
				"Count": 30
			}
		],
		"ExpiredTime": 259200,
		"ReadedExpiredTime": 259200,
		"GotDeleted": true,
		"GameFunctionType": "GameFunctionType_RealTimePVPDan"
	},
	{
		"ID": 47,
		"Title": "World Arena Tier Reward",
		"Content": "Dear Commander:\nBased on your tier in the world arena, Silver III, the National Arena Committee has prepared a special gift for you. Keep up the good work! \nDon't forget to retrieve your reward.",
		"Attachments": [
			{
				"GoodsType": "GoodsType_ArenaHonour",
				"Id": 0,
				"Count": 40
			}
		],
		"ExpiredTime": 259200,
		"ReadedExpiredTime": 259200,
		"GotDeleted": true,
		"GameFunctionType": "GameFunctionType_RealTimePVPDan"
	},
	{
		"ID": 48,
		"Title": "World Arena Tier Reward",
		"Content": "Dear Commander:\nBased on your tier in the world arena, Silver II, the National Arena Committee has prepared a special gift for you. Keep up the good work! \nDon't forget to retrieve your reward.",
		"Attachments": [
			{
				"GoodsType": "GoodsType_ArenaHonour",
				"Id": 0,
				"Count": 50
			},
			{
				"GoodsType": "GoodsType_Crystal",
				"Id": 0,
				"Count": 10
			}
		],
		"ExpiredTime": 259200,
		"ReadedExpiredTime": 259200,
		"GotDeleted": true,
		"GameFunctionType": "GameFunctionType_RealTimePVPDan"
	},
	{
		"ID": 49,
		"Title": "World Arena Tier Reward",
		"Content": "\"Dear Commander:\nBased on your tier in the world arena, Silver I, the National Arena Committee has prepared a special gift for you. Keep up the good work! \nDon't forget to retrieve your reward. \"",
		"Attachments": [
			{
				"GoodsType": "GoodsType_ArenaHonour",
				"Id": 0,
				"Count": 60
			},
			{
				"GoodsType": "GoodsType_Crystal",
				"Id": 0,
				"Count": 12
			}
		],
		"ExpiredTime": 259200,
		"ReadedExpiredTime": 259200,
		"GotDeleted": true,
		"GameFunctionType": "GameFunctionType_RealTimePVPDan"
	},
	{
		"ID": 50,
		"Title": "World Arena Tier Reward",
		"Content": "\"Dear Commander:\nBased on your tier in the world arena, Gold III, the National Arena Committee has prepared a special gift for you. Keep up the good work! \nDon't forget to retrieve your reward. \"",
		"Attachments": [
			{
				"GoodsType": "GoodsType_ArenaHonour",
				"Id": 0,
				"Count": 70
			},
			{
				"GoodsType": "GoodsType_Crystal",
				"Id": 0,
				"Count": 14
			}
		],
		"ExpiredTime": 259200,
		"ReadedExpiredTime": 259200,
		"GotDeleted": true,
		"GameFunctionType": "GameFunctionType_RealTimePVPDan"
	},
	{
		"ID": 51,
		"Title": "World Arena Tier Reward",
		"Content": "\"Dear Commander:\nBased on your tier in the world arena, Gold II, the National Arena Committee has prepared a special gift for you. Keep up the good work! \nDon't forget to retrieve your reward. \"",
		"Attachments": [
			{
				"GoodsType": "GoodsType_ArenaHonour",
				"Id": 0,
				"Count": 80
			},
			{
				"GoodsType": "GoodsType_Crystal",
				"Id": 0,
				"Count": 16
			}
		],
		"ExpiredTime": 259200,
		"ReadedExpiredTime": 259200,
		"GotDeleted": true,
		"GameFunctionType": "GameFunctionType_RealTimePVPDan"
	},
	{
		"ID": 52,
		"Title": "World Arena Tier Reward",
		"Content": "\"Dear Commander:\nBased on your tier in the world arena, Gold I, the National Arena Committee has prepared a special gift for you. Keep up the good work! \nDon't forget to retrieve your reward. \"",
		"Attachments": [
			{
				"GoodsType": "GoodsType_ArenaHonour",
				"Id": 0,
				"Count": 90
			},
			{
				"GoodsType": "GoodsType_Crystal",
				"Id": 0,
				"Count": 18
			}
		],
		"ExpiredTime": 259200,
		"ReadedExpiredTime": 259200,
		"GotDeleted": true,
		"GameFunctionType": "GameFunctionType_RealTimePVPDan"
	},
	{
		"ID": 53,
		"Title": "World Arena Tier Reward",
		"Content": "Dear Commander:\nYour strength is outstanding. All members of the National Arena Committee hereby pay you their deep respect. Keep up the good work, we are looking forward to more exciting matches.\nDon't forget to retrieve your reward.",
		"Attachments": [
			{
				"GoodsType": "GoodsType_ArenaHonour",
				"Id": 0,
				"Count": 100
			},
			{
				"GoodsType": "GoodsType_Crystal",
				"Id": 0,
				"Count": 20
			}
		],
		"ExpiredTime": 259200,
		"ReadedExpiredTime": 259200,
		"GotDeleted": true,
		"GameFunctionType": "GameFunctionType_RealTimePVPDan"
	},
	{
		"ID": 54,
		"Title": "Legion of Glory Gift",
		"Content": "Dear Commander:\nThank you for supporting us. We wish you some happy gaming! Attached is a gift from the Legion of Glory. We hope you like it!",
		"Attachments": [
			{
				"GoodsType": "GoodsType_Gold",
				"Id": 0,
				"Count": 32000
			},
			{
				"GoodsType": "GoodsType_Item",
				"Id": 4001,
				"Count": 1
			},
			{
				"GoodsType": "GoodsType_Item",
				"Id": 4000,
				"Count": 3
			}
		],
		"ExpiredTime": 259200,
		"ReadedExpiredTime": 259200,
		"GotDeleted": true,
		"GameFunctionType": "GameFunctionType_ExchangeGiftCDKey"
	},
	{
		"ID": 55,
		"Title": "Legion of Glory Gift",
		"Content": "Dear Commander:\nThank you for supporting us. We wish you some happy gaming! Attached is a gift from the Legion of Glory. We hope you like it!",
		"Attachments": [
			{
				"GoodsType": "GoodsType_Gold",
				"Id": 0,
				"Count": 40000
			},
			{
				"GoodsType": "GoodsType_Item",
				"Id": 4001,
				"Count": 1
			},
			{
				"GoodsType": "GoodsType_Equipment",
				"Id": 301,
				"Count": 10
			}
		],
		"ExpiredTime": 259200,
		"ReadedExpiredTime": 259200,
		"GotDeleted": true,
		"GameFunctionType": "GameFunctionType_ExchangeGiftCDKey"
	},
	{
		"ID": 56,
		"Title": "Legion of Glory Gift",
		"Content": "Dear Commander:\nThank you for supporting us. We wish you some happy gaming! Attached is a gift from the Legion of Glory. We hope you like it!",
		"Attachments": [
			{
				"GoodsType": "GoodsType_Gold",
				"Id": 0,
				"Count": 20000
			},
			{
				"GoodsType": "GoodsType_Item",
				"Id": 3002,
				"Count": 10
			},
			{
				"GoodsType": "GoodsType_Equipment",
				"Id": 301,
				"Count": 5
			}
		],
		"ExpiredTime": 259200,
		"ReadedExpiredTime": 259200,
		"GotDeleted": true,
		"GameFunctionType": "GameFunctionType_ExchangeGiftCDKey"
	},
	{
		"ID": 57,
		"Title": "Legion of Glory Gift",
		"Content": "Dear Commander:\nThank you for supporting us. We wish you some happy gaming! Attached is a gift from the Legion of Glory. We hope you like it!",
		"Attachments": [
			{
				"GoodsType": "GoodsType_Gold",
				"Id": 0,
				"Count": 8000
			},
			{
				"GoodsType": "GoodsType_Item",
				"Id": 4000,
				"Count": 2
			},
			{
				"GoodsType": "GoodsType_Item",
				"Id": 3002,
				"Count": 5
			}
		],
		"ExpiredTime": 259200,
		"ReadedExpiredTime": 259200,
		"GotDeleted": true,
		"GameFunctionType": "GameFunctionType_ExchangeGiftCDKey"
	},
	{
		"ID": 58,
		"Title": "Legion of Glory Gift",
		"Content": "Dear Commander:\nThank you for supporting us. We wish you some happy gaming! Attached is a gift from the Legion of Glory. We hope you like it!",
		"Attachments": [
			{
				"GoodsType": "GoodsType_Gold",
				"Id": 0,
				"Count": 5000
			},
			{
				"GoodsType": "GoodsType_Item",
				"Id": 4000,
				"Count": 1
			},
			{
				"GoodsType": "GoodsType_Item",
				"Id": 3101,
				"Count": 1
			}
		],
		"ExpiredTime": 259200,
		"ReadedExpiredTime": 259200,
		"GotDeleted": true,
		"GameFunctionType": "GameFunctionType_ExchangeGiftCDKey"
	},
	{
		"ID": 59,
		"Title": "Legion of Glory Gift",
		"Content": "Dear Commander:\nThank you for supporting us. We wish you some happy gaming! Attached is a gift from the Legion of Glory. We hope you like it!",
		"Attachments": [
			{
				"GoodsType": "GoodsType_Gold",
				"Id": 0,
				"Count": 10000
			},
			{
				"GoodsType": "GoodsType_Item",
				"Id": 4000,
				"Count": 2
			},
			{
				"GoodsType": "GoodsType_Equipment",
				"Id": 302,
				"Count": 1
			}
		],
		"ExpiredTime": 259200,
		"ReadedExpiredTime": 259200,
		"GotDeleted": true,
		"GameFunctionType": "GameFunctionType_ExchangeGiftCDKey"
	},
	{
		"ID": 60,
		"Title": "Legion of Glory Gift",
		"Content": "Dear Commander:\nThank you for supporting us. We wish you some happy gaming! Attached is a gift from the Legion of Glory. We hope you like it!",
		"Attachments": [
			{
				"GoodsType": "GoodsType_Gold",
				"Id": 0,
				"Count": 10000
			},
			{
				"GoodsType": "GoodsType_Equipment",
				"Id": 301,
				"Count": 4
			},
			{
				"GoodsType": "GoodsType_Item",
				"Id": 4000,
				"Count": 2
			}
		],
		"ExpiredTime": 259200,
		"ReadedExpiredTime": 259200,
		"GotDeleted": true,
		"GameFunctionType": "GameFunctionType_ExchangeGiftCDKey"
	},
	{
		"ID": 61,
		"Title": "World Arena Ranking Rewards",
		"Content": "Dear Commander:\nYour weekly arena ranking reward is here! Please continue your hard work. See you next week!",
		"Attachments": [
			{
				"GoodsType": "GoodsType_ArenaHonour",
				"Id": 0,
				"Count": 500
			},
			{
				"GoodsType": "GoodsType_Gold",
				"Id": 0,
				"Count": 150000
			},
			{
				"GoodsType": "GoodsType_Crystal",
				"Id": 0,
				"Count": 200
			}
		],
		"ExpiredTime": 259200,
		"ReadedExpiredTime": 259200,
		"GotDeleted": true,
		"GameFunctionType": "GameFunctionType_RealTimePVPRanking"
	},
	{
		"ID": 62,
		"Title": "World Arena Ranking Rewards",
		"Content": "Dear Commander:\nYour weekly arena ranking reward is here! Please continue your hard work. See you next week!",
		"Attachments": [
			{
				"GoodsType": "GoodsType_ArenaHonour",
				"Id": 0,
				"Count": 400
			},
			{
				"GoodsType": "GoodsType_Gold",
				"Id": 0,
				"Count": 120000
			},
			{
				"GoodsType": "GoodsType_Crystal",
				"Id": 0,
				"Count": 170
			}
		],
		"ExpiredTime": 259200,
		"ReadedExpiredTime": 259200,
		"GotDeleted": true,
		"GameFunctionType": "GameFunctionType_RealTimePVPRanking"
	},
	{
		"ID": 63,
		"Title": "World Arena Ranking Rewards",
		"Content": "Dear Commander:\nYour weekly arena ranking reward is here! Please continue your hard work. See you next week!",
		"Attachments": [
			{
				"GoodsType": "GoodsType_ArenaHonour",
				"Id": 0,
				"Count": 350
			},
			{
				"GoodsType": "GoodsType_Gold",
				"Id": 0,
				"Count": 90000
			},
			{
				"GoodsType": "GoodsType_Crystal",
				"Id": 0,
				"Count": 140
			}
		],
		"ExpiredTime": 259200,
		"ReadedExpiredTime": 259200,
		"GotDeleted": true,
		"GameFunctionType": "GameFunctionType_RealTimePVPRanking"
	},
	{
		"ID": 64,
		"Title": "World Arena Ranking Rewards",
		"Content": "Dear Commander:\nYour weekly arena ranking reward is here! Please continue your hard work. See you next week!",
		"Attachments": [
			{
				"GoodsType": "GoodsType_ArenaHonour",
				"Id": 0,
				"Count": 300
			},
			{
				"GoodsType": "GoodsType_Gold",
				"Id": 0,
				"Count": 70000
			},
			{
				"GoodsType": "GoodsType_Crystal",
				"Id": 0,
				"Count": 120
			}
		],
		"ExpiredTime": 259200,
		"ReadedExpiredTime": 259200,
		"GotDeleted": true,
		"GameFunctionType": "GameFunctionType_RealTimePVPRanking"
	},
	{
		"ID": 65,
		"Title": "World Arena Ranking Rewards",
		"Content": "Dear Commander:\nYour weekly arena ranking reward is here! Please continue your hard work. See you next week!",
		"Attachments": [
			{
				"GoodsType": "GoodsType_ArenaHonour",
				"Id": 0,
				"Count": 250
			},
			{
				"GoodsType": "GoodsType_Gold",
				"Id": 0,
				"Count": 50000
			},
			{
				"GoodsType": "GoodsType_Crystal",
				"Id": 0,
				"Count": 100
			}
		],
		"ExpiredTime": 259200,
		"ReadedExpiredTime": 259200,
		"GotDeleted": true,
		"GameFunctionType": "GameFunctionType_RealTimePVPRanking"
	},
	{
		"ID": 66,
		"Title": "World Arena Ranking Rewards",
		"Content": "Dear Commander:\nYour weekly arena ranking reward is here! Please continue your hard work. See you next week!",
		"Attachments": [
			{
				"GoodsType": "GoodsType_ArenaHonour",
				"Id": 0,
				"Count": 200
			},
			{
				"GoodsType": "GoodsType_Gold",
				"Id": 0,
				"Count": 40000
			},
			{
				"GoodsType": "GoodsType_Crystal",
				"Id": 0,
				"Count": 80
			}
		],
		"ExpiredTime": 259200,
		"ReadedExpiredTime": 259200,
		"GotDeleted": true,
		"GameFunctionType": "GameFunctionType_RealTimePVPRanking"
	},
	{
		"ID": 67,
		"Title": "World Arena Ranking Rewards",
		"Content": "Dear Commander:\nYour weekly arena ranking reward is here! Please continue your hard work. See you next week!",
		"Attachments": [
			{
				"GoodsType": "GoodsType_ArenaHonour",
				"Id": 0,
				"Count": 180
			},
			{
				"GoodsType": "GoodsType_Gold",
				"Id": 0,
				"Count": 30000
			},
			{
				"GoodsType": "GoodsType_Crystal",
				"Id": 0,
				"Count": 70
			}
		],
		"ExpiredTime": 259200,
		"ReadedExpiredTime": 259200,
		"GotDeleted": true,
		"GameFunctionType": "GameFunctionType_RealTimePVPRanking"
	},
	{
		"ID": 68,
		"Title": "World Arena Ranking Rewards",
		"Content": "Dear Commander:\nYour weekly arena ranking reward is here! Please continue your hard work. See you next week!",
		"Attachments": [
			{
				"GoodsType": "GoodsType_ArenaHonour",
				"Id": 0,
				"Count": 160
			},
			{
				"GoodsType": "GoodsType_Gold",
				"Id": 0,
				"Count": 20000
			},
			{
				"GoodsType": "GoodsType_Crystal",
				"Id": 0,
				"Count": 60
			}
		],
		"ExpiredTime": 259200,
		"ReadedExpiredTime": 259200,
		"GotDeleted": true,
		"GameFunctionType": "GameFunctionType_RealTimePVPRanking"
	},
	{
		"ID": 69,
		"Title": "World Arena Ranking Rewards",
		"Content": "Dear Commander:\nYour weekly arena ranking reward is here! Please continue your hard work. See you next week!",
		"Attachments": [
			{
				"GoodsType": "GoodsType_ArenaHonour",
				"Id": 0,
				"Count": 140
			},
			{
				"GoodsType": "GoodsType_Gold",
				"Id": 0,
				"Count": 10000
			},
			{
				"GoodsType": "GoodsType_Crystal",
				"Id": 0,
				"Count": 50
			}
		],
		"ExpiredTime": 259200,
		"ReadedExpiredTime": 259200,
		"GotDeleted": true,
		"GameFunctionType": "GameFunctionType_RealTimePVPRanking"
	},
	{
		"ID": 70,
		"Title": "World Arena Ranking Rewards",
		"Content": "Dear Commander:\nYour weekly arena ranking reward is here! Please continue your hard work. See you next week!",
		"Attachments": [
			{
				"GoodsType": "GoodsType_ArenaHonour",
				"Id": 0,
				"Count": 120
			}
		],
		"ExpiredTime": 259200,
		"ReadedExpiredTime": 259200,
		"GotDeleted": true,
		"GameFunctionType": "GameFunctionType_RealTimePVPRanking"
	},
	{
		"ID": 71,
		"Title": "World Arena Ranking Rewards",
		"Content": "Dear Commander:\nYour weekly arena ranking reward is here! Please continue your hard work. See you next week!",
		"Attachments": [
			{
				"GoodsType": "GoodsType_ArenaHonour",
				"Id": 0,
				"Count": 100
			}
		],
		"ExpiredTime": 259200,
		"ReadedExpiredTime": 259200,
		"GotDeleted": true,
		"GameFunctionType": "GameFunctionType_RealTimePVPRanking"
	},
	{
		"ID": 72,
		"Title": "Guild Leader Dismissal Notice",
		"Content": "Dear Commander:\n\nYou have been dismissed as the Guild Leader as you have been offline for a long period. Your position has now been replaced by <color=#DC143C>[0]</color>.\n\nPlease return to the Guild and enjoy the adventures with your team!",
		"ExpiredTime": 259200,
		"ReadedExpiredTime": 259200,
		"GotDeleted": false,
		"GameFunctionType": "GameFunctionType_Guild"
	},
	{
		"ID": 73,
		"Title": "Legion of Glory Gift",
		"Content": "Dear Commander:\nThank you for supporting us. We wish you some happy gaming! Attached is a gift from the Legion of Glory. We hope you like it!",
		"Attachments": [
			{
				"GoodsType": "GoodsType_Gold",
				"Id": 0,
				"Count": 5000
			},
			{
				"GoodsType": "GoodsType_Item",
				"Id": 3002,
				"Count": 10
			},
			{
				"GoodsType": "GoodsType_Equipment",
				"Id": 301,
				"Count": 5
			}
		],
		"ExpiredTime": 259200,
		"ReadedExpiredTime": 259200,
		"GotDeleted": true,
		"GameFunctionType": "GameFunctionType_ExchangeGiftCDKey"
	},
	{
		"ID": 74,
		"Title": "Legion of Glory Gift",
		"Content": "Dear Commander:\nThank you for supporting us. We wish you some happy gaming! Attached is a gift from the Legion of Glory. We hope you like it!",
		"Attachments": [
			{
				"GoodsType": "GoodsType_Gold",
				"Id": 0,
				"Count": 3000
			},
			{
				"GoodsType": "GoodsType_Item",
				"Id": 4000,
				"Count": 1
			}
		],
		"ExpiredTime": 259200,
		"ReadedExpiredTime": 259200,
		"GotDeleted": true,
		"GameFunctionType": "GameFunctionType_ExchangeGiftCDKey"
	},
	{
		"ID": 75,
		"Title": "Legion of Glory Gift",
		"Content": "Dear Commander:\nThank you for supporting us. We wish you some happy gaming! Attached is a gift from the Legion of Glory. We hope you like it!",
		"Attachments": [
			{
				"GoodsType": "GoodsType_Gold",
				"Id": 0,
				"Count": 2000
			},
			{
				"GoodsType": "GoodsType_Item",
				"Id": 3003,
				"Count": 10
			}
		],
		"ExpiredTime": 259200,
		"ReadedExpiredTime": 259200,
		"GotDeleted": true,
		"GameFunctionType": "GameFunctionType_ExchangeGiftCDKey"
	},
	{
		"ID": 76,
		"Title": "Legion of Glory Gift",
		"Content": "Dear Commander:\nThank you for supporting us. We wish you some happy gaming! Attached is a gift from the Legion of Glory. We hope you like it!",
		"Attachments": [
			{
				"GoodsType": "GoodsType_Gold",
				"Id": 0,
				"Count": 3000
			},
			{
				"GoodsType": "GoodsType_Equipment",
				"Id": 302,
				"Count": 2
			}
		],
		"ExpiredTime": 259200,
		"ReadedExpiredTime": 259200,
		"GotDeleted": true,
		"GameFunctionType": "GameFunctionType_ExchangeGiftCDKey"
	},
	{
		"ID": 77,
		"Title": "Legion of Glory Gift",
		"Content": "Dear Commander:\nThank you for supporting us. We wish you some happy gaming! Attached is a gift from the Legion of Glory. We hope you like it!",
		"Attachments": [
			{
				"GoodsType": "GoodsType_Gold",
				"Id": 0,
				"Count": 2000
			},
			{
				"GoodsType": "GoodsType_Item",
				"Id": 3003,
				"Count": 15
			}
		],
		"ExpiredTime": 259200,
		"ReadedExpiredTime": 259200,
		"GotDeleted": true,
		"GameFunctionType": "GameFunctionType_ExchangeGiftCDKey"
	},
	{
		"ID": 78,
		"Title": "Legion of Glory Gift",
		"Content": "Dear Commander:\nThank you for supporting us. We wish you some happy gaming! Attached is a gift from the Legion of Glory. We hope you like it!",
		"Attachments": [
			{
				"GoodsType": "GoodsType_Gold",
				"Id": 0,
				"Count": 3000
			},
			{
				"GoodsType": "GoodsType_Item",
				"Id": 4000,
				"Count": 2
			}
		],
		"ExpiredTime": 259200,
		"ReadedExpiredTime": 259200,
		"GotDeleted": true,
		"GameFunctionType": "GameFunctionType_ExchangeGiftCDKey"
	},
	{
		"ID": 79,
		"Title": "Legion of Glory Gift",
		"Content": "Dear Commander:\nThank you for supporting us. We wish you some happy gaming! Attached is a gift from the Legion of Glory. We hope you like it!",
		"Attachments": [
			{
				"GoodsType": "GoodsType_Gold",
				"Id": 0,
				"Count": 5000
			},
			{
				"GoodsType": "GoodsType_Item",
				"Id": 3004,
				"Count": 2
			},
			{
				"GoodsType": "GoodsType_Equipment",
				"Id": 302,
				"Count": 3
			}
		],
		"ExpiredTime": 259200,
		"ReadedExpiredTime": 259200,
		"GotDeleted": true,
		"GameFunctionType": "GameFunctionType_ExchangeGiftCDKey"
	},
	{
		"ID": 80,
		"Title": "Legion of Glory Gift",
		"Content": "Dear Commander:\nThank you for supporting us. We wish you some happy gaming! Attached is a gift from the Legion of Glory. We hope you like it!",
		"Attachments": [
			{
				"GoodsType": "GoodsType_Gold",
				"Id": 0,
				"Count": 8000
			},
			{
				"GoodsType": "GoodsType_Equipment",
				"Id": 303,
				"Count": 2
			}
		],
		"ExpiredTime": 259200,
		"ReadedExpiredTime": 259200,
		"GotDeleted": true,
		"GameFunctionType": "GameFunctionType_ExchangeGiftCDKey"
	},
	{
		"ID": 81,
		"Title": "Legion of Glory Gift",
		"Content": "Dear Commander:\nThank you for supporting us. We wish you some happy gaming! Attached is a gift from the Legion of Glory. We hope you like it!",
		"Attachments": [
			{
				"GoodsType": "GoodsType_Gold",
				"Id": 0,
				"Count": 8888
			},
			{
				"GoodsType": "GoodsType_Item",
				"Id": 4000,
				"Count": 2
			},
			{
				"GoodsType": "GoodsType_Item",
				"Id": 3004,
				"Count": 2
			}
		],
		"ExpiredTime": 259200,
		"ReadedExpiredTime": 259200,
		"GotDeleted": true,
		"GameFunctionType": "GameFunctionType_ExchangeGiftCDKey"
	},
	{
		"ID": 82,
		"Title": "Legion of Glory Gift",
		"Content": "Dear Commander:\nThank you for supporting us. We wish you some happy gaming! Attached is a gift from the Legion of Glory. We hope you like it!",
		"Attachments": [
			{
				"GoodsType": "GoodsType_Gold",
				"Id": 0,
				"Count": 10000
			},
			{
				"GoodsType": "GoodsType_Equipment",
				"Id": 303,
				"Count": 3
			},
			{
				"GoodsType": "GoodsType_Item",
				"Id": 3101,
				"Count": 1
			}
		],
		"ExpiredTime": 259200,
		"ReadedExpiredTime": 259200,
		"GotDeleted": true,
		"GameFunctionType": "GameFunctionType_ExchangeGiftCDKey"
	},
	{
		"ID": 83,
		"Title": "Legion of Glory Gift",
		"Content": "Dear Commander:\nThank you for supporting us. We wish you some happy gaming! Attached is a gift from the Legion of Glory. We hope you like it!",
		"Attachments": [
			{
				"GoodsType": "GoodsType_Gold",
				"Id": 0,
				"Count": 12000
			},
			{
				"GoodsType": "GoodsType_Item",
				"Id": 4000,
				"Count": 6
			},
			{
				"GoodsType": "GoodsType_Equipment",
				"Id": 303,
				"Count": 4
			}
		],
		"ExpiredTime": 259200,
		"ReadedExpiredTime": 259200,
		"GotDeleted": true,
		"GameFunctionType": "GameFunctionType_ExchangeGiftCDKey"
	},
	{
		"ID": 84,
		"Title": "Legion of Glory Gift",
		"Content": "Dear Commander:\nThank you for supporting us. We wish you some happy gaming! Attached is a gift from the Legion of Glory. We hope you like it!",
		"Attachments": [
			{
				"GoodsType": "GoodsType_Gold",
				"Id": 0,
				"Count": 15000
			},
			{
				"GoodsType": "GoodsType_Item",
				"Id": 4001,
				"Count": 1
			},
			{
				"GoodsType": "GoodsType_Item",
				"Id": 4000,
				"Count": 2
			}
		],
		"ExpiredTime": 259200,
		"ReadedExpiredTime": 259200,
		"GotDeleted": true,
		"GameFunctionType": "GameFunctionType_ExchangeGiftCDKey"
	},
	{
		"ID": 85,
		"Title": "Legion of Glory Gift",
		"Content": "Dear Commander:\nThank you for supporting us. We wish you some happy gaming! Attached is a gift from the Legion of Glory. We hope you like it!",
		"Attachments": [
			{
				"GoodsType": "GoodsType_Gold",
				"Id": 0,
				"Count": 15000
			},
			{
				"GoodsType": "GoodsType_Item",
				"Id": 4001,
				"Count": 2
			},
			{
				"GoodsType": "GoodsType_Item",
				"Id": 3004,
				"Count": 2
			}
		],
		"ExpiredTime": 259200,
		"ReadedExpiredTime": 259200,
		"GotDeleted": true,
		"GameFunctionType": "GameFunctionType_ExchangeGiftCDKey"
	},
	{
		"ID": 86,
		"Title": "Legion of Glory Gift",
		"Content": "Dear Commander:\nThank you for supporting us. We wish you some happy gaming! Attached is a gift from the Legion of Glory. We hope you like it!",
		"Attachments": [
			{
				"GoodsType": "GoodsType_Gold",
				"Id": 0,
				"Count": 18888
			},
			{
				"GoodsType": "GoodsType_Item",
				"Id": 4001,
				"Count": 2
			},
			{
				"GoodsType": "GoodsType_Equipment",
				"Id": 303,
				"Count": 1
			}
		],
		"ExpiredTime": 259200,
		"ReadedExpiredTime": 259200,
		"GotDeleted": true,
		"GameFunctionType": "GameFunctionType_ExchangeGiftCDKey"
	},
	{
		"ID": 87,
		"Title": "Legion of Glory Gift",
		"Content": "Dear Commander:\nThank you for supporting us. We wish you some happy gaming! Attached is a gift from the Legion of Glory. We hope you like it!",
		"Attachments": [
			{
				"GoodsType": "GoodsType_Gold",
				"Id": 0,
				"Count": 18888
			},
			{
				"GoodsType": "GoodsType_Item",
				"Id": 4001,
				"Count": 3
			},
			{
				"GoodsType": "GoodsType_Item",
				"Id": 3004,
				"Count": 5
			}
		],
		"ExpiredTime": 259200,
		"ReadedExpiredTime": 259200,
		"GotDeleted": true,
		"GameFunctionType": "GameFunctionType_ExchangeGiftCDKey"
	},
	{
		"ID": 88,
		"Title": "Legion of Glory Gift",
		"Content": "Dear Commander:\nThank you for supporting us. We wish you some happy gaming! Attached is a gift from the Legion of Glory. We hope you like it!",
		"Attachments": [
			{
				"GoodsType": "GoodsType_Gold",
				"Id": 0,
				"Count": 20000
			},
			{
				"GoodsType": "GoodsType_Item",
				"Id": 4001,
				"Count": 3
			},
			{
				"GoodsType": "GoodsType_Equipment",
				"Id": 303,
				"Count": 3
			}
		],
		"ExpiredTime": 259200,
		"ReadedExpiredTime": 259200,
		"GotDeleted": true,
		"GameFunctionType": "GameFunctionType_ExchangeGiftCDKey"
	},
	{
		"ID": 89,
		"Title": "Legion of Glory Gift",
		"Content": "Dear Commander:\nThank you for supporting us. We wish you some happy gaming! Attached is a gift from the Legion of Glory. We hope you like it!",
		"Attachments": [
			{
				"GoodsType": "GoodsType_Gold",
				"Id": 0,
				"Count": 20000
			},
			{
				"GoodsType": "GoodsType_Item",
				"Id": 4001,
				"Count": 4
			},
			{
				"GoodsType": "GoodsType_Item",
				"Id": 3004,
				"Count": 4
			}
		],
		"ExpiredTime": 259200,
		"ReadedExpiredTime": 259200,
		"GotDeleted": true,
		"GameFunctionType": "GameFunctionType_ExchangeGiftCDKey"
	},
	{
		"ID": 90,
		"Title": "Legion of Glory Gift",
		"Content": "Dear Commander:\nThank you for supporting us. We wish you some happy gaming! Attached is a gift from the Legion of Glory. We hope you like it!",
		"Attachments": [
			{
				"GoodsType": "GoodsType_Gold",
				"Id": 0,
				"Count": 28888
			},
			{
				"GoodsType": "GoodsType_Item",
				"Id": 4001,
				"Count": 4
			},
			{
				"GoodsType": "GoodsType_Item",
				"Id": 4000,
				"Count": 10
			}
		],
		"ExpiredTime": 259200,
		"ReadedExpiredTime": 259200,
		"GotDeleted": true,
		"GameFunctionType": "GameFunctionType_ExchangeGiftCDKey"
	},
	{
		"ID": 91,
		"Title": "Legion of Glory Gift",
		"Content": "Dear Commander:\nThank you for supporting us. We wish you some happy gaming! Attached is a gift from the Legion of Glory. We hope you like it!",
		"Attachments": [
			{
				"GoodsType": "GoodsType_Gold",
				"Id": 0,
				"Count": 50000
			},
			{
				"GoodsType": "GoodsType_Item",
				"Id": 4001,
				"Count": 5
			},
			{
				"GoodsType": "GoodsType_Item",
				"Id": 4000,
				"Count": 20
			}
		],
		"ExpiredTime": 259200,
		"ReadedExpiredTime": 259200,
		"GotDeleted": true,
		"GameFunctionType": "GameFunctionType_ExchangeGiftCDKey"
	},
	{
		"ID": 92,
		"Title": "Legion of Glory Gift",
		"Content": "Dear Commander:\nThank you for supporting us. We wish you some happy gaming! Attached is a gift from the Legion of Glory. We hope you like it!",
		"Attachments": [
			{
				"GoodsType": "GoodsType_Gold",
				"Id": 0,
				"Count": 1666
			},
			{
				"GoodsType": "GoodsType_Item",
				"Id": 3003,
				"Count": 5
			}
		],
		"ExpiredTime": 259200,
		"ReadedExpiredTime": 259200,
		"GotDeleted": true,
		"GameFunctionType": "GameFunctionType_ExchangeGiftCDKey"
	},
	{
		"ID": 93,
		"Title": "Legion of Glory Gift",
		"Content": "Dear Commander:\nThank you for supporting us. We wish you some happy gaming! Attached is a gift from the Legion of Glory. We hope you like it!",
		"Attachments": [
			{
				"GoodsType": "GoodsType_Gold",
				"Id": 0,
				"Count": 2888
			},
			{
				"GoodsType": "GoodsType_Equipment",
				"Id": 302,
				"Count": 3
			}
		],
		"ExpiredTime": 259200,
		"ReadedExpiredTime": 259200,
		"GotDeleted": true,
		"GameFunctionType": "GameFunctionType_ExchangeGiftCDKey"
	},
	{
		"ID": 94,
		"Title": "Legion of Glory Gift",
		"Content": "Dear Commander:\nThank you for supporting us. We wish you some happy gaming! Attached is a gift from the Legion of Glory. We hope you like it!",
		"Attachments": [
			{
				"GoodsType": "GoodsType_Gold",
				"Id": 0,
				"Count": 3888
			},
			{
				"GoodsType": "GoodsType_Item",
				"Id": 4000,
				"Count": 2
			}
		],
		"ExpiredTime": 259200,
		"ReadedExpiredTime": 259200,
		"GotDeleted": true,
		"GameFunctionType": "GameFunctionType_ExchangeGiftCDKey"
	},
	{
		"ID": 95,
		"Title": "Legion of Glory Gift",
		"Content": "Dear Commander:\nThank you for supporting us. We wish you some happy gaming! Attached is a gift from the Legion of Glory. We hope you like it!",
		"Attachments": [
			{
				"GoodsType": "GoodsType_Gold",
				"Id": 0,
				"Count": 6666
			},
			{
				"GoodsType": "GoodsType_Item",
				"Id": 4000,
				"Count": 2
			},
			{
				"GoodsType": "GoodsType_Item",
				"Id": 3003,
				"Count": 3
			}
		],
		"ExpiredTime": 259200,
		"ReadedExpiredTime": 259200,
		"GotDeleted": true,
		"GameFunctionType": "GameFunctionType_ExchangeGiftCDKey"
	},
	{
		"ID": 96,
		"Title": "Legion of Glory Gift",
		"Content": "Dear Commander:\nThank you for supporting us. We wish you some happy gaming! Attached is a gift from the Legion of Glory. We hope you like it!",
		"Attachments": [
			{
				"GoodsType": "GoodsType_Gold",
				"Id": 0,
				"Count": 6888
			},
			{
				"GoodsType": "GoodsType_Item",
				"Id": 4000,
				"Count": 2
			},
			{
				"GoodsType": "GoodsType_Equipment",
				"Id": 302,
				"Count": 3
			}
		],
		"ExpiredTime": 259200,
		"ReadedExpiredTime": 259200,
		"GotDeleted": true,
		"GameFunctionType": "GameFunctionType_ExchangeGiftCDKey"
	},
	{
		"ID": 97,
		"Title": "Legion of Glory Gift",
		"Content": "Dear Commander:\nThank you for supporting us. We wish you some happy gaming! Attached is a gift from the Legion of Glory. We hope you like it!",
		"Attachments": [
			{
				"GoodsType": "GoodsType_Gold",
				"Id": 0,
				"Count": 8888
			},
			{
				"GoodsType": "GoodsType_Item",
				"Id": 3004,
				"Count": 5
			}
		],
		"ExpiredTime": 259200,
		"ReadedExpiredTime": 259200,
		"GotDeleted": true,
		"GameFunctionType": "GameFunctionType_ExchangeGiftCDKey"
	},
	{
		"ID": 98,
		"Title": "Legion of Glory Gift",
		"Content": "Dear Commander:\nThank you for supporting us. We wish you some happy gaming! Attached is a gift from the Legion of Glory. We hope you like it!",
		"Attachments": [
			{
				"GoodsType": "GoodsType_Gold",
				"Id": 0,
				"Count": 12888
			},
			{
				"GoodsType": "GoodsType_Equipment",
				"Id": 303,
				"Count": 4
			}
		],
		"ExpiredTime": 259200,
		"ReadedExpiredTime": 259200,
		"GotDeleted": true,
		"GameFunctionType": "GameFunctionType_ExchangeGiftCDKey"
	},
	{
		"ID": 99,
		"Title": "Legion of Glory Gift",
		"Content": "Dear Commander:\nThank you for supporting us. We wish you some happy gaming! Attached is a gift from the Legion of Glory. We hope you like it!",
		"Attachments": [
			{
				"GoodsType": "GoodsType_Gold",
				"Id": 0,
				"Count": 16888
			},
			{
				"GoodsType": "GoodsType_Item",
				"Id": 4000,
				"Count": 5
			},
			{
				"GoodsType": "GoodsType_Item",
				"Id": 3101,
				"Count": 3
			}
		],
		"ExpiredTime": 259200,
		"ReadedExpiredTime": 259200,
		"GotDeleted": true,
		"GameFunctionType": "GameFunctionType_ExchangeGiftCDKey"
	},
	{
		"ID": 100,
		"Title": "Legion of Glory Gift",
		"Content": "Dear Commander:\nThank you for supporting us. We wish you some happy gaming! Attached is a gift from the Legion of Glory. We hope you like it!",
		"Attachments": [
			{
				"GoodsType": "GoodsType_Gold",
				"Id": 0,
				"Count": 18888
			},
			{
				"GoodsType": "GoodsType_Item",
				"Id": 3004,
				"Count": 5
			},
			{
				"GoodsType": "GoodsType_Equipment",
				"Id": 303,
				"Count": 5
			}
		],
		"ExpiredTime": 259200,
		"ReadedExpiredTime": 259200,
		"GotDeleted": true,
		"GameFunctionType": "GameFunctionType_ExchangeGiftCDKey"
	},
	{
		"ID": 101,
		"Title": "Legion of Glory Gift",
		"Content": "Dear Commander:\nThank you for supporting us. We wish you some happy gaming! Attached is a gift from the Legion of Glory. We hope you like it!",
		"Attachments": [
			{
				"GoodsType": "GoodsType_Gold",
				"Id": 0,
				"Count": 26888
			},
			{
				"GoodsType": "GoodsType_Item",
				"Id": 4001,
				"Count": 1
			},
			{
				"GoodsType": "GoodsType_Item",
				"Id": 3004,
				"Count": 3
			}
		],
		"ExpiredTime": 259200,
		"ReadedExpiredTime": 259200,
		"GotDeleted": true,
		"GameFunctionType": "GameFunctionType_ExchangeGiftCDKey"
	},
	{
		"ID": 102,
		"Title": "Legion of Glory Gift",
		"Content": "Dear Commander:\nThank you for supporting us. We wish you some happy gaming! Attached is a gift from the Legion of Glory. We hope you like it!",
		"Attachments": [
			{
				"GoodsType": "GoodsType_Gold",
				"Id": 0,
				"Count": 1000
			},
			{
				"GoodsType": "GoodsType_Item",
				"Id": 3002,
				"Count": 10
			}
		],
		"ExpiredTime": 259200,
		"ReadedExpiredTime": 259200,
		"GotDeleted": true,
		"GameFunctionType": "GameFunctionType_ExchangeGiftCDKey"
	},
	{
		"ID": 103,
		"Title": "Legion of Glory Gift",
		"Content": "Dear Commander:\nThank you for supporting us. We wish you some happy gaming! Attached is a gift from the Legion of Glory. We hope you like it!",
		"Attachments": [
			{
				"GoodsType": "GoodsType_Gold",
				"Id": 0,
				"Count": 1666
			},
			{
				"GoodsType": "GoodsType_Item",
				"Id": 4000,
				"Count": 1
			}
		],
		"ExpiredTime": 259200,
		"ReadedExpiredTime": 259200,
		"GotDeleted": true,
		"GameFunctionType": "GameFunctionType_ExchangeGiftCDKey"
	},
	{
		"ID": 104,
		"Title": "Legion of Glory Gift",
		"Content": "Dear Commander:\nThank you for supporting us. We wish you some happy gaming! Attached is a gift from the Legion of Glory. We hope you like it!",
		"Attachments": [
			{
				"GoodsType": "GoodsType_Gold",
				"Id": 0,
				"Count": 2000
			},
			{
				"GoodsType": "GoodsType_Item",
				"Id": 3003,
				"Count": 10
			},
			{
				"GoodsType": "GoodsType_Equipment",
				"Id": 301,
				"Count": 5
			}
		],
		"ExpiredTime": 259200,
		"ReadedExpiredTime": 259200,
		"GotDeleted": true,
		"GameFunctionType": "GameFunctionType_ExchangeGiftCDKey"
	},
	{
		"ID": 105,
		"Title": "Legion of Glory Gift",
		"Content": "Dear Commander:\nThank you for supporting us. We wish you some happy gaming! Attached is a gift from the Legion of Glory. We hope you like it!",
		"Attachments": [
			{
				"GoodsType": "GoodsType_Gold",
				"Id": 0,
				"Count": 3888
			},
			{
				"GoodsType": "GoodsType_Item",
				"Id": 4000,
				"Count": 2
			},
			{
				"GoodsType": "GoodsType_Equipment",
				"Id": 301,
				"Count": 2
			}
		],
		"ExpiredTime": 259200,
		"ReadedExpiredTime": 259200,
		"GotDeleted": true,
		"GameFunctionType": "GameFunctionType_ExchangeGiftCDKey"
	},
	{
		"ID": 106,
		"Title": "Legion of Glory Gift",
		"Content": "Dear Commander:\nThank you for supporting us. We wish you some happy gaming! Attached is a gift from the Legion of Glory. We hope you like it!",
		"Attachments": [
			{
				"GoodsType": "GoodsType_Gold",
				"Id": 0,
				"Count": 5000
			},
			{
				"GoodsType": "GoodsType_Equipment",
				"Id": 302,
				"Count": 5
			},
			{
				"GoodsType": "GoodsType_Item",
				"Id": 3003,
				"Count": 10
			}
		],
		"ExpiredTime": 259200,
		"ReadedExpiredTime": 259200,
		"GotDeleted": true,
		"GameFunctionType": "GameFunctionType_ExchangeGiftCDKey"
	},
	{
		"ID": 107,
		"Title": "Legion of Glory Gift",
		"Content": "Dear Commander:\nThank you for supporting us. We wish you some happy gaming! Attached is a gift from the Legion of Glory. We hope you like it!",
		"Attachments": [
			{
				"GoodsType": "GoodsType_Gold",
				"Id": 0,
				"Count": 6666
			},
			{
				"GoodsType": "GoodsType_Item",
				"Id": 4000,
				"Count": 3
			},
			{
				"GoodsType": "GoodsType_Item",
				"Id": 3101,
				"Count": 1
			}
		],
		"ExpiredTime": 259200,
		"ReadedExpiredTime": 259200,
		"GotDeleted": true,
		"GameFunctionType": "GameFunctionType_ExchangeGiftCDKey"
	},
	{
		"ID": 108,
		"Title": "Legion of Glory Gift",
		"Content": "Dear Commander:\nThank you for supporting us. We wish you some happy gaming! Attached is a gift from the Legion of Glory. We hope you like it!",
		"Attachments": [
			{
				"GoodsType": "GoodsType_Gold",
				"Id": 0,
				"Count": 8888
			},
			{
				"GoodsType": "GoodsType_Item",
				"Id": 3004,
				"Count": 5
			},
			{
				"GoodsType": "GoodsType_Item",
				"Id": 4000,
				"Count": 3
			}
		],
		"ExpiredTime": 259200,
		"ReadedExpiredTime": 259200,
		"GotDeleted": true,
		"GameFunctionType": "GameFunctionType_ExchangeGiftCDKey"
	},
	{
		"ID": 109,
		"Title": "Legion of Glory Gift",
		"Content": "Dear Commander:\nThank you for supporting us. We wish you some happy gaming! Attached is a gift from the Legion of Glory. We hope you like it!",
		"Attachments": [
			{
				"GoodsType": "GoodsType_Gold",
				"Id": 0,
				"Count": 10000
			},
			{
				"GoodsType": "GoodsType_Item",
				"Id": 4000,
				"Count": 4
			},
			{
				"GoodsType": "GoodsType_Equipment",
				"Id": 303,
				"Count": 4
			}
		],
		"ExpiredTime": 259200,
		"ReadedExpiredTime": 259200,
		"GotDeleted": true,
		"GameFunctionType": "GameFunctionType_ExchangeGiftCDKey"
	},
	{
		"ID": 110,
		"Title": "Legion of Glory Gift",
		"Content": "Dear Commander:\nThank you for supporting us. We wish you some happy gaming! Attached is a gift from the Legion of Glory. We hope you like it!",
		"Attachments": [
			{
				"GoodsType": "GoodsType_Gold",
				"Id": 0,
				"Count": 11111
			},
			{
				"GoodsType": "GoodsType_Item",
				"Id": 4000,
				"Count": 8
			},
			{
				"GoodsType": "GoodsType_Item",
				"Id": 3101,
				"Count": 5
			}
		],
		"ExpiredTime": 259200,
		"ReadedExpiredTime": 259200,
		"GotDeleted": true,
		"GameFunctionType": "GameFunctionType_ExchangeGiftCDKey"
	},
	{
		"ID": 111,
		"Title": "Legion of Glory Gift",
		"Content": "Dear Commander:\nThank you for supporting us. We wish you some happy gaming! Attached is a gift from the Legion of Glory. We hope you like it!",
		"Attachments": [
			{
				"GoodsType": "GoodsType_Gold",
				"Id": 0,
				"Count": 16888
			},
			{
				"GoodsType": "GoodsType_Item",
				"Id": 4001,
				"Count": 1
			},
			{
				"GoodsType": "GoodsType_Item",
				"Id": 4000,
				"Count": 3
			}
		],
		"ExpiredTime": 259200,
		"ReadedExpiredTime": 259200,
		"GotDeleted": true,
		"GameFunctionType": "GameFunctionType_ExchangeGiftCDKey"
	},
	{
		"ID": 112,
		"Title": "Legion of Glory Gift",
		"Content": "Dear Commander:\nThank you for supporting us. We wish you some happy gaming! Attached is a gift from the Legion of Glory. We hope you like it!",
		"Attachments": [
			{
				"GoodsType": "GoodsType_Gold",
				"Id": 0,
				"Count": 10000
			},
			{
				"GoodsType": "GoodsType_Item",
				"Id": 4000,
				"Count": 3
			},
			{
				"GoodsType": "GoodsType_Item",
				"Id": 3004,
				"Count": 5
			},
			{
				"GoodsType": "GoodsType_Item",
				"Id": 4001,
				"Count": 1
			}
		],
		"ExpiredTime": 259200,
		"ReadedExpiredTime": 259200,
		"GotDeleted": true,
		"GameFunctionType": "GameFunctionType_ExchangeGiftCDKey"
	},
	{
		"ID": 113,
		"Title": "Legion of Glory Gift",
		"Content": "Dear Commander:\nThank you for supporting us. We wish you some happy gaming! Attached is a gift from the Legion of Glory. We hope you like it!",
		"Attachments": [
			{
				"GoodsType": "GoodsType_SoldierSkin",
				"Id": 20002,
				"Count": 1
			},
			{
				"GoodsType": "GoodsType_Gold",
				"Id": 0,
				"Count": 10000
			},
			{
				"GoodsType": "GoodsType_Item",
				"Id": 4000,
				"Count": 3
			},
			{
				"GoodsType": "GoodsType_Item",
				"Id": 3004,
				"Count": 5
			},
			{
				"GoodsType": "GoodsType_Item",
				"Id": 4001,
				"Count": 1
			}
		],
		"ExpiredTime": 259200,
		"ReadedExpiredTime": 259200,
		"GotDeleted": true,
		"GameFunctionType": "GameFunctionType_ExchangeGiftCDKey"
	},
	{
		"ID": 114,
		"Title": "Legion of Glory Gift",
		"Content": "Dear Commander:\nThank you for supporting us. We wish you some happy gaming! Attached is a gift from the Legion of Glory. We hope you like it!",
		"Attachments": [
			{
				"GoodsType": "GoodsType_SoldierSkin",
				"Id": 20003,
				"Count": 1
			},
			{
				"GoodsType": "GoodsType_Gold",
				"Id": 0,
				"Count": 10000
			},
			{
				"GoodsType": "GoodsType_Item",
				"Id": 4000,
				"Count": 3
			},
			{
				"GoodsType": "GoodsType_Item",
				"Id": 3004,
				"Count": 5
			},
			{
				"GoodsType": "GoodsType_Item",
				"Id": 4001,
				"Count": 1
			}
		],
		"ExpiredTime": 259200,
		"ReadedExpiredTime": 259200,
		"GotDeleted": true,
		"GameFunctionType": "GameFunctionType_ExchangeGiftCDKey"
	},
	{
		"ID": 115,
		"Title": "Legion of Glory Gift",
		"Content": "Dear Commander:\nThank you for supporting us. We wish you some happy gaming! Attached is a gift from the Legion of Glory. We hope you like it!",
		"Attachments": [
			{
				"GoodsType": "GoodsType_Gold",
				"Id": 0,
				"Count": 40000
			},
			{
				"GoodsType": "GoodsType_Item",
				"Id": 4001,
				"Count": 1
			},
			{
				"GoodsType": "GoodsType_Equipment",
				"Id": 301,
				"Count": 10
			}
		],
		"ExpiredTime": 259200,
		"ReadedExpiredTime": 259200,
		"GotDeleted": true,
		"GameFunctionType": "GameFunctionType_ExchangeGiftCDKey"
	},
	{
		"ID": 116,
		"Title": "Legion of Glory Gift",
		"Content": "Dear Commander:\nThank you for supporting us. We wish you some happy gaming! Attached is a gift from the Legion of Glory. We hope you like it!",
		"Attachments": [
			{
				"GoodsType": "GoodsType_Gold",
				"Id": 0,
				"Count": 32000
			},
			{
				"GoodsType": "GoodsType_Item",
				"Id": 4001,
				"Count": 1
			},
			{
				"GoodsType": "GoodsType_Item",
				"Id": 4000,
				"Count": 3
			}
		],
		"ExpiredTime": 259200,
		"ReadedExpiredTime": 259200,
		"GotDeleted": true,
		"GameFunctionType": "GameFunctionType_ExchangeGiftCDKey"
	},
	{
		"ID": 117,
		"Title": "Guild Battle Stronghold Domination Reward",
		"Content": "Dear Commander: \nYour Guild dominated [0] strongholds and earned Domination Rewards!",
		"ExpiredTime": 259200,
		"ReadedExpiredTime": 259200,
		"GotDeleted": true,
		"GameFunctionType": "GameFunctionType_GuildMassiveCombat"
	},
	{
		"ID": 118,
		"Title": "Guild Battle Total Domination Reward",
		"Content": "Dear Commander: \nYour Guild reached a Domination Progress of [0]%! Your rewards have been sent to you!",
		"ExpiredTime": 259200,
		"ReadedExpiredTime": 259200,
		"GotDeleted": true,
		"GameFunctionType": "GameFunctionType_GuildMassiveCombat"
	}
]