[
	{
		"ID": 1,
		"Name": "英雄的决意30",
		"PreLevel": 0,
		"EnergySuccess": 10,
		"EnergyFail": 2,
		"MonsterLevel": 30,
		"BattleID": 6001,
		"PlayerExp": 10,
		"HeroExp": 50,
		"Gold": 531,
		"DropID": 7001,
		"FirstClearDropItems": [
			{
				"GoodsType": "GoodsType_Item",
				"Id": 1012,
				"Count": 10
			},
			{
				"GoodsType": "GoodsType_Item",
				"Id": 3003,
				"Count": 1
			},
			{
				"GoodsType": "GoodsType_Item",
				"Id": 3100,
				"Count": 1
			},
			{
				"GoodsType": "GoodsType_Item",
				"Id": 3002,
				"Count": 2
			}
		],
		"DisplayRewardCount": 2,
		"Achievement1ID": 6018,
		"Achievement1BonusItem": [
			{
				"GoodsType": "GoodsType_Item",
				"Id": 1012,
				"Count": 3
			}
		],
		"Achievement2ID": 6019,
		"Achievement2BonusItem": [
			{
				"GoodsType": "GoodsType_Item",
				"Id": 1012,
				"Count": 3
			}
		],
		"Achievement3ID": 6020,
		"Achievement3BonusItem": [
			{
				"GoodsType": "GoodsType_Item",
				"Id": 1012,
				"Count": 3
			}
		],
		"Strategy": ""
	},
	{
		"ID": 2,
		"Name": "英雄的决意40",
		"PreLevel": 1,
		"EnergySuccess": 10,
		"EnergyFail": 2,
		"MonsterLevel": 40,
		"BattleID": 6002,
		"PlayerExp": 10,
		"HeroExp": 60,
		"Gold": 752,
		"DropID": 7002,
		"FirstClearDropItems": [
			{
				"GoodsType": "GoodsType_Item",
				"Id": 1012,
				"Count": 10
			},
			{
				"GoodsType": "GoodsType_Item",
				"Id": 3003,
				"Count": 2
			},
			{
				"GoodsType": "GoodsType_Item",
				"Id": 3101,
				"Count": 1
			},
			{
				"GoodsType": "GoodsType_Item",
				"Id": 3002,
				"Count": 5
			}
		],
		"DisplayRewardCount": 2,
		"Achievement1ID": 6003,
		"Achievement1BonusItem": [
			{
				"GoodsType": "GoodsType_Item",
				"Id": 1012,
				"Count": 3
			}
		],
		"Achievement2ID": 6004,
		"Achievement2BonusItem": [
			{
				"GoodsType": "GoodsType_Item",
				"Id": 1012,
				"Count": 3
			}
		],
		"Achievement3ID": 6005,
		"Achievement3BonusItem": [
			{
				"GoodsType": "GoodsType_Item",
				"Id": 1012,
				"Count": 3
			}
		],
		"Strategy": ""
	},
	{
		"ID": 3,
		"Name": "英雄的决意50",
		"PreLevel": 2,
		"EnergySuccess": 10,
		"EnergyFail": 2,
		"MonsterLevel": 50,
		"BattleID": 6003,
		"PlayerExp": 10,
		"HeroExp": 70,
		"Gold": 1004,
		"DropID": 7003,
		"FirstClearDropItems": [
			{
				"GoodsType": "GoodsType_Item",
				"Id": 1012,
				"Count": 10
			},
			{
				"GoodsType": "GoodsType_Item",
				"Id": 3003,
				"Count": 3
			},
			{
				"GoodsType": "GoodsType_Item",
				"Id": 3101,
				"Count": 2
			},
			{
				"GoodsType": "GoodsType_Item",
				"Id": 3003,
				"Count": 1
			}
		],
		"DisplayRewardCount": 2,
		"Achievement1ID": 6006,
		"Achievement1BonusItem": [
			{
				"GoodsType": "GoodsType_Item",
				"Id": 1012,
				"Count": 4
			}
		],
		"Achievement2ID": 6007,
		"Achievement2BonusItem": [
			{
				"GoodsType": "GoodsType_Item",
				"Id": 1012,
				"Count": 4
			}
		],
		"Achievement3ID": 6008,
		"Achievement3BonusItem": [
			{
				"GoodsType": "GoodsType_Item",
				"Id": 1012,
				"Count": 4
			}
		],
		"Strategy": ""
	},
	{
		"ID": 4,
		"Name": "英雄的决意60",
		"PreLevel": 3,
		"EnergySuccess": 10,
		"EnergyFail": 2,
		"MonsterLevel": 60,
		"BattleID": 6003,
		"PlayerExp": 10,
		"HeroExp": 80,
		"Gold": 1282,
		"DropID": 7004,
		"FirstClearDropItems": [
			{
				"GoodsType": "GoodsType_Item",
				"Id": 1012,
				"Count": 10
			},
			{
				"GoodsType": "GoodsType_Item",
				"Id": 3003,
				"Count": 4
			},
			{
				"GoodsType": "GoodsType_Item",
				"Id": 3101,
				"Count": 3
			},
			{
				"GoodsType": "GoodsType_Item",
				"Id": 3003,
				"Count": 2
			}
		],
		"DisplayRewardCount": 2,
		"Achievement1ID": 6006,
		"Achievement1BonusItem": [
			{
				"GoodsType": "GoodsType_Item",
				"Id": 1012,
				"Count": 4
			}
		],
		"Achievement2ID": 6007,
		"Achievement2BonusItem": [
			{
				"GoodsType": "GoodsType_Item",
				"Id": 1012,
				"Count": 4
			}
		],
		"Achievement3ID": 6008,
		"Achievement3BonusItem": [
			{
				"GoodsType": "GoodsType_Item",
				"Id": 1012,
				"Count": 4
			}
		],
		"Strategy": ""
	},
	{
		"ID": 11,
		"Name": "元帅的复仇30",
		"PreLevel": 0,
		"EnergySuccess": 10,
		"EnergyFail": 2,
		"MonsterLevel": 30,
		"BattleID": 6011,
		"PlayerExp": 11,
		"HeroExp": 55,
		"Gold": 584,
		"DropID": 7005,
		"FirstClearDropItems": [
			{
				"GoodsType": "GoodsType_Item",
				"Id": 1025,
				"Count": 10
			},
			{
				"GoodsType": "GoodsType_Item",
				"Id": 3003,
				"Count": 1
			},
			{
				"GoodsType": "GoodsType_Item",
				"Id": 3100,
				"Count": 1
			},
			{
				"GoodsType": "GoodsType_Item",
				"Id": 3002,
				"Count": 2
			}
		],
		"DisplayRewardCount": 2,
		"Achievement1ID": 6021,
		"Achievement1BonusItem": [
			{
				"GoodsType": "GoodsType_Item",
				"Id": 1025,
				"Count": 3
			}
		],
		"Achievement2ID": 6022,
		"Achievement2BonusItem": [
			{
				"GoodsType": "GoodsType_Item",
				"Id": 1025,
				"Count": 3
			}
		],
		"Achievement3ID": 6023,
		"Achievement3BonusItem": [
			{
				"GoodsType": "GoodsType_Item",
				"Id": 1025,
				"Count": 3
			}
		],
		"Strategy": ""
	},
	{
		"ID": 12,
		"Name": "元帅的复仇40",
		"PreLevel": 11,
		"EnergySuccess": 10,
		"EnergyFail": 2,
		"MonsterLevel": 40,
		"BattleID": 6012,
		"PlayerExp": 10,
		"HeroExp": 60,
		"Gold": 752,
		"DropID": 7006,
		"FirstClearDropItems": [
			{
				"GoodsType": "GoodsType_Item",
				"Id": 1025,
				"Count": 10
			},
			{
				"GoodsType": "GoodsType_Item",
				"Id": 3003,
				"Count": 2
			},
			{
				"GoodsType": "GoodsType_Item",
				"Id": 3101,
				"Count": 1
			},
			{
				"GoodsType": "GoodsType_Item",
				"Id": 3002,
				"Count": 5
			}
		],
		"DisplayRewardCount": 2,
		"Achievement1ID": 6012,
		"Achievement1BonusItem": [
			{
				"GoodsType": "GoodsType_Item",
				"Id": 1025,
				"Count": 3
			}
		],
		"Achievement2ID": 6013,
		"Achievement2BonusItem": [
			{
				"GoodsType": "GoodsType_Item",
				"Id": 1025,
				"Count": 3
			}
		],
		"Achievement3ID": 6014,
		"Achievement3BonusItem": [
			{
				"GoodsType": "GoodsType_Item",
				"Id": 1025,
				"Count": 3
			}
		],
		"Strategy": ""
	},
	{
		"ID": 13,
		"Name": "元帅的复仇50",
		"PreLevel": 12,
		"EnergySuccess": 10,
		"EnergyFail": 2,
		"MonsterLevel": 50,
		"BattleID": 6013,
		"PlayerExp": 10,
		"HeroExp": 70,
		"Gold": 1004,
		"DropID": 7007,
		"FirstClearDropItems": [
			{
				"GoodsType": "GoodsType_Item",
				"Id": 1025,
				"Count": 10
			},
			{
				"GoodsType": "GoodsType_Item",
				"Id": 3003,
				"Count": 3
			},
			{
				"GoodsType": "GoodsType_Item",
				"Id": 3101,
				"Count": 2
			},
			{
				"GoodsType": "GoodsType_Item",
				"Id": 3003,
				"Count": 1
			}
		],
		"DisplayRewardCount": 2,
		"Achievement1ID": 6015,
		"Achievement1BonusItem": [
			{
				"GoodsType": "GoodsType_Item",
				"Id": 1025,
				"Count": 4
			}
		],
		"Achievement2ID": 6016,
		"Achievement2BonusItem": [
			{
				"GoodsType": "GoodsType_Item",
				"Id": 1025,
				"Count": 4
			}
		],
		"Achievement3ID": 6017,
		"Achievement3BonusItem": [
			{
				"GoodsType": "GoodsType_Item",
				"Id": 1025,
				"Count": 4
			}
		],
		"Strategy": ""
	},
	{
		"ID": 14,
		"Name": "元帅的复仇60",
		"PreLevel": 13,
		"EnergySuccess": 10,
		"EnergyFail": 2,
		"MonsterLevel": 60,
		"BattleID": 6013,
		"PlayerExp": 10,
		"HeroExp": 80,
		"Gold": 1282,
		"DropID": 7008,
		"FirstClearDropItems": [
			{
				"GoodsType": "GoodsType_Item",
				"Id": 1025,
				"Count": 10
			},
			{
				"GoodsType": "GoodsType_Item",
				"Id": 3003,
				"Count": 4
			},
			{
				"GoodsType": "GoodsType_Item",
				"Id": 3101,
				"Count": 3
			},
			{
				"GoodsType": "GoodsType_Item",
				"Id": 3003,
				"Count": 2
			}
		],
		"DisplayRewardCount": 2,
		"Achievement1ID": 6015,
		"Achievement1BonusItem": [
			{
				"GoodsType": "GoodsType_Item",
				"Id": 1025,
				"Count": 4
			}
		],
		"Achievement2ID": 6016,
		"Achievement2BonusItem": [
			{
				"GoodsType": "GoodsType_Item",
				"Id": 1025,
				"Count": 4
			}
		],
		"Achievement3ID": 6017,
		"Achievement3BonusItem": [
			{
				"GoodsType": "GoodsType_Item",
				"Id": 1025,
				"Count": 4
			}
		],
		"Strategy": ""
	},
	{
		"ID": 21,
		"Name": "魔族之血20",
		"PreLevel": 0,
		"EnergySuccess": 10,
		"EnergyFail": 2,
		"MonsterLevel": 20,
		"BattleID": 6014,
		"PlayerExp": 10,
		"HeroExp": 40,
		"Gold": 344,
		"DropID": 7009,
		"FirstClearDropItems": [
			{
				"GoodsType": "GoodsType_Item",
				"Id": 1020,
				"Count": 10
			},
			{
				"GoodsType": "GoodsType_Item",
				"Id": 3002,
				"Count": 3
			},
			{
				"GoodsType": "GoodsType_Item",
				"Id": 3100,
				"Count": 1
			},
			{
				"GoodsType": "GoodsType_Item",
				"Id": 3002,
				"Count": 1
			}
		],
		"DisplayRewardCount": 2,
		"Achievement1ID": 6050,
		"Achievement1BonusItem": [
			{
				"GoodsType": "GoodsType_Item",
				"Id": 1020,
				"Count": 3
			}
		],
		"Achievement2ID": 6051,
		"Achievement2BonusItem": [
			{
				"GoodsType": "GoodsType_Item",
				"Id": 1020,
				"Count": 3
			}
		],
		"Achievement3ID": 6052,
		"Achievement3BonusItem": [
			{
				"GoodsType": "GoodsType_Item",
				"Id": 1020,
				"Count": 3
			}
		],
		"Strategy": ""
	},
	{
		"ID": 22,
		"Name": "魔族之血30",
		"PreLevel": 21,
		"EnergySuccess": 10,
		"EnergyFail": 2,
		"MonsterLevel": 30,
		"BattleID": 6015,
		"PlayerExp": 10,
		"HeroExp": 50,
		"Gold": 531,
		"DropID": 7010,
		"FirstClearDropItems": [
			{
				"GoodsType": "GoodsType_Item",
				"Id": 1020,
				"Count": 10
			},
			{
				"GoodsType": "GoodsType_Item",
				"Id": 3003,
				"Count": 1
			},
			{
				"GoodsType": "GoodsType_Item",
				"Id": 3100,
				"Count": 1
			},
			{
				"GoodsType": "GoodsType_Item",
				"Id": 3002,
				"Count": 2
			}
		],
		"DisplayRewardCount": 2,
		"Achievement1ID": 6053,
		"Achievement1BonusItem": [
			{
				"GoodsType": "GoodsType_Item",
				"Id": 1020,
				"Count": 3
			}
		],
		"Achievement2ID": 6054,
		"Achievement2BonusItem": [
			{
				"GoodsType": "GoodsType_Item",
				"Id": 1020,
				"Count": 3
			}
		],
		"Achievement3ID": 6055,
		"Achievement3BonusItem": [
			{
				"GoodsType": "GoodsType_Item",
				"Id": 1020,
				"Count": 3
			}
		],
		"Strategy": ""
	},
	{
		"ID": 23,
		"Name": "魔族之血40",
		"PreLevel": 22,
		"EnergySuccess": 10,
		"EnergyFail": 2,
		"MonsterLevel": 40,
		"BattleID": 6016,
		"PlayerExp": 10,
		"HeroExp": 60,
		"Gold": 752,
		"DropID": 7011,
		"FirstClearDropItems": [
			{
				"GoodsType": "GoodsType_Item",
				"Id": 1020,
				"Count": 10
			},
			{
				"GoodsType": "GoodsType_Item",
				"Id": 3003,
				"Count": 2
			},
			{
				"GoodsType": "GoodsType_Item",
				"Id": 3101,
				"Count": 1
			},
			{
				"GoodsType": "GoodsType_Item",
				"Id": 3002,
				"Count": 5
			}
		],
		"DisplayRewardCount": 2,
		"Achievement1ID": 6056,
		"Achievement1BonusItem": [
			{
				"GoodsType": "GoodsType_Item",
				"Id": 1020,
				"Count": 4
			}
		],
		"Achievement2ID": 6057,
		"Achievement2BonusItem": [
			{
				"GoodsType": "GoodsType_Item",
				"Id": 1020,
				"Count": 4
			}
		],
		"Achievement3ID": 6058,
		"Achievement3BonusItem": [
			{
				"GoodsType": "GoodsType_Item",
				"Id": 1020,
				"Count": 4
			}
		],
		"Strategy": ""
	},
	{
		"ID": 24,
		"Name": "魔族之血50",
		"PreLevel": 23,
		"EnergySuccess": 10,
		"EnergyFail": 2,
		"MonsterLevel": 50,
		"BattleID": 6034,
		"PlayerExp": 10,
		"HeroExp": 70,
		"Gold": 1004,
		"DropID": 7012,
		"FirstClearDropItems": [
			{
				"GoodsType": "GoodsType_Item",
				"Id": 1020,
				"Count": 10
			},
			{
				"GoodsType": "GoodsType_Item",
				"Id": 3003,
				"Count": 3
			},
			{
				"GoodsType": "GoodsType_Item",
				"Id": 3101,
				"Count": 2
			},
			{
				"GoodsType": "GoodsType_Item",
				"Id": 3003,
				"Count": 1
			}
		],
		"DisplayRewardCount": 2,
		"Achievement1ID": 6059,
		"Achievement1BonusItem": [
			{
				"GoodsType": "GoodsType_Item",
				"Id": 1020,
				"Count": 4
			}
		],
		"Achievement2ID": 6060,
		"Achievement2BonusItem": [
			{
				"GoodsType": "GoodsType_Item",
				"Id": 1020,
				"Count": 4
			}
		],
		"Achievement3ID": 6061,
		"Achievement3BonusItem": [
			{
				"GoodsType": "GoodsType_Item",
				"Id": 1020,
				"Count": 4
			}
		],
		"Strategy": ""
	},
	{
		"ID": 31,
		"Name": "暗之转生30",
		"PreLevel": 0,
		"EnergySuccess": 10,
		"EnergyFail": 2,
		"MonsterLevel": 30,
		"BattleID": 6017,
		"PlayerExp": 10,
		"HeroExp": 50,
		"Gold": 531,
		"DropID": 7013,
		"FirstClearDropItems": [
			{
				"GoodsType": "GoodsType_Item",
				"Id": 1009,
				"Count": 10
			},
			{
				"GoodsType": "GoodsType_Item",
				"Id": 3003,
				"Count": 1
			},
			{
				"GoodsType": "GoodsType_Item",
				"Id": 3100,
				"Count": 1
			},
			{
				"GoodsType": "GoodsType_Item",
				"Id": 3002,
				"Count": 2
			}
		],
		"DisplayRewardCount": 2,
		"Achievement1ID": 6080,
		"Achievement1BonusItem": [
			{
				"GoodsType": "GoodsType_Item",
				"Id": 1009,
				"Count": 3
			}
		],
		"Achievement2ID": 6081,
		"Achievement2BonusItem": [
			{
				"GoodsType": "GoodsType_Item",
				"Id": 1009,
				"Count": 3
			}
		],
		"Achievement3ID": 6082,
		"Achievement3BonusItem": [
			{
				"GoodsType": "GoodsType_Item",
				"Id": 1009,
				"Count": 3
			}
		],
		"Strategy": ""
	},
	{
		"ID": 32,
		"Name": "暗之转生40",
		"PreLevel": 31,
		"EnergySuccess": 10,
		"EnergyFail": 2,
		"MonsterLevel": 40,
		"BattleID": 6018,
		"PlayerExp": 10,
		"HeroExp": 60,
		"Gold": 752,
		"DropID": 7014,
		"FirstClearDropItems": [
			{
				"GoodsType": "GoodsType_Item",
				"Id": 1009,
				"Count": 10
			},
			{
				"GoodsType": "GoodsType_Item",
				"Id": 3003,
				"Count": 2
			},
			{
				"GoodsType": "GoodsType_Item",
				"Id": 3101,
				"Count": 1
			},
			{
				"GoodsType": "GoodsType_Item",
				"Id": 3002,
				"Count": 5
			}
		],
		"DisplayRewardCount": 2,
		"Achievement1ID": 6083,
		"Achievement1BonusItem": [
			{
				"GoodsType": "GoodsType_Item",
				"Id": 1009,
				"Count": 3
			}
		],
		"Achievement2ID": 6084,
		"Achievement2BonusItem": [
			{
				"GoodsType": "GoodsType_Item",
				"Id": 1009,
				"Count": 3
			}
		],
		"Achievement3ID": 6085,
		"Achievement3BonusItem": [
			{
				"GoodsType": "GoodsType_Item",
				"Id": 1009,
				"Count": 3
			}
		],
		"Strategy": ""
	},
	{
		"ID": 33,
		"Name": "暗之转生50",
		"PreLevel": 32,
		"EnergySuccess": 10,
		"EnergyFail": 2,
		"MonsterLevel": 50,
		"BattleID": 6019,
		"PlayerExp": 10,
		"HeroExp": 70,
		"Gold": 1004,
		"DropID": 7015,
		"FirstClearDropItems": [
			{
				"GoodsType": "GoodsType_Item",
				"Id": 1009,
				"Count": 10
			},
			{
				"GoodsType": "GoodsType_Item",
				"Id": 3003,
				"Count": 3
			},
			{
				"GoodsType": "GoodsType_Item",
				"Id": 3101,
				"Count": 2
			},
			{
				"GoodsType": "GoodsType_Item",
				"Id": 3003,
				"Count": 1
			}
		],
		"DisplayRewardCount": 2,
		"Achievement1ID": 6086,
		"Achievement1BonusItem": [
			{
				"GoodsType": "GoodsType_Item",
				"Id": 1009,
				"Count": 4
			}
		],
		"Achievement2ID": 6087,
		"Achievement2BonusItem": [
			{
				"GoodsType": "GoodsType_Item",
				"Id": 1009,
				"Count": 4
			}
		],
		"Achievement3ID": 6088,
		"Achievement3BonusItem": [
			{
				"GoodsType": "GoodsType_Item",
				"Id": 1009,
				"Count": 4
			}
		],
		"Strategy": ""
	},
	{
		"ID": 34,
		"Name": "暗之转生60",
		"PreLevel": 33,
		"EnergySuccess": 10,
		"EnergyFail": 2,
		"MonsterLevel": 60,
		"BattleID": 6019,
		"PlayerExp": 10,
		"HeroExp": 80,
		"Gold": 1282,
		"DropID": 7016,
		"FirstClearDropItems": [
			{
				"GoodsType": "GoodsType_Item",
				"Id": 1009,
				"Count": 10
			},
			{
				"GoodsType": "GoodsType_Item",
				"Id": 3003,
				"Count": 4
			},
			{
				"GoodsType": "GoodsType_Item",
				"Id": 3101,
				"Count": 3
			},
			{
				"GoodsType": "GoodsType_Item",
				"Id": 3003,
				"Count": 2
			}
		],
		"DisplayRewardCount": 2,
		"Achievement1ID": 6006,
		"Achievement1BonusItem": [
			{
				"GoodsType": "GoodsType_Item",
				"Id": 1009,
				"Count": 4
			}
		],
		"Achievement2ID": 6007,
		"Achievement2BonusItem": [
			{
				"GoodsType": "GoodsType_Item",
				"Id": 1009,
				"Count": 4
			}
		],
		"Achievement3ID": 6008,
		"Achievement3BonusItem": [
			{
				"GoodsType": "GoodsType_Item",
				"Id": 1009,
				"Count": 4
			}
		],
		"Strategy": ""
	},
	{
		"ID": 41,
		"Name": "铁壁的公主-20",
		"PreLevel": 0,
		"EnergySuccess": 10,
		"EnergyFail": 2,
		"MonsterLevel": 20,
		"BattleID": 6035,
		"PlayerExp": 10,
		"HeroExp": 40,
		"Gold": 344,
		"DropID": 7017,
		"FirstClearDropItems": [
			{
				"GoodsType": "GoodsType_Item",
				"Id": 1033,
				"Count": 10
			},
			{
				"GoodsType": "GoodsType_Item",
				"Id": 3003,
				"Count": 1
			},
			{
				"GoodsType": "GoodsType_Item",
				"Id": 3100,
				"Count": 1
			},
			{
				"GoodsType": "GoodsType_Item",
				"Id": 3002,
				"Count": 2
			}
		],
		"DisplayRewardCount": 2,
		"Achievement1ID": 6089,
		"Achievement1BonusItem": [
			{
				"GoodsType": "GoodsType_Item",
				"Id": 1033,
				"Count": 3
			}
		],
		"Achievement2ID": 6090,
		"Achievement2BonusItem": [
			{
				"GoodsType": "GoodsType_Item",
				"Id": 1033,
				"Count": 3
			}
		],
		"Achievement3ID": 6091,
		"Achievement3BonusItem": [
			{
				"GoodsType": "GoodsType_Item",
				"Id": 1033,
				"Count": 3
			}
		],
		"Strategy": ""
	},
	{
		"ID": 42,
		"Name": "铁壁的公主-30",
		"PreLevel": 41,
		"EnergySuccess": 10,
		"EnergyFail": 2,
		"MonsterLevel": 30,
		"BattleID": 6036,
		"PlayerExp": 10,
		"HeroExp": 50,
		"Gold": 531,
		"DropID": 7018,
		"FirstClearDropItems": [
			{
				"GoodsType": "GoodsType_Item",
				"Id": 1033,
				"Count": 10
			},
			{
				"GoodsType": "GoodsType_Item",
				"Id": 3003,
				"Count": 2
			},
			{
				"GoodsType": "GoodsType_Item",
				"Id": 3101,
				"Count": 1
			},
			{
				"GoodsType": "GoodsType_Item",
				"Id": 3002,
				"Count": 5
			}
		],
		"DisplayRewardCount": 2,
		"Achievement1ID": 6092,
		"Achievement1BonusItem": [
			{
				"GoodsType": "GoodsType_Item",
				"Id": 1033,
				"Count": 3
			}
		],
		"Achievement2ID": 6093,
		"Achievement2BonusItem": [
			{
				"GoodsType": "GoodsType_Item",
				"Id": 1033,
				"Count": 3
			}
		],
		"Achievement3ID": 6094,
		"Achievement3BonusItem": [
			{
				"GoodsType": "GoodsType_Item",
				"Id": 1033,
				"Count": 3
			}
		],
		"Strategy": ""
	},
	{
		"ID": 43,
		"Name": "铁壁的公主-40",
		"PreLevel": 42,
		"EnergySuccess": 10,
		"EnergyFail": 2,
		"MonsterLevel": 40,
		"BattleID": 6037,
		"PlayerExp": 10,
		"HeroExp": 60,
		"Gold": 752,
		"DropID": 7019,
		"FirstClearDropItems": [
			{
				"GoodsType": "GoodsType_Item",
				"Id": 1033,
				"Count": 10
			},
			{
				"GoodsType": "GoodsType_Item",
				"Id": 3003,
				"Count": 3
			},
			{
				"GoodsType": "GoodsType_Item",
				"Id": 3101,
				"Count": 2
			},
			{
				"GoodsType": "GoodsType_Item",
				"Id": 3003,
				"Count": 1
			}
		],
		"DisplayRewardCount": 2,
		"Achievement1ID": 6095,
		"Achievement1BonusItem": [
			{
				"GoodsType": "GoodsType_Item",
				"Id": 1033,
				"Count": 4
			}
		],
		"Achievement2ID": 6096,
		"Achievement2BonusItem": [
			{
				"GoodsType": "GoodsType_Item",
				"Id": 1033,
				"Count": 4
			}
		],
		"Achievement3ID": 6097,
		"Achievement3BonusItem": [
			{
				"GoodsType": "GoodsType_Item",
				"Id": 1033,
				"Count": 4
			}
		],
		"Strategy": ""
	},
	{
		"ID": 44,
		"Name": "铁壁的公主-50",
		"PreLevel": 43,
		"EnergySuccess": 10,
		"EnergyFail": 2,
		"MonsterLevel": 50,
		"BattleID": 6038,
		"PlayerExp": 10,
		"HeroExp": 70,
		"Gold": 1004,
		"DropID": 7020,
		"FirstClearDropItems": [
			{
				"GoodsType": "GoodsType_Item",
				"Id": 1033,
				"Count": 10
			},
			{
				"GoodsType": "GoodsType_Item",
				"Id": 3003,
				"Count": 4
			},
			{
				"GoodsType": "GoodsType_Item",
				"Id": 3101,
				"Count": 3
			},
			{
				"GoodsType": "GoodsType_Item",
				"Id": 3003,
				"Count": 2
			}
		],
		"DisplayRewardCount": 2,
		"Achievement1ID": 6098,
		"Achievement1BonusItem": [
			{
				"GoodsType": "GoodsType_Item",
				"Id": 1033,
				"Count": 4
			}
		],
		"Achievement2ID": 6099,
		"Achievement2BonusItem": [
			{
				"GoodsType": "GoodsType_Item",
				"Id": 1033,
				"Count": 4
			}
		],
		"Achievement3ID": 6100,
		"Achievement3BonusItem": [
			{
				"GoodsType": "GoodsType_Item",
				"Id": 1033,
				"Count": 4
			}
		],
		"Strategy": ""
	},
	{
		"ID": 51,
		"Name": "魔法的轨迹-20",
		"PreLevel": 0,
		"EnergySuccess": 10,
		"EnergyFail": 2,
		"MonsterLevel": 20,
		"BattleID": 6039,
		"PlayerExp": 10,
		"HeroExp": 40,
		"Gold": 344,
		"DropID": 7021,
		"FirstClearDropItems": [
			{
				"GoodsType": "GoodsType_Item",
				"Id": 1030,
				"Count": 10
			},
			{
				"GoodsType": "GoodsType_Item",
				"Id": 3003,
				"Count": 1
			},
			{
				"GoodsType": "GoodsType_Item",
				"Id": 3100,
				"Count": 1
			},
			{
				"GoodsType": "GoodsType_Item",
				"Id": 3002,
				"Count": 2
			}
		],
		"DisplayRewardCount": 2,
		"Achievement1ID": 6101,
		"Achievement1BonusItem": [
			{
				"GoodsType": "GoodsType_Item",
				"Id": 1030,
				"Count": 3
			}
		],
		"Achievement2ID": 6102,
		"Achievement2BonusItem": [
			{
				"GoodsType": "GoodsType_Item",
				"Id": 1030,
				"Count": 3
			}
		],
		"Achievement3ID": 6103,
		"Achievement3BonusItem": [
			{
				"GoodsType": "GoodsType_Item",
				"Id": 1030,
				"Count": 3
			}
		],
		"Strategy": ""
	},
	{
		"ID": 52,
		"Name": "魔法的轨迹-30",
		"PreLevel": 51,
		"EnergySuccess": 10,
		"EnergyFail": 2,
		"MonsterLevel": 30,
		"BattleID": 6040,
		"PlayerExp": 10,
		"HeroExp": 50,
		"Gold": 531,
		"DropID": 7022,
		"FirstClearDropItems": [
			{
				"GoodsType": "GoodsType_Item",
				"Id": 1030,
				"Count": 10
			},
			{
				"GoodsType": "GoodsType_Item",
				"Id": 3003,
				"Count": 2
			},
			{
				"GoodsType": "GoodsType_Item",
				"Id": 3101,
				"Count": 1
			},
			{
				"GoodsType": "GoodsType_Item",
				"Id": 3002,
				"Count": 5
			}
		],
		"DisplayRewardCount": 2,
		"Achievement1ID": 6104,
		"Achievement1BonusItem": [
			{
				"GoodsType": "GoodsType_Item",
				"Id": 1030,
				"Count": 3
			}
		],
		"Achievement2ID": 6105,
		"Achievement2BonusItem": [
			{
				"GoodsType": "GoodsType_Item",
				"Id": 1030,
				"Count": 3
			}
		],
		"Achievement3ID": 6106,
		"Achievement3BonusItem": [
			{
				"GoodsType": "GoodsType_Item",
				"Id": 1030,
				"Count": 3
			}
		],
		"Strategy": ""
	},
	{
		"ID": 53,
		"Name": "魔法的轨迹-40",
		"PreLevel": 52,
		"EnergySuccess": 10,
		"EnergyFail": 2,
		"MonsterLevel": 40,
		"BattleID": 6041,
		"PlayerExp": 10,
		"HeroExp": 60,
		"Gold": 752,
		"DropID": 7023,
		"FirstClearDropItems": [
			{
				"GoodsType": "GoodsType_Item",
				"Id": 1030,
				"Count": 10
			},
			{
				"GoodsType": "GoodsType_Item",
				"Id": 3003,
				"Count": 3
			},
			{
				"GoodsType": "GoodsType_Item",
				"Id": 3101,
				"Count": 2
			},
			{
				"GoodsType": "GoodsType_Item",
				"Id": 3003,
				"Count": 1
			}
		],
		"DisplayRewardCount": 2,
		"Achievement1ID": 6107,
		"Achievement1BonusItem": [
			{
				"GoodsType": "GoodsType_Item",
				"Id": 1030,
				"Count": 4
			}
		],
		"Achievement2ID": 6108,
		"Achievement2BonusItem": [
			{
				"GoodsType": "GoodsType_Item",
				"Id": 1030,
				"Count": 4
			}
		],
		"Achievement3ID": 6109,
		"Achievement3BonusItem": [
			{
				"GoodsType": "GoodsType_Item",
				"Id": 1030,
				"Count": 4
			}
		],
		"Strategy": ""
	},
	{
		"ID": 54,
		"Name": "魔法的轨迹-50",
		"PreLevel": 53,
		"EnergySuccess": 10,
		"EnergyFail": 2,
		"MonsterLevel": 50,
		"BattleID": 6042,
		"PlayerExp": 10,
		"HeroExp": 70,
		"Gold": 1004,
		"DropID": 7024,
		"FirstClearDropItems": [
			{
				"GoodsType": "GoodsType_Item",
				"Id": 1030,
				"Count": 10
			},
			{
				"GoodsType": "GoodsType_Item",
				"Id": 3003,
				"Count": 4
			},
			{
				"GoodsType": "GoodsType_Item",
				"Id": 3101,
				"Count": 3
			},
			{
				"GoodsType": "GoodsType_Item",
				"Id": 3003,
				"Count": 2
			}
		],
		"DisplayRewardCount": 2,
		"Achievement1ID": 6110,
		"Achievement1BonusItem": [
			{
				"GoodsType": "GoodsType_Item",
				"Id": 1030,
				"Count": 4
			}
		],
		"Achievement2ID": 6111,
		"Achievement2BonusItem": [
			{
				"GoodsType": "GoodsType_Item",
				"Id": 1030,
				"Count": 4
			}
		],
		"Achievement3ID": 6112,
		"Achievement3BonusItem": [
			{
				"GoodsType": "GoodsType_Item",
				"Id": 1030,
				"Count": 4
			}
		],
		"Strategy": ""
	}
]