[
	{
		"ID": 1,
		"Results": [
			{
				"ResultType": "HeroInteractionResultType_Norml",
				"Weight": 3300,
				"FavourabilityExp": 20
			},
			{
				"ResultType": "HeroInteractionResultType_SmallUp",
				"Weight": 3300,
				"FavourabilityExp": 30
			},
			{
				"ResultType": "HeroInteractionResultType_BigUp",
				"Weight": 3300,
				"FavourabilityExp": 50
			}
		],
		"NormalResultPerformance": 111,
		"SmallUpResultPerformance": 111,
		"BigUpResultPerformance": 111
	},
	{
		"ID": 3,
		"Results": [
			{
				"ResultType": "HeroInteractionResultType_Norml",
				"Weight": 3300,
				"FavourabilityExp": 20
			},
			{
				"ResultType": "HeroInteractionResultType_SmallUp",
				"Weight": 3300,
				"FavourabilityExp": 30
			},
			{
				"ResultType": "HeroInteractionResultType_BigUp",
				"Weight": 3300,
				"FavourabilityExp": 50
			}
		],
		"NormalResultPerformance": 311,
		"SmallUpResultPerformance": 311,
		"BigUpResultPerformance": 311
	},
	{
		"ID": 4,
		"Results": [
			{
				"ResultType": "HeroInteractionResultType_Norml",
				"Weight": 3300,
				"FavourabilityExp": 20
			},
			{
				"ResultType": "HeroInteractionResultType_SmallUp",
				"Weight": 3300,
				"FavourabilityExp": 30
			},
			{
				"ResultType": "HeroInteractionResultType_BigUp",
				"Weight": 3300,
				"FavourabilityExp": 50
			}
		],
		"NormalResultPerformance": 411,
		"SmallUpResultPerformance": 411,
		"BigUpResultPerformance": 411
	},
	{
		"ID": 5,
		"Results": [
			{
				"ResultType": "HeroInteractionResultType_Norml",
				"Weight": 3300,
				"FavourabilityExp": 20
			},
			{
				"ResultType": "HeroInteractionResultType_SmallUp",
				"Weight": 3300,
				"FavourabilityExp": 30
			},
			{
				"ResultType": "HeroInteractionResultType_BigUp",
				"Weight": 3300,
				"FavourabilityExp": 50
			}
		],
		"NormalResultPerformance": 511,
		"SmallUpResultPerformance": 511,
		"BigUpResultPerformance": 511
	},
	{
		"ID": 6,
		"Results": [
			{
				"ResultType": "HeroInteractionResultType_Norml",
				"Weight": 3300,
				"FavourabilityExp": 20
			},
			{
				"ResultType": "HeroInteractionResultType_SmallUp",
				"Weight": 3300,
				"FavourabilityExp": 30
			},
			{
				"ResultType": "HeroInteractionResultType_BigUp",
				"Weight": 3300,
				"FavourabilityExp": 50
			}
		],
		"NormalResultPerformance": 611,
		"SmallUpResultPerformance": 611,
		"BigUpResultPerformance": 611
	},
	{
		"ID": 7,
		"Results": [
			{
				"ResultType": "HeroInteractionResultType_Norml",
				"Weight": 3300,
				"FavourabilityExp": 20
			},
			{
				"ResultType": "HeroInteractionResultType_SmallUp",
				"Weight": 3300,
				"FavourabilityExp": 30
			},
			{
				"ResultType": "HeroInteractionResultType_BigUp",
				"Weight": 3300,
				"FavourabilityExp": 50
			}
		],
		"NormalResultPerformance": 711,
		"SmallUpResultPerformance": 711,
		"BigUpResultPerformance": 711
	},
	{
		"ID": 8,
		"Results": [
			{
				"ResultType": "HeroInteractionResultType_Norml",
				"Weight": 3300,
				"FavourabilityExp": 20
			},
			{
				"ResultType": "HeroInteractionResultType_SmallUp",
				"Weight": 3300,
				"FavourabilityExp": 30
			},
			{
				"ResultType": "HeroInteractionResultType_BigUp",
				"Weight": 3300,
				"FavourabilityExp": 50
			}
		],
		"NormalResultPerformance": 811,
		"SmallUpResultPerformance": 811,
		"BigUpResultPerformance": 811
	},
	{
		"ID": 9,
		"Results": [
			{
				"ResultType": "HeroInteractionResultType_Norml",
				"Weight": 3300,
				"FavourabilityExp": 20
			},
			{
				"ResultType": "HeroInteractionResultType_SmallUp",
				"Weight": 3300,
				"FavourabilityExp": 30
			},
			{
				"ResultType": "HeroInteractionResultType_BigUp",
				"Weight": 3300,
				"FavourabilityExp": 50
			}
		],
		"NormalResultPerformance": 911,
		"SmallUpResultPerformance": 911,
		"BigUpResultPerformance": 911
	},
	{
		"ID": 10,
		"Results": [
			{
				"ResultType": "HeroInteractionResultType_Norml",
				"Weight": 3300,
				"FavourabilityExp": 20
			},
			{
				"ResultType": "HeroInteractionResultType_SmallUp",
				"Weight": 3300,
				"FavourabilityExp": 30
			},
			{
				"ResultType": "HeroInteractionResultType_BigUp",
				"Weight": 3300,
				"FavourabilityExp": 50
			}
		],
		"NormalResultPerformance": 1011,
		"SmallUpResultPerformance": 1011,
		"BigUpResultPerformance": 1011
	},
	{
		"ID": 11,
		"Results": [
			{
				"ResultType": "HeroInteractionResultType_Norml",
				"Weight": 3300,
				"FavourabilityExp": 20
			},
			{
				"ResultType": "HeroInteractionResultType_SmallUp",
				"Weight": 3300,
				"FavourabilityExp": 30
			},
			{
				"ResultType": "HeroInteractionResultType_BigUp",
				"Weight": 3300,
				"FavourabilityExp": 50
			}
		],
		"NormalResultPerformance": 1111,
		"SmallUpResultPerformance": 1111,
		"BigUpResultPerformance": 1111
	},
	{
		"ID": 12,
		"Results": [
			{
				"ResultType": "HeroInteractionResultType_Norml",
				"Weight": 3300,
				"FavourabilityExp": 20
			},
			{
				"ResultType": "HeroInteractionResultType_SmallUp",
				"Weight": 3300,
				"FavourabilityExp": 30
			},
			{
				"ResultType": "HeroInteractionResultType_BigUp",
				"Weight": 3300,
				"FavourabilityExp": 50
			}
		],
		"NormalResultPerformance": 1211,
		"SmallUpResultPerformance": 1211,
		"BigUpResultPerformance": 1211
	},
	{
		"ID": 13,
		"Results": [
			{
				"ResultType": "HeroInteractionResultType_Norml",
				"Weight": 3300,
				"FavourabilityExp": 20
			},
			{
				"ResultType": "HeroInteractionResultType_SmallUp",
				"Weight": 3300,
				"FavourabilityExp": 30
			},
			{
				"ResultType": "HeroInteractionResultType_BigUp",
				"Weight": 3300,
				"FavourabilityExp": 50
			}
		],
		"NormalResultPerformance": 1311,
		"SmallUpResultPerformance": 1311,
		"BigUpResultPerformance": 1311
	},
	{
		"ID": 14,
		"Results": [
			{
				"ResultType": "HeroInteractionResultType_Norml",
				"Weight": 3300,
				"FavourabilityExp": 20
			},
			{
				"ResultType": "HeroInteractionResultType_SmallUp",
				"Weight": 3300,
				"FavourabilityExp": 30
			},
			{
				"ResultType": "HeroInteractionResultType_BigUp",
				"Weight": 3300,
				"FavourabilityExp": 50
			}
		],
		"NormalResultPerformance": 1411,
		"SmallUpResultPerformance": 1411,
		"BigUpResultPerformance": 1411
	},
	{
		"ID": 15,
		"Results": [
			{
				"ResultType": "HeroInteractionResultType_Norml",
				"Weight": 3300,
				"FavourabilityExp": 20
			},
			{
				"ResultType": "HeroInteractionResultType_SmallUp",
				"Weight": 3300,
				"FavourabilityExp": 30
			},
			{
				"ResultType": "HeroInteractionResultType_BigUp",
				"Weight": 3300,
				"FavourabilityExp": 50
			}
		],
		"NormalResultPerformance": 1511,
		"SmallUpResultPerformance": 1511,
		"BigUpResultPerformance": 1511
	},
	{
		"ID": 16,
		"Results": [
			{
				"ResultType": "HeroInteractionResultType_Norml",
				"Weight": 3300,
				"FavourabilityExp": 20
			},
			{
				"ResultType": "HeroInteractionResultType_SmallUp",
				"Weight": 3300,
				"FavourabilityExp": 30
			},
			{
				"ResultType": "HeroInteractionResultType_BigUp",
				"Weight": 3300,
				"FavourabilityExp": 50
			}
		],
		"NormalResultPerformance": 1611,
		"SmallUpResultPerformance": 1611,
		"BigUpResultPerformance": 1611
	},
	{
		"ID": 17,
		"Results": [
			{
				"ResultType": "HeroInteractionResultType_Norml",
				"Weight": 3300,
				"FavourabilityExp": 20
			},
			{
				"ResultType": "HeroInteractionResultType_SmallUp",
				"Weight": 3300,
				"FavourabilityExp": 30
			},
			{
				"ResultType": "HeroInteractionResultType_BigUp",
				"Weight": 3300,
				"FavourabilityExp": 50
			}
		],
		"NormalResultPerformance": 1711,
		"SmallUpResultPerformance": 1711,
		"BigUpResultPerformance": 1711
	},
	{
		"ID": 18,
		"Results": [
			{
				"ResultType": "HeroInteractionResultType_Norml",
				"Weight": 3300,
				"FavourabilityExp": 20
			},
			{
				"ResultType": "HeroInteractionResultType_SmallUp",
				"Weight": 3300,
				"FavourabilityExp": 30
			},
			{
				"ResultType": "HeroInteractionResultType_BigUp",
				"Weight": 3300,
				"FavourabilityExp": 50
			}
		],
		"NormalResultPerformance": 1811,
		"SmallUpResultPerformance": 1811,
		"BigUpResultPerformance": 1811
	},
	{
		"ID": 19,
		"Results": [
			{
				"ResultType": "HeroInteractionResultType_Norml",
				"Weight": 3300,
				"FavourabilityExp": 20
			},
			{
				"ResultType": "HeroInteractionResultType_SmallUp",
				"Weight": 3300,
				"FavourabilityExp": 30
			},
			{
				"ResultType": "HeroInteractionResultType_BigUp",
				"Weight": 3300,
				"FavourabilityExp": 50
			}
		],
		"NormalResultPerformance": 1911,
		"SmallUpResultPerformance": 1911,
		"BigUpResultPerformance": 1911
	},
	{
		"ID": 20,
		"Results": [
			{
				"ResultType": "HeroInteractionResultType_Norml",
				"Weight": 3300,
				"FavourabilityExp": 20
			},
			{
				"ResultType": "HeroInteractionResultType_SmallUp",
				"Weight": 3300,
				"FavourabilityExp": 30
			},
			{
				"ResultType": "HeroInteractionResultType_BigUp",
				"Weight": 3300,
				"FavourabilityExp": 50
			}
		],
		"NormalResultPerformance": 2011,
		"SmallUpResultPerformance": 2011,
		"BigUpResultPerformance": 2011
	},
	{
		"ID": 21,
		"Results": [
			{
				"ResultType": "HeroInteractionResultType_Norml",
				"Weight": 3300,
				"FavourabilityExp": 20
			},
			{
				"ResultType": "HeroInteractionResultType_SmallUp",
				"Weight": 3300,
				"FavourabilityExp": 30
			},
			{
				"ResultType": "HeroInteractionResultType_BigUp",
				"Weight": 3300,
				"FavourabilityExp": 50
			}
		],
		"NormalResultPerformance": 2111,
		"SmallUpResultPerformance": 2111,
		"BigUpResultPerformance": 2111
	},
	{
		"ID": 22,
		"Results": [
			{
				"ResultType": "HeroInteractionResultType_Norml",
				"Weight": 3300,
				"FavourabilityExp": 20
			},
			{
				"ResultType": "HeroInteractionResultType_SmallUp",
				"Weight": 3300,
				"FavourabilityExp": 30
			},
			{
				"ResultType": "HeroInteractionResultType_BigUp",
				"Weight": 3300,
				"FavourabilityExp": 50
			}
		],
		"NormalResultPerformance": 2211,
		"SmallUpResultPerformance": 2211,
		"BigUpResultPerformance": 2211
	},
	{
		"ID": 23,
		"Results": [
			{
				"ResultType": "HeroInteractionResultType_Norml",
				"Weight": 3300,
				"FavourabilityExp": 20
			},
			{
				"ResultType": "HeroInteractionResultType_SmallUp",
				"Weight": 3300,
				"FavourabilityExp": 30
			},
			{
				"ResultType": "HeroInteractionResultType_BigUp",
				"Weight": 3300,
				"FavourabilityExp": 50
			}
		],
		"NormalResultPerformance": 2311,
		"SmallUpResultPerformance": 2311,
		"BigUpResultPerformance": 2311
	},
	{
		"ID": 24,
		"Results": [
			{
				"ResultType": "HeroInteractionResultType_Norml",
				"Weight": 3300,
				"FavourabilityExp": 20
			},
			{
				"ResultType": "HeroInteractionResultType_SmallUp",
				"Weight": 3300,
				"FavourabilityExp": 30
			},
			{
				"ResultType": "HeroInteractionResultType_BigUp",
				"Weight": 3300,
				"FavourabilityExp": 50
			}
		],
		"NormalResultPerformance": 2411,
		"SmallUpResultPerformance": 2411,
		"BigUpResultPerformance": 2411
	},
	{
		"ID": 25,
		"Results": [
			{
				"ResultType": "HeroInteractionResultType_Norml",
				"Weight": 3300,
				"FavourabilityExp": 20
			},
			{
				"ResultType": "HeroInteractionResultType_SmallUp",
				"Weight": 3300,
				"FavourabilityExp": 30
			},
			{
				"ResultType": "HeroInteractionResultType_BigUp",
				"Weight": 3300,
				"FavourabilityExp": 50
			}
		],
		"NormalResultPerformance": 2511,
		"SmallUpResultPerformance": 2511,
		"BigUpResultPerformance": 2511
	},
	{
		"ID": 26,
		"Results": [
			{
				"ResultType": "HeroInteractionResultType_Norml",
				"Weight": 3300,
				"FavourabilityExp": 20
			},
			{
				"ResultType": "HeroInteractionResultType_SmallUp",
				"Weight": 3300,
				"FavourabilityExp": 30
			},
			{
				"ResultType": "HeroInteractionResultType_BigUp",
				"Weight": 3300,
				"FavourabilityExp": 50
			}
		],
		"NormalResultPerformance": 2611,
		"SmallUpResultPerformance": 2611,
		"BigUpResultPerformance": 2611
	},
	{
		"ID": 27,
		"Results": [
			{
				"ResultType": "HeroInteractionResultType_Norml",
				"Weight": 3300,
				"FavourabilityExp": 20
			},
			{
				"ResultType": "HeroInteractionResultType_SmallUp",
				"Weight": 3300,
				"FavourabilityExp": 30
			},
			{
				"ResultType": "HeroInteractionResultType_BigUp",
				"Weight": 3300,
				"FavourabilityExp": 50
			}
		],
		"NormalResultPerformance": 2711,
		"SmallUpResultPerformance": 2711,
		"BigUpResultPerformance": 2711
	},
	{
		"ID": 28,
		"Results": [
			{
				"ResultType": "HeroInteractionResultType_Norml",
				"Weight": 3300,
				"FavourabilityExp": 20
			},
			{
				"ResultType": "HeroInteractionResultType_SmallUp",
				"Weight": 3300,
				"FavourabilityExp": 30
			},
			{
				"ResultType": "HeroInteractionResultType_BigUp",
				"Weight": 3300,
				"FavourabilityExp": 50
			}
		],
		"NormalResultPerformance": 2811,
		"SmallUpResultPerformance": 2811,
		"BigUpResultPerformance": 2811
	},
	{
		"ID": 29,
		"Results": [
			{
				"ResultType": "HeroInteractionResultType_Norml",
				"Weight": 3300,
				"FavourabilityExp": 20
			},
			{
				"ResultType": "HeroInteractionResultType_SmallUp",
				"Weight": 3300,
				"FavourabilityExp": 30
			},
			{
				"ResultType": "HeroInteractionResultType_BigUp",
				"Weight": 3300,
				"FavourabilityExp": 50
			}
		],
		"NormalResultPerformance": 2911,
		"SmallUpResultPerformance": 2911,
		"BigUpResultPerformance": 2911
	},
	{
		"ID": 30,
		"Results": [
			{
				"ResultType": "HeroInteractionResultType_Norml",
				"Weight": 3300,
				"FavourabilityExp": 20
			},
			{
				"ResultType": "HeroInteractionResultType_SmallUp",
				"Weight": 3300,
				"FavourabilityExp": 30
			},
			{
				"ResultType": "HeroInteractionResultType_BigUp",
				"Weight": 3300,
				"FavourabilityExp": 50
			}
		],
		"NormalResultPerformance": 3011,
		"SmallUpResultPerformance": 3011,
		"BigUpResultPerformance": 3011
	},
	{
		"ID": 31,
		"Results": [
			{
				"ResultType": "HeroInteractionResultType_Norml",
				"Weight": 3300,
				"FavourabilityExp": 20
			},
			{
				"ResultType": "HeroInteractionResultType_SmallUp",
				"Weight": 3300,
				"FavourabilityExp": 30
			},
			{
				"ResultType": "HeroInteractionResultType_BigUp",
				"Weight": 3300,
				"FavourabilityExp": 50
			}
		],
		"NormalResultPerformance": 3111,
		"SmallUpResultPerformance": 3111,
		"BigUpResultPerformance": 3111
	},
	{
		"ID": 32,
		"Results": [
			{
				"ResultType": "HeroInteractionResultType_Norml",
				"Weight": 3300,
				"FavourabilityExp": 20
			},
			{
				"ResultType": "HeroInteractionResultType_SmallUp",
				"Weight": 3300,
				"FavourabilityExp": 30
			},
			{
				"ResultType": "HeroInteractionResultType_BigUp",
				"Weight": 3300,
				"FavourabilityExp": 50
			}
		],
		"NormalResultPerformance": 3211,
		"SmallUpResultPerformance": 3211,
		"BigUpResultPerformance": 3211
	},
	{
		"ID": 33,
		"Results": [
			{
				"ResultType": "HeroInteractionResultType_Norml",
				"Weight": 3300,
				"FavourabilityExp": 20
			},
			{
				"ResultType": "HeroInteractionResultType_SmallUp",
				"Weight": 3300,
				"FavourabilityExp": 30
			},
			{
				"ResultType": "HeroInteractionResultType_BigUp",
				"Weight": 3300,
				"FavourabilityExp": 50
			}
		],
		"NormalResultPerformance": 3311,
		"SmallUpResultPerformance": 3311,
		"BigUpResultPerformance": 3311
	},
	{
		"ID": 34,
		"Results": [
			{
				"ResultType": "HeroInteractionResultType_Norml",
				"Weight": 3300,
				"FavourabilityExp": 20
			},
			{
				"ResultType": "HeroInteractionResultType_SmallUp",
				"Weight": 3300,
				"FavourabilityExp": 30
			},
			{
				"ResultType": "HeroInteractionResultType_BigUp",
				"Weight": 3300,
				"FavourabilityExp": 50
			}
		],
		"NormalResultPerformance": 3411,
		"SmallUpResultPerformance": 3411,
		"BigUpResultPerformance": 3411
	},
	{
		"ID": 35,
		"Results": [
			{
				"ResultType": "HeroInteractionResultType_Norml",
				"Weight": 3300,
				"FavourabilityExp": 20
			},
			{
				"ResultType": "HeroInteractionResultType_SmallUp",
				"Weight": 3300,
				"FavourabilityExp": 30
			},
			{
				"ResultType": "HeroInteractionResultType_BigUp",
				"Weight": 3300,
				"FavourabilityExp": 50
			}
		],
		"NormalResultPerformance": 3511,
		"SmallUpResultPerformance": 3511,
		"BigUpResultPerformance": 3511
	},
	{
		"ID": 36,
		"Results": [
			{
				"ResultType": "HeroInteractionResultType_Norml",
				"Weight": 3300,
				"FavourabilityExp": 20
			},
			{
				"ResultType": "HeroInteractionResultType_SmallUp",
				"Weight": 3300,
				"FavourabilityExp": 30
			},
			{
				"ResultType": "HeroInteractionResultType_BigUp",
				"Weight": 3300,
				"FavourabilityExp": 50
			}
		],
		"NormalResultPerformance": 3611,
		"SmallUpResultPerformance": 3611,
		"BigUpResultPerformance": 3611
	},
	{
		"ID": 37,
		"Results": [
			{
				"ResultType": "HeroInteractionResultType_Norml",
				"Weight": 3300,
				"FavourabilityExp": 20
			},
			{
				"ResultType": "HeroInteractionResultType_SmallUp",
				"Weight": 3300,
				"FavourabilityExp": 30
			},
			{
				"ResultType": "HeroInteractionResultType_BigUp",
				"Weight": 3300,
				"FavourabilityExp": 50
			}
		],
		"NormalResultPerformance": 3711,
		"SmallUpResultPerformance": 3711,
		"BigUpResultPerformance": 3711
	},
	{
		"ID": 38,
		"Results": [
			{
				"ResultType": "HeroInteractionResultType_Norml",
				"Weight": 3300,
				"FavourabilityExp": 20
			},
			{
				"ResultType": "HeroInteractionResultType_SmallUp",
				"Weight": 3300,
				"FavourabilityExp": 30
			},
			{
				"ResultType": "HeroInteractionResultType_BigUp",
				"Weight": 3300,
				"FavourabilityExp": 50
			}
		],
		"NormalResultPerformance": 3811,
		"SmallUpResultPerformance": 3811,
		"BigUpResultPerformance": 3811
	},
	{
		"ID": 39,
		"Results": [
			{
				"ResultType": "HeroInteractionResultType_Norml",
				"Weight": 3300,
				"FavourabilityExp": 20
			},
			{
				"ResultType": "HeroInteractionResultType_SmallUp",
				"Weight": 3300,
				"FavourabilityExp": 30
			},
			{
				"ResultType": "HeroInteractionResultType_BigUp",
				"Weight": 3300,
				"FavourabilityExp": 50
			}
		],
		"NormalResultPerformance": 3911,
		"SmallUpResultPerformance": 3911,
		"BigUpResultPerformance": 3911
	},
	{
		"ID": 40,
		"Results": [
			{
				"ResultType": "HeroInteractionResultType_Norml",
				"Weight": 3300,
				"FavourabilityExp": 20
			},
			{
				"ResultType": "HeroInteractionResultType_SmallUp",
				"Weight": 3300,
				"FavourabilityExp": 30
			},
			{
				"ResultType": "HeroInteractionResultType_BigUp",
				"Weight": 3300,
				"FavourabilityExp": 50
			}
		],
		"NormalResultPerformance": 4011,
		"SmallUpResultPerformance": 4011,
		"BigUpResultPerformance": 4011
	},
	{
		"ID": 41,
		"Results": [
			{
				"ResultType": "HeroInteractionResultType_Norml",
				"Weight": 3300,
				"FavourabilityExp": 20
			},
			{
				"ResultType": "HeroInteractionResultType_SmallUp",
				"Weight": 3300,
				"FavourabilityExp": 30
			},
			{
				"ResultType": "HeroInteractionResultType_BigUp",
				"Weight": 3300,
				"FavourabilityExp": 50
			}
		],
		"NormalResultPerformance": 4111,
		"SmallUpResultPerformance": 4111,
		"BigUpResultPerformance": 4111
	},
	{
		"ID": 42,
		"Results": [
			{
				"ResultType": "HeroInteractionResultType_Norml",
				"Weight": 3300,
				"FavourabilityExp": 20
			},
			{
				"ResultType": "HeroInteractionResultType_SmallUp",
				"Weight": 3300,
				"FavourabilityExp": 30
			},
			{
				"ResultType": "HeroInteractionResultType_BigUp",
				"Weight": 3300,
				"FavourabilityExp": 50
			}
		],
		"NormalResultPerformance": 4211,
		"SmallUpResultPerformance": 4211,
		"BigUpResultPerformance": 4211
	},
	{
		"ID": 43,
		"Results": [
			{
				"ResultType": "HeroInteractionResultType_Norml",
				"Weight": 3300,
				"FavourabilityExp": 20
			},
			{
				"ResultType": "HeroInteractionResultType_SmallUp",
				"Weight": 3300,
				"FavourabilityExp": 30
			},
			{
				"ResultType": "HeroInteractionResultType_BigUp",
				"Weight": 3300,
				"FavourabilityExp": 50
			}
		],
		"NormalResultPerformance": 4311,
		"SmallUpResultPerformance": 4311,
		"BigUpResultPerformance": 4311
	},
	{
		"ID": 44,
		"Results": [
			{
				"ResultType": "HeroInteractionResultType_Norml",
				"Weight": 3300,
				"FavourabilityExp": 20
			},
			{
				"ResultType": "HeroInteractionResultType_SmallUp",
				"Weight": 3300,
				"FavourabilityExp": 30
			},
			{
				"ResultType": "HeroInteractionResultType_BigUp",
				"Weight": 3300,
				"FavourabilityExp": 50
			}
		],
		"NormalResultPerformance": 4411,
		"SmallUpResultPerformance": 4411,
		"BigUpResultPerformance": 4411
	},
	{
		"ID": 45,
		"Results": [
			{
				"ResultType": "HeroInteractionResultType_Norml",
				"Weight": 3300,
				"FavourabilityExp": 20
			},
			{
				"ResultType": "HeroInteractionResultType_SmallUp",
				"Weight": 3300,
				"FavourabilityExp": 30
			},
			{
				"ResultType": "HeroInteractionResultType_BigUp",
				"Weight": 3300,
				"FavourabilityExp": 50
			}
		],
		"NormalResultPerformance": 4511,
		"SmallUpResultPerformance": 4511,
		"BigUpResultPerformance": 4511
	},
	{
		"ID": 46,
		"Results": [
			{
				"ResultType": "HeroInteractionResultType_Norml",
				"Weight": 3300,
				"FavourabilityExp": 20
			},
			{
				"ResultType": "HeroInteractionResultType_SmallUp",
				"Weight": 3300,
				"FavourabilityExp": 30
			},
			{
				"ResultType": "HeroInteractionResultType_BigUp",
				"Weight": 3300,
				"FavourabilityExp": 50
			}
		],
		"NormalResultPerformance": 4611,
		"SmallUpResultPerformance": 4611,
		"BigUpResultPerformance": 4611
	},
	{
		"ID": 47,
		"Results": [
			{
				"ResultType": "HeroInteractionResultType_Norml",
				"Weight": 3300,
				"FavourabilityExp": 20
			},
			{
				"ResultType": "HeroInteractionResultType_SmallUp",
				"Weight": 3300,
				"FavourabilityExp": 30
			},
			{
				"ResultType": "HeroInteractionResultType_BigUp",
				"Weight": 3300,
				"FavourabilityExp": 50
			}
		],
		"NormalResultPerformance": 4711,
		"SmallUpResultPerformance": 4711,
		"BigUpResultPerformance": 4711
	},
	{
		"ID": 48,
		"Results": [
			{
				"ResultType": "HeroInteractionResultType_Norml",
				"Weight": 3300,
				"FavourabilityExp": 20
			},
			{
				"ResultType": "HeroInteractionResultType_SmallUp",
				"Weight": 3300,
				"FavourabilityExp": 30
			},
			{
				"ResultType": "HeroInteractionResultType_BigUp",
				"Weight": 3300,
				"FavourabilityExp": 50
			}
		],
		"NormalResultPerformance": 4811,
		"SmallUpResultPerformance": 4811,
		"BigUpResultPerformance": 4811
	},
	{
		"ID": 49,
		"Results": [
			{
				"ResultType": "HeroInteractionResultType_Norml",
				"Weight": 3300,
				"FavourabilityExp": 20
			},
			{
				"ResultType": "HeroInteractionResultType_SmallUp",
				"Weight": 3300,
				"FavourabilityExp": 30
			},
			{
				"ResultType": "HeroInteractionResultType_BigUp",
				"Weight": 3300,
				"FavourabilityExp": 50
			}
		],
		"NormalResultPerformance": 4911,
		"SmallUpResultPerformance": 4911,
		"BigUpResultPerformance": 4911
	},
	{
		"ID": 51,
		"Results": [
			{
				"ResultType": "HeroInteractionResultType_Norml",
				"Weight": 3300,
				"FavourabilityExp": 20
			},
			{
				"ResultType": "HeroInteractionResultType_SmallUp",
				"Weight": 3300,
				"FavourabilityExp": 30
			},
			{
				"ResultType": "HeroInteractionResultType_BigUp",
				"Weight": 3300,
				"FavourabilityExp": 50
			}
		],
		"NormalResultPerformance": 5111,
		"SmallUpResultPerformance": 5111,
		"BigUpResultPerformance": 5111
	},
	{
		"ID": 52,
		"Results": [
			{
				"ResultType": "HeroInteractionResultType_Norml",
				"Weight": 3300,
				"FavourabilityExp": 20
			},
			{
				"ResultType": "HeroInteractionResultType_SmallUp",
				"Weight": 3300,
				"FavourabilityExp": 30
			},
			{
				"ResultType": "HeroInteractionResultType_BigUp",
				"Weight": 3300,
				"FavourabilityExp": 50
			}
		],
		"NormalResultPerformance": 5211,
		"SmallUpResultPerformance": 5211,
		"BigUpResultPerformance": 5211
	},
	{
		"ID": 53,
		"Results": [
			{
				"ResultType": "HeroInteractionResultType_Norml",
				"Weight": 3300,
				"FavourabilityExp": 20
			},
			{
				"ResultType": "HeroInteractionResultType_SmallUp",
				"Weight": 3300,
				"FavourabilityExp": 30
			},
			{
				"ResultType": "HeroInteractionResultType_BigUp",
				"Weight": 3300,
				"FavourabilityExp": 50
			}
		],
		"NormalResultPerformance": 5311,
		"SmallUpResultPerformance": 5311,
		"BigUpResultPerformance": 5311
	},
	{
		"ID": 54,
		"Results": [
			{
				"ResultType": "HeroInteractionResultType_Norml",
				"Weight": 3300,
				"FavourabilityExp": 20
			},
			{
				"ResultType": "HeroInteractionResultType_SmallUp",
				"Weight": 3300,
				"FavourabilityExp": 30
			},
			{
				"ResultType": "HeroInteractionResultType_BigUp",
				"Weight": 3300,
				"FavourabilityExp": 50
			}
		],
		"NormalResultPerformance": 5411,
		"SmallUpResultPerformance": 5411,
		"BigUpResultPerformance": 5411
	},
	{
		"ID": 55,
		"Results": [
			{
				"ResultType": "HeroInteractionResultType_Norml",
				"Weight": 3300,
				"FavourabilityExp": 20
			},
			{
				"ResultType": "HeroInteractionResultType_SmallUp",
				"Weight": 3300,
				"FavourabilityExp": 30
			},
			{
				"ResultType": "HeroInteractionResultType_BigUp",
				"Weight": 3300,
				"FavourabilityExp": 50
			}
		],
		"NormalResultPerformance": 5511,
		"SmallUpResultPerformance": 5511,
		"BigUpResultPerformance": 5511
	},
	{
		"ID": 56,
		"Results": [
			{
				"ResultType": "HeroInteractionResultType_Norml",
				"Weight": 3300,
				"FavourabilityExp": 20
			},
			{
				"ResultType": "HeroInteractionResultType_SmallUp",
				"Weight": 3300,
				"FavourabilityExp": 30
			},
			{
				"ResultType": "HeroInteractionResultType_BigUp",
				"Weight": 3300,
				"FavourabilityExp": 50
			}
		],
		"NormalResultPerformance": 5611,
		"SmallUpResultPerformance": 5611,
		"BigUpResultPerformance": 5611
	}
]