[
	{
		"ID": 20201,
		"Name": "Pinch Hitter",
		"ShowInListSkinResInfo": [
			{
				"SoldierId": 202,
				"SkinResourceId": 20201
			}
		],
		"SpecifiedSoldier": [
			{
				"SoldierId": 201,
				"SkinResourceId": 20101
			},
			{
				"SoldierId": 202,
				"SkinResourceId": 20201
			}
		],
		"Desc": "It's the bottom of the 9th... We'll hit it out of the park!",
		"Icon": "UI/Icon/SoldierSkin_ABS/Icon_SwordMan_skin01.png",
		"GetPathDesc": "",
		"IsShowBeforeGet": true
	},
	{
		"ID": 10201,
		"Name": "Goalie",
		"ShowInListSkinResInfo": [
			{
				"SoldierId": 102,
				"SkinResourceId": 10201
			}
		],
		"SpecifiedSoldier": [
			{
				"SoldierId": 101,
				"SkinResourceId": 10101
			},
			{
				"SoldierId": 102,
				"SkinResourceId": 10201
			}
		],
		"Desc": "Don't mess with hockey players, eh? You'll be having a bad time.",
		"Icon": "UI/Icon/SoldierSkin_ABS/Icon_HeavySpear_skin01.png",
		"GetPathDesc": "",
		"IsShowBeforeGet": true
	},
	{
		"ID": 30201,
		"Name": "Polar Bear Express",
		"ShowInListSkinResInfo": [
			{
				"SoldierId": 302,
				"SkinResourceId": 30201
			}
		],
		"SpecifiedSoldier": [
			{
				"SoldierId": 301,
				"SkinResourceId": 30101
			},
			{
				"SoldierId": 302,
				"SkinResourceId": 30201
			}
		],
		"Desc": "These bear riders do more than crack nuts and dance with sugarplums.",
		"Icon": "UI/Icon/SoldierSkin_ABS/Icon_CavalryMan_skin01.png",
		"GetPathDesc": "",
		"IsShowBeforeGet": true
	},
	{
		"ID": 40201,
		"Name": "Chrysopelea Pharaoh",
		"ShowInListSkinResInfo": [
			{
				"SoldierId": 402,
				"SkinResourceId": 40201
			}
		],
		"SpecifiedSoldier": [
			{
				"SoldierId": 401,
				"SkinResourceId": 40101
			},
			{
				"SoldierId": 402,
				"SkinResourceId": 40201
			}
		],
		"Desc": "Traveling all around the world looking for a good Pyramid to retire in.",
		"Icon": "UI/Icon/SoldierSkin_ABS/Icon_Griffin_skin01.png",
		"GetPathDesc": "Obtained from the [Macho Lotto] event.",
		"IsShowBeforeGet": true
	},
	{
		"ID": 60201,
		"Name": "Kamen Archer",
		"ShowInListSkinResInfo": [
			{
				"SoldierId": 602,
				"SkinResourceId": 60201
			}
		],
		"SpecifiedSoldier": [
			{
				"SoldierId": 601,
				"SkinResourceId": 60101
			},
			{
				"SoldierId": 602,
				"SkinResourceId": 60201
			}
		],
		"Desc": "In the name of the moon, I'll punish you!",
		"Icon": "UI/Icon/SoldierSkin_ABS/Icon_Archer_skin01.png",
		"GetPathDesc": "",
		"IsShowBeforeGet": true
	},
	{
		"ID": 80201,
		"Name": "Mystery Doctor",
		"ShowInListSkinResInfo": [
			{
				"SoldierId": 802,
				"SkinResourceId": 80201
			}
		],
		"SpecifiedSoldier": [
			{
				"SoldierId": 801,
				"SkinResourceId": 80101
			},
			{
				"SoldierId": 802,
				"SkinResourceId": 80201
			}
		],
		"Desc": "Incurable disease? Let me help. Begin the amputation!",
		"Icon": "UI/Icon/SoldierSkin_ABS/Icon_ClergySkin_skin01.png",
		"GetPathDesc": "",
		"IsShowBeforeGet": true
	},
	{
		"ID": 110201,
		"Name": "Anonymous",
		"ShowInListSkinResInfo": [
			{
				"SoldierId": 1102,
				"SkinResourceId": 110201
			}
		],
		"SpecifiedSoldier": [
			{
				"SoldierId": 1100,
				"SkinResourceId": 110101
			},
			{
				"SoldierId": 1101,
				"SkinResourceId": 110201
			}
		],
		"Desc": "What doesn't kill you, only makes you stronger.",
		"Icon": "UI/Icon/SoldierSkin_ABS/Icon_Theif_skin01.png",
		"GetPathDesc": "",
		"IsShowBeforeGet": true
	},
	{
		"ID": 20001,
		"Name": "Rowdy Rally",
		"ShowInListSkinResInfo": [
			{
				"SoldierId": 201,
				"SkinResourceId": 20001
			}
		],
		"SpecifiedSoldier": [
			{
				"SoldierId": 200,
				"SkinResourceId": 20001
			},
			{
				"SoldierId": 201,
				"SkinResourceId": 20001
			}
		],
		"Desc": "First in line for that midnight release.",
		"Icon": "UI/Icon/SoldierSkin_ABS/Qudao_100W.png",
		"GetPathDesc": "Celebrating 500,000 Pre-Registrations!",
		"IsShowBeforeGet": false
	},
	{
		"ID": 20102,
		"Name": "Console Gamer",
		"ShowInListSkinResInfo": [
			{
				"SoldierId": 202,
				"SkinResourceId": 20102
			}
		],
		"SpecifiedSoldier": [
			{
				"SoldierId": 201,
				"SkinResourceId": 20102
			},
			{
				"SoldierId": 202,
				"SkinResourceId": 20102
			}
		],
		"Desc": "This retro soldier's favorite game is still Langrisser II.",
		"Icon": "UI/Icon/SoldierSkin_ABS/Qudao_MD.png",
		"GetPathDesc": "Limited Sale",
		"IsShowBeforeGet": false
	},
	{
		"ID": 20002,
		"Name": "Spray Away",
		"ShowInListSkinResInfo": [
			{
				"SoldierId": 201,
				"SkinResourceId": 20002
			}
		],
		"SpecifiedSoldier": [
			{
				"SoldierId": 200,
				"SkinResourceId": 20002
			},
			{
				"SoldierId": 201,
				"SkinResourceId": 20002
			}
		],
		"Desc": "This oceanside grillmaster is popular every summer.",
		"Icon": "UI/Icon/SoldierSkin_ABS/Qudao_Tap.png",
		"GetPathDesc": "Obtained from special events.",
		"IsShowBeforeGet": false
	},
	{
		"ID": 20003,
		"Name": "TV Idol",
		"ShowInListSkinResInfo": [
			{
				"SoldierId": 201,
				"SkinResourceId": 20003
			}
		],
		"SpecifiedSoldier": [
			{
				"SoldierId": 200,
				"SkinResourceId": 20003
			},
			{
				"SoldierId": 201,
				"SkinResourceId": 20003
			}
		],
		"Desc": "OMG! Did you just see me on TV? Totally the bomb!",
		"Icon": "UI/Icon/SoldierSkin_ABS/Qudao_Bilibili.png",
		"GetPathDesc": "Obtained from special events.",
		"IsShowBeforeGet": false
	},
	{
		"ID": 10001,
		"Name": "Pro Skater",
		"ShowInListSkinResInfo": [
			{
				"SoldierId": 101,
				"SkinResourceId": 10001
			}
		],
		"SpecifiedSoldier": [
			{
				"SoldierId": 100,
				"SkinResourceId": 10001
			},
			{
				"SoldierId": 101,
				"SkinResourceId": 10001
			}
		],
		"Desc": "All he needs is a sick deck and some spray paint. The first to pull off a 900.",
		"Icon": "UI/Icon/SoldierSkin_ABS/Qudao_QQ.png",
		"GetPathDesc": "Obtained from special events.",
		"IsShowBeforeGet": false
	},
	{
		"ID": 20004,
		"Name": "Slick Youth",
		"ShowInListSkinResInfo": [
			{
				"SoldierId": 201,
				"SkinResourceId": 20004
			}
		],
		"SpecifiedSoldier": [
			{
				"SoldierId": 200,
				"SkinResourceId": 20004
			},
			{
				"SoldierId": 201,
				"SkinResourceId": 20004
			}
		],
		"Desc": "Will always be there for you. More understanding than he seems.",
		"Icon": "UI/Icon/SoldierSkin_ABS/Qudao_jiuyou.png",
		"GetPathDesc": "Obtained from special events.",
		"IsShowBeforeGet": false
	},
	{
		"ID": 10002,
		"Name": "Internet Celebrity",
		"ShowInListSkinResInfo": [
			{
				"SoldierId": 101,
				"SkinResourceId": 10002
			}
		],
		"SpecifiedSoldier": [
			{
				"SoldierId": 100,
				"SkinResourceId": 10002
			},
			{
				"SoldierId": 101,
				"SkinResourceId": 10002
			}
		],
		"Desc": "The glowstick doubles as a laser gun.",
		"Icon": "UI/Icon/SoldierSkin_ABS/Qudao_Oppo.png",
		"GetPathDesc": "Obtained from special events.",
		"IsShowBeforeGet": false
	},
	{
		"ID": 20005,
		"Name": "16-Bit Kid",
		"ShowInListSkinResInfo": [
			{
				"SoldierId": 201,
				"SkinResourceId": 20005
			}
		],
		"SpecifiedSoldier": [
			{
				"SoldierId": 200,
				"SkinResourceId": 20005
			},
			{
				"SoldierId": 201,
				"SkinResourceId": 20005
			}
		],
		"Desc": "State of the art -- it transforms during combat!",
		"Icon": "UI/Icon/SoldierSkin_ABS/Qudao_Vivo.png",
		"GetPathDesc": "Obtained from special events.",
		"IsShowBeforeGet": false
	},
	{
		"ID": 20006,
		"Name": "Baby Unicorn",
		"ShowInListSkinResInfo": [
			{
				"SoldierId": 201,
				"SkinResourceId": 20006
			}
		],
		"SpecifiedSoldier": [
			{
				"SoldierId": 200,
				"SkinResourceId": 20006
			},
			{
				"SoldierId": 201,
				"SkinResourceId": 20006
			}
		],
		"Desc": "When you identify as a unicorn...",
		"Icon": "UI/Icon/SoldierSkin_ABS/Qudao_huawei0.png",
		"GetPathDesc": "Obtained from special events.",
		"IsShowBeforeGet": false
	},
	{
		"ID": 20007,
		"Name": "Night Panda",
		"ShowInListSkinResInfo": [
			{
				"SoldierId": 201,
				"SkinResourceId": 20007
			}
		],
		"SpecifiedSoldier": [
			{
				"SoldierId": 200,
				"SkinResourceId": 20007
			},
			{
				"SoldierId": 201,
				"SkinResourceId": 20007
			}
		],
		"Desc": "Indulging in the latest electronics is said to be all the rage.",
		"Icon": "UI/Icon/SoldierSkin_ABS/Qudao_Meizu.png",
		"GetPathDesc": "Obtained from special events.",
		"IsShowBeforeGet": false
	},
	{
		"ID": 80001,
		"Name": "Starlight",
		"ShowInListSkinResInfo": [
			{
				"SoldierId": 801,
				"SkinResourceId": 80001
			}
		],
		"SpecifiedSoldier": [
			{
				"SoldierId": 800,
				"SkinResourceId": 80001
			},
			{
				"SoldierId": 801,
				"SkinResourceId": 80001
			}
		],
		"Desc": "Equipped with battery-draining weapons.",
		"Icon": "UI/Icon/SoldierSkin_ABS/Qudao_Xiaomi.png",
		"GetPathDesc": "Obtained from special events.",
		"IsShowBeforeGet": false
	},
	{
		"ID": 20008,
		"Name": "Fishing Master",
		"ShowInListSkinResInfo": [
			{
				"SoldierId": 202,
				"SkinResourceId": 20008
			}
		],
		"SpecifiedSoldier": [
			{
				"SoldierId": 201,
				"SkinResourceId": 20008
			},
			{
				"SoldierId": 202,
				"SkinResourceId": 20008
			}
		],
		"Desc": "Shark Attack! Warning! This is not a drill!",
		"Icon": "UI/Icon/SoldierSkin_ABS/Qudao_Douyu.png",
		"GetPathDesc": "Obtained from special events.",
		"IsShowBeforeGet": false
	},
	{
		"ID": 62201,
		"Name": "Magic Summer",
		"ShowInListSkinResInfo": [
			{
				"SoldierId": 622,
				"SkinResourceId": 62201
			}
		],
		"SpecifiedSoldier": [
			{
				"SoldierId": 619,
				"SkinResourceId": 61901
			},
			{
				"SoldierId": 622,
				"SkinResourceId": 62201
			}
		],
		"Desc": "Spirit of Heaven, Spirit of Earth, grant me an ice cream!",
		"Icon": "UI/Icon/SoldierSkin_ABS/Icon_Witch_skin01.png",
		"GetPathDesc": "",
		"IsShowBeforeGet": true
	},
	{
		"ID": 60202,
		"Name": "Island Elf",
		"ShowInListSkinResInfo": [
			{
				"SoldierId": 602,
				"SkinResourceId": 60202
			}
		],
		"SpecifiedSoldier": [
			{
				"SoldierId": 601,
				"SkinResourceId": 60102
			},
			{
				"SoldierId": 602,
				"SkinResourceId": 60202
			}
		],
		"Desc": "I am the guardian of this island!",
		"Icon": "UI/Icon/SoldierSkin_ABS/Icon_Fairy_skin01.png",
		"GetPathDesc": "",
		"IsShowBeforeGet": true
	},
	{
		"ID": 61001,
		"Name": "Beach Elf",
		"ShowInListSkinResInfo": [
			{
				"SoldierId": 610,
				"SkinResourceId": 61001
			}
		],
		"SpecifiedSoldier": [
			{
				"SoldierId": 604,
				"SkinResourceId": 60401
			},
			{
				"SoldierId": 610,
				"SkinResourceId": 61001
			}
		],
		"Desc": "What? You want a tan?",
		"Icon": "UI/Icon/SoldierSkin_ABS/Icon_DarkElf_skin01.png",
		"GetPathDesc": "",
		"IsShowBeforeGet": true
	},
	{
		"ID": 1,
		"Name": "Hardcore Fan",
		"ShowInListSkinResInfo": [
			{
				"SoldierId": 201,
				"SkinResourceId": 1
			}
		],
		"SpecifiedSoldier": [
			{
				"SoldierId": 200,
				"SkinResourceId": 1
			},
			{
				"SoldierId": 201,
				"SkinResourceId": 1
			}
		],
		"Desc": "First in line for that midnight release.",
		"Icon": "UI/Icon/SoldierSkin_ABS/Qudao_100W.png",
		"GetPathDesc": "Obtained from the pre-registration event.",
		"IsShowBeforeGet": false
	},
	{
		"ID": 2,
		"Name": "Black Pill",
		"ShowInListSkinResInfo": [
			{
				"SoldierId": 101,
				"SkinResourceId": 2
			}
		],
		"SpecifiedSoldier": [
			{
				"SoldierId": 100,
				"SkinResourceId": 2
			},
			{
				"SoldierId": 101,
				"SkinResourceId": 2
			}
		],
		"Desc": "Walking without direction, he eventually lost his way on the mountain.",
		"Icon": "UI/Icon/SoldierSkin_ABS/Icon_Taiwan_xiaoxiong.png",
		"GetPathDesc": "Obtained from in-game Activity events.",
		"IsShowBeforeGet": false
	}
]