[
	{
		"ID": 1,
		"Name": "A Hero's Decision",
		"Desc": "A Hero's Decision",
		"LevelList": [
			1,
			2,
			3,
			4
		],
		"OpenDateTime": "1/17/2018 00:00:00.42",
		"CloseDateTime": "1/31/2018 23:59:59.42",
		"ShowDateTime": "1/12/2018 00:00:00.42",
		"HideDateTime": "1/31/2018 23:59:59.42",
		"Image": "UI/TextImages/English_Uncharted_ABS/1/HeroShadow_01.png",
		"Model": "Spine/Char/Elwin_ABS/Elwin_Prefab.prefab",
		"UIModelScale": 100,
		"UIModelOffsetX": 0,
		"UIModelOffsetY": 0
	},
	{
		"ID": 2,
		"Name": "Marshall's Vengeance",
		"Desc": "Marshall's Vengeance",
		"LevelList": [
			11,
			12,
			13,
			14
		],
		"OpenDateTime": "1/21/2018 00:00:00.42",
		"CloseDateTime": "2/3/2018 23:59:59.42",
		"ShowDateTime": "1/17/2018 00:00:00.42",
		"HideDateTime": "2/3/2018 23:59:59.42",
		"Image": "UI/TextImages/English_Uncharted_ABS/1/HeroShadow_02.png",
		"Model": "Spine/Char/Alutemurat_ABS/Alutemurat_prefab.prefab",
		"UIModelScale": 100,
		"UIModelOffsetX": 0,
		"UIModelOffsetY": -100
	},
	{
		"ID": 3,
		"Name": "Demon Blood",
		"Desc": "Demon Blood",
		"LevelList": [
			21,
			22,
			23,
			24
		],
		"OpenDateTime": "1/31/2019 00:00:00.42",
		"CloseDateTime": "2/27/2019 23:59:59.42",
		"ShowDateTime": "1/31/2019 00:00:00.42",
		"HideDateTime": "2/27/2019 23:59:59.42",
		"Image": "UI/TextImages/English_Uncharted_ABS/1/HeroShadow_04.png",
		"Model": "Spine/Char/Sonia_ABS/Sonia_Prefab.prefab",
		"UIModelScale": 100,
		"UIModelOffsetX": 0,
		"UIModelOffsetY": 0
	},
	{
		"ID": 4,
		"Name": "Dark Rebirth",
		"Desc": "Dark Rebirth",
		"LevelList": [
			31,
			32,
			33
		],
		"OpenDateTime": "5/3/2018 00:00:00.42",
		"CloseDateTime": "5/24/2018 23:59:59.42",
		"ShowDateTime": "4/26/2018 00:00:00.42",
		"HideDateTime": "5/24/2018 23:59:59.42",
		"Image": "UI/TextImages/English_Uncharted_ABS/1/HeroShadow_03.png",
		"Model": "Spine/Char/Bozel_ABS/Bozel_Prefab.prefab",
		"UIModelScale": 100,
		"UIModelOffsetX": 0,
		"UIModelOffsetY": 0
	},
	{
		"ID": 5,
		"Name": "Ironwall Princess",
		"Desc": "Ironwall Princess",
		"LevelList": [
			41,
			42,
			43,
			44
		],
		"OpenDateTime": "2/28/2019 00:00:00.42",
		"CloseDateTime": "3/27/2019 23:59:59.42",
		"ShowDateTime": "2/28/2019 00:00:00.42",
		"HideDateTime": "3/27/2019 23:59:59.42",
		"Image": "UI/TextImages/English_Uncharted_ABS/1/HeroShadow_05.png",
		"Model": "Spine/Char/Freya_ABS/Freya_prefab.prefab",
		"UIModelScale": 100,
		"UIModelOffsetX": 0,
		"UIModelOffsetY": 0
	},
	{
		"ID": 6,
		"Name": "The Arcane Path",
		"Desc": "The Arcane Path",
		"LevelList": [
			51,
			52,
			53,
			54
		],
		"OpenDateTime": "4/4/2019 00:00:00.42",
		"CloseDateTime": "5/1/2019 23:59:59.42",
		"ShowDateTime": "4/4/2019 00:00:00.42",
		"HideDateTime": "5/1/2019 23:59:59.42",
		"Image": "UI/TextImages/English_Uncharted_ABS/1/HeroShadow_06.png",
		"Model": "Spine/Char/Leafani_ABS/Leafani_prefab.prefab",
		"UIModelScale": 100,
		"UIModelOffsetX": 0,
		"UIModelOffsetY": 0
	}
]