v 30.667585372924805 2.1418492794036865 -4.498262405395508
v 22.73876190185547 6.367525100708008 0.0
v 21.613706588745117 1.7302286624908447 2.3732099533081055
v 29.402463912963867 -3.072767734527588 -1.8296000957489014
v 19.94978904724121 -2.214738368988037 4.555145740509033
v 27.273988723754883 -8.12132453918457 0.9649147987365723
v 17.732067108154297 -5.748286724090576 6.736302852630615
v 24.408594131469727 -12.688133239746094 3.7861506938934326
v 15.043989181518555 -8.800514221191406 8.919296264648438
v 20.905704498291016 -16.666353225708008 6.6337995529174805
v 11.976324081420898 -11.316633224487305 11.106972694396973
v 16.880390167236328 -19.968402862548828 9.507303237915039
v 8.624732971191406 -13.25735092163086 13.30238151550293
v 12.459789276123047 -22.52830696105957 12.405824661254883
v 5.087085247039795 -14.599069595336914 15.508977890014648
v 7.7794270515441895 -24.30335807800293 15.328071594238281
v 1.46150541305542 -15.3333740234375 17.730390548706055
v 2.978818893432617 -25.275375366210938 18.27235984802246
v -2.1557955741882324 -15.466592788696289 19.970495223999023
v -1.803117275238037 -25.451004028320312 21.236682891845703
v -5.672314643859863 -15.019079208374023 22.233312606811523
v -6.432071685791016 -24.861202239990234 24.218399047851562
v -9.001502990722656 -14.024211883544922 24.52330207824707
v -10.783077239990234 -23.56000518798828 27.214393615722656
v -12.063714981079102 -12.527425765991211 26.84489631652832
v -14.744508743286133 -21.622394561767578 30.221031188964844
v -14.787817001342773 -10.585140228271484 29.20255470275879
v -18.221717834472656 -19.14144515991211 33.23402404785156
v -17.112850189208984 -8.263322830200195 31.600914001464844
v -21.140207290649414 -16.22473907470703 36.248435974121094
v -18.988964080810547 -5.636318683624268 34.044429779052734
v -23.448123931884766 -12.990020751953125 39.25880813598633
v -20.378746032714844 -2.785248279571533 36.53736877441406
v -25.11756706237793 -9.560726165771484 42.258941650390625
v -21.25834083557129 0.20376157760620117 39.083709716796875
v -26.145280838012695 -6.060795307159424 45.24214553833008
v -21.618385314941406 3.2414565086364746 41.686912536621094
v -26.55198860168457 -2.61000394821167 48.200984954833984
v -21.464815139770508 6.2375898361206055 44.34962844848633
v -26.38088035583496 0.6815590858459473 51.12792205810547
v -20.81941032409668 9.10377311706543 47.073734283447266
v -25.694772720336914 3.7172045707702637 54.014835357666016
v -19.719873428344727 11.756052017211914 49.859867095947266
v -24.572500228881836 6.417718887329102 56.85352325439453
v -18.219406127929688 14.118158340454102 52.70729446411133
v -23.10437774658203 8.724143981933594 59.635948181152344
v -16.385549545288086 16.124723434448242 55.61362075805664
v -21.387218475341797 10.599258422851562 62.35441207885742
v -14.298227310180664 17.724512100219727 58.574588775634766
v -19.51902961730957 12.027963638305664 65.00199890136719
v -12.046979904174805 18.883316040039062 61.58377456665039
v -17.593902587890625 13.016202926635742 67.57293701171875
v -9.727069854736328 19.586441040039062 64.63261413574219
v -15.697452545166016 13.588611602783203 70.06304168701172
v -7.435161590576172 19.840129852294922 67.71000671386719
v -13.903060913085938 13.785112380981445 72.47022247314453
v -5.263949394226074 19.671981811523438 70.80278778076172
v -12.269426345825195 13.65669059753418 74.7950439453125
v -3.296870470046997 19.129776000976562 73.89572143554688
v -10.839632987976074 13.260868072509766 77.04090881347656
v -1.6032261848449707 18.27885627746582 76.9716796875
v -9.641363143920898 12.65732192993164 79.21475982666016
v -0.23357915878295898 17.197925567626953 80.01246643066406
v -8.688724517822266 11.904205322265625 81.32704162597656
v 0.7832026481628418 15.973472595214844 82.99977111816406
v -7.984862327575684 11.055597305297852 83.39179229736328
v 1.440995216369629 14.693643569946289 85.91566467285156
v -7.5248870849609375 10.160223007202148 85.42648315429688
v 1.7556519508361816 13.441802978515625 88.74404907226562
v -7.298742294311523 9.261688232421875 87.45135498046875
v 1.7621197700500488 12.290797233581543 91.47171783447266
v -7.293097019195557 8.399664878845215 89.48868560791016
v 1.5098328590393066 11.298688888549805 94.0894546508789
v -7.492090225219727 7.6117072105407715 91.56165313720703
v 1.0571694374084473 10.506429672241211 96.59297943115234
v -7.876636505126953 6.934945106506348 93.6928939819336
v 0.4656977653503418 9.937685012817383 98.98368072509766
v -8.422605514526367 6.4067864418029785 95.90316772460938
v -0.20474576950073242 9.600746154785156 101.26879119873047
v -9.098434448242188 6.064272880554199 98.20989227294922
v -0.9629676342010498 9.480653762817383 103.66566467285156
v -9.87625503540039 5.941079139709473 100.6687240600586
v -19.69561195373535 22.511552810668945 0.0
v -24.517988204956055 28.52102279663086 6.0633649826049805
v -20.145565032958984 31.006135940551758 9.61456298828125
v -15.756917953491211 24.750158309936523 3.1989328861236572
v -15.54194450378418 32.76747131347656 13.25394344329834
v -12.033791542053223 26.175493240356445 6.140040874481201
v -10.987131118774414 33.72636795043945 16.858356475830078
v -8.315679550170898 26.959228515625 9.080099105834961
v -6.604711055755615 33.91085433959961 20.42469024658203
v -4.696988582611084 27.11268424987793 12.022632598876953
v -2.505357265472412 33.37089157104492 23.949861526489258
v -1.2650799751281738 26.66192054748535 14.971478462219238
v 1.2161498069763184 32.17549133300781 27.430885314941406
v 1.9012856483459473 25.646345138549805 17.93074607849121
v 4.483092784881592 30.409334182739258 30.864850997924805
v 4.733513355255127 24.117015838623047 20.90509605407715
v 7.238479137420654 28.16887664794922 34.249141693115234
v 7.173821926116943 22.13498878479004 23.899415969848633
v 9.445465087890625 25.558441162109375 37.58121871948242
v 9.176080703735352 19.76957130432129 26.91893196105957
v 11.087574005126953 22.685691833496094 40.8592414855957
v 10.706228256225586 17.09662437438965 29.96906280517578
v 12.16733169555664 19.658187866210938 44.081398010253906
v 11.742744445800781 14.196413040161133 33.05582046508789
v 12.705011367797852 16.579133987426758 47.24660110473633
v 12.276437759399414 11.152320861816406 36.185176849365234
v 12.736278533935547 13.544044494628906 50.35462188720703
v 12.310531616210938 8.049067497253418 39.3631477355957
v 12.309450149536133 10.63838005065918 53.40586853027344
v 11.860502243041992 4.9706645011901855 42.59598159790039
v 11.482559204101562 7.935265064239502 56.401695251464844
v 10.953718185424805 1.999009609222412 45.88968276977539
v 10.320169448852539 5.494125843048096 59.34471130371094
v 9.628995895385742 -0.7880406379699707 49.25
v 8.890434265136719 3.360414981842041 62.23855209350586
v 7.935905933380127 -3.3185830116271973 52.68230438232422
v 7.262025356292725 1.5653839111328125 65.08859252929688
v 5.9339118003845215 -5.528503894805908 56.191253662109375
v 5.5020365715026855 0.1273965835571289 67.90140533447266
v 3.6912550926208496 -7.363424777984619 59.780418395996094
v 3.673774242401123 -0.9471368789672852 70.68543243408203
v 1.283186435699463 -8.780902862548828 63.45233917236328
v 1.8354883193969727 -1.6619606018066406 73.45087432861328
v -1.209855079650879 -9.752161026000977 67.2078628540039
v 0.039783477783203125 -2.029179573059082 76.20950317382812
v -3.704806327819824 -10.263896942138672 71.04601287841797
v -1.6667931079864502 -2.067690372467041 78.9749526977539
v -6.118910789489746 -10.319581985473633 74.96354675292969
v -3.243389129638672 -1.8017487525939941 81.7623062133789
v -8.373086929321289 -9.940229415893555 78.95474243164062
v -4.654451370239258 -1.2600693702697754 84.58796691894531
v -10.395468711853027 -9.164382934570312 83.01093292236328
v -5.869251251220703 -0.4753880500793457 87.46916961669922
v -12.12525749206543 -8.047100067138672 87.12056732177734
v -6.861719131469727 0.5155320167541504 90.42359924316406
v -13.516019821166992 -6.657932758331299 91.26869201660156
v -7.6104888916015625 1.6713740825653076 93.46834564208984
v -14.538822174072266 -5.077569484710693 95.43756103515625
v -8.099860191345215 2.9459052085876465 96.61930847167969
v -15.18416976928711 -3.3934779167175293 99.60663604736328
v -8.321083068847656 4.287650108337402 99.89022827148438
v -15.462692260742188 -1.6949191093444824 103.7528305053711
v -8.274210929870605 5.640278339385986 103.29154968261719
v -15.404529571533203 -0.0670933723449707 107.85160827636719
v -7.970102310180664 6.943668365478516 106.82902526855469
v -15.05687141418457 1.4144599437713623 111.87830352783203
v -7.432181358337402 8.136564254760742 110.50322723388672
v -14.48008918762207 2.6885454654693604 115.8087387084961
v -6.697362422943115 9.160015106201172 114.30868530273438
v -13.742687225341797 3.711956024169922 119.6212158203125
v -5.815810203552246 9.961759567260742 118.23309326171875
v -12.91563606262207 4.4612345695495605 123.29793548583984
v -4.848955154418945 10.501134872436523 122.25764465332031
v -12.066879272460938 4.932308197021484 126.82647705078125
v -3.8658688068389893 10.753530502319336 126.35760498046875
v -11.25672721862793 5.138239860534668 130.20106506347656
v -2.9382333755493164 10.713672637939453 130.50306701660156
v -10.534696578979492 5.105442047119141 133.42356872558594
v -2.134343385696411 10.397120475769043 134.66090393066406
v -9.938301086425781 4.869104385375977 136.50375366210938
v -1.5621795654296875 9.88382625579834 138.46304321289062
v -9.452108383178711 4.432937145233154 139.73458862304688
v -26.085479736328125 -16.855064392089844 -3.0662097930908203
v -27.164072036743164 -11.607873916625977 -9.833954811096191
v -29.781232833862305 -8.123332977294922 -7.217705249786377
v -28.666288375854492 -13.418922424316406 -0.4863004684448242
v -31.792896270751953 -4.281448841094971 -4.344164848327637
v -30.602693557739258 -9.716934204101562 2.282362937927246
v -33.07371139526367 -0.3368711471557617 -1.3339014053344727
v -31.809688568115234 -5.993846416473389 5.123361587524414
v -33.62055587768555 3.5882813930511475 1.7900450229644775
v -32.31303405761719 -2.3677029609680176 8.009098052978516
v -33.4514045715332 7.375042915344238 5.002205848693848
v -32.158355712890625 1.0542054176330566 10.911540031433105
v -32.60462951660156 10.911354064941406 8.275620460510254
v -31.408489227294922 4.178173065185547 13.803053855895996
v -31.137788772583008 14.095056533813477 11.5822114944458
v -30.1402587890625 6.9267096519470215 16.657503128051758
v -29.125524520874023 16.83748435974121 14.89402961730957
v -28.44098472595215 9.239862442016602 19.450817108154297
v -26.657115936279297 19.065942764282227 18.183795928955078
v -26.404722213745117 11.076218605041504 22.161771774291992
v -23.833499908447266 20.725994110107422 21.42562484741211
v -24.12824821472168 12.41309928894043 24.772830963134766
v -20.763397216796875 21.783329010009766 24.59614372253418
v -21.707950592041016 13.24549674987793 27.269878387451172
v -17.55988883972168 22.224515914916992 27.674652099609375
v -19.235942840576172 13.585063934326172 29.643108367919922
v -14.335956573486328 22.057369232177734 30.64400863647461
v -16.797256469726562 13.457986831665039 31.886947631835938
v -11.200448989868164 21.310338973999023 33.490928649902344
v -14.467775344848633 12.90256118774414 33.99976348876953
v -8.253938674926758 20.03104019165039 36.206295013427734
v -12.312352180480957 11.966507911682129 35.98381042480469
v -5.584981441497803 18.283977508544922 38.785255432128906
v -10.38381576538086 10.704118728637695 37.8449592590332
v -3.2669200897216797 16.14756965637207 41.22698974609375
v -8.722707748413086 9.173467636108398 39.59223556518555
v -1.3552703857421875 13.710525512695312 43.53453063964844
v -7.357652187347412 7.433905124664307 41.23735046386719
v 0.11408424377441406 11.067598342895508 45.71433639526367
v -6.306173801422119 5.543829441070557 42.79428482055664
v 1.125605583190918 8.315134048461914 47.775718688964844
v -5.575960159301758 3.5590767860412598 44.278804779052734
v 1.6837124824523926 5.54673433303833 49.73003387451172
v -5.166265964508057 1.5317082405090332 45.70812225341797
v 1.811427116394043 2.848972797393799 51.590023040771484
v -5.069377899169922 -0.49060916900634766 47.10054397583008
v 1.5479660034179688 0.2976679801940918 53.36906051635742
v -5.2719035148620605 -2.4647364616394043 48.47521209716797
v 0.9454011917114258 -2.0451602935791016 55.080562591552734
v -5.755677700042725 -4.351728916168213 49.85176086425781
v 0.06473302841186523 -4.133108615875244 56.7374382019043
v -6.498219966888428 -6.116518497467041 51.2501335144043
v -1.0283255577087402 -5.93617582321167 58.35167694091797
v -7.472843170166016 -7.727781772613525 52.690433502197266
v -2.2675604820251465 -7.440443515777588 59.934349060058594
v -8.648221969604492 -9.157707214355469 54.19237518310547
v -3.590035915374756 -8.646625518798828 61.49577713012695
v -9.98790454864502 -10.382526397705078 55.774932861328125
v -4.939034938812256 -9.567684173583984 63.04579544067383
v -11.449878692626953 -11.38351058959961 57.45561599731445
v -6.265921592712402 -10.225894927978516 64.59423065185547
v -12.986291885375977 -12.148353576660156 59.24953842163086
v -7.530969142913818 -10.649919509887695 66.1514892578125
v -14.544164657592773 -12.673152923583984 61.168399810791016
v -8.702827453613281 -10.872024536132812 67.72891998291016
v -16.066879272460938 -12.964311599731445 63.21942901611328
v -9.757320404052734 -10.926101684570312 69.3389663696289
v -17.496776580810547 -13.040119171142578 65.40421295166016
v -10.675682067871094 -10.846599578857422 70.99518585205078
v -18.77870750427246 -12.93153190612793 67.71791076660156
v -11.442792892456055 -10.668460845947266 72.71144104003906
v -19.86416244506836 -12.681739807128906 70.1485366821289
v -12.046096801757812 -10.427850723266602 74.50106048583984
v -20.715707778930664 -12.344255447387695 72.67719268798828
v -12.475456237792969 -10.163291931152344 76.37557220458984
v -21.31072425842285 -11.979574203491211 75.27848052978516
v -12.724140167236328 -9.916604995727539 78.34321594238281
v -21.64409828186035 -11.650543212890625 77.92198181152344
v -12.790842056274414 -9.733142852783203 80.40764617919922
v -21.729127883911133 -11.417158126831055 80.57412719726562
v -12.68109130859375 -9.661436080932617 82.57443237304688
v -21.60584831237793 -11.33660888671875 83.00806427001953
vn -0.5768287777900696 -0.25688889622688293 -0.7754203081130981
vn -0.5768287777900696 -0.25688883662223816 -0.7754202485084534
vn -0.5688653588294983 -0.23222827911376953 -0.7889627814292908
vn -0.5688647627830505 -0.23222653567790985 -0.7889636754989624
vn -0.5506601333618164 -0.1885596215724945 -0.8131535053253174
vn -0.5506587624549866 -0.18855705857276917 -0.8131549954414368
vn -0.5308043956756592 -0.15659596025943756 -0.832901120185852
vn -0.5308029651641846 -0.15659409761428833 -0.8329023718833923
vn -0.5126673579216003 -0.13571183383464813 -0.8477939367294312
vn -0.5126661062240601 -0.1357106864452362 -0.847794771194458
vn -0.49929341673851013 -0.12447714060544968 -0.857444703578949
vn -0.49929267168045044 -0.12447664141654968 -0.857445240020752
vn -0.49324101209640503 -0.12072696536779404 -0.8614743947982788
vn -0.49324092268943787 -0.12072691321372986 -0.8614745736122131
vn -0.4964042007923126 -0.12169951945543289 -0.8595185279846191
vn -0.4964049458503723 -0.121699757874012 -0.8595181107521057
vn -0.5098718404769897 -0.12421929091215134 -0.8512346148490906
vn -0.5098733901977539 -0.12421946227550507 -0.8512335419654846
vn -0.5338348746299744 -0.12491557002067566 -0.8363112211227417
vn -0.5338371992111206 -0.1249154806137085 -0.8363097310066223
vn -0.5675477981567383 -0.12046382576227188 -0.8144802451133728
vn -0.5675513744354248 -0.12046311050653458 -0.8144778609275818
vn -0.6093579530715942 -0.10783801972866058 -0.7855277061462402
vn -0.6093621253967285 -0.10783640295267105 -0.7855246663093567
vn -0.6568005084991455 -0.0845554918050766 -0.7493086457252502
vn -0.6568049788475037 -0.08455288410186768 -0.749305009841919
vn -0.7067574858665466 -0.04889265447854996 -0.7057644128799438
vn -0.7067620754241943 -0.04888872057199478 -0.7057600021362305
vn -0.7556806802749634 -5.7769098930293694e-05 -0.654940128326416
vn -0.755685031414032 -5.2702511311508715e-05 -0.6549351811408997
vn -0.7998623251914978 0.06169724091887474 -0.5970040559768677
vn -0.7998661398887634 0.061703626066446304 -0.5969982147216797
vn -0.835735559463501 0.13504351675510406 -0.5322680473327637
vn -0.8357385396957397 0.13505123555660248 -0.5322614312171936
vn -0.8601877689361572 0.21762870252132416 -0.4612100124359131
vn -0.8601897358894348 0.2176378071308136 -0.4612022042274475
vn -0.870857834815979 0.30622437596321106 -0.384490966796875
vn -0.8708581328392029 0.30623331665992737 -0.38448306918144226
vn -0.8663865923881531 0.3969612717628479 -0.3029784560203552
vn -0.8663853406906128 0.3969707489013672 -0.3029697835445404
vn -0.8465968370437622 0.48564961552619934 -0.2177574783563614
vn -0.8465938568115234 0.4856589734554291 -0.21774815022945404
vn -0.8125724792480469 0.568145751953125 -0.13013997673988342
vn -0.8125680685043335 0.5681543350219727 -0.13013023138046265
vn -0.7666184306144714 0.6407496333122253 -0.041666507720947266
vn -0.7666125297546387 0.6407572627067566 -0.04165634512901306
vn -0.7120888829231262 0.7005869746208191 0.04590534791350365
vn -0.7120820879936218 0.7005932927131653 0.04591565579175949
vn -0.6530911326408386 0.7459288239479065 0.13062229752540588
vn -0.653083860874176 0.745933473110199 0.1306324601173401
vn -0.5940806865692139 0.7764090895652771 0.21037378907203674
vn -0.5940732359886169 0.7764121294021606 0.21038378775119781
vn -0.5393838286399841 0.7930978536605835 0.2829500734806061
vn -0.5393771529197693 0.7930992245674133 0.28295910358428955
vn -0.492707759141922 0.7984026074409485 0.34611013531684875
vn -0.49270206689834595 0.798402726650238 0.34611818194389343
vn -0.4566873013973236 0.795795202255249 0.397676557302475
vn -0.45668283104896545 0.7957944869995117 0.39768338203430176
vn -0.4325486123561859 0.78937828540802 0.4356416165828705
vn -0.43254590034484863 0.7893772125244141 0.4356463551521301
vn -0.4199460744857788 0.7833378314971924 0.4582872688770294
vn -0.4199449419975281 0.7833369970321655 0.45828956365585327
vn -0.4170113205909729 0.7813540101051331 0.4643140435218811
vn -0.4170114994049072 0.7813541293144226 0.4643135964870453
vn -0.4206332862377167 0.7860549092292786 0.4529738426208496
vn -0.42063435912132263 0.7860564589500427 0.4529702961444855
vn -0.42694559693336487 0.7986115217208862 0.424189954996109
vn -0.42694681882858276 0.7986145615577698 0.42418307065963745
vn -0.431959331035614 0.8185532093048096 0.3786577582359314
vn -0.43195992708206177 0.818557620048523 0.3786475658416748
vn -0.432237446308136 0.8438615202903748 0.3179126977920532
vn -0.43223679065704346 0.843866765499115 0.31789952516555786
vn -0.4254956543445587 0.8713526725769043 0.24433162808418274
vn -0.4254934787750244 0.8713582158088684 0.24431592226028442
vn -0.411001056432724 0.8972911238670349 0.1610797941684723
vn -0.4109973609447479 0.8972959518432617 0.16106221079826355
vn -0.38967642188072205 0.9181349873542786 0.07197614014148712
vn -0.3896714448928833 0.9181385040283203 0.07195773720741272
vn -0.3638113737106323 0.9312849640846252 -0.01869884319603443
vn -0.3638085722923279 0.9312857985496521 -0.018708229064941406
vn -0.3497209846973419 0.9346790313720703 -0.06379976123571396
vn -0.3497210144996643 0.9346789717674255 -0.06379976123571396
vn -0.10745877027511597 -0.7475572824478149 0.6554470062255859
vn -0.10745876282453537 -0.7475572824478149 0.6554470062255859
vn -0.15786594152450562 -0.7588353753089905 0.6318600177764893
vn -0.14291879534721375 -0.7557350397109985 0.6390922665596008
vn -0.25071457028388977 -0.7686058282852173 0.5885466933250427
vn -0.23194268345832825 -0.7678512334823608 0.5971659421920776
vn -0.35284680128097534 -0.7625612020492554 0.5422171950340271
vn -0.33101990818977356 -0.7652456760406494 0.55210942029953
vn -0.46030205488204956 -0.7383713126182556 0.49287906289100647
vn -0.4366348385810852 -0.7452763915061951 0.5038979649543762
vn -0.5682953596115112 -0.6948603987693787 0.44069188833236694
vn -0.5442631840705872 -0.7063273191452026 0.4526360034942627
vn -0.6716877818107605 -0.6322806477546692 0.38607844710350037
vn -0.6488025784492493 -0.648152232170105 0.39869022369384766
vn -0.7655819654464722 -0.5524162650108337 0.3297279477119446
vn -0.745167076587677 -0.5720780491828918 0.3427138030529022
vn -0.8459393382072449 -0.45839616656303406 0.2725060284137726
vn -0.8289576768875122 -0.48091185092926025 0.28557467460632324
vn -0.9100306630134583 -0.35424599051475525 0.21529999375343323
vn -0.8970155715942383 -0.3785322606563568 0.2282027304172516
vn -0.9565959572792053 -0.2443099021911621 0.1588607281446457
vn -0.9476780295372009 -0.26929983496665955 0.17141783237457275
vn -0.9857123494148254 -0.1327371746301651 0.10369254648685455
vn -0.9807099103927612 -0.15747708082199097 0.11579795926809311
vn -0.9984807372093201 -0.023128952831029892 0.05001272261142731
vn -0.9970002770423889 -0.0468282550573349 0.061623960733413696
vn -0.9966625571250916 0.08160174638032913 -0.0022107467520982027
vn -0.9981845021247864 0.05956680327653885 0.008905159309506416
vn -0.9823743104934692 0.17920063436031342 -0.05317775160074234
vn -0.9863118529319763 0.15930800139904022 -0.042543452233076096
vn -0.9578917622566223 0.26796090602874756 -0.10315171629190445
vn -0.9636240005493164 0.2505604028701782 -0.09299591928720474
vn -0.9255622029304504 0.3465929329395294 -0.15234188735485077
vn -0.9324535727500916 0.3319163918495178 -0.14269468188285828
vn -0.8877959251403809 0.4141296446323395 -0.2007858157157898
vn -0.8952107429504395 0.40229108929634094 -0.1917281299829483
vn -0.847094714641571 0.4699046015739441 -0.24823404848575592
vn -0.8544174432754517 0.4608860909938812 -0.23990599811077118
vn -0.8060687780380249 0.513606607913971 -0.2940431833267212
vn -0.8127366900444031 0.5072436928749084 -0.28664079308509827
vn -0.7673885822296143 0.5454126000404358 -0.33710503578186035
vn -0.7729405760765076 0.5413835644721985 -0.3308577239513397
vn -0.7336331605911255 0.5661559700965881 -0.375832200050354
vn -0.7377681136131287 0.5639922022819519 -0.37095963954925537
vn -0.7070120573043823 0.5774685144424438 -0.40824514627456665
vn -0.7096466422080994 0.5765977501869202 -0.40489092469215393
vn -0.6889944672584534 0.5818094611167908 -0.432185560464859
vn -0.6902926564216614 0.581640362739563 -0.4303378164768219
vn -0.6799492835998535 0.5822974443435669 -0.44564422965049744
vn -0.6802940368652344 0.5823372602462769 -0.4450654685497284
vn -0.6789356470108032 0.5823267698287964 -0.44714850187301636
vn -0.6788257360458374 0.5823013186454773 -0.4473486840724945
vn -0.683782696723938 0.5850397348403931 -0.436084508895874
vn -0.6836650967597961 0.584961473941803 -0.4363740086555481
vn -0.6914836764335632 0.5928077697753906 -0.4128306806087494
vn -0.69158935546875 0.592945396900177 -0.41245606541633606
vn -0.6987870931625366 0.6068816184997559 -0.378670334815979
vn -0.699049711227417 0.6076264381408691 -0.3769874572753906
vn -0.7028019428253174 0.6273065209388733 -0.33549386262893677
vn -0.7029052376747131 0.6289904713630676 -0.3321072459220886
vn -0.7014438509941101 0.653073787689209 -0.285431444644928
vn -0.7009727954864502 0.655817449092865 -0.2802509069442749
vn -0.6936534643173218 0.6824164390563965 -0.23054884374141693
vn -0.6922726035118103 0.6860696077346802 -0.22375652194023132
vn -0.6794138550758362 0.7131488919258118 -0.17267154157161713
vn -0.6770021915435791 0.7173275351524353 -0.16464932262897491
vn -0.6596432328224182 0.7429782748222351 -0.11337615549564362
vn -0.6563476324081421 0.7471676468849182 -0.10463397949934006
vn -0.6360241770744324 0.7697701454162598 -0.05410200357437134
vn -0.6322342157363892 0.7734557390213013 -0.045232415199279785
vn -0.6107950806617737 0.7917803525924683 0.0036527139600366354
vn -0.6070451140403748 0.7945765852928162 0.012011924758553505
vn -0.5864775776863098 0.8078763484954834 0.058136384934186935
vn -0.5833020210266113 0.8096221685409546 0.06534974277019501
vn -0.5655155777931213 0.8177394866943359 0.10721094906330109
vn -0.5632836222648621 0.8185361623764038 0.1127391830086708
vn -0.549807071685791 0.8220089077949524 0.14836981892585754
vn -0.5485942363739014 0.822171688079834 0.15191441774368286
vn -0.5401557087898254 0.8223151564598083 0.1789681613445282
vn -0.539719820022583 0.8222386837005615 0.18062716722488403
vn -0.536765992641449 0.8216647505760193 0.19170105457305908
vn -0.5367660522460938 0.8216647505760193 0.19170106947422028
vn -0.8530006408691406 -0.4694567024707794 -0.2280358523130417
vn -0.8530006408691406 -0.4694567024707794 -0.2280358523130417
vn -0.8887372612953186 -0.4201832413673401 -0.18328139185905457
vn -0.8855262398719788 -0.4250182509422302 -0.18762384355068207
vn -0.9422427415847778 -0.32136502861976624 -0.09435711801052094
vn -0.9399607181549072 -0.32658806443214417 -0.09906571358442307
vn -0.9755476117134094 -0.21978284418582916 -0.0015697669005021453
vn -0.9743167161941528 -0.22508853673934937 -0.006474057212471962
vn -0.9884287714958191 -0.11965230852365494 0.09322983026504517
vn -0.9882538318634033 -0.12469656765460968 0.08834639191627502
vn -0.9818521738052368 -0.025126725435256958 0.18797583878040314
vn -0.9826020002365112 -0.029588498175144196 0.18335138261318207
vn -0.9579715132713318 0.06008019298315048 0.28050118684768677
vn -0.9593969583511353 0.056436799466609955 0.27635541558265686
vn -0.9199773073196411 0.13302333652973175 0.3687094449996948
vn -0.921759307384491 0.13030967116355896 0.3652110695838928
vn -0.8718135356903076 0.19177977740764618 0.45073458552360535
vn -0.8736314177513123 0.18996895849704742 0.4479731321334839
vn -0.8178185820579529 0.23557589948177338 0.5250492691993713
vn -0.8194133639335632 0.23452669382095337 0.5230286717414856
vn -0.762348473072052 0.2647991180419922 0.5905135869979858
vn -0.7635619640350342 0.2643047571182251 0.5891656279563904
vn -0.7094324827194214 0.2809036076068878 0.6463735103607178
vn -0.7102206945419312 0.28074485063552856 0.6455763578414917
vn -0.6624994277954102 0.28624093532562256 0.69221431016922
vn -0.6629106402397156 0.2862338721752167 0.691823422908783
vn -0.624174952507019 0.28385791182518005 0.7278943657875061
vn -0.6243141293525696 0.2838802635669708 0.7277663350105286
vn -0.5961478352546692 0.2772671580314636 0.7534789443016052
vn -0.5961378812789917 0.2772637605667114 0.7534881830215454
vn -0.579096794128418 0.2702055871486664 0.7691786885261536
vn -0.5790477395057678 0.27017849683761597 0.7692251801490784
vn -0.5726706981658936 0.2663831412792206 0.7752988338470459
vn -0.5726610422134399 0.2663736343383789 0.775309145450592
vn -0.5755267143249512 0.2692256569862366 0.7721958756446838
vn -0.5755988359451294 0.26929745078086853 0.7721171379089355
vn -0.5854321122169495 0.2816154360771179 0.7602381110191345
vn -0.585594654083252 0.2818431854248047 0.7600284218788147
vn -0.5994283556938171 0.3056459426879883 0.7397744655609131
vn -0.5996601581573486 0.3061102330684662 0.7393944263458252
vn -0.6140671372413635 0.34241560101509094 0.7111069560050964
vn -0.6143186092376709 0.3431991934776306 0.7105118036270142
vn -0.6257069706916809 0.3918779194355011 0.6744794249534607
vn -0.6258978843688965 0.39305782318115234 0.6736151576042175
vn -0.6308595538139343 0.45277342200279236 0.6300892233848572
vn -0.6308794021606445 0.454405814409256 0.6288930773735046
vn -0.6265634894371033 0.5226670503616333 0.5781326293945312
vn -0.6262785792350769 0.5247656106948853 0.5765380263328552
vn -0.6107513904571533 0.5981178283691406 0.5188813209533691
vn -0.6100255846977234 0.6006304025650024 0.516828715801239
vn -0.5825641751289368 0.6749780774116516 0.4527953565120697
vn -0.5812913775444031 0.6777740120887756 0.4502474367618561
vn -0.5425574779510498 0.7488217949867249 0.3806537091732025
vn -0.5406989455223083 0.7517012357711792 0.37761059403419495
vn -0.49273771047592163 0.8154719471931458 0.3036694824695587
vn -0.49035128951072693 0.8181957006454468 0.3001857101917267
vn -0.4363875985145569 0.8715358376502991 0.22358697652816772
vn -0.4336368441581726 0.873873233795166 0.21978294849395752
vn -0.3776768147945404 0.9148730039596558 0.14271485805511475
vn -0.3748105466365814 0.9166557192802429 0.13877783715724945
vn -0.32109856605529785 0.9448885321617126 0.06388596445322037
vn -0.31840410828590393 0.9460505843162537 0.06005917862057686
vn -0.27082547545433044 0.9625800848007202 -0.009655323810875416
vn -0.26856404542922974 0.9631726741790771 -0.013100660406053066
vn -0.23009410500526428 0.9703168869018555 -0.07444319874048233
vn -0.22843709588050842 0.9704889059066772 -0.07725207507610321
vn -0.20074500143527985 0.971373975276947 -0.12702013552188873
vn -0.19973301887512207 0.9713208079338074 -0.1290063112974167
vn -0.18299071490764618 0.9693060517311096 -0.16419538855552673
vn -0.18253163993358612 0.9692062735557556 -0.16529233753681183
vn -0.1754530966281891 0.9672719836235046 -0.18330620229244232
vn -0.17536261677742004 0.9672328233718872 -0.1835993528366089
vn -0.17546021938323975 0.9674301147460938 -0.18246284127235413
vn -0.17553244531154633 0.9674687385559082 -0.18218809366226196
vn -0.17954400181770325 0.9705206751823425 -0.16079048812389374
vn -0.17962360382080078 0.9705885052680969 -0.16029131412506104
vn -0.18406637012958527 0.9757271409034729 -0.11864268034696579
vn -0.18409210443496704 0.9757653474807739 -0.1182880774140358
vn -0.18582092225551605 0.9808841943740845 -0.0577649287879467
vn -0.18582141399383545 0.9808787107467651 -0.057855959981679916
vn -0.18551360070705414 0.9823697805404663 -0.02311410754919052
vn -0.18551360070705414 0.9823697805404663 -0.02311410754919052
vt 0.9867911338806152 0.014511168003082275
vt 0.021022574976086617 0.012470901012420654
vt 0.021022576838731766 0.03620779514312744
vt 0.9867911338806152 0.0384250283241272
vt 0.021022578701376915 0.05994462966918945
vt 0.9867911338806152 0.062338829040527344
vt 0.021022580564022064 0.08368146419525146
vt 0.9867911338806152 0.08625262975692749
vt 0.021022582426667213 0.10741835832595825
vt 0.9867911338806152 0.11016643047332764
vt 0.021022584289312363 0.13115519285202026
vt 0.9867911338806152 0.13408023118972778
vt 0.021022586151957512 0.15489208698272705
vt 0.9867911338806152 0.15799403190612793
vt 0.02102258801460266 0.17862892150878906
vt 0.9867911338806152 0.18190789222717285
vt 0.02102258987724781 0.20236575603485107
vt 0.9867911338806152 0.205821692943573
vt 0.02102259173989296 0.22610259056091309
vt 0.9867911338806152 0.22973549365997314
vt 0.02102259360253811 0.24983948469161987
vt 0.9867911338806152 0.2536492347717285
vt 0.021022595465183258 0.27357637882232666
vt 0.9867911338806152 0.27756309509277344
vt 0.021022597327828407 0.29731321334838867
vt 0.9867911338806152 0.30147695541381836
vt 0.021022599190473557 0.3210500478744507
vt 0.9867911338806152 0.32539069652557373
vt 0.021022599190473557 0.3447868824005127
vt 0.9867911338806152 0.3493044972419739
vt 0.021022601053118706 0.3685237169265747
vt 0.9867911338806152 0.373218297958374
vt 0.021022602915763855 0.3922605514526367
vt 0.98679119348526 0.39713215827941895
vt 0.021022604778409004 0.4159974455833435
vt 0.98679119348526 0.4210459589958191
vt 0.021022606641054153 0.4397342801094055
vt 0.98679119348526 0.44495975971221924
vt 0.021022608503699303 0.4634711742401123
vt 0.98679119348526 0.46887362003326416
vt 0.021022610366344452 0.4872080087661743
vt 0.98679119348526 0.4927874207496643
vt 0.0210226122289896 0.5109447836875916
vt 0.98679119348526 0.5167011618614197
vt 0.02102261409163475 0.5346816778182983
vt 0.98679119348526 0.5406149625778198
vt 0.0210226159542799 0.5584185123443604
vt 0.98679119348526 0.56452876329422
vt 0.02102261781692505 0.5821553468704224
vt 0.98679119348526 0.5884426236152649
vt 0.021022619679570198 0.6058921813964844
vt 0.98679119348526 0.6123563647270203
vt 0.021022621542215347 0.6296290755271912
vt 0.98679119348526 0.6362701654434204
vt 0.021022623404860497 0.6533659100532532
vt 0.98679119348526 0.6601839661598206
vt 0.021022625267505646 0.6771027445793152
vt 0.98679119348526 0.6840977668762207
vt 0.021022627130150795 0.7008395791053772
vt 0.98679119348526 0.7080115675926208
vt 0.021022628992795944 0.724576473236084
vt 0.98679119348526 0.7319253087043762
vt 0.021022630855441093 0.7483133673667908
vt 0.98679119348526 0.7558392286300659
vt 0.021022632718086243 0.7720502018928528
vt 0.98679119348526 0.7797529697418213
vt 0.021022634580731392 0.7957870364189148
vt 0.98679119348526 0.8036667704582214
vt 0.02102263644337654 0.8195238709449768
vt 0.98679119348526 0.8275805711746216
vt 0.02102263830602169 0.8432607650756836
vt 0.98679119348526 0.851494312286377
vt 0.02102264016866684 0.8669975996017456
vt 0.98679119348526 0.8754081130027771
vt 0.02102264203131199 0.8907344341278076
vt 0.98679119348526 0.8993219137191772
vt 0.021022643893957138 0.9144712686538696
vt 0.98679119348526 0.9232357740402222
vt 0.021022645756602287 0.9382081627845764
vt 0.98679119348526 0.9471495747566223
vt 0.021022645756602287 0.9619449973106384
vt 0.98679119348526 0.9710633158683777
vt 0.9867911338806152 0.014511168003082275
vt 0.021022574976086617 0.012470901012420654
vt 0.021022576838731766 0.03620779514312744
vt 0.9867911338806152 0.0384250283241272
vt 0.021022578701376915 0.05994462966918945
vt 0.9867911338806152 0.062338829040527344
vt 0.021022580564022064 0.08368146419525146
vt 0.9867911338806152 0.08625262975692749
vt 0.021022582426667213 0.10741835832595825
vt 0.9867911338806152 0.11016643047332764
vt 0.021022584289312363 0.13115519285202026
vt 0.9867911338806152 0.13408023118972778
vt 0.021022586151957512 0.15489208698272705
vt 0.9867911338806152 0.15799403190612793
vt 0.02102258801460266 0.17862892150878906
vt 0.9867911338806152 0.18190789222717285
vt 0.02102258987724781 0.20236575603485107
vt 0.9867911338806152 0.205821692943573
vt 0.02102259173989296 0.22610259056091309
vt 0.9867911338806152 0.22973549365997314
vt 0.02102259360253811 0.24983948469161987
vt 0.9867911338806152 0.2536492347717285
vt 0.021022595465183258 0.27357637882232666
vt 0.9867911338806152 0.27756309509277344
vt 0.021022597327828407 0.29731321334838867
vt 0.9867911338806152 0.30147695541381836
vt 0.021022599190473557 0.3210500478744507
vt 0.9867911338806152 0.32539069652557373
vt 0.021022599190473557 0.3447868824005127
vt 0.9867911338806152 0.3493044972419739
vt 0.021022601053118706 0.3685237169265747
vt 0.9867911338806152 0.373218297958374
vt 0.021022602915763855 0.3922605514526367
vt 0.98679119348526 0.39713215827941895
vt 0.021022604778409004 0.4159974455833435
vt 0.98679119348526 0.4210459589958191
vt 0.021022606641054153 0.4397342801094055
vt 0.98679119348526 0.44495975971221924
vt 0.021022608503699303 0.4634711742401123
vt 0.98679119348526 0.46887362003326416
vt 0.021022610366344452 0.4872080087661743
vt 0.98679119348526 0.4927874207496643
vt 0.0210226122289896 0.5109447836875916
vt 0.98679119348526 0.5167011618614197
vt 0.02102261409163475 0.5346816778182983
vt 0.98679119348526 0.5406149625778198
vt 0.0210226159542799 0.5584185123443604
vt 0.98679119348526 0.56452876329422
vt 0.02102261781692505 0.5821553468704224
vt 0.98679119348526 0.5884426236152649
vt 0.021022619679570198 0.6058921813964844
vt 0.98679119348526 0.6123563647270203
vt 0.021022621542215347 0.6296290755271912
vt 0.98679119348526 0.6362701654434204
vt 0.021022623404860497 0.6533659100532532
vt 0.98679119348526 0.6601839661598206
vt 0.021022625267505646 0.6771027445793152
vt 0.98679119348526 0.6840977668762207
vt 0.021022627130150795 0.7008395791053772
vt 0.98679119348526 0.7080115675926208
vt 0.021022628992795944 0.724576473236084
vt 0.98679119348526 0.7319253087043762
vt 0.021022630855441093 0.7483133673667908
vt 0.98679119348526 0.7558392286300659
vt 0.021022632718086243 0.7720502018928528
vt 0.98679119348526 0.7797529697418213
vt 0.021022634580731392 0.7957870364189148
vt 0.98679119348526 0.8036667704582214
vt 0.02102263644337654 0.8195238709449768
vt 0.98679119348526 0.8275805711746216
vt 0.02102263830602169 0.8432607650756836
vt 0.98679119348526 0.851494312286377
vt 0.02102264016866684 0.8669975996017456
vt 0.98679119348526 0.8754081130027771
vt 0.02102264203131199 0.8907344341278076
vt 0.98679119348526 0.8993219137191772
vt 0.021022643893957138 0.9144712686538696
vt 0.98679119348526 0.9232357740402222
vt 0.021022645756602287 0.9382081627845764
vt 0.98679119348526 0.9471495747566223
vt 0.021022645756602287 0.9619449973106384
vt 0.98679119348526 0.9710633158683777
vt 0.9867911338806152 0.014511168003082275
vt 0.021022574976086617 0.012470901012420654
vt 0.021022576838731766 0.03620779514312744
vt 0.9867911338806152 0.0384250283241272
vt 0.021022578701376915 0.05994462966918945
vt 0.9867911338806152 0.062338829040527344
vt 0.021022580564022064 0.08368146419525146
vt 0.9867911338806152 0.08625262975692749
vt 0.021022582426667213 0.10741835832595825
vt 0.9867911338806152 0.11016643047332764
vt 0.021022584289312363 0.13115519285202026
vt 0.9867911338806152 0.13408023118972778
vt 0.021022586151957512 0.15489208698272705
vt 0.9867911338806152 0.15799403190612793
vt 0.02102258801460266 0.17862892150878906
vt 0.9867911338806152 0.18190789222717285
vt 0.02102258987724781 0.20236575603485107
vt 0.9867911338806152 0.205821692943573
vt 0.02102259173989296 0.22610259056091309
vt 0.9867911338806152 0.22973549365997314
vt 0.02102259360253811 0.24983948469161987
vt 0.9867911338806152 0.2536492347717285
vt 0.021022595465183258 0.27357637882232666
vt 0.9867911338806152 0.27756309509277344
vt 0.021022597327828407 0.29731321334838867
vt 0.9867911338806152 0.30147695541381836
vt 0.021022599190473557 0.3210500478744507
vt 0.9867911338806152 0.32539069652557373
vt 0.021022599190473557 0.3447868824005127
vt 0.9867911338806152 0.3493044972419739
vt 0.021022601053118706 0.3685237169265747
vt 0.9867911338806152 0.373218297958374
vt 0.021022602915763855 0.3922605514526367
vt 0.98679119348526 0.39713215827941895
vt 0.021022604778409004 0.4159974455833435
vt 0.98679119348526 0.4210459589958191
vt 0.021022606641054153 0.4397342801094055
vt 0.98679119348526 0.44495975971221924
vt 0.021022608503699303 0.4634711742401123
vt 0.98679119348526 0.46887362003326416
vt 0.021022610366344452 0.4872080087661743
vt 0.98679119348526 0.4927874207496643
vt 0.0210226122289896 0.5109447836875916
vt 0.98679119348526 0.5167011618614197
vt 0.02102261409163475 0.5346816778182983
vt 0.98679119348526 0.5406149625778198
vt 0.0210226159542799 0.5584185123443604
vt 0.98679119348526 0.56452876329422
vt 0.02102261781692505 0.5821553468704224
vt 0.98679119348526 0.5884426236152649
vt 0.021022619679570198 0.6058921813964844
vt 0.98679119348526 0.6123563647270203
vt 0.021022621542215347 0.6296290755271912
vt 0.98679119348526 0.6362701654434204
vt 0.021022623404860497 0.6533659100532532
vt 0.98679119348526 0.6601839661598206
vt 0.021022625267505646 0.6771027445793152
vt 0.98679119348526 0.6840977668762207
vt 0.021022627130150795 0.7008395791053772
vt 0.98679119348526 0.7080115675926208
vt 0.021022628992795944 0.724576473236084
vt 0.98679119348526 0.7319253087043762
vt 0.021022630855441093 0.7483133673667908
vt 0.98679119348526 0.7558392286300659
vt 0.021022632718086243 0.7720502018928528
vt 0.98679119348526 0.7797529697418213
vt 0.021022634580731392 0.7957870364189148
vt 0.98679119348526 0.8036667704582214
vt 0.02102263644337654 0.8195238709449768
vt 0.98679119348526 0.8275805711746216
vt 0.02102263830602169 0.8432607650756836
vt 0.98679119348526 0.851494312286377
vt 0.02102264016866684 0.8669975996017456
vt 0.98679119348526 0.8754081130027771
vt 0.02102264203131199 0.8907344341278076
vt 0.98679119348526 0.8993219137191772
vt 0.021022643893957138 0.9144712686538696
vt 0.98679119348526 0.9232357740402222
vt 0.021022645756602287 0.9382081627845764
vt 0.98679119348526 0.9471495747566223
vt 0.021022645756602287 0.9619449973106384
vt 0.98679119348526 0.9710633158683777

g Helix002
s 1
usemtl Helix002
f 3/3/3 2/2/2 1/1/1 
f 4/4/4 3/3/3 1/1/1 
f 5/5/5 3/3/3 4/4/4 
f 6/6/6 5/5/5 4/4/4 
f 7/7/7 5/5/5 6/6/6 
f 8/8/8 7/7/7 6/6/6 
f 9/9/9 7/7/7 8/8/8 
f 10/10/10 9/9/9 8/8/8 
f 11/11/11 9/9/9 10/10/10 
f 12/12/12 11/11/11 10/10/10 
f 13/13/13 11/11/11 12/12/12 
f 14/14/14 13/13/13 12/12/12 
f 15/15/15 13/13/13 14/14/14 
f 16/16/16 15/15/15 14/14/14 
f 17/17/17 15/15/15 16/16/16 
f 18/18/18 17/17/17 16/16/16 
f 19/19/19 17/17/17 18/18/18 
f 20/20/20 19/19/19 18/18/18 
f 21/21/21 19/19/19 20/20/20 
f 22/22/22 21/21/21 20/20/20 
f 23/23/23 21/21/21 22/22/22 
f 24/24/24 23/23/23 22/22/22 
f 25/25/25 23/23/23 24/24/24 
f 26/26/26 25/25/25 24/24/24 
f 27/27/27 25/25/25 26/26/26 
f 28/28/28 27/27/27 26/26/26 
f 29/29/29 27/27/27 28/28/28 
f 30/30/30 29/29/29 28/28/28 
f 31/31/31 29/29/29 30/30/30 
f 32/32/32 31/31/31 30/30/30 
f 33/33/33 31/31/31 32/32/32 
f 34/34/34 33/33/33 32/32/32 
f 35/35/35 33/33/33 34/34/34 
f 36/36/36 35/35/35 34/34/34 
f 37/37/37 35/35/35 36/36/36 
f 38/38/38 37/37/37 36/36/36 
f 39/39/39 37/37/37 38/38/38 
f 40/40/40 39/39/39 38/38/38 
f 41/41/41 39/39/39 40/40/40 
f 42/42/42 41/41/41 40/40/40 
f 43/43/43 41/41/41 42/42/42 
f 44/44/44 43/43/43 42/42/42 
f 45/45/45 43/43/43 44/44/44 
f 46/46/46 45/45/45 44/44/44 
f 47/47/47 45/45/45 46/46/46 
f 48/48/48 47/47/47 46/46/46 
f 49/49/49 47/47/47 48/48/48 
f 50/50/50 49/49/49 48/48/48 
f 51/51/51 49/49/49 50/50/50 
f 52/52/52 51/51/51 50/50/50 
f 53/53/53 51/51/51 52/52/52 
f 54/54/54 53/53/53 52/52/52 
f 55/55/55 53/53/53 54/54/54 
f 56/56/56 55/55/55 54/54/54 
f 57/57/57 55/55/55 56/56/56 
f 58/58/58 57/57/57 56/56/56 
f 59/59/59 57/57/57 58/58/58 
f 60/60/60 59/59/59 58/58/58 
f 61/61/61 59/59/59 60/60/60 
f 62/62/62 61/61/61 60/60/60 
f 63/63/63 61/61/61 62/62/62 
f 64/64/64 63/63/63 62/62/62 
f 65/65/65 63/63/63 64/64/64 
f 66/66/66 65/65/65 64/64/64 
f 67/67/67 65/65/65 66/66/66 
f 68/68/68 67/67/67 66/66/66 
f 69/69/69 67/67/67 68/68/68 
f 70/70/70 69/69/69 68/68/68 
f 71/71/71 69/69/69 70/70/70 
f 72/72/72 71/71/71 70/70/70 
f 73/73/73 71/71/71 72/72/72 
f 74/74/74 73/73/73 72/72/72 
f 75/75/75 73/73/73 74/74/74 
f 76/76/76 75/75/75 74/74/74 
f 77/77/77 75/75/75 76/76/76 
f 78/78/78 77/77/77 76/76/76 
f 79/79/79 77/77/77 78/78/78 
f 80/80/80 79/79/79 78/78/78 
f 81/81/81 79/79/79 80/80/80 
f 82/82/82 81/81/81 80/80/80 
f 85/85/85 84/84/84 83/83/83 
f 86/86/86 85/85/85 83/83/83 
f 87/87/87 85/85/85 86/86/86 
f 88/88/88 87/87/87 86/86/86 
f 89/89/89 87/87/87 88/88/88 
f 90/90/90 89/89/89 88/88/88 
f 91/91/91 89/89/89 90/90/90 
f 92/92/92 91/91/91 90/90/90 
f 93/93/93 91/91/91 92/92/92 
f 94/94/94 93/93/93 92/92/92 
f 95/95/95 93/93/93 94/94/94 
f 96/96/96 95/95/95 94/94/94 
f 97/97/97 95/95/95 96/96/96 
f 98/98/98 97/97/97 96/96/96 
f 99/99/99 97/97/97 98/98/98 
f 100/100/100 99/99/99 98/98/98 
f 101/101/101 99/99/99 100/100/100 
f 102/102/102 101/101/101 100/100/100 
f 103/103/103 101/101/101 102/102/102 
f 104/104/104 103/103/103 102/102/102 
f 105/105/105 103/103/103 104/104/104 
f 106/106/106 105/105/105 104/104/104 
f 107/107/107 105/105/105 106/106/106 
f 108/108/108 107/107/107 106/106/106 
f 109/109/109 107/107/107 108/108/108 
f 110/110/110 109/109/109 108/108/108 
f 111/111/111 109/109/109 110/110/110 
f 112/112/112 111/111/111 110/110/110 
f 113/113/113 111/111/111 112/112/112 
f 114/114/114 113/113/113 112/112/112 
f 115/115/115 113/113/113 114/114/114 
f 116/116/116 115/115/115 114/114/114 
f 117/117/117 115/115/115 116/116/116 
f 118/118/118 117/117/117 116/116/116 
f 119/119/119 117/117/117 118/118/118 
f 120/120/120 119/119/119 118/118/118 
f 121/121/121 119/119/119 120/120/120 
f 122/122/122 121/121/121 120/120/120 
f 123/123/123 121/121/121 122/122/122 
f 124/124/124 123/123/123 122/122/122 
f 125/125/125 123/123/123 124/124/124 
f 126/126/126 125/125/125 124/124/124 
f 127/127/127 125/125/125 126/126/126 
f 128/128/128 127/127/127 126/126/126 
f 129/129/129 127/127/127 128/128/128 
f 130/130/130 129/129/129 128/128/128 
f 131/131/131 129/129/129 130/130/130 
f 132/132/132 131/131/131 130/130/130 
f 133/133/133 131/131/131 132/132/132 
f 134/134/134 133/133/133 132/132/132 
f 135/135/135 133/133/133 134/134/134 
f 136/136/136 135/135/135 134/134/134 
f 137/137/137 135/135/135 136/136/136 
f 138/138/138 137/137/137 136/136/136 
f 139/139/139 137/137/137 138/138/138 
f 140/140/140 139/139/139 138/138/138 
f 141/141/141 139/139/139 140/140/140 
f 142/142/142 141/141/141 140/140/140 
f 143/143/143 141/141/141 142/142/142 
f 144/144/144 143/143/143 142/142/142 
f 145/145/145 143/143/143 144/144/144 
f 146/146/146 145/145/145 144/144/144 
f 147/147/147 145/145/145 146/146/146 
f 148/148/148 147/147/147 146/146/146 
f 149/149/149 147/147/147 148/148/148 
f 150/150/150 149/149/149 148/148/148 
f 151/151/151 149/149/149 150/150/150 
f 152/152/152 151/151/151 150/150/150 
f 153/153/153 151/151/151 152/152/152 
f 154/154/154 153/153/153 152/152/152 
f 155/155/155 153/153/153 154/154/154 
f 156/156/156 155/155/155 154/154/154 
f 157/157/157 155/155/155 156/156/156 
f 158/158/158 157/157/157 156/156/156 
f 159/159/159 157/157/157 158/158/158 
f 160/160/160 159/159/159 158/158/158 
f 161/161/161 159/159/159 160/160/160 
f 162/162/162 161/161/161 160/160/160 
f 163/163/163 161/161/161 162/162/162 
f 164/164/164 163/163/163 162/162/162 
f 167/167/167 166/166/166 165/165/165 
f 168/168/168 167/167/167 165/165/165 
f 169/169/169 167/167/167 168/168/168 
f 170/170/170 169/169/169 168/168/168 
f 171/171/171 169/169/169 170/170/170 
f 172/172/172 171/171/171 170/170/170 
f 173/173/173 171/171/171 172/172/172 
f 174/174/174 173/173/173 172/172/172 
f 175/175/175 173/173/173 174/174/174 
f 176/176/176 175/175/175 174/174/174 
f 177/177/177 175/175/175 176/176/176 
f 178/178/178 177/177/177 176/176/176 
f 179/179/179 177/177/177 178/178/178 
f 180/180/180 179/179/179 178/178/178 
f 181/181/181 179/179/179 180/180/180 
f 182/182/182 181/181/181 180/180/180 
f 183/183/183 181/181/181 182/182/182 
f 184/184/184 183/183/183 182/182/182 
f 185/185/185 183/183/183 184/184/184 
f 186/186/186 185/185/185 184/184/184 
f 187/187/187 185/185/185 186/186/186 
f 188/188/188 187/187/187 186/186/186 
f 189/189/189 187/187/187 188/188/188 
f 190/190/190 189/189/189 188/188/188 
f 191/191/191 189/189/189 190/190/190 
f 192/192/192 191/191/191 190/190/190 
f 193/193/193 191/191/191 192/192/192 
f 194/194/194 193/193/193 192/192/192 
f 195/195/195 193/193/193 194/194/194 
f 196/196/196 195/195/195 194/194/194 
f 197/197/197 195/195/195 196/196/196 
f 198/198/198 197/197/197 196/196/196 
f 199/199/199 197/197/197 198/198/198 
f 200/200/200 199/199/199 198/198/198 
f 201/201/201 199/199/199 200/200/200 
f 202/202/202 201/201/201 200/200/200 
f 203/203/203 201/201/201 202/202/202 
f 204/204/204 203/203/203 202/202/202 
f 205/205/205 203/203/203 204/204/204 
f 206/206/206 205/205/205 204/204/204 
f 207/207/207 205/205/205 206/206/206 
f 208/208/208 207/207/207 206/206/206 
f 209/209/209 207/207/207 208/208/208 
f 210/210/210 209/209/209 208/208/208 
f 211/211/211 209/209/209 210/210/210 
f 212/212/212 211/211/211 210/210/210 
f 213/213/213 211/211/211 212/212/212 
f 214/214/214 213/213/213 212/212/212 
f 215/215/215 213/213/213 214/214/214 
f 216/216/216 215/215/215 214/214/214 
f 217/217/217 215/215/215 216/216/216 
f 218/218/218 217/217/217 216/216/216 
f 219/219/219 217/217/217 218/218/218 
f 220/220/220 219/219/219 218/218/218 
f 221/221/221 219/219/219 220/220/220 
f 222/222/222 221/221/221 220/220/220 
f 223/223/223 221/221/221 222/222/222 
f 224/224/224 223/223/223 222/222/222 
f 225/225/225 223/223/223 224/224/224 
f 226/226/226 225/225/225 224/224/224 
f 227/227/227 225/225/225 226/226/226 
f 228/228/228 227/227/227 226/226/226 
f 229/229/229 227/227/227 228/228/228 
f 230/230/230 229/229/229 228/228/228 
f 231/231/231 229/229/229 230/230/230 
f 232/232/232 231/231/231 230/230/230 
f 233/233/233 231/231/231 232/232/232 
f 234/234/234 233/233/233 232/232/232 
f 235/235/235 233/233/233 234/234/234 
f 236/236/236 235/235/235 234/234/234 
f 237/237/237 235/235/235 236/236/236 
f 238/238/238 237/237/237 236/236/236 
f 239/239/239 237/237/237 238/238/238 
f 240/240/240 239/239/239 238/238/238 
f 241/241/241 239/239/239 240/240/240 
f 242/242/242 241/241/241 240/240/240 
f 243/243/243 241/241/241 242/242/242 
f 244/244/244 243/243/243 242/242/242 
f 245/245/245 243/243/243 244/244/244 
f 246/246/246 245/245/245 244/244/244 

