v -142.71243286132812 -47.648536682128906 0.0
v -106.42559814453125 -47.540618896484375 3.3600456390558975e-06
v -141.76333618164062 -64.2691421508789 0.0
v -105.43959045410156 -63.83724594116211 3.360045411682222e-06
v -68.7927474975586 -46.74006652832031 1.344018255622359e-05
v -67.35004425048828 -62.54156494140625 1.3440181646728888e-05
v -29.813880920410156 -45.24687194824219 3.0240405976655893e-05
v -27.494674682617188 -60.3820915222168 3.0240405976655893e-05
v 10.510986328125 -43.06104278564453 5.376073022489436e-05
v 14.126495361328125 -57.358829498291016 5.376072658691555e-05
v 52.181884765625 -40.18257522583008 8.400113438256085e-05
v 57.51348876953125 -53.471778869628906 8.400113438256085e-05
v 95.19877624511719 -36.61146545410156 0.00012096162390662357
v 102.66629028320312 -48.72093963623047 0.00012096162390662357
v 139.56167602539062 -32.34772491455078 0.00016464221698697656
v 149.58489990234375 -43.1063117980957 0.00016464221698697656
v 185.27056884765625 -27.391338348388672 0.00021504292089957744
v 198.26934814453125 -36.627891540527344 0.0002150429063476622
v -32.79840850830078 -30.032264709472656 3.0240407795645297e-05
v -71.35503387451172 -30.606353759765625 1.3440179827739485e-05
v -108.94215393066406 -30.56936264038086 3.360044956934871e-06
v -145.55975341796875 -29.92129135131836 0.0
v 47.22337341308594 -27.050846099853516 8.400113438256085e-05
v 88.68852233886719 -24.643524169921875 0.00012096163118258119
v 131.12319946289062 -21.62511444091797 0.00016464221698697656
v 174.52740478515625 -17.995628356933594 0.00021504287724383175
v -112.9892578125 -12.923473358154297 3.360045411682222e-06
v -150.30526733398438 -11.087406158447266 0.0
v -75.03691864013672 -14.140430450439453 1.3440181646728888e-05
v -36.448265075683594 -14.738265991210938 3.0240405976655893e-05
v 2.7766876220703125 -14.716987609863281 5.376072658691555e-05
v 6.72772216796875 -28.847095489501953 5.376071931095794e-05
v 42.63795471191406 -14.076602935791016 8.400112710660324e-05
v 83.13557434082031 -12.817096710205078 0.00012096162390662357
v 124.26947021484375 -10.938484191894531 0.00016464221698697656
v 166.0396728515625 -8.440753936767578 0.0002150429063476622
v -118.56690979003906 5.397056579589844 3.360045411682222e-06
v -156.94900512695312 8.853126525878906 0.0
v -79.83839416503906 2.6577224731445312 1.3440181646728888e-05
v -40.763458251953125 0.6351394653320312 3.0240405976655893e-05
v -1.3420867919921875 -0.6707077026367188 5.376072658691555e-05
v 38.42567443847656 -1.2598228454589844 8.400113438256085e-05
v 78.53985595703125 -1.1321945190429688 0.00012096162390662357
v 119.00048828125 -0.2878265380859375 0.00016464221698697656
v 159.80752563476562 1.2732925415039062 0.0002150429063476622
v -125.67511749267578 24.39220428466797 3.360045411682222e-06
v -165.49095153808594 29.900299072265625 0.0
v -85.75945281982422 19.78807830810547 1.3440181646728888e-05
v -45.74397277832031 16.087928771972656 3.0240405976655893e-05
v -5.6286468505859375 13.291725158691406 5.376072658691555e-05
v 34.58650207519531 11.39947509765625 8.400114165851846e-05
v 74.90145874023438 10.411178588867188 0.00012096162390662357
v 115.31625366210938 10.326850891113281 0.00016464221698697656
v 155.83087158203125 11.146492004394531 0.0002150429063476622
v -134.31387329101562 44.06200408935547 3.360045411682222e-06
v -175.93109130859375 52.054107666015625 0.0
v -92.80010986328125 37.25067138671875 1.3440181646728888e-05
v -51.389808654785156 31.62010955810547 3.0240407795645297e-05
v -10.082977294921875 27.170310974121094 5.376072658691555e-05
v 31.120407104492188 23.901283264160156 8.400114165851846e-05
v 72.22030639648438 21.813034057617188 0.00012096163118258119
v 113.21675109863281 20.905563354492188 0.00016464221698697656
v 154.1097412109375 21.178855895996094 0.0002150429063476622
v -144.48316955566406 64.40642547607422 3.360045411682222e-06
v -188.2694549560547 75.3145523071289 0.0
v -100.96035766601562 55.04545593261719 1.3440181646728888e-05
v -57.70098114013672 47.231658935546875 3.0240405976655893e-05
v -14.705055236816406 40.965065002441406 5.376072658691555e-05
v 28.027420043945312 36.24562072753906 8.400113438256085e-05
v 70.49644470214844 33.0733642578125 0.00012096162390662357
v 112.70201110839844 31.448272705078125 0.00016464221698697656
v 154.64413452148438 31.37036895751953 0.0002150429063476622
v -156.1830291748047 85.42545318603516 3.360045411682222e-06
v -202.50601196289062 99.68163299560547 0.0
v -110.24018096923828 73.17244720458984 1.3440181646728888e-05
v -64.6774673461914 62.92262268066406 3.0240405976655893e-05
v -19.494895935058594 54.67596435546875 5.376072658691555e-05
v 25.307540893554688 48.43248748779297 8.400113438256085e-05
v 69.7298583984375 44.192161560058594 0.00012096162390662357
v 113.77200317382812 41.95500946044922 0.00016464221698697656
v 157.43405151367188 41.721046447753906 0.0002150429063476622
vn -0.0 0.0 1.0
vn -0.0 0.0 1.0
vn -0.0 0.0 1.0
vn -0.0 0.0 1.0
vn -0.0 0.0 1.0
vn -0.0 0.0 1.0
vn -0.0 0.0 1.0
vn -0.0 0.0 1.0
vn -0.0 0.0 1.0
vn -0.0 0.0 1.0
vn -0.0 0.0 1.0
vn -0.0 0.0 1.0
vn -0.0 0.0 1.0
vn -0.0 0.0 1.0
vn -0.0 0.0 1.0
vn -0.0 0.0 1.0
vn -0.0 0.0 1.0
vn -0.0 0.0 1.0
vn -0.0 0.0 1.0
vn -0.0 0.0 1.0
vn -0.0 0.0 1.0
vn -0.0 0.0 1.0
vn -0.0 0.0 1.0
vn -0.0 0.0 1.0
vn -0.0 0.0 1.0
vn -0.0 0.0 1.0
vn -0.0 0.0 1.0
vn -0.0 0.0 1.0
vn -0.0 0.0 1.0
vn -0.0 0.0 1.0
vn -0.0 0.0 1.0
vn -0.0 0.0 1.0
vn -0.0 0.0 1.0
vn -0.0 0.0 1.0
vn -0.0 0.0 1.0
vn -0.0 0.0 1.0
vn -0.0 0.0 1.0
vn -0.0 0.0 1.0
vn -0.0 0.0 1.0
vn -0.0 0.0 1.0
vn -0.0 0.0 1.0
vn -0.0 0.0 1.0
vn -0.0 0.0 1.0
vn -0.0 0.0 1.0
vn -0.0 0.0 1.0
vn -0.0 0.0 1.0
vn -0.0 0.0 1.0
vn -0.0 0.0 1.0
vn -0.0 0.0 1.0
vn -0.0 0.0 1.0
vn -0.0 0.0 1.0
vn -0.0 0.0 1.0
vn -0.0 0.0 1.0
vn -0.0 0.0 1.0
vn -0.0 0.0 1.0
vn -0.0 0.0 1.0
vn -0.0 0.0 1.0
vn -0.0 0.0 1.0
vn -0.0 0.0 1.0
vn -0.0 0.0 1.0
vn -0.0 0.0 1.0
vn -0.0 0.0 1.0
vn -0.0 0.0 1.0
vn -0.0 0.0 1.0
vn -0.0 0.0 1.0
vn -0.0 0.0 1.0
vn -0.0 0.0 1.0
vn -0.0 0.0 1.0
vn -0.0 0.0 1.0
vn -0.0 0.0 1.0
vn -0.0 0.0 1.0
vn -0.0 0.0 1.0
vn -0.0 0.0 1.0
vn -0.0 0.0 1.0
vn -0.0 0.0 1.0
vn -0.0 0.0 1.0
vn -0.0 0.0 1.0
vn -0.0 0.0 1.0
vn -0.0 0.0 1.0
vn -0.0 0.0 1.0
vn -0.0 0.0 1.0
vt 0.1250002384185791 -2.384185791015625e-07
vt 0.1250002384185791 0.12499982118606567
vt 2.384185791015625e-07 -2.384185791015625e-07
vt 2.384185791015625e-07 0.1249997615814209
vt 0.12500017881393433 0.24999982118606567
vt 2.384185791015625e-07 0.2499997615814209
vt 0.12500017881393433 0.3749998211860657
vt 2.384185791015625e-07 0.3749997615814209
vt 0.12500011920928955 0.4999998211860657
vt 1.1920928955078125e-07 0.4999997615814209
vt 0.12500005960464478 0.6249998211860657
vt 1.1920928955078125e-07 0.6249997615814209
vt 0.12500005960464478 0.7499998211860657
vt 1.1920928955078125e-07 0.7499997615814209
vt 0.12500005960464478 0.8749998211860657
vt 0.0 0.8749997615814209
vt 0.125 0.9999998211860657
vt 0.0 0.9999997615814209
vt 0.2500001788139343 0.37499988079071045
vt 0.2500001788139343 0.24999988079071045
vt 0.2500002384185791 0.12499982118606567
vt 0.2500002384185791 -1.1920928955078125e-07
vt 0.2500000596046448 0.6249998211860657
vt 0.2500000596046448 0.7499998211860657
vt 0.2500000596046448 0.8749998211860657
vt 0.25 0.9999998211860657
vt 0.3750002384185791 0.12499988079071045
vt 0.3750002384185791 -1.1920928955078125e-07
vt 0.3750001788139343 0.24999988079071045
vt 0.3750001788139343 0.37499988079071045
vt 0.3750001788139343 0.49999988079071045
vt 0.25000011920928955 0.4999998211860657
vt 0.3750000596046448 0.6249998211860657
vt 0.3750000596046448 0.7499998211860657
vt 0.3750000596046448 0.8749998211860657
vt 0.3749999403953552 0.9999998211860657
vt 0.5000002384185791 0.12499988079071045
vt 0.5000002384185791 -1.1920928955078125e-07
vt 0.5000001788139343 0.24999988079071045
vt 0.5000001788139343 0.37499988079071045
vt 0.5000001788139343 0.49999988079071045
vt 0.5000000596046448 0.6249999403953552
vt 0.5000000596046448 0.7499999403953552
vt 0.5000000596046448 0.8749999403953552
vt 0.4999999403953552 0.9999998807907104
vt 0.6250002384185791 0.12499994039535522
vt 0.6250002384185791 -1.1920928955078125e-07
vt 0.6250002384185791 0.24999994039535522
vt 0.6250001788139343 0.3749999403953552
vt 0.6250001192092896 0.4999999403953552
vt 0.6250001192092896 0.6249999403953552
vt 0.6250000596046448 0.7499999403953552
vt 0.6250000596046448 0.8749999403953552
vt 0.625 0.9999998807907104
vt 0.7500002384185791 0.12499994039535522
vt 0.7500002384185791 0.0
vt 0.7500002384185791 0.24999994039535522
vt 0.7500001788139343 0.375
vt 0.7500001192092896 0.5
vt 0.7500001192092896 0.6249999403953552
vt 0.7500000596046448 0.7499999403953552
vt 0.7500000596046448 0.8749999403953552
vt 0.75 0.9999998807907104
vt 0.8750002384185791 0.125
vt 0.8750002384185791 0.0
vt 0.8750001788139343 0.25
vt 0.8750001788139343 0.375
vt 0.8750001192092896 0.5
vt 0.8750001192092896 0.625
vt 0.8750000596046448 0.75
vt 0.8750000596046448 0.875
vt 0.875 1.0
vt 1.000000238418579 0.125
vt 1.000000238418579 0.0
vt 1.000000238418579 0.25
vt 1.000000238418579 0.375
vt 1.0000001192092896 0.5
vt 1.0000001192092896 0.625
vt 1.0000001192092896 0.75
vt 1.0 0.875
vt 1.0 1.0

g Plane001
s 1
usemtl Plane001
f 3/3/3 2/2/2 1/1/1 
f 2/2/2 3/3/3 4/4/4 
f 4/4/4 5/5/5 2/2/2 
f 5/5/5 4/4/4 6/6/6 
f 6/6/6 7/7/7 5/5/5 
f 7/7/7 6/6/6 8/8/8 
f 8/8/8 9/9/9 7/7/7 
f 9/9/9 8/8/8 10/10/10 
f 10/10/10 11/11/11 9/9/9 
f 11/11/11 10/10/10 12/12/12 
f 12/12/12 13/13/13 11/11/11 
f 13/13/13 12/12/12 14/14/14 
f 14/14/14 15/15/15 13/13/13 
f 15/15/15 14/14/14 16/16/16 
f 16/16/16 17/17/17 15/15/15 
f 17/17/17 16/16/16 18/18/18 
f 19/19/19 5/5/5 7/7/7 
f 5/5/5 19/19/19 20/20/20 
f 20/20/20 2/2/2 5/5/5 
f 2/2/2 20/20/20 21/21/21 
f 21/21/21 1/1/1 2/2/2 
f 1/1/1 21/21/21 22/22/22 
f 23/23/23 9/9/9 11/11/11 
f 11/11/11 24/24/24 23/23/23 
f 24/24/24 11/11/11 13/13/13 
f 13/13/13 25/25/25 24/24/24 
f 25/25/25 13/13/13 15/15/15 
f 15/15/15 26/26/26 25/25/25 
f 26/26/26 15/15/15 17/17/17 
f 27/27/27 22/22/22 21/21/21 
f 22/22/22 27/27/27 28/28/28 
f 21/21/21 29/29/29 27/27/27 
f 29/29/29 21/21/21 20/20/20 
f 20/20/20 30/30/30 29/29/29 
f 30/30/30 20/20/20 19/19/19 
f 19/19/19 31/31/31 30/30/30 
f 31/31/31 19/19/19 32/32/32 
f 7/7/7 32/32/32 19/19/19 
f 32/32/32 7/7/7 9/9/9 
f 9/9/9 23/23/23 32/32/32 
f 32/32/32 33/33/33 31/31/31 
f 33/33/33 32/32/32 23/23/23 
f 23/23/23 34/34/34 33/33/33 
f 34/34/34 23/23/23 24/24/24 
f 24/24/24 35/35/35 34/34/34 
f 35/35/35 24/24/24 25/25/25 
f 25/25/25 36/36/36 35/35/35 
f 36/36/36 25/25/25 26/26/26 
f 37/37/37 28/28/28 27/27/27 
f 28/28/28 37/37/37 38/38/38 
f 27/27/27 39/39/39 37/37/37 
f 39/39/39 27/27/27 29/29/29 
f 29/29/29 40/40/40 39/39/39 
f 40/40/40 29/29/29 30/30/30 
f 30/30/30 41/41/41 40/40/40 
f 41/41/41 30/30/30 31/31/31 
f 31/31/31 42/42/42 41/41/41 
f 42/42/42 31/31/31 33/33/33 
f 33/33/33 43/43/43 42/42/42 
f 43/43/43 33/33/33 34/34/34 
f 34/34/34 44/44/44 43/43/43 
f 44/44/44 34/34/34 35/35/35 
f 35/35/35 45/45/45 44/44/44 
f 45/45/45 35/35/35 36/36/36 
f 46/46/46 38/38/38 37/37/37 
f 38/38/38 46/46/46 47/47/47 
f 37/37/37 48/48/48 46/46/46 
f 48/48/48 37/37/37 39/39/39 
f 39/39/39 49/49/49 48/48/48 
f 49/49/49 39/39/39 40/40/40 
f 40/40/40 50/50/50 49/49/49 
f 50/50/50 40/40/40 41/41/41 
f 41/41/41 51/51/51 50/50/50 
f 51/51/51 41/41/41 42/42/42 
f 42/42/42 52/52/52 51/51/51 
f 52/52/52 42/42/42 43/43/43 
f 43/43/43 53/53/53 52/52/52 
f 53/53/53 43/43/43 44/44/44 
f 44/44/44 54/54/54 53/53/53 
f 54/54/54 44/44/44 45/45/45 
f 55/55/55 47/47/47 46/46/46 
f 47/47/47 55/55/55 56/56/56 
f 46/46/46 57/57/57 55/55/55 
f 57/57/57 46/46/46 48/48/48 
f 48/48/48 58/58/58 57/57/57 
f 58/58/58 48/48/48 49/49/49 
f 49/49/49 59/59/59 58/58/58 
f 59/59/59 49/49/49 50/50/50 
f 50/50/50 60/60/60 59/59/59 
f 60/60/60 50/50/50 51/51/51 
f 51/51/51 61/61/61 60/60/60 
f 61/61/61 51/51/51 52/52/52 
f 52/52/52 62/62/62 61/61/61 
f 62/62/62 52/52/52 53/53/53 
f 53/53/53 63/63/63 62/62/62 
f 63/63/63 53/53/53 54/54/54 
f 64/64/64 56/56/56 55/55/55 
f 56/56/56 64/64/64 65/65/65 
f 55/55/55 66/66/66 64/64/64 
f 66/66/66 55/55/55 57/57/57 
f 57/57/57 67/67/67 66/66/66 
f 67/67/67 57/57/57 58/58/58 
f 58/58/58 68/68/68 67/67/67 
f 68/68/68 58/58/58 59/59/59 
f 59/59/59 69/69/69 68/68/68 
f 69/69/69 59/59/59 60/60/60 
f 60/60/60 70/70/70 69/69/69 
f 70/70/70 60/60/60 61/61/61 
f 61/61/61 71/71/71 70/70/70 
f 71/71/71 61/61/61 62/62/62 
f 62/62/62 72/72/72 71/71/71 
f 72/72/72 62/62/62 63/63/63 
f 73/73/73 65/65/65 64/64/64 
f 65/65/65 73/73/73 74/74/74 
f 64/64/64 75/75/75 73/73/73 
f 75/75/75 64/64/64 66/66/66 
f 66/66/66 76/76/76 75/75/75 
f 76/76/76 66/66/66 67/67/67 
f 67/67/67 77/77/77 76/76/76 
f 77/77/77 67/67/67 68/68/68 
f 68/68/68 78/78/78 77/77/77 
f 78/78/78 68/68/68 69/69/69 
f 69/69/69 79/79/79 78/78/78 
f 79/79/79 69/69/69 70/70/70 
f 70/70/70 80/80/80 79/79/79 
f 80/80/80 70/70/70 71/71/71 
f 71/71/71 81/81/81 80/80/80 
f 81/81/81 71/71/71 72/72/72 

