v 0.7434499859809875 0.0 0.0
v 0.7503349781036377 0.0 0.11704510450363159
v 0.7247679829597473 0.19420097768306732 0.11704510450363159
v 0.7181175351142883 0.19241902232170105 0.0
v 0.6498091816902161 0.37516748905181885 0.11704510450363159
v 0.6438465714454651 0.3717249929904938 0.0
v 0.5305669903755188 0.5305669903755188 0.11704510450363159
v 0.5256985425949097 0.5256985425949097 0.0
v 0.37516748905181885 0.6498092412948608 0.11704510450363159
v 0.3717249929904938 0.6438466310501099 0.0
v 0.1942010074853897 0.7247679829597473 0.11704510450363159
v 0.19241903722286224 0.7181175351142883 0.0
v 5.664871594035503e-08 0.7503349781036377 0.11704510450363159
v 5.6128911296582373e-08 0.7434499859809875 0.0
v 0.7181174159049988 -0.19241954386234283 0.0
v 0.724767804145813 -0.1942015290260315 0.11704510450363159
v 0.643846333026886 -0.3717254400253296 0.0
v 0.649808943271637 -0.37516793608665466 0.11704510450363159
v 0.5256982445716858 -0.5256988406181335 0.0
v 0.5305666327476501 -0.5305672883987427 0.11704510450363159
v 0.37172460556030273 -0.6438468098640442 0.0
v 0.3751671016216278 -0.6498094201087952 0.11704510450363159
v 0.1924186497926712 -0.7181176543235779 0.0
v 0.19420060515403748 -0.7247680425643921 0.11704510450363159
v -3.4563905160212016e-07 -0.7434499859809875 0.0
v -3.4883998978330055e-07 -0.7503349781036377 0.11704510450363159
v -0.19241930544376373 -0.7181174755096436 0.0
v -0.1942012757062912 -0.7247678637504578 0.11704510450363159
v -0.3717252314090729 -0.6438464522361755 0.0
v -0.37516772747039795 -0.6498090028762817 0.11704510450363159
v -0.5256988406181335 -0.5256983041763306 0.0
v -0.5305672883987427 -0.5305666923522949 0.11704510450363159
v -0.6438467502593994 -0.3717246949672699 0.0
v -0.6498093605041504 -0.37516719102859497 0.11704510450363159
v -0.7181176543235779 -0.19241870939731598 0.0
v -0.7247680425643921 -0.19420067965984344 0.11704510450363159
v -0.7434499859809875 2.8951009767297364e-07 0.0
v -0.7503349781036377 2.921912312103814e-07 0.11704510450363159
v -0.7181174755096436 0.19241926074028015 0.0
v -0.7247679233551025 0.19420123100280762 0.11704510450363159
v -0.6438465118408203 0.3717251718044281 0.0
v -0.6498090624809265 0.3751676678657532 0.11704510450363159
v -0.5256983637809753 0.5256986618041992 0.0
v -0.5305668115615845 0.5305670499801636 0.11704510450363159
v -0.3717248737812042 0.6438466906547546 0.0
v -0.3751673698425293 0.6498092412948608 0.11704510450363159
v -0.1924189329147339 0.7181175947189331 0.0
v -0.19420090317726135 0.7247679829597473 0.11704510450363159
v 5.6128911296582373e-08 0.7434499859809875 0.0
v 5.664871594035503e-08 0.7503349781036377 0.11704510450363159
v -0.19598287343978882 0.7314184308052063 0.23409020900726318
v 5.716852413684137e-08 0.7572200298309326 0.23409020900726318
v -0.37860989570617676 0.6557719111442566 0.23409020900726318
v -0.5354352593421936 0.5354355573654175 0.23409020900726318
v -0.6557716727256775 0.37861019372940063 0.23409020900726318
v -0.7314183115959167 0.19598321616649628 0.23409020900726318
v -0.7572200298309326 2.948723647477891e-07 0.23409020900726318
v -0.7314184904098511 -0.1959826499223709 0.23409020900726318
v -0.6557719707489014 -0.37860971689224243 0.23409020900726318
v -0.5354357361793518 -0.535435140132904 0.23409020900726318
v -0.3786102533340454 -0.6557716131210327 0.23409020900726318
v -0.19598326086997986 -0.7314183115959167 0.23409020900726318
v -3.520408995427715e-07 -0.7572200298309326 0.23409020900726318
v 0.19598259031772614 -0.7314184904098511 0.23409020900726318
v 0.37860962748527527 -0.6557720303535461 0.23409020900726318
v 0.5354350805282593 -0.5354357957839966 0.23409020900726318
v 0.6557715535163879 -0.3786104917526245 0.23409020900726318
v 0.731418251991272 -0.19598349928855896 0.23409020900726318
v 0.7572200298309326 0.0 0.23409020900726318
v 0.7314183712005615 0.19598297774791718 0.23409020900726318
v 0.655771791934967 0.3786100149154663 0.23409020900726318
v 0.5354354381561279 0.5354354381561279 0.23409020900726318
v 0.3786100149154663 0.6557718515396118 0.23409020900726318
v 0.19598299264907837 0.7314183712005615 0.23409020900726318
v 5.716852413684137e-08 0.7572200298309326 0.23409020900726318
v 0.7380687594413757 0.19776491820812225 0.3511353135108948
v 0.7641050219535828 0.0 0.3511353135108948
v 0.6617342829704285 0.3820525109767914 0.3511353135108948
v 0.5403038263320923 0.5403038263320923 0.3511353135108948
v 0.382052481174469 0.6617343425750732 0.3511353135108948
v 0.19776494801044464 0.7380687594413757 0.3511353135108948
v 5.768832167518667e-08 0.7641050219535828 0.3511353135108948
v 0.7447191476821899 0.1995469033718109 0.46818041801452637
v 0.7709900140762329 0.0 0.46818041801452637
v 0.6676969528198242 0.38549500703811646 0.46818041801452637
v 0.5451722741127014 0.5451722741127014 0.46818041801452637
v 0.38549500703811646 0.6676969528198242 0.46818041801452637
v 0.1995469331741333 0.7447191476821899 0.46818041801452637
v 5.820813342438669e-08 0.7709900140762329 0.46818041801452637
v 0.7380685806274414 -0.19776546955108643 0.3511353135108948
v 0.6617341041564941 -0.3820529580116272 0.3511353135108948
v 0.5403034687042236 -0.5403041839599609 0.3511353135108948
v 0.38205212354660034 -0.6617345809936523 0.3511353135108948
v 0.1977645307779312 -0.7380688190460205 0.3511353135108948
v -3.5524178088053304e-07 -0.7641050219535828 0.3511353135108948
v -0.19776521623134613 -0.7380686402320862 0.3511353135108948
v -0.3820527195930481 -0.6617342233657837 0.3511353135108948
v -0.5403041243553162 -0.5403035283088684 0.3511353135108948
v -0.6617345213890076 -0.3820521831512451 0.3511353135108948
v -0.7380688190460205 -0.19776460528373718 0.3511353135108948
v -0.7641050219535828 2.975534698634874e-07 0.3511353135108948
v -0.738068699836731 0.19776518642902374 0.3511353135108948
v -0.6617342233657837 0.3820526897907257 0.3511353135108948
v -0.5403037071228027 0.5403039455413818 0.3511353135108948
v -0.38205239176750183 0.661734402179718 0.3511353135108948
v -0.1977648288011551 0.7380688190460205 0.3511353135108948
v 5.768832167518667e-08 0.7641050219535828 0.3511353135108948
v -0.19954681396484375 0.7447192072868347 0.46818041801452637
v 5.820813342438669e-08 0.7709900140762329 0.46818041801452637
v -0.3854948878288269 0.667697012424469 0.46818041801452637
v -0.5451721549034119 0.5451724529266357 0.46818041801452637
v -0.6676968932151794 0.38549521565437317 0.46818041801452637
v -0.7447190880775452 0.1995471566915512 0.46818041801452637
v -0.7709900140762329 3.0023460340089514e-07 0.46818041801452637
v -0.7447192668914795 -0.19954659044742584 0.46818041801452637
v -0.6676971316337585 -0.3854947090148926 0.46818041801452637
v -0.5451725721359253 -0.5451719760894775 0.46818041801452637
v -0.38549524545669556 -0.6676968336105347 0.46818041801452637
v -0.1995472013950348 -0.7447190880775452 0.46818041801452637
v -3.5844274748342286e-07 -0.7709900140762329 0.46818041801452637
v 0.19954651594161987 -0.7447192668914795 0.46818041801452637
v 0.3854946196079254 -0.6676971912384033 0.46818041801452637
v 0.5451719760894775 -0.5451726317405701 0.46818041801452637
v 0.6676967144012451 -0.38549548387527466 0.46818041801452637
v 0.7447190880775452 -0.19954745471477509 0.46818041801452637
v -3.616436572428938e-07 -0.7778750658035278 0.585225522518158
v -0.20132917165756226 -0.7513694763183594 0.585225522518158
v 0.20132848620414734 -0.7513696551322937 0.585225522518158
v 0.3889371454715729 -0.6736597418785095 0.585225522518158
v 0.5500404238700867 -0.5500410795211792 0.585225522518158
v 0.6736593246459961 -0.38893797993659973 0.585225522518158
v 0.7513694167137146 -0.20132943987846375 0.585225522518158
v 0.7778750658035278 0.0 0.585225522518158
v 0.7513695955276489 0.20132887363433838 0.585225522518158
v 0.6736595630645752 0.3889375329017639 0.585225522518158
v 0.5500407218933105 0.5500407218933105 0.585225522518158
v 0.38893750309944153 0.67365962266922 0.585225522518158
v 0.20132888853549957 0.7513695955276489 0.585225522518158
v 5.872793096273199e-08 0.7778750658035278 0.585225522518158
v 5.872793096273199e-08 0.7778750658035278 0.585225522518158
v -0.20132878422737122 0.7513696551322937 0.585225522518158
v -0.388937383890152 0.67365962266922 0.585225522518158
v -0.5500405430793762 0.5500408411026001 0.585225522518158
v -0.6736594438552856 0.38893771171569824 0.585225522518158
v -0.7513695359230042 0.20132912695407867 0.585225522518158
v -0.7778750658035278 3.0291570851659344e-07 0.585225522518158
v -0.7513696551322937 -0.20132854580879211 0.585225522518158
v -0.6736596822738647 -0.38893720507621765 0.585225522518158
v -0.5500410199165344 -0.5500404238700867 0.585225522518158
v -0.388937771320343 -0.6736593842506409 0.585225522518158
vn 0.9982744455337524 0.0 -0.05872203782200813
vn 0.9982744455337524 0.0 -0.05872214958071709
vn 0.9642589092254639 0.25837242603302 -0.0587221197783947
vn 0.9642590284347534 0.2583724558353424 -0.05872200429439545
vn 0.8645309805870056 0.49913719296455383 -0.05872214585542679
vn 0.8645309805870056 0.49913713335990906 -0.05872202292084694
vn 0.7058866024017334 0.7058865427970886 -0.05872216448187828
vn 0.7058866620063782 0.7058864235877991 -0.05872206389904022
vn 0.49913719296455383 0.8645309805870056 -0.05872214585542679
vn 0.4991372227668762 0.8645308613777161 -0.05872202664613724
vn 0.25837236642837524 0.9642590284347534 -0.05872213840484619
vn 0.25837242603302 0.9642590284347534 -0.05872200429439545
vn -0.0 0.9982744455337524 -0.05872214958071709
vn -0.0 0.9982744455337524 -0.058722034096717834
vn 0.9642587900161743 -0.25837287306785583 -0.05872201547026634
vn 0.9642587900161743 -0.25837287306785583 -0.058722130954265594
vn 0.864530622959137 -0.4991377592086792 -0.05872195214033127
vn 0.8645306825637817 -0.49913766980171204 -0.0587221197783947
vn 0.7058860659599304 -0.7058870196342468 -0.05872199684381485
vn 0.7058861255645752 -0.7058870792388916 -0.058722153306007385
vn 0.49913665652275085 -0.8645313382148743 -0.058722130954265594
vn 0.49913665652275085 -0.8645312190055847 -0.05872218683362007
vn 0.2583719789981842 -0.964259147644043 -0.05872208997607231
vn 0.2583719491958618 -0.964259147644043 -0.05872216820716858
vn -5.046389901508519e-07 -0.9982744455337524 -0.058722034096717834
vn -5.023174480811576e-07 -0.9982744455337524 -0.05872214213013649
vn -0.25837284326553345 -0.9642589092254639 -0.058722011744976044
vn -0.25837281346321106 -0.9642587900161743 -0.0587221123278141
vn -0.49913740158081055 -0.8645308017730713 -0.0587218701839447
vn -0.49913743138313293 -0.8645308017730713 -0.058722060173749924
vn -0.705886960029602 -0.7058862447738647 -0.05872185900807381
vn -0.705886960029602 -0.70588618516922 -0.05872206762433052
vn -0.8645312190055847 -0.49913671612739563 -0.058722056448459625
vn -0.8645312190055847 -0.499136745929718 -0.05872216075658798
vn -0.964259147644043 -0.25837206840515137 -0.05872209742665291
vn -0.964259147644043 -0.258372038602829 -0.058722179383039474
vn -0.9982744455337524 3.713381033776386e-07 -0.058722034096717834
vn -0.9982744455337524 3.707581299750018e-07 -0.05872214958071709
vn -0.9642589092254639 0.2583727240562439 -0.05872201547026634
vn -0.9642589092254639 0.2583727538585663 -0.058722130954265594
vn -0.8645308017730713 0.4991374909877777 -0.05872197076678276
vn -0.8645308017730713 0.49913743138313293 -0.058722130954265594
vn -0.7058864831924438 0.7058867812156677 -0.05872191861271858
vn -0.7058865427970886 0.7058866620063782 -0.05872217193245888
vn -0.49913719296455383 0.8645309805870056 -0.05872194468975067
vn -0.4991370737552643 0.8645309805870056 -0.058722130954265594
vn -0.2583722472190857 0.9642590284347534 -0.05872200429439545
vn -0.2583722174167633 0.9642590284347534 -0.0587221197783947
vn -0.0 0.9982744455337524 -0.058722034096717834
vn -0.0 0.9982744455337524 -0.05872214958071709
vn -0.25837230682373047 0.9642590284347534 -0.05872189626097679
vn -0.0 0.9982744455337524 -0.05872192978858948
vn -0.4991370737552643 0.8645310401916504 -0.058721885085105896
vn -0.7058864831924438 0.705886721611023 -0.05872192233800888
vn -0.8645308017730713 0.49913743138313293 -0.05872191861271858
vn -0.9642589092254639 0.2583727538585663 -0.05872192606329918
vn -0.9982744455337524 3.7315004419724573e-07 -0.05872192978858948
vn -0.964259147644043 -0.258372038602829 -0.058721911162137985
vn -0.8645312190055847 -0.49913671612739563 -0.058721888810396194
vn -0.705886960029602 -0.70588618516922 -0.05872194841504097
vn -0.49913740158081055 -0.8645308017730713 -0.05872197821736336
vn -0.25837287306785583 -0.9642587900161743 -0.05872195586562157
vn -4.927494501316687e-07 -0.9982744455337524 -0.05872192606329918
vn 0.25837191939353943 -0.964259147644043 -0.05872189253568649
vn 0.49913662672042847 -0.8645313382148743 -0.058721885085105896
vn 0.7058861255645752 -0.7058871388435364 -0.058721959590911865
vn 0.864530622959137 -0.4991377592086792 -0.05872200429439545
vn 0.9642587900161743 -0.25837287306785583 -0.058721963316202164
vn 0.9982744455337524 0.0 -0.05872192978858948
vn 0.9642590284347534 0.2583724856376648 -0.058721914887428284
vn 0.8645310401916504 0.49913710355758667 -0.05872189253568649
vn 0.7058866620063782 0.7058865427970886 -0.05872190743684769
vn 0.49913713335990906 0.8645309805870056 -0.05872189253568649
vn 0.2583724558353424 0.9642590284347534 -0.05872192606329918
vn -0.0 0.9982744455337524 -0.05872192978858948
vn 0.9642590284347534 0.2583724856376648 -0.05872190743684769
vn 0.9982744455337524 0.0 -0.058721985667943954
vn 0.8645310401916504 0.49913710355758667 -0.05872189253568649
vn 0.7058866024017334 0.7058866024017334 -0.05872191861271858
vn 0.4991372227668762 0.8645309805870056 -0.05872189998626709
vn 0.2583724856376648 0.9642590284347534 -0.05872192233800888
vn -0.0 0.9982744455337524 -0.05872192978858948
vn 0.9642589092254639 0.2583724558353424 -0.05872217193245888
vn 0.9982744455337524 0.0 -0.05872214958071709
vn 0.8645309805870056 0.49913713335990906 -0.058722157031297684
vn 0.7058866024017334 0.7058865427970886 -0.05872209742665291
vn 0.49913713335990906 0.8645309805870056 -0.05872214958071709
vn 0.25837242603302 0.9642589092254639 -0.058722175657749176
vn -0.0 0.9982744455337524 -0.05872214958071709
vn 0.9642587900161743 -0.25837284326553345 -0.05872206762433052
vn 0.864530622959137 -0.4991377592086792 -0.05872203782200813
vn 0.7058861255645752 -0.7058871388435364 -0.05872195214033127
vn 0.49913662672042847 -0.8645313382148743 -0.05872189998626709
vn 0.2583719491958618 -0.964259147644043 -0.05872190371155739
vn -4.879655080003431e-07 -0.9982744455337524 -0.05872192606329918
vn -0.25837284326553345 -0.9642589092254639 -0.05872197076678276
vn -0.4991374909877777 -0.8645308017730713 -0.05872198939323425
vn -0.705886960029602 -0.70588618516922 -0.058721959590911865
vn -0.8645312190055847 -0.4991368055343628 -0.05872190371155739
vn -0.964259147644043 -0.25837206840515137 -0.058721914887428284
vn -0.9982744455337524 3.7075810155329236e-07 -0.058721937239170074
vn -0.9642589092254639 0.2583727538585663 -0.05872197076678276
vn -0.8645308017730713 0.4991374909877777 -0.05872200429439545
vn -0.7058864235877991 0.7058866620063782 -0.05872197076678276
vn -0.4991370737552643 0.8645310401916504 -0.05872189253568649
vn -0.25837230682373047 0.9642590284347534 -0.058721914887428284
vn -0.0 0.9982744455337524 -0.05872192978858948
vn -0.25837230682373047 0.9642590284347534 -0.05872218310832977
vn -0.0 0.9982744455337524 -0.05872214958071709
vn -0.49913695454597473 0.8645310401916504 -0.05872219428420067
vn -0.7058863639831543 0.7058868408203125 -0.058722175657749176
vn -0.8645308017730713 0.49913743138313293 -0.05872219055891037
vn -0.9642589092254639 0.2583727240562439 -0.058722179383039474
vn -0.9982744455337524 3.68366158909339e-07 -0.05872214958071709
vn -0.9642590284347534 -0.25837206840515137 -0.05872213467955589
vn -0.8645312190055847 -0.499136745929718 -0.058722153306007385
vn -0.705886960029602 -0.70588618516922 -0.058722201734781265
vn -0.49913740158081055 -0.8645308017730713 -0.058722179383039474
vn -0.25837281346321106 -0.9642589092254639 -0.058722130954265594
vn -4.87965564843762e-07 -0.9982744455337524 -0.05872214958071709
vn 0.2583719789981842 -0.964259147644043 -0.05872213467955589
vn 0.49913665652275085 -0.8645313382148743 -0.058722157031297684
vn 0.7058860659599304 -0.7058871388435364 -0.05872217193245888
vn 0.864530622959137 -0.4991377890110016 -0.058722153306007385
vn 0.9642587900161743 -0.25837284326553345 -0.05872213840484619
vn -4.855508564105548e-07 -0.9982744455337524 -0.05872204527258873
vn -0.25837281346321106 -0.9642589092254639 -0.058722030371427536
vn 0.2583719789981842 -0.964259147644043 -0.058722011744976044
vn 0.4991365671157837 -0.8645313382148743 -0.058722034096717834
vn 0.7058860659599304 -0.7058871388435364 -0.05872207507491112
vn 0.864530622959137 -0.4991377592086792 -0.05872194096446037
vn 0.9642589092254639 -0.25837287306785583 -0.058721836656332016
vn 0.9982744455337524 0.0 -0.05872194468975067
vn 0.9642590284347534 0.25837242603302 -0.0587221197783947
vn 0.8645309805870056 0.49913719296455383 -0.05872206762433052
vn 0.7058866620063782 0.7058866024017334 -0.05872192978858948
vn 0.49913713335990906 0.8645309805870056 -0.058722060173749924
vn 0.25837239623069763 0.9642590284347534 -0.0587221160531044
vn -0.0 0.9982744455337524 -0.05872204527258873
vn -0.0 0.9982744455337524 -0.05872204527258873
vn -0.2583722770214081 0.9642590284347534 -0.0587221160531044
vn -0.4991370737552643 0.8645310401916504 -0.05872206389904022
vn -0.7058863639831543 0.7058868408203125 -0.05872185528278351
vn -0.8645308017730713 0.49913740158081055 -0.058721888810396194
vn -0.9642589092254639 0.2583727240562439 -0.058722034096717834
vn -0.9982744455337524 3.653649969237449e-07 -0.05872205272316933
vn -0.964259147644043 -0.25837206840515137 -0.05872201919555664
vn -0.8645312190055847 -0.49913671612739563 -0.058722034096717834
vn -0.705886960029602 -0.7058862447738647 -0.058722104877233505
vn -0.49913740158081055 -0.8645308017730713 -0.058722082525491714
vt 0.75 1.0
vt 0.75 0.800000011920929
vt 0.7916666269302368 0.800000011920929
vt 0.7916666269302368 1.0
vt 0.8333333134651184 0.800000011920929
vt 0.8333333134651184 1.0
vt 0.875 0.800000011920929
vt 0.875 1.0
vt 0.9166666269302368 0.800000011920929
vt 0.9166666865348816 1.0
vt 0.9583333134651184 0.800000011920929
vt 0.9583333134651184 1.0
vt 0.9999999403953552 0.800000011920929
vt 0.9999999403953552 1.0
vt 0.7083332538604736 1.0
vt 0.7083332538604736 0.800000011920929
vt 0.6666665077209473 1.0
vt 0.666666567325592 0.800000011920929
vt 0.6249998807907104 1.0
vt 0.6249998807907104 0.800000011920929
vt 0.5833332538604736 1.0
vt 0.5833332538604736 0.800000011920929
vt 0.541666567325592 1.0
vt 0.541666567325592 0.800000011920929
vt 0.49999991059303284 1.0
vt 0.49999991059303284 0.800000011920929
vt 0.45833325386047363 1.0
vt 0.45833325386047363 0.800000011920929
vt 0.41666659712791443 1.0
vt 0.41666659712791443 0.800000011920929
vt 0.37499991059303284 1.0
vt 0.37499991059303284 0.800000011920929
vt 0.33333325386047363 1.0
vt 0.33333325386047363 0.800000011920929
vt 0.2916666269302368 1.0
vt 0.2916666269302368 0.800000011920929
vt 0.24999994039535522 1.0
vt 0.24999994039535522 0.800000011920929
vt 0.20833328366279602 1.0
vt 0.20833328366279602 0.800000011920929
vt 0.16666662693023682 1.0
vt 0.16666662693023682 0.800000011920929
vt 0.12499997019767761 1.0
vt 0.12499997019767761 0.800000011920929
vt 0.08333331346511841 1.0
vt 0.08333331346511841 0.800000011920929
vt 0.041666656732559204 1.0
vt 0.041666656732559204 0.800000011920929
vt -5.960464477539063e-08 1.0
vt -5.960464477539063e-08 0.800000011920929
vt 0.041666656732559204 0.5999999940395355
vt -5.960464477539063e-08 0.5999999940395355
vt 0.08333331346511841 0.5999999940395355
vt 0.12499997019767761 0.5999999940395355
vt 0.16666662693023682 0.5999999940395355
vt 0.20833328366279602 0.5999999940395355
vt 0.24999994039535522 0.5999999940395355
vt 0.2916666269302368 0.5999999940395355
vt 0.33333325386047363 0.5999999940395355
vt 0.37499991059303284 0.5999999940395355
vt 0.41666659712791443 0.5999999940395355
vt 0.45833325386047363 0.5999999940395355
vt 0.49999991059303284 0.5999999940395355
vt 0.541666567325592 0.5999999940395355
vt 0.5833332538604736 0.5999999940395355
vt 0.6249998807907104 0.5999999940395355
vt 0.6666665077209473 0.5999999940395355
vt 0.7083332538604736 0.5999999940395355
vt 0.75 0.5999999940395355
vt 0.7916666269302368 0.5999999940395355
vt 0.8333333134651184 0.5999999940395355
vt 0.875 0.5999999940395355
vt 0.9166666865348816 0.5999999940395355
vt 0.9583333134651184 0.5999999940395355
vt 0.9999999403953552 0.5999999940395355
vt 0.7916666269302368 0.3999999761581421
vt 0.75 0.3999999761581421
vt 0.8333333134651184 0.3999999761581421
vt 0.875 0.3999999761581421
vt 0.9166666865348816 0.3999999761581421
vt 0.9583333134651184 0.3999999761581421
vt 0.9999999403953552 0.3999999761581421
vt 0.7916666269302368 0.19999998807907104
vt 0.75 0.19999998807907104
vt 0.8333333134651184 0.19999998807907104
vt 0.875 0.19999998807907104
vt 0.9166666269302368 0.19999998807907104
vt 0.9583333134651184 0.19999998807907104
vt 0.9999999403953552 0.19999998807907104
vt 0.7083332538604736 0.3999999761581421
vt 0.666666567325592 0.3999999761581421
vt 0.6249998807907104 0.3999999761581421
vt 0.5833332538604736 0.3999999761581421
vt 0.541666567325592 0.3999999761581421
vt 0.49999991059303284 0.3999999761581421
vt 0.45833325386047363 0.3999999761581421
vt 0.4166666567325592 0.3999999761581421
vt 0.37499991059303284 0.3999999761581421
vt 0.33333325386047363 0.3999999761581421
vt 0.29166659712791443 0.3999999761581421
vt 0.24999994039535522 0.3999999761581421
vt 0.20833328366279602 0.3999999761581421
vt 0.16666662693023682 0.3999999761581421
vt 0.12499997019767761 0.3999999761581421
vt 0.08333331346511841 0.3999999761581421
vt 0.041666656732559204 0.3999999761581421
vt -5.960464477539063e-08 0.3999999761581421
vt 0.041666656732559204 0.19999998807907104
vt -5.960464477539063e-08 0.19999998807907104
vt 0.08333331346511841 0.19999998807907104
vt 0.12499997019767761 0.19999998807907104
vt 0.16666662693023682 0.19999998807907104
vt 0.20833328366279602 0.19999998807907104
vt 0.24999994039535522 0.19999998807907104
vt 0.29166659712791443 0.19999998807907104
vt 0.33333325386047363 0.19999998807907104
vt 0.37499991059303284 0.19999998807907104
vt 0.41666659712791443 0.19999998807907104
vt 0.45833325386047363 0.19999998807907104
vt 0.49999991059303284 0.19999998807907104
vt 0.541666567325592 0.19999998807907104
vt 0.5833332538604736 0.19999998807907104
vt 0.6249998807907104 0.19999998807907104
vt 0.666666567325592 0.19999998807907104
vt 0.7083332538604736 0.19999998807907104
vt 0.49999991059303284 0.0
vt 0.45833325386047363 0.0
vt 0.541666567325592 0.0
vt 0.5833332538604736 0.0
vt 0.6249999403953552 0.0
vt 0.666666567325592 0.0
vt 0.7083332538604736 0.0
vt 0.75 0.0
vt 0.7916666269302368 0.0
vt 0.8333333134651184 0.0
vt 0.875 0.0
vt 0.9166666865348816 0.0
vt 0.9583333134651184 0.0
vt 0.9999999403953552 0.0
vt -5.960464477539063e-08 0.0
vt 0.041666656732559204 0.0
vt 0.08333331346511841 0.0
vt 0.12499997019767761 0.0
vt 0.16666662693023682 0.0
vt 0.20833328366279602 0.0
vt 0.24999994039535522 0.0
vt 0.29166659712791443 0.0
vt 0.33333325386047363 0.0
vt 0.37499991059303284 0.0
vt 0.4166666567325592 0.0

g Skill_Dispel_yuanzhu
s 1
usemtl Skill_Dispel_yuanzhu
f 3/3/3 2/2/2 1/1/1 
f 4/4/4 3/3/3 1/1/1 
f 5/5/5 3/3/3 4/4/4 
f 6/6/6 5/5/5 4/4/4 
f 7/7/7 5/5/5 6/6/6 
f 8/8/8 7/7/7 6/6/6 
f 9/9/9 7/7/7 8/8/8 
f 10/10/10 9/9/9 8/8/8 
f 11/11/11 9/9/9 10/10/10 
f 12/12/12 11/11/11 10/10/10 
f 13/13/13 11/11/11 12/12/12 
f 14/14/14 13/13/13 12/12/12 
f 1/1/1 2/2/2 15/15/15 
f 2/2/2 16/16/16 15/15/15 
f 15/15/15 16/16/16 17/17/17 
f 16/16/16 18/18/18 17/17/17 
f 17/17/17 18/18/18 19/19/19 
f 18/18/18 20/20/20 19/19/19 
f 19/19/19 20/20/20 21/21/21 
f 20/20/20 22/22/22 21/21/21 
f 21/21/21 22/22/22 23/23/23 
f 22/22/22 24/24/24 23/23/23 
f 23/23/23 24/24/24 25/25/25 
f 24/24/24 26/26/26 25/25/25 
f 25/25/25 26/26/26 27/27/27 
f 26/26/26 28/28/28 27/27/27 
f 27/27/27 28/28/28 29/29/29 
f 28/28/28 30/30/30 29/29/29 
f 29/29/29 30/30/30 31/31/31 
f 30/30/30 32/32/32 31/31/31 
f 31/31/31 32/32/32 33/33/33 
f 32/32/32 34/34/34 33/33/33 
f 33/33/33 34/34/34 35/35/35 
f 34/34/34 36/36/36 35/35/35 
f 35/35/35 36/36/36 37/37/37 
f 36/36/36 38/38/38 37/37/37 
f 37/37/37 38/38/38 39/39/39 
f 38/38/38 40/40/40 39/39/39 
f 39/39/39 40/40/40 41/41/41 
f 40/40/40 42/42/42 41/41/41 
f 41/41/41 42/42/42 43/43/43 
f 42/42/42 44/44/44 43/43/43 
f 43/43/43 44/44/44 45/45/45 
f 44/44/44 46/46/46 45/45/45 
f 45/45/45 46/46/46 47/47/47 
f 46/46/46 48/48/48 47/47/47 
f 47/47/47 48/48/48 49/49/49 
f 48/48/48 50/50/50 49/49/49 
f 48/48/48 51/51/51 50/50/50 
f 51/51/51 52/52/52 50/50/50 
f 53/53/53 51/51/51 48/48/48 
f 46/46/46 53/53/53 48/48/48 
f 54/54/54 53/53/53 46/46/46 
f 44/44/44 54/54/54 46/46/46 
f 55/55/55 54/54/54 44/44/44 
f 42/42/42 55/55/55 44/44/44 
f 56/56/56 55/55/55 42/42/42 
f 40/40/40 56/56/56 42/42/42 
f 57/57/57 56/56/56 40/40/40 
f 38/38/38 57/57/57 40/40/40 
f 58/58/58 57/57/57 38/38/38 
f 36/36/36 58/58/58 38/38/38 
f 59/59/59 58/58/58 36/36/36 
f 34/34/34 59/59/59 36/36/36 
f 60/60/60 59/59/59 34/34/34 
f 32/32/32 60/60/60 34/34/34 
f 61/61/61 60/60/60 32/32/32 
f 30/30/30 61/61/61 32/32/32 
f 62/62/62 61/61/61 30/30/30 
f 28/28/28 62/62/62 30/30/30 
f 63/63/63 62/62/62 28/28/28 
f 26/26/26 63/63/63 28/28/28 
f 64/64/64 63/63/63 26/26/26 
f 24/24/24 64/64/64 26/26/26 
f 65/65/65 64/64/64 24/24/24 
f 22/22/22 65/65/65 24/24/24 
f 66/66/66 65/65/65 22/22/22 
f 20/20/20 66/66/66 22/22/22 
f 67/67/67 66/66/66 20/20/20 
f 18/18/18 67/67/67 20/20/20 
f 68/68/68 67/67/67 18/18/18 
f 16/16/16 68/68/68 18/18/18 
f 69/69/69 68/68/68 16/16/16 
f 2/2/2 69/69/69 16/16/16 
f 70/70/70 69/69/69 2/2/2 
f 3/3/3 70/70/70 2/2/2 
f 71/71/71 70/70/70 3/3/3 
f 5/5/5 71/71/71 3/3/3 
f 72/72/72 71/71/71 5/5/5 
f 7/7/7 72/72/72 5/5/5 
f 73/73/73 72/72/72 7/7/7 
f 9/9/9 73/73/73 7/7/7 
f 74/74/74 73/73/73 9/9/9 
f 11/11/11 74/74/74 9/9/9 
f 75/75/75 74/74/74 11/11/11 
f 13/13/13 75/75/75 11/11/11 
f 70/70/70 76/76/76 69/69/69 
f 76/76/76 77/77/77 69/69/69 
f 78/78/78 76/76/76 70/70/70 
f 71/71/71 78/78/78 70/70/70 
f 79/79/79 78/78/78 71/71/71 
f 72/72/72 79/79/79 71/71/71 
f 80/80/80 79/79/79 72/72/72 
f 73/73/73 80/80/80 72/72/72 
f 81/81/81 80/80/80 73/73/73 
f 74/74/74 81/81/81 73/73/73 
f 82/82/82 81/81/81 74/74/74 
f 75/75/75 82/82/82 74/74/74 
f 76/76/76 83/83/83 77/77/77 
f 83/83/83 84/84/84 77/77/77 
f 85/85/85 83/83/83 76/76/76 
f 78/78/78 85/85/85 76/76/76 
f 86/86/86 85/85/85 78/78/78 
f 79/79/79 86/86/86 78/78/78 
f 87/87/87 86/86/86 79/79/79 
f 80/80/80 87/87/87 79/79/79 
f 88/88/88 87/87/87 80/80/80 
f 81/81/81 88/88/88 80/80/80 
f 89/89/89 88/88/88 81/81/81 
f 82/82/82 89/89/89 81/81/81 
f 77/77/77 84/84/84 90/90/90 
f 77/77/77 90/90/90 68/68/68 
f 68/68/68 90/90/90 67/67/67 
f 90/90/90 91/91/91 67/67/67 
f 67/67/67 91/91/91 66/66/66 
f 91/91/91 92/92/92 66/66/66 
f 66/66/66 92/92/92 65/65/65 
f 92/92/92 93/93/93 65/65/65 
f 65/65/65 93/93/93 64/64/64 
f 93/93/93 94/94/94 64/64/64 
f 64/64/64 94/94/94 63/63/63 
f 94/94/94 95/95/95 63/63/63 
f 63/63/63 95/95/95 62/62/62 
f 95/95/95 96/96/96 62/62/62 
f 62/62/62 96/96/96 61/61/61 
f 96/96/96 97/97/97 61/61/61 
f 61/61/61 97/97/97 60/60/60 
f 97/97/97 98/98/98 60/60/60 
f 60/60/60 98/98/98 59/59/59 
f 98/98/98 99/99/99 59/59/59 
f 59/59/59 99/99/99 58/58/58 
f 99/99/99 100/100/100 58/58/58 
f 58/58/58 100/100/100 57/57/57 
f 100/100/100 101/101/101 57/57/57 
f 57/57/57 101/101/101 56/56/56 
f 101/101/101 102/102/102 56/56/56 
f 56/56/56 102/102/102 55/55/55 
f 102/102/102 103/103/103 55/55/55 
f 55/55/55 103/103/103 54/54/54 
f 103/103/103 104/104/104 54/54/54 
f 54/54/54 104/104/104 53/53/53 
f 104/104/104 105/105/105 53/53/53 
f 53/53/53 105/105/105 51/51/51 
f 105/105/105 106/106/106 51/51/51 
f 51/51/51 106/106/106 52/52/52 
f 106/106/106 107/107/107 52/52/52 
f 106/106/106 108/108/108 107/107/107 
f 108/108/108 109/109/109 107/107/107 
f 110/110/110 108/108/108 106/106/106 
f 105/105/105 110/110/110 106/106/106 
f 111/111/111 110/110/110 105/105/105 
f 104/104/104 111/111/111 105/105/105 
f 112/112/112 111/111/111 104/104/104 
f 103/103/103 112/112/112 104/104/104 
f 113/113/113 112/112/112 103/103/103 
f 102/102/102 113/113/113 103/103/103 
f 114/114/114 113/113/113 102/102/102 
f 101/101/101 114/114/114 102/102/102 
f 115/115/115 114/114/114 101/101/101 
f 100/100/100 115/115/115 101/101/101 
f 116/116/116 115/115/115 100/100/100 
f 99/99/99 116/116/116 100/100/100 
f 117/117/117 116/116/116 99/99/99 
f 98/98/98 117/117/117 99/99/99 
f 118/118/118 117/117/117 98/98/98 
f 97/97/97 118/118/118 98/98/98 
f 119/119/119 118/118/118 97/97/97 
f 96/96/96 119/119/119 97/97/97 
f 120/120/120 119/119/119 96/96/96 
f 95/95/95 120/120/120 96/96/96 
f 121/121/121 120/120/120 95/95/95 
f 94/94/94 121/121/121 95/95/95 
f 122/122/122 121/121/121 94/94/94 
f 93/93/93 122/122/122 94/94/94 
f 123/123/123 122/122/122 93/93/93 
f 92/92/92 123/123/123 93/93/93 
f 124/124/124 123/123/123 92/92/92 
f 91/91/91 124/124/124 92/92/92 
f 125/125/125 124/124/124 91/91/91 
f 90/90/90 125/125/125 91/91/91 
f 84/84/84 125/125/125 90/90/90 
f 120/120/120 126/126/126 119/119/119 
f 126/126/126 127/127/127 119/119/119 
f 128/128/128 126/126/126 120/120/120 
f 121/121/121 128/128/128 120/120/120 
f 129/129/129 128/128/128 121/121/121 
f 122/122/122 129/129/129 121/121/121 
f 130/130/130 129/129/129 122/122/122 
f 123/123/123 130/130/130 122/122/122 
f 131/131/131 130/130/130 123/123/123 
f 124/124/124 131/131/131 123/123/123 
f 132/132/132 131/131/131 124/124/124 
f 125/125/125 132/132/132 124/124/124 
f 133/133/133 132/132/132 125/125/125 
f 84/84/84 133/133/133 125/125/125 
f 134/134/134 133/133/133 84/84/84 
f 83/83/83 134/134/134 84/84/84 
f 135/135/135 134/134/134 83/83/83 
f 85/85/85 135/135/135 83/83/83 
f 136/136/136 135/135/135 85/85/85 
f 86/86/86 136/136/136 85/85/85 
f 137/137/137 136/136/136 86/86/86 
f 87/87/87 137/137/137 86/86/86 
f 138/138/138 137/137/137 87/87/87 
f 88/88/88 138/138/138 87/87/87 
f 139/139/139 138/138/138 88/88/88 
f 89/89/89 139/139/139 88/88/88 
f 69/69/69 77/77/77 68/68/68 
f 141/141/141 140/140/140 109/109/109 
f 108/108/108 141/141/141 109/109/109 
f 142/142/142 141/141/141 108/108/108 
f 110/110/110 142/142/142 108/108/108 
f 143/143/143 142/142/142 110/110/110 
f 111/111/111 143/143/143 110/110/110 
f 144/144/144 143/143/143 111/111/111 
f 112/112/112 144/144/144 111/111/111 
f 145/145/145 144/144/144 112/112/112 
f 113/113/113 145/145/145 112/112/112 
f 146/146/146 145/145/145 113/113/113 
f 114/114/114 146/146/146 113/113/113 
f 147/147/147 146/146/146 114/114/114 
f 115/115/115 147/147/147 114/114/114 
f 148/148/148 147/147/147 115/115/115 
f 116/116/116 148/148/148 115/115/115 
f 149/149/149 148/148/148 116/116/116 
f 117/117/117 149/149/149 116/116/116 
f 150/150/150 149/149/149 117/117/117 
f 118/118/118 150/150/150 117/117/117 
f 127/127/127 150/150/150 118/118/118 
f 119/119/119 127/127/127 118/118/118 

