v -22.784181594848633 -27.153106689453125 0.01436998788267374
v -28.25507164001465 -21.402360916137695 0.014370870776474476
v -12.051020622253418 -9.128281593322754 4.418708324432373
v -9.717639923095703 -11.581018447875977 4.418709754943848
v -13.780107498168945 -6.217808246612549 4.418708324432373
v -32.309139251708984 -14.578412055969238 0.01436998788267374
v -14.81820297241211 -2.9955525398254395 4.418708324432373
v -34.743080139160156 -7.0234375 0.01436998788267374
v -13.780109405517578 -6.217811107635498 -4.361227512359619
v -12.051020622253418 -9.128284454345703 -4.361226558685303
v -28.25507164001465 -21.402360916137695 0.014370870776474476
v -9.717641830444336 -11.581022262573242 -4.361227512359619
v -22.784181594848633 -27.153106689453125 0.01436998788267374
v -14.818203926086426 -2.995551586151123 -4.3612260818481445
v -15.11325454711914 0.37691497802734375 4.418708324432373
v -35.43486022949219 0.8837184906005859 0.014368223026394844
v -35.43486022949219 0.8837184906005859 0.014368223026394844
v -15.113258361816406 0.37691164016723633 -4.361227512359619
v -14.65046501159668 3.730475425720215 4.41870641708374
v -34.349788665771484 8.746560096740723 0.01436998788267374
v -34.349788665771484 8.746560096740723 0.01436998788267374
v -14.650464057922363 3.7304787635803223 -4.361226558685303
v -13.453035354614258 6.896982192993164 4.418708324432373
v -31.54227066040039 16.17081642150879 0.01436998788267374
v -13.453036308288574 6.8969831466674805 -4.361227512359619
v -11.581025123596191 9.717631340026855 4.41870641708374
v -27.15311622619629 22.784170150756836 0.014370870776474476
v -27.15311622619629 22.784170150756836 0.014370870776474476
v -11.581027030944824 9.717632293701172 -4.361226558685303
vn -0.7245160937309265 -0.6892576217651367 -0.0006289002485573292
vn -0.797132670879364 -0.6038038730621338 -0.0006326862494461238
vn -0.16879390180110931 -0.12785623967647552 0.977323591709137
vn -0.15434403717517853 -0.14683303236961365 0.9770455360412598
vn -0.19301259517669678 -0.08709035068750381 0.977323591709137
vn -0.9115059971809387 -0.41128620505332947 -0.0006327835144475102
vn -0.20755282044410706 -0.04195743054151535 0.977323591709137
vn -0.9801724553108215 -0.19814524054527283 -0.0006326864822767675
vn -0.19180899858474731 -0.08654733002185822 -0.9776086807250977
vn -0.16774137318134308 -0.12705905735492706 -0.9776086807250977
vn -0.797132670879364 -0.6038038730621338 -0.0006326862494461238
vn -0.1533822864294052 -0.1459178477525711 -0.9773340821266174
vn -0.7245160937309265 -0.6892576217651367 -0.0006289002485573292
vn -0.20625852048397064 -0.04169594123959541 -0.9776086807250977
vn -0.21168549358844757 0.005279316566884518 0.977323591709137
vn -0.999688982963562 0.02493147924542427 -0.0006329764728434384
vn -0.999688982963562 0.02493147924542427 -0.0006329764728434384
vn -0.21036534011363983 0.005246298853307962 -0.9776086807250977
vn -0.20520327985286713 0.05225130543112755 0.977323591709137
vn -0.9690768122673035 0.24675828218460083 -0.000632589915767312
vn -0.9690768122673035 0.24675828218460083 -0.000632589915767312
vn -0.20392367243766785 0.0519256517291069 -0.9776086807250977
vn -0.18843139708042145 0.09660329669713974 0.977323591709137
vn -0.8898712396621704 0.45621126890182495 -0.0006325897993519902
vn -0.18725639581680298 0.09600097686052322 -0.9776086807250977
vn -0.17749625444412231 0.11780091375112534 0.9770455360412598
vn -0.8331964015960693 0.5529769062995911 -0.0006287081632763147
vn -0.8331964015960693 0.5529769062995911 -0.0006287081632763147
vn -0.1763901263475418 0.1170668825507164 -0.9773340821266174
vt 0.5031505227088928 0.9883413314819336
vt 0.5031505227088928 0.8476473093032837
vt 0.9915712475776672 0.8476473093032837
vt 0.9915712475776672 0.9883413314819336
vt 0.9915712475776672 0.7069530487060547
vt 0.5031505227088928 0.7069530487060547
vt 0.9915712475776672 0.5662590265274048
vt 0.5031505227088928 0.5662590265274048
vt 0.01539419125765562 0.7069530487060547
vt 0.01539419125765562 0.8476473093032837
vt 0.5038148760795593 0.8476473093032837
vt 0.01539419125765562 0.9883413314819336
vt 0.5038148760795593 0.9883413314819336
vt 0.01539419125765562 0.5662590265274048
vt 0.9915712475776672 0.4255649447441101
vt 0.5031505227088928 0.4255649447441101
vt 0.5038148760795593 0.4255649447441101
vt 0.01539419125765562 0.4255649447441101
vt 0.9915712475776672 0.284870982170105
vt 0.5031505227088928 0.284870982170105
vt 0.5038148760795593 0.284870982170105
vt 0.01539419125765562 0.284870982170105
vt 0.9915712475776672 0.14417672157287598
vt 0.5031505227088928 0.14417672157287598
vt 0.01539419125765562 0.14417672157287598
vt 0.9915712475776672 0.0034826993942260742
vt 0.5031505227088928 0.0034826993942260742
vt 0.5038148760795593 0.0034826993942260742
vt 0.01539419125765562 0.0034826993942260742

g Torus001
s 1
usemtl Torus001
f 3/3/3 2/2/2 1/1/1 
f 4/4/4 3/3/3 1/1/1 
f 3/3/3 5/5/5 2/2/2 
f 5/5/5 6/6/6 2/2/2 
f 5/5/5 7/7/7 6/6/6 
f 7/7/7 8/8/8 6/6/6 
f 6/6/6 8/8/8 9/9/9 
f 6/6/6 9/9/9 10/10/10 
f 11/11/11 6/6/6 10/10/10 
f 11/11/11 10/10/10 12/12/12 
f 13/13/13 11/11/11 12/12/12 
f 8/8/8 14/14/14 9/9/9 
f 7/7/7 15/15/15 8/8/8 
f 15/15/15 16/16/16 8/8/8 
f 8/8/8 17/17/17 14/14/14 
f 17/17/17 18/18/18 14/14/14 
f 15/15/15 19/19/19 16/16/16 
f 19/19/19 20/20/20 16/16/16 
f 17/17/17 21/21/21 18/18/18 
f 21/21/21 22/22/22 18/18/18 
f 19/19/19 23/23/23 20/20/20 
f 23/23/23 24/24/24 20/20/20 
f 21/21/21 24/24/24 22/22/22 
f 24/24/24 25/25/25 22/22/22 
f 23/23/23 26/26/26 24/24/24 
f 26/26/26 27/27/27 24/24/24 
f 24/24/24 28/28/28 25/25/25 
f 28/28/28 29/29/29 25/25/25 

