[
	{
		"ID": 1,
		"Name": "箭矢",
		"NameStrKey": "",
		"Desc": "箭矢",
		"DescStrKey": "",
		"Speed": 700,
		"Distance": 0,
		"TrackType": "TrackType_Parabolic",
		"Gravity": 1000,
		"CollisionRadius": 0,
		"Model": "Spine/Soldier/Old_ABS/ArrowPrefab.prefab",
		"ModelScale": 75
	},
	{
		"ID": 2,
		"Name": "旋转的剑",
		"NameStrKey": "",
		"Desc": "旋转的剑",
		"DescStrKey": "",
		"Speed": 500,
		"Distance": 0,
		"TrackType": "TrackType_Parabolic",
		"Gravity": 500,
		"CollisionRadius": 0,
		"Model": "Spine/Soldier/Old_ABS/SwordWeaponPrefab.prefab",
		"ModelScale": 70
	},
	{
		"ID": 3,
		"Name": "标枪",
		"NameStrKey": "",
		"Desc": "标枪",
		"DescStrKey": "",
		"Speed": 500,
		"Distance": 0,
		"TrackType": "TrackType_Parabolic",
		"Gravity": 700,
		"CollisionRadius": 0,
		"Model": "Spine/Soldier/Old_ABS/PikeWeaponPrefab.prefab",
		"ModelScale": 70
	},
	{
		"ID": 4,
		"Name": "棍子",
		"NameStrKey": "",
		"Desc": "棍子",
		"DescStrKey": "",
		"Speed": 500,
		"Distance": 0,
		"TrackType": "TrackType_Parabolic",
		"Gravity": 500,
		"CollisionRadius": 0,
		"Model": "Spine/Soldier/Old_ABS/ClergyLWeaponPrefab.prefab",
		"ModelScale": 70
	},
	{
		"ID": 5,
		"Name": "Cross",
		"NameStrKey": "",
		"Desc": "Cross",
		"DescStrKey": "",
		"Speed": 600,
		"Distance": 0,
		"TrackType": "TrackType_Parabolic",
		"Gravity": 500,
		"CollisionRadius": 0,
		"Model": "Spine/Soldier/Old_ABS/ClergyHWeaponPrefab.prefab",
		"ModelScale": 70
	},
	{
		"ID": 6,
		"Name": "魔法弹",
		"NameStrKey": "",
		"Desc": "魔法弹",
		"DescStrKey": "",
		"Speed": 600,
		"Distance": 0,
		"TrackType": "TrackType_Parabolic",
		"Gravity": 1000,
		"CollisionRadius": 0,
		"Model": "Spine/General/Old_ABS/FirePrefab.prefab",
		"ModelScale": 70
	},
	{
		"ID": 8,
		"Name": "斧子",
		"NameStrKey": "",
		"Desc": "旋转的剑",
		"DescStrKey": "",
		"Speed": 500,
		"Distance": 0,
		"TrackType": "TrackType_Parabolic",
		"Gravity": 500,
		"CollisionRadius": 0,
		"Model": "Spine/Soldier/Old_ABS/AxeWeaponPrefab.prefab",
		"ModelScale": 70
	},
	{
		"ID": 9,
		"Name": "Boulder",
		"NameStrKey": "",
		"Desc": "Boulder",
		"DescStrKey": "",
		"Speed": 500,
		"Distance": 0,
		"TrackType": "TrackType_Parabolic",
		"Gravity": 500,
		"CollisionRadius": 0,
		"Model": "Spine/Soldier/Weapon_ABS/ArrowWeapon/StonePrefab.prefab",
		"ModelScale": 70
	},
	{
		"ID": 10,
		"Name": "Bone",
		"NameStrKey": "",
		"Desc": "Bone",
		"DescStrKey": "",
		"Speed": 500,
		"Distance": 0,
		"TrackType": "TrackType_Parabolic",
		"Gravity": 500,
		"CollisionRadius": 0,
		"Model": "Spine/Soldier/Weapon_ABS/BluntWeapon/Hammer1_prefab.prefab",
		"ModelScale": 70
	},
	{
		"ID": 11,
		"Name": "Small Axe",
		"NameStrKey": "",
		"Desc": "Small Axe",
		"DescStrKey": "",
		"Speed": 500,
		"Distance": 0,
		"TrackType": "TrackType_Parabolic",
		"Gravity": 500,
		"CollisionRadius": 0,
		"Model": "Spine/Soldier/Weapon_ABS/BluntWeapon/AxeWeaponPrefab.prefab",
		"ModelScale": 70
	},
	{
		"ID": 12,
		"Name": "Water Bullets",
		"NameStrKey": "",
		"Desc": "Water Bullets",
		"DescStrKey": "",
		"Speed": 600,
		"Distance": 0,
		"TrackType": "TrackType_Parabolic",
		"Gravity": 1000,
		"CollisionRadius": 0,
		"Model": "Spine/Soldier/Weapon_ABS/PikeWeapon/Water_prefab.prefab",
		"ModelScale": 70
	},
	{
		"ID": 13,
		"Name": "Blue Slime Bullets",
		"NameStrKey": "",
		"Desc": "Blue Slime Bullets",
		"DescStrKey": "",
		"Speed": 600,
		"Distance": 0,
		"TrackType": "TrackType_Parabolic",
		"Gravity": 1000,
		"CollisionRadius": 0,
		"Model": "Spine/Soldier/Weapon_ABS/ArrowWeapon/Slime1_Prefab.prefab",
		"ModelScale": 70
	},
	{
		"ID": 14,
		"Name": "Red Slime Bullets",
		"NameStrKey": "",
		"Desc": "Red Slime Bullets",
		"DescStrKey": "",
		"Speed": 600,
		"Distance": 0,
		"TrackType": "TrackType_Parabolic",
		"Gravity": 1000,
		"CollisionRadius": 0,
		"Model": "Spine/Soldier/Weapon_ABS/ArrowWeapon/Slime2_Prefab.prefab",
		"ModelScale": 70
	},
	{
		"ID": 15,
		"Name": "Green Slime Bullets",
		"NameStrKey": "",
		"Desc": "Green Slime Bullets",
		"DescStrKey": "",
		"Speed": 600,
		"Distance": 0,
		"TrackType": "TrackType_Parabolic",
		"Gravity": 1000,
		"CollisionRadius": 0,
		"Model": "Spine/Soldier/Weapon_ABS/ArrowWeapon/Slime3_Prefab.prefab",
		"ModelScale": 70
	},
	{
		"ID": 16,
		"Name": "Dark Green Slime Bullets",
		"NameStrKey": "",
		"Desc": "Dark Green Slime Bullets",
		"DescStrKey": "",
		"Speed": 600,
		"Distance": 0,
		"TrackType": "TrackType_Parabolic",
		"Gravity": 1000,
		"CollisionRadius": 0,
		"Model": "Spine/Soldier/Weapon_ABS/ArrowWeapon/Slime4_Prefab.prefab",
		"ModelScale": 70
	},
	{
		"ID": 17,
		"Name": "Yellow Slime Bullets",
		"NameStrKey": "",
		"Desc": "Yellow Slime Bullets",
		"DescStrKey": "",
		"Speed": 600,
		"Distance": 0,
		"TrackType": "TrackType_Parabolic",
		"Gravity": 1000,
		"CollisionRadius": 0,
		"Model": "Spine/Soldier/Weapon_ABS/ArrowWeapon/Slime5_Prefab.prefab",
		"ModelScale": 70
	},
	{
		"ID": 18,
		"Name": "Basic Training Sword",
		"NameStrKey": "",
		"Desc": "Basic Training Sword",
		"DescStrKey": "",
		"Speed": 500,
		"Distance": 0,
		"TrackType": "TrackType_Parabolic",
		"Gravity": 500,
		"CollisionRadius": 0,
		"Model": "Spine/Soldier/Weapon_ABS/SwordWeapon/Sword21_prefab.prefab",
		"ModelScale": 70
	},
	{
		"ID": 19,
		"Name": "Special Training Sword",
		"NameStrKey": "",
		"Desc": "Special Training Sword",
		"DescStrKey": "",
		"Speed": 500,
		"Distance": 0,
		"TrackType": "TrackType_Parabolic",
		"Gravity": 500,
		"CollisionRadius": 0,
		"Model": "Spine/Soldier/Weapon_ABS/SwordWeapon/Sword22_prefab.prefab",
		"ModelScale": 70
	},
	{
		"ID": 20,
		"Name": "Rare Training Sword",
		"NameStrKey": "",
		"Desc": "Rare Training Sword",
		"DescStrKey": "",
		"Speed": 500,
		"Distance": 0,
		"TrackType": "TrackType_Parabolic",
		"Gravity": 500,
		"CollisionRadius": 0,
		"Model": "Spine/Soldier/Weapon_ABS/SwordWeapon/Sword23_prefab.prefab",
		"ModelScale": 70
	},
	{
		"ID": 21,
		"Name": "Infantry Sword",
		"NameStrKey": "",
		"Desc": "Infantry Sword",
		"DescStrKey": "",
		"Speed": 500,
		"Distance": 0,
		"TrackType": "TrackType_Parabolic",
		"Gravity": 500,
		"CollisionRadius": 0,
		"Model": "Spine/Soldier/Weapon_ABS/SwordWeapon/SwordWeaponPrefab.prefab",
		"ModelScale": 70
	},
	{
		"ID": 22,
		"Name": "Elite Infantry Sword",
		"NameStrKey": "",
		"Desc": "Elite Infantry Sword",
		"DescStrKey": "",
		"Speed": 500,
		"Distance": 0,
		"TrackType": "TrackType_Parabolic",
		"Gravity": 500,
		"CollisionRadius": 0,
		"Model": "Spine/Soldier/Weapon_ABS/SwordWeapon/SwordWeaponMPrefab.prefab",
		"ModelScale": 70
	},
	{
		"ID": 23,
		"Name": "Heavy Infantry Sword",
		"NameStrKey": "",
		"Desc": "Heavy Infantry Sword",
		"DescStrKey": "",
		"Speed": 500,
		"Distance": 0,
		"TrackType": "TrackType_Parabolic",
		"Gravity": 500,
		"CollisionRadius": 0,
		"Model": "Spine/Soldier/Weapon_ABS/SwordWeapon/SwordWeaponHPrefab.prefab",
		"ModelScale": 70
	},
	{
		"ID": 24,
		"Name": "Highlander Sword",
		"NameStrKey": "",
		"Desc": "Highlander Sword",
		"DescStrKey": "",
		"Speed": 500,
		"Distance": 0,
		"TrackType": "TrackType_Parabolic",
		"Gravity": 500,
		"CollisionRadius": 0,
		"Model": "Spine/Soldier/Weapon_ABS/SwordWeapon/SwordWeapon04Prefab.prefab",
		"ModelScale": 70
	},
	{
		"ID": 25,
		"Name": "Guardian Infantry Sword",
		"NameStrKey": "",
		"Desc": "Guardian Infantry Sword",
		"DescStrKey": "",
		"Speed": 500,
		"Distance": 0,
		"TrackType": "TrackType_Parabolic",
		"Gravity": 500,
		"CollisionRadius": 0,
		"Model": "Spine/Soldier/Weapon_ABS/SwordWeapon/Sword12_prefab.prefab",
		"ModelScale": 70
	},
	{
		"ID": 26,
		"Name": "Basic Skeletal Sword",
		"NameStrKey": "",
		"Desc": "Basic Skeletal Sword",
		"DescStrKey": "",
		"Speed": 500,
		"Distance": 0,
		"TrackType": "TrackType_Parabolic",
		"Gravity": 500,
		"CollisionRadius": 0,
		"Model": "Spine/Soldier/Weapon_ABS/SwordWeapon/SkeletonWeaponPrefab.prefab",
		"ModelScale": 70
	},
	{
		"ID": 27,
		"Name": "Dark Sword",
		"NameStrKey": "",
		"Desc": "Dark Sword",
		"DescStrKey": "",
		"Speed": 500,
		"Distance": 0,
		"TrackType": "TrackType_Parabolic",
		"Gravity": 500,
		"CollisionRadius": 0,
		"Model": "Spine/Soldier/Weapon_ABS/SwordWeapon/Sword13_prefab.prefab",
		"ModelScale": 70
	},
	{
		"ID": 28,
		"Name": "Dragon Lord Sword",
		"NameStrKey": "",
		"Desc": "Dragon Lord Sword",
		"DescStrKey": "",
		"Speed": 500,
		"Distance": 0,
		"TrackType": "TrackType_Parabolic",
		"Gravity": 500,
		"CollisionRadius": 0,
		"Model": "Spine/Soldier/Weapon_ABS/SwordWeapon/Sword11_prefab.prefab",
		"ModelScale": 70
	},
	{
		"ID": 29,
		"Name": "Special Skeletal Sword",
		"NameStrKey": "",
		"Desc": "Special Skeletal Sword",
		"DescStrKey": "",
		"Speed": 500,
		"Distance": 0,
		"TrackType": "TrackType_Parabolic",
		"Gravity": 500,
		"CollisionRadius": 0,
		"Model": "Spine/Soldier/Weapon_ABS/SwordWeapon/SkeletonWeaponM1Prefab.prefab",
		"ModelScale": 70
	},
	{
		"ID": 30,
		"Name": "Rare Skeletal Sword",
		"NameStrKey": "",
		"Desc": "Rare Skeletal Sword",
		"DescStrKey": "",
		"Speed": 500,
		"Distance": 0,
		"TrackType": "TrackType_Parabolic",
		"Gravity": 500,
		"CollisionRadius": 0,
		"Model": "Spine/Soldier/Weapon_ABS/SwordWeapon/Sword6_prefab.prefab",
		"ModelScale": 70
	},
	{
		"ID": 31,
		"Name": "Undead Knight Sword",
		"NameStrKey": "",
		"Desc": "Undead Knight Sword",
		"DescStrKey": "",
		"Speed": 500,
		"Distance": 0,
		"TrackType": "TrackType_Parabolic",
		"Gravity": 500,
		"CollisionRadius": 0,
		"Model": "Spine/Soldier/Weapon_ABS/SwordWeapon/Sword18_prefab.prefab",
		"ModelScale": 70
	},
	{
		"ID": 32,
		"Name": "Maid Sword",
		"NameStrKey": "",
		"Desc": "Maid Sword",
		"DescStrKey": "",
		"Speed": 500,
		"Distance": 0,
		"TrackType": "TrackType_Parabolic",
		"Gravity": 500,
		"CollisionRadius": 0,
		"Model": "Spine/Soldier/Weapon_ABS/SwordWeapon/Sword17_prefab.prefab",
		"ModelScale": 70
	},
	{
		"ID": 33,
		"Name": "Ninja Sword",
		"NameStrKey": "",
		"Desc": "Ninja Sword",
		"DescStrKey": "",
		"Speed": 500,
		"Distance": 0,
		"TrackType": "TrackType_Parabolic",
		"Gravity": 500,
		"CollisionRadius": 0,
		"Model": "Spine/Soldier/Weapon_ABS/SwordWeapon/Sword16_prefab.prefab",
		"ModelScale": 70
	},
	{
		"ID": 34,
		"Name": "盗贼剑",
		"NameStrKey": "",
		"Desc": "盗贼剑",
		"DescStrKey": "",
		"Speed": 500,
		"Distance": 0,
		"TrackType": "TrackType_Parabolic",
		"Gravity": 500,
		"CollisionRadius": 0,
		"Model": "Spine/Soldier/Weapon_ABS/SwordWeapon/Sword19_prefab.prefab",
		"ModelScale": 70
	},
	{
		"ID": 35,
		"Name": "Assassination Blade",
		"NameStrKey": "",
		"Desc": "Assassination Blade",
		"DescStrKey": "",
		"Speed": 500,
		"Distance": 0,
		"TrackType": "TrackType_Parabolic",
		"Gravity": 500,
		"CollisionRadius": 0,
		"Model": "Spine/Soldier/Weapon_ABS/SwordWeapon/Sword20_prefab.prefab",
		"ModelScale": 70
	},
	{
		"ID": 36,
		"Name": "Gladiator Axe",
		"NameStrKey": "",
		"Desc": "Gladiator Axe",
		"DescStrKey": "",
		"Speed": 500,
		"Distance": 0,
		"TrackType": "TrackType_Parabolic",
		"Gravity": 500,
		"CollisionRadius": 0,
		"Model": "Spine/Soldier/Weapon_ABS/BluntWeapon/Axe02WeaponPrefab.prefab",
		"ModelScale": 70
	},
	{
		"ID": 37,
		"Name": "Berserker Axe",
		"NameStrKey": "",
		"Desc": "Berserker Axe",
		"DescStrKey": "",
		"Speed": 500,
		"Distance": 0,
		"TrackType": "TrackType_Parabolic",
		"Gravity": 500,
		"CollisionRadius": 0,
		"Model": "Spine/Soldier/Weapon_ABS/BluntWeapon/Axe4_prefab.prefab",
		"ModelScale": 70
	},
	{
		"ID": 38,
		"Name": "Maid Mop",
		"NameStrKey": "",
		"Desc": "Maid Mop",
		"DescStrKey": "",
		"Speed": 500,
		"Distance": 0,
		"TrackType": "TrackType_Parabolic",
		"Gravity": 500,
		"CollisionRadius": 0,
		"Model": "Spine/Soldier/Weapon_ABS/BluntWeapon/Hammer4_prefab.prefab",
		"ModelScale": 70
	},
	{
		"ID": 39,
		"Name": "Troll Hammer",
		"NameStrKey": "",
		"Desc": "Troll Hammer",
		"DescStrKey": "",
		"Speed": 500,
		"Distance": 0,
		"TrackType": "TrackType_Parabolic",
		"Gravity": 700,
		"CollisionRadius": 0,
		"Model": "Spine/Soldier/Weapon_ABS/BluntWeapon/Hammer2_prefab.prefab",
		"ModelScale": 70
	},
	{
		"ID": 40,
		"Name": "Basic Priest Staff",
		"NameStrKey": "",
		"Desc": "Basic Priest Staff",
		"DescStrKey": "",
		"Speed": 500,
		"Distance": 0,
		"TrackType": "TrackType_Parabolic",
		"Gravity": 700,
		"CollisionRadius": 0,
		"Model": "Spine/Soldier/Weapon_ABS/BluntWeapon/ClergyLWeaponPrefab.prefab",
		"ModelScale": 70
	},
	{
		"ID": 41,
		"Name": "Special Priest Staff",
		"NameStrKey": "",
		"Desc": "Special Priest Staff",
		"DescStrKey": "",
		"Speed": 500,
		"Distance": 0,
		"TrackType": "TrackType_Parabolic",
		"Gravity": 700,
		"CollisionRadius": 0,
		"Model": "Spine/Soldier/Weapon_ABS/BluntWeapon/ClergyMWeaponPrefab.prefab",
		"ModelScale": 70
	},
	{
		"ID": 42,
		"Name": "Rare Priest Staff",
		"NameStrKey": "",
		"Desc": "Rare Priest Staff",
		"DescStrKey": "",
		"Speed": 500,
		"Distance": 0,
		"TrackType": "TrackType_Parabolic",
		"Gravity": 700,
		"CollisionRadius": 0,
		"Model": "Spine/Soldier/Weapon_ABS/BluntWeapon/ClergyHWeaponPrefab.prefab",
		"ModelScale": 70
	},
	{
		"ID": 43,
		"Name": "Ballista Arrow",
		"NameStrKey": "",
		"Desc": "Ballista Arrow",
		"DescStrKey": "",
		"Speed": 700,
		"Distance": 0,
		"TrackType": "TrackType_Parabolic",
		"Gravity": 1000,
		"CollisionRadius": 0,
		"Model": "Spine/Soldier/Weapon_ABS/ArrowWeapon/Arrow3_prefab.prefab",
		"ModelScale": 70
	},
	{
		"ID": 44,
		"Name": "Normal Arrow",
		"NameStrKey": "",
		"Desc": "Normal Arrow",
		"DescStrKey": "",
		"Speed": 700,
		"Distance": 0,
		"TrackType": "TrackType_Parabolic",
		"Gravity": 1000,
		"CollisionRadius": 0,
		"Model": "Spine/Soldier/Weapon_ABS/ArrowWeapon/ArrowPrefab.prefab",
		"ModelScale": 70
	},
	{
		"ID": 45,
		"Name": "Flame Arrow",
		"NameStrKey": "",
		"Desc": "Flame Arrow",
		"DescStrKey": "",
		"Speed": 1000,
		"Distance": 0,
		"TrackType": "TrackType_Parabolic",
		"Gravity": 0,
		"CollisionRadius": 0,
		"Model": "Spine/Soldier/Weapon_ABS/ArrowWeapon/Arrow6_prefab.prefab",
		"ModelScale": 70
	},
	{
		"ID": 46,
		"Name": "Training Lance A",
		"NameStrKey": "",
		"Desc": "Training Lance A",
		"DescStrKey": "",
		"Speed": 500,
		"Distance": 0,
		"TrackType": "TrackType_Parabolic",
		"Gravity": 700,
		"CollisionRadius": 0,
		"Model": "Spine/Soldier/Weapon_ABS/PikeWeapon/PikeWeaponPrefab.prefab",
		"ModelScale": 70
	},
	{
		"ID": 47,
		"Name": "Training Lance B",
		"NameStrKey": "",
		"Desc": "Training Lance B",
		"DescStrKey": "",
		"Speed": 500,
		"Distance": 0,
		"TrackType": "TrackType_Parabolic",
		"Gravity": 700,
		"CollisionRadius": 0,
		"Model": "Spine/Soldier/Weapon_ABS/PikeWeapon/Pike8_prefab.prefab",
		"ModelScale": 70
	},
	{
		"ID": 48,
		"Name": "Lancer Lance",
		"NameStrKey": "",
		"Desc": "Lancer Lance",
		"DescStrKey": "",
		"Speed": 500,
		"Distance": 0,
		"TrackType": "TrackType_Parabolic",
		"Gravity": 700,
		"CollisionRadius": 0,
		"Model": "Spine/Soldier/Weapon_ABS/PikeWeapon/Pike3_prefab.prefab",
		"ModelScale": 70
	},
	{
		"ID": 49,
		"Name": "Centurion Lance",
		"NameStrKey": "",
		"Desc": "Centurion Lance",
		"DescStrKey": "",
		"Speed": 500,
		"Distance": 0,
		"TrackType": "TrackType_Parabolic",
		"Gravity": 700,
		"CollisionRadius": 0,
		"Model": "Spine/Soldier/Weapon_ABS/PikeWeapon/Pike5_prefab.prefab",
		"ModelScale": 70
	},
	{
		"ID": 50,
		"Name": "Heavy Lance",
		"NameStrKey": "",
		"Desc": "Heavy Lance",
		"DescStrKey": "",
		"Speed": 500,
		"Distance": 0,
		"TrackType": "TrackType_Parabolic",
		"Gravity": 700,
		"CollisionRadius": 0,
		"Model": "Spine/Soldier/Weapon_ABS/PikeWeapon/Pike6_prefab.prefab",
		"ModelScale": 70
	},
	{
		"ID": 51,
		"Name": "Guardian Lance",
		"NameStrKey": "",
		"Desc": "Guardian Lance",
		"DescStrKey": "",
		"Speed": 500,
		"Distance": 0,
		"TrackType": "TrackType_Parabolic",
		"Gravity": 700,
		"CollisionRadius": 0,
		"Model": "Spine/Soldier/Weapon_ABS/PikeWeapon/Pike7_prefab.prefab",
		"ModelScale": 70
	},
	{
		"ID": 52,
		"Name": "Basic Harpoon",
		"NameStrKey": "",
		"Desc": "Basic Harpoon",
		"DescStrKey": "",
		"Speed": 500,
		"Distance": 0,
		"TrackType": "TrackType_Parabolic",
		"Gravity": 700,
		"CollisionRadius": 0,
		"Model": "Spine/Soldier/Weapon_ABS/PikeWeapon/Pike11_prefab.prefab",
		"ModelScale": 70
	},
	{
		"ID": 53,
		"Name": "Special Harpoon",
		"NameStrKey": "",
		"Desc": "Special Harpoon",
		"DescStrKey": "",
		"Speed": 500,
		"Distance": 0,
		"TrackType": "TrackType_Parabolic",
		"Gravity": 700,
		"CollisionRadius": 0,
		"Model": "Spine/Soldier/Weapon_ABS/PikeWeapon/Pike12_prefab.prefab",
		"ModelScale": 70
	},
	{
		"ID": 54,
		"Name": "Rare Harpoon",
		"NameStrKey": "",
		"Desc": "Rare Harpoon",
		"DescStrKey": "",
		"Speed": 500,
		"Distance": 0,
		"TrackType": "TrackType_Parabolic",
		"Gravity": 700,
		"CollisionRadius": 0,
		"Model": "Spine/Soldier/Weapon_ABS/PikeWeapon/Pike13_prefab.prefab",
		"ModelScale": 70
	},
	{
		"ID": 55,
		"Name": "Paladin Knife",
		"NameStrKey": "",
		"Desc": "Paladin Knife",
		"DescStrKey": "",
		"Speed": 500,
		"Distance": 0,
		"TrackType": "TrackType_Parabolic",
		"Gravity": 500,
		"CollisionRadius": 0,
		"Model": "Spine/Soldier/Weapon_ABS/SwordWeapon/SkeletonWeaponMPrefab.prefab",
		"ModelScale": 70
	},
	{
		"ID": 56,
		"Name": "Holy Temple Knife",
		"NameStrKey": "",
		"Desc": "Holy Temple Knife",
		"DescStrKey": "",
		"Speed": 500,
		"Distance": 0,
		"TrackType": "TrackType_Parabolic",
		"Gravity": 500,
		"CollisionRadius": 0,
		"Model": "Spine/Soldier/Weapon_ABS/SwordWeapon/Sword2_prefab.prefab",
		"ModelScale": 70
	},
	{
		"ID": 57,
		"Name": "Normal Arrow - Straight",
		"NameStrKey": "",
		"Desc": "Normal Arrow",
		"DescStrKey": "",
		"Speed": 1000,
		"Distance": 0,
		"TrackType": "TrackType_Parabolic",
		"Gravity": 0,
		"CollisionRadius": 0,
		"Model": "Spine/Soldier/Weapon_ABS/ArrowWeapon/ArrowPrefab.prefab",
		"ModelScale": 70
	},
	{
		"ID": 209,
		"Name": "火焰箭-抛物线",
		"NameStrKey": "",
		"Desc": "箭矢",
		"DescStrKey": "",
		"Speed": 800,
		"Distance": 0,
		"TrackType": "TrackType_Parabolic",
		"Gravity": 1000,
		"CollisionRadius": 0,
		"Model": "FX/Common_ABS/Weapon/ArrowFX_Pfb.prefab",
		"ModelScale": 75
	},
	{
		"ID": 210,
		"Name": "火焰箭-直线",
		"NameStrKey": "",
		"Desc": "箭矢",
		"DescStrKey": "",
		"Speed": 1500,
		"Distance": 0,
		"TrackType": "TrackType_Parabolic",
		"Gravity": 0,
		"CollisionRadius": 0,
		"Model": "FX/Common_ABS/Weapon/ArrowFX_Pfb.prefab",
		"ModelScale": 75
	},
	{
		"ID": 211,
		"Name": "口水弹",
		"NameStrKey": "",
		"Desc": "口水弹",
		"DescStrKey": "",
		"Speed": 700,
		"Distance": 0,
		"TrackType": "TrackType_Parabolic",
		"Gravity": 1000,
		"CollisionRadius": 0,
		"Model": "Spine/Soldier/Weapon_ABS/PikeWeapon/Water_prefab.prefab",
		"ModelScale": 75
	},
	{
		"ID": 212,
		"Name": "魔法弹",
		"NameStrKey": "",
		"Desc": "魔法弹",
		"DescStrKey": "",
		"Speed": 700,
		"Distance": 0,
		"TrackType": "TrackType_Parabolic",
		"Gravity": 0,
		"CollisionRadius": 0,
		"Model": "FX/Common_ABS/Weapon/FlyObject_magic.prefab",
		"ModelScale": 75
	},
	{
		"ID": 213,
		"Name": "沙漠飞刀",
		"NameStrKey": "",
		"Desc": "旋转的剑",
		"DescStrKey": "",
		"Speed": 500,
		"Distance": 0,
		"TrackType": "TrackType_Parabolic",
		"Gravity": 0,
		"CollisionRadius": 0,
		"Model": "Spine/Soldier/Weapon_ABS/SwordWeapon/Sword15_prefab.prefab",
		"ModelScale": 70
	},
	{
		"ID": 214,
		"Name": "旋转的棒球棒",
		"NameStrKey": "",
		"Desc": "旋转的棒球棒",
		"DescStrKey": "",
		"Speed": 500,
		"Distance": 0,
		"TrackType": "TrackType_Parabolic",
		"Gravity": 500,
		"CollisionRadius": 0,
		"Model": "Spine/Soldier/Weapon_ABS/SwordWeapon/Sword24_prefab.prefab",
		"ModelScale": 70
	},
	{
		"ID": 1002,
		"Name": "枪气突刺（速度快）",
		"NameStrKey": "",
		"Desc": "艾儿文大剑",
		"DescStrKey": "",
		"Speed": 1500,
		"Distance": 0,
		"TrackType": "TrackType_Straight",
		"Gravity": 500,
		"CollisionRadius": 0,
		"Model": "",
		"ModelScale": 0
	},
	{
		"ID": 1011,
		"Name": "剑气地波/气刃",
		"NameStrKey": "",
		"Desc": "艾儿文大剑",
		"DescStrKey": "",
		"Speed": 600,
		"Distance": 0,
		"TrackType": "TrackType_Straight",
		"Gravity": 500,
		"CollisionRadius": 0,
		"Model": "",
		"ModelScale": 0
	},
	{
		"ID": 1031,
		"Name": "Cross",
		"NameStrKey": "",
		"Desc": "Cross",
		"DescStrKey": "",
		"Speed": 700,
		"Distance": 0,
		"TrackType": "TrackType_Parabolic",
		"Gravity": 1000,
		"CollisionRadius": 0,
		"Model": "Spine/Soldier/Old_ABS/ClergyHWeaponPrefab.prefab",
		"ModelScale": 70
	},
	{
		"ID": 1051,
		"Name": "飞兵将领小龙卷风",
		"NameStrKey": "",
		"Desc": "飞兵标枪",
		"DescStrKey": "",
		"Speed": 500,
		"Distance": 0,
		"TrackType": "TrackType_DownStraight",
		"Gravity": 3000,
		"CollisionRadius": 0,
		"Model": "FX/Skill_ABS/1006_Tornado/Skill_TornadoStay.prefab",
		"ModelScale": 70
	},
	{
		"ID": 1052,
		"Name": "Tornado",
		"NameStrKey": "",
		"Desc": "飞兵标枪",
		"DescStrKey": "",
		"Speed": 500,
		"Distance": 0,
		"TrackType": "TrackType_Straight",
		"Gravity": 500,
		"CollisionRadius": 0,
		"Model": "",
		"ModelScale": 0
	},
	{
		"ID": 1082,
		"Name": "里昂大枪",
		"NameStrKey": "",
		"Desc": "标枪",
		"DescStrKey": "",
		"Speed": 600,
		"Distance": 0,
		"TrackType": "TrackType_UpStraight",
		"Gravity": 500,
		"CollisionRadius": 0,
		"Model": "Spine/Soldier/Old_ABS/PikeWeaponPrefab.prefab",
		"ModelScale": 70
	},
	{
		"ID": 10001,
		"Name": "Test1",
		"NameStrKey": "",
		"Desc": "Test1",
		"DescStrKey": "",
		"Speed": 300,
		"Distance": 0,
		"TrackType": "TrackType_Parabolic",
		"Gravity": 500,
		"CollisionRadius": 0,
		"Model": "",
		"ModelScale": 0
	},
	{
		"ID": 10002,
		"Name": "Test2",
		"NameStrKey": "",
		"Desc": "Test2",
		"DescStrKey": "",
		"Speed": 300,
		"Distance": 0,
		"TrackType": "TrackType_Straight",
		"Gravity": 500,
		"CollisionRadius": 0,
		"Model": "",
		"ModelScale": 0
	},
	{
		"ID": 10003,
		"Name": "Test3",
		"NameStrKey": "",
		"Desc": "Test3",
		"DescStrKey": "",
		"Speed": 300,
		"Distance": 0,
		"TrackType": "TrackType_DownStraight",
		"Gravity": 500,
		"CollisionRadius": 0,
		"Model": "",
		"ModelScale": 0
	},
	{
		"ID": 10004,
		"Name": "Test4",
		"NameStrKey": "",
		"Desc": "Test4",
		"DescStrKey": "",
		"Speed": 300,
		"Distance": 0,
		"TrackType": "TrackType_UpStraight",
		"Gravity": 500,
		"CollisionRadius": 0,
		"Model": "",
		"ModelScale": 0
	},
	{
		"ID": 10601,
		"Name": "Snipe",
		"NameStrKey": "",
		"Desc": "艾儿文大剑",
		"DescStrKey": "",
		"Speed": 1000,
		"Distance": 0,
		"TrackType": "TrackType_Straight",
		"Gravity": 500,
		"CollisionRadius": 0,
		"Model": "",
		"ModelScale": 0
	},
	{
		"ID": 10206,
		"Name": "剑气地波/气刃",
		"NameStrKey": "",
		"Desc": "艾儿文大剑",
		"DescStrKey": "",
		"Speed": 1000,
		"Distance": 0,
		"TrackType": "TrackType_Straight",
		"Gravity": 500,
		"CollisionRadius": 0,
		"Model": "",
		"ModelScale": 0
	}
]