[
	{
		"ID": 1,
		"Name": "Lancer",
		"Desc": "ArmyDesc1",
		"ArmyTag": "ArmyTag_Spear",
		"Icon": "UI/Icon/Army_ABS/Occupation_Marines.png",
		"IconNoBack": "UI/Icon/Army_ABS/Icon_Occupation_Marines.png"
	},
	{
		"ID": 2,
		"Name": "Infantry",
		"Desc": "ArmyDesc2",
		"ArmyTag": "ArmyTag_Walk",
		"Icon": "UI/Icon/Army_ABS/Occupation_Infantryman.png",
		"IconNoBack": "UI/Icon/Army_ABS/Icon_Occupation_Infantryman.png"
	},
	{
		"ID": 3,
		"Name": "Cavalry",
		"Desc": "ArmyDesc3",
		"ArmyTag": "ArmyTag_Ride",
		"Icon": "UI/Icon/Army_ABS/Occupation_Cavalry.png",
		"IconNoBack": "UI/Icon/Army_ABS/Icon_Occupation_Cavalry.png"
	},
	{
		"ID": 4,
		"Name": "Flier",
		"Desc": "ArmyDesc4",
		"ArmyTag": "ArmyTag_Fly",
		"Icon": "UI/Icon/Army_ABS/Occupation_Fly.png",
		"IconNoBack": "UI/Icon/Army_ABS/Icon_Occupation_Fly.png"
	},
	{
		"ID": 5,
		"Name": "Aquatic",
		"Desc": "ArmyDesc5",
		"ArmyTag": "ArmyTag_Water",
		"Icon": "UI/Icon/Army_ABS/Occupation_Water.png",
		"IconNoBack": "UI/Icon/Army_ABS/Icon_Occupation_Water.png"
	},
	{
		"ID": 6,
		"Name": "Archer",
		"Desc": "ArmyDesc6",
		"ArmyTag": "ArmyTag_Bow",
		"Icon": "UI/Icon/Army_ABS/Occupation_Archer.png",
		"IconNoBack": "UI/Icon/Army_ABS/Icon_Occupation_Archer.png"
	},
	{
		"ID": 7,
		"Name": "Mage",
		"Desc": "ArmyDesc7",
		"ArmyTag": "ArmyTag_Magic",
		"Icon": "UI/Icon/Army_ABS/Occupation_Magician.png",
		"IconNoBack": "UI/Icon/Army_ABS/Icon_Occupation_Magician.png"
	},
	{
		"ID": 8,
		"Name": "Holy",
		"Desc": "ArmyDesc8",
		"ArmyTag": "ArmyTag_Monk",
		"Icon": "UI/Icon/Army_ABS/Occupation_Monk.png",
		"IconNoBack": "UI/Icon/Army_ABS/Icon_Occupation_Monk.png"
	},
	{
		"ID": 9,
		"Name": "Demon",
		"Desc": "ArmyDesc9",
		"ArmyTag": "ArmyTag_Demon",
		"Icon": "UI/Icon/Army_ABS/Occupation_Monster.png",
		"IconNoBack": "UI/Icon/Army_ABS/Icon_Occupation_Monster.png"
	},
	{
		"ID": 10,
		"Name": "不死",
		"Desc": "ArmyDesc10",
		"ArmyTag": "ArmyTag_Death",
		"Icon": "UI/Icon/Army_ABS/Occupation_Monster.png",
		"IconNoBack": "UI/Icon/Army_ABS/Icon_Occupation_Monster.png"
	},
	{
		"ID": 11,
		"Name": "Assassin",
		"Desc": "ArmyDesc17",
		"ArmyTag": "ArmyTag_Assassin",
		"Icon": "UI/Icon/Army_ABS/Occupation_Assassin.png",
		"IconNoBack": "UI/Icon/Army_ABS/Icon_Occupation_Assassin.png"
	},
	{
		"ID": 12,
		"Name": "Dragon",
		"Desc": "ArmyDesc17",
		"ArmyTag": "ArmyTag_Boss",
		"Icon": "UI/Icon/Army_ABS/Occupation_Boss.png",
		"IconNoBack": "UI/Icon/Army_ABS/Occupation_Boss.png"
	},
	{
		"ID": 13,
		"Name": "Infantry Golem",
		"Desc": "ArmyDesc1",
		"ArmyTag": "ArmyTag_PuppetWalk",
		"Icon": "UI/Icon/Army_ABS/Occupation_Infantryman.png",
		"IconNoBack": "UI/Icon/Army_ABS/Icon_Occupation_Infantryman.png"
	},
	{
		"ID": 14,
		"Name": "Lancer Golem",
		"Desc": "ArmyDesc2",
		"ArmyTag": "ArmyTag_PuppetSpear",
		"Icon": "UI/Icon/Army_ABS/Occupation_Marines.png",
		"IconNoBack": "UI/Icon/Army_ABS/Icon_Occupation_Marines.png"
	},
	{
		"ID": 15,
		"Name": "Cavalry Golem",
		"Desc": "ArmyDesc3",
		"ArmyTag": "ArmyTag_PuppetRide",
		"Icon": "UI/Icon/Army_ABS/Occupation_Cavalry.png",
		"IconNoBack": "UI/Icon/Army_ABS/Icon_Occupation_Cavalry.png"
	},
	{
		"ID": 16,
		"Name": "Demon Golem",
		"Desc": "ArmyDesc9",
		"ArmyTag": "ArmyTag_PuppetDemon",
		"Icon": "UI/Icon/Army_ABS/Occupation_Monster.png",
		"IconNoBack": "UI/Icon/Army_ABS/Icon_Occupation_Monster.png"
	},
	{
		"ID": 17,
		"Name": "兄贵步兵",
		"Desc": "ArmyDesc1",
		"ArmyTag": "ArmyTag_AnikiWalk",
		"Icon": "UI/Icon/Army_ABS/Occupation_Infantryman.png",
		"IconNoBack": "UI/Icon/Army_ABS/Icon_Occupation_Infantryman.png"
	},
	{
		"ID": 18,
		"Name": "兄贵枪兵",
		"Desc": "ArmyDesc2",
		"ArmyTag": "ArmyTag_AnikiSpear",
		"Icon": "UI/Icon/Army_ABS/Occupation_Marines.png",
		"IconNoBack": "UI/Icon/Army_ABS/Icon_Occupation_Marines.png"
	},
	{
		"ID": 19,
		"Name": "兄贵骑兵",
		"Desc": "ArmyDesc3",
		"ArmyTag": "ArmyTag_AnikiRide",
		"Icon": "UI/Icon/Army_ABS/Occupation_Cavalry.png",
		"IconNoBack": "UI/Icon/Army_ABS/Icon_Occupation_Cavalry.png"
	},
	{
		"ID": 20,
		"Name": "兄贵飞兵",
		"Desc": "ArmyDesc4",
		"ArmyTag": "ArmyTag_AnikiFly",
		"Icon": "UI/Icon/Army_ABS/Occupation_Fly.png",
		"IconNoBack": "UI/Icon/Army_ABS/Icon_Occupation_Fly.png"
	},
	{
		"ID": 21,
		"Name": "兄贵弓兵",
		"Desc": "ArmyDesc6",
		"ArmyTag": "ArmyTag_AnikiBow",
		"Icon": "UI/Icon/Army_ABS/Occupation_Archer.png",
		"IconNoBack": "UI/Icon/Army_ABS/Icon_Occupation_Archer.png"
	},
	{
		"ID": 22,
		"Name": "兄贵魔物",
		"Desc": "ArmyDesc9",
		"ArmyTag": "ArmyTag_AnikiDemon",
		"Icon": "UI/Icon/Army_ABS/Occupation_Monster.png",
		"IconNoBack": "UI/Icon/Army_ABS/Icon_Occupation_Monster.png"
	},
	{
		"ID": 23,
		"Name": "Fire Dragon",
		"Desc": "ArmyDesc17",
		"ArmyTag": "ArmyTag_Boss1",
		"Icon": "UI/Icon/Army_ABS/Occupation_Boss.png",
		"IconNoBack": "UI/Icon/Army_ABS/Occupation_Boss.png"
	},
	{
		"ID": 24,
		"Name": "Ice Dragon",
		"Desc": "ArmyDesc17",
		"ArmyTag": "ArmyTag_Boss2",
		"Icon": "UI/Icon/Army_ABS/Occupation_Boss.png",
		"IconNoBack": "UI/Icon/Army_ABS/Occupation_Boss.png"
	},
	{
		"ID": 25,
		"Name": "Thunder Dragon",
		"Desc": "ArmyDesc17",
		"ArmyTag": "ArmyTag_Boss3",
		"Icon": "UI/Icon/Army_ABS/Occupation_Boss.png",
		"IconNoBack": "UI/Icon/Army_ABS/Occupation_Boss.png"
	},
	{
		"ID": 26,
		"Name": "Dark Dragon",
		"Desc": "ArmyDesc17",
		"ArmyTag": "ArmyTag_Boss4",
		"Icon": "UI/Icon/Army_ABS/Occupation_Boss.png",
		"IconNoBack": "UI/Icon/Army_ABS/Occupation_Boss.png"
	},
	{
		"ID": 27,
		"Name": "Dragon",
		"Desc": "ArmyDesc17",
		"ArmyTag": "ArmyTag_Boss5",
		"Icon": "UI/Icon/Army_ABS/Occupation_Dragon.png",
		"IconNoBack": "UI/Icon/Army_ABS/Icon_Occupation_Dragon.png"
	}
]