[
	{
		"ID": 1,
		"Name": "礼物祭",
		"Desc": "礼物祭",
		"WaypointsID": [
			1,
			2,
			3,
			4,
			5,
			6,
			7,
			8,
			9,
			10,
			11,
			12,
			13,
			14,
			15,
			16
		],
		"StartWaypointID": 2,
		"FirstScenarioID": 1,
		"Background": "CollectionActivityMap/CollectionActivityMap1_ABS/CollectionActivityMap1_Prefab.prefab",
		"BackgroundWidth": 18,
		"BackgroundHeight": 14,
		"CameraHeight": 450,
		"CameraHeightMin": 370,
		"CameraHeightMax": 550
	}
]