[
	{
		"ID": 20101,
		"Name": "Pinch Hitter",
		"Model": "Spine/Soldier/SwordMan_ABS/Skin/SwordMan_Skin01_Prefab.prefab",
		"CombatModel": "",
		"MeleeATKID": 0,
		"RangeATKID": 270,
		"SkillID": 0
	},
	{
		"ID": 20201,
		"Name": "Pinch Hitter",
		"Model": "Spine/Soldier/SwordMan_ABS/Skin/SwordMan_Skin02_Prefab.prefab",
		"CombatModel": "",
		"MeleeATKID": 0,
		"RangeATKID": 270,
		"SkillID": 0
	},
	{
		"ID": 10101,
		"Name": "Goalie",
		"Model": "Spine/Soldier/PikeMan_ABS/Skin/PikeMan_Skin01_Prefab.prefab",
		"CombatModel": "",
		"MeleeATKID": 0,
		"RangeATKID": 0,
		"SkillID": 0
	},
	{
		"ID": 10201,
		"Name": "Goalie",
		"Model": "Spine/Soldier/PikeMan_ABS/Skin/PikeMan_Skin02_Prefab.prefab",
		"CombatModel": "",
		"MeleeATKID": 0,
		"RangeATKID": 0,
		"SkillID": 0
	},
	{
		"ID": 30101,
		"Name": "Polar Bear Express",
		"Model": "Spine/Soldier/SwordHorse_ABS/Skin/SwordHorse_Skin01_Prefab.prefab",
		"CombatModel": "",
		"MeleeATKID": 0,
		"RangeATKID": 0,
		"SkillID": 0
	},
	{
		"ID": 30201,
		"Name": "Polar Bear Express",
		"Model": "Spine/Soldier/SwordHorse_ABS/Skin/SwordHorse_Skin02_Prefab.prefab",
		"CombatModel": "",
		"MeleeATKID": 0,
		"RangeATKID": 0,
		"SkillID": 0
	},
	{
		"ID": 40101,
		"Name": "Chrysopelea Pharaoh",
		"Model": "Spine/Soldier/FlyingUnit/Sword_Griffin_ABS/Skin/Sword_Griffin_Skin01_Prefab.prefab",
		"CombatModel": "Spine/Soldier/FlyingUnit/Sword_Griffin_ABS/Skin/Sword_Griffin_Skin01_air_Prefab.prefab",
		"MeleeATKID": 0,
		"RangeATKID": 0,
		"SkillID": 0
	},
	{
		"ID": 40201,
		"Name": "Chrysopelea Pharaoh",
		"Model": "Spine/Soldier/FlyingUnit/Sword_Griffin_ABS/Skin/Sword_Griffin_Skin02_Prefab.prefab",
		"CombatModel": "Spine/Soldier/FlyingUnit/Sword_Griffin_ABS/Skin/Sword_Griffin_Skin02_air_Prefab.prefab",
		"MeleeATKID": 0,
		"RangeATKID": 0,
		"SkillID": 0
	},
	{
		"ID": 60101,
		"Name": "Kamen Archer",
		"Model": "Spine/Soldier/Archer_ABS/Skin/Archer_Skin01_Prefab.prefab",
		"CombatModel": "",
		"MeleeATKID": 0,
		"RangeATKID": 0,
		"SkillID": 0
	},
	{
		"ID": 60201,
		"Name": "Kamen Archer",
		"Model": "Spine/Soldier/Archer_ABS/Skin/Archer_Skin02_Prefab.prefab",
		"CombatModel": "",
		"MeleeATKID": 0,
		"RangeATKID": 0,
		"SkillID": 0
	},
	{
		"ID": 80101,
		"Name": "Mystery Doctor",
		"Model": "Spine/Soldier/Clergy_ABS/Skin/Clergy_Skin01_Prefab.prefab",
		"CombatModel": "",
		"MeleeATKID": 0,
		"RangeATKID": 0,
		"SkillID": 0
	},
	{
		"ID": 80201,
		"Name": "Mystery Doctor",
		"Model": "Spine/Soldier/Clergy_ABS/Skin/Clergy_Skin02_Prefab.prefab",
		"CombatModel": "",
		"MeleeATKID": 0,
		"RangeATKID": 0,
		"SkillID": 0
	},
	{
		"ID": 110101,
		"Name": "Anonymous",
		"Model": "Spine/Soldier/Thief_ABS/Skin/Thief_Skin01_Prefab.prefab",
		"CombatModel": "",
		"MeleeATKID": 0,
		"RangeATKID": 0,
		"SkillID": 0
	},
	{
		"ID": 110201,
		"Name": "Anonymous",
		"Model": "Spine/Soldier/Thief_ABS/Skin/Thief_Skin02_Prefab.prefab",
		"CombatModel": "",
		"MeleeATKID": 0,
		"RangeATKID": 0,
		"SkillID": 0
	},
	{
		"ID": 20001,
		"Name": "Rowdy Rally",
		"Model": "Spine/Soldier/Qudao_ABS/Qudao_100W/Qudao_100W_Prefab.prefab",
		"CombatModel": "",
		"MeleeATKID": 0,
		"RangeATKID": 0,
		"SkillID": 0
	},
	{
		"ID": 20102,
		"Name": "Console Gamer",
		"Model": "Spine/Soldier/Qudao_ABS/Qudao_MD/Qudao_MD_Prefab.prefab",
		"CombatModel": "",
		"MeleeATKID": 0,
		"RangeATKID": 0,
		"SkillID": 0
	},
	{
		"ID": 20002,
		"Name": "Spray Away",
		"Model": "Spine/Soldier/Qudao_ABS/Qudao_Tap/Qudao_Tap_Prefab.prefab",
		"CombatModel": "",
		"MeleeATKID": 0,
		"RangeATKID": 0,
		"SkillID": 0
	},
	{
		"ID": 20003,
		"Name": "TV Idol",
		"Model": "Spine/Soldier/Qudao_ABS/Qudao_Bilibili/Qudao_Bilibili_Prefab.prefab",
		"CombatModel": "",
		"MeleeATKID": 0,
		"RangeATKID": 0,
		"SkillID": 0
	},
	{
		"ID": 10001,
		"Name": "Pro Skater",
		"Model": "Spine/Soldier/Qudao_ABS/Qudao_QQ/Qudao_QQ_Prefab.prefab",
		"CombatModel": "",
		"MeleeATKID": 0,
		"RangeATKID": 0,
		"SkillID": 0
	},
	{
		"ID": 20004,
		"Name": "Slick Youth",
		"Model": "Spine/Soldier/Qudao_ABS/Qudao_Jiuyou/Qudao_jiuyou_Prefab.prefab",
		"CombatModel": "",
		"MeleeATKID": 0,
		"RangeATKID": 0,
		"SkillID": 0
	},
	{
		"ID": 10002,
		"Name": "Internet Celebrity",
		"Model": "Spine/Soldier/Qudao_ABS/Qudao_Oppo/Qudao_Oppo_Prefab.prefab",
		"CombatModel": "",
		"MeleeATKID": 0,
		"RangeATKID": 0,
		"SkillID": 0
	},
	{
		"ID": 20005,
		"Name": "16-Bit Kid",
		"Model": "Spine/Soldier/Qudao_ABS/Qudao_Vivo/Qudao_Vivo_Prefab.prefab",
		"CombatModel": "",
		"MeleeATKID": 0,
		"RangeATKID": 0,
		"SkillID": 0
	},
	{
		"ID": 20006,
		"Name": "Baby Unicorn",
		"Model": "Spine/Soldier/Qudao_ABS/Qudao_Huawei01/Qudao_huawei01_Prefab.prefab",
		"CombatModel": "",
		"MeleeATKID": 0,
		"RangeATKID": 0,
		"SkillID": 0
	},
	{
		"ID": 20007,
		"Name": "Night Panda",
		"Model": "Spine/Soldier/Qudao_ABS/Qudao_Meizu/Qudao_Meizu_Prefab.prefab",
		"CombatModel": "",
		"MeleeATKID": 0,
		"RangeATKID": 0,
		"SkillID": 0
	},
	{
		"ID": 80001,
		"Name": "Starlight",
		"Model": "Spine/Soldier/Qudao_ABS/Qudao_Xiaomi/Qudao_Xiaomi_Prefab.prefab",
		"CombatModel": "",
		"MeleeATKID": 0,
		"RangeATKID": 0,
		"SkillID": 0
	},
	{
		"ID": 61901,
		"Name": "Magic Summer",
		"Model": "Spine/Soldier/FlyingUnit/Witch_ABS/Witch_Skin/Witch_Skin01_Prefab.prefab",
		"CombatModel": "",
		"MeleeATKID": 0,
		"RangeATKID": 0,
		"SkillID": 0
	},
	{
		"ID": 62201,
		"Name": "Magic Summer",
		"Model": "Spine/Soldier/FlyingUnit/Witch_ABS/Witch_Skin/Witch_Skin02_Prafab.prefab",
		"CombatModel": "",
		"MeleeATKID": 0,
		"RangeATKID": 0,
		"SkillID": 0
	},
	{
		"ID": 60102,
		"Name": "Island Elf",
		"Model": "Spine/Soldier/Fairy_ABS/Fairy_Skin/Fairy_Skin01_Prefab.prefab",
		"CombatModel": "",
		"MeleeATKID": 0,
		"RangeATKID": 0,
		"SkillID": 0
	},
	{
		"ID": 60202,
		"Name": "Island Elf",
		"Model": "Spine/Soldier/Fairy_ABS/Fairy_Skin/Fairy_Skin02_Prefab.prefab",
		"CombatModel": "",
		"MeleeATKID": 0,
		"RangeATKID": 0,
		"SkillID": 0
	},
	{
		"ID": 60401,
		"Name": "Beach Elf",
		"Model": "Spine/Soldier/DarkElf_ABS/DarkElf_skin/DarkElf_skin01_Prefab.prefab",
		"CombatModel": "",
		"MeleeATKID": 0,
		"RangeATKID": 0,
		"SkillID": 0
	},
	{
		"ID": 61001,
		"Name": "Beach Elf",
		"Model": "Spine/Soldier/DarkElf_ABS/DarkElf_skin/DarkElf_skin02_Prefab.prefab",
		"CombatModel": "",
		"MeleeATKID": 0,
		"RangeATKID": 0,
		"SkillID": 0
	},
	{
		"ID": 20008,
		"Name": "Fishing Master",
		"Model": "Spine/Soldier/Qudao_ABS/Qudao_Douyu/Qudao_Douyu_Prefab.prefab",
		"CombatModel": "",
		"MeleeATKID": 0,
		"RangeATKID": 0,
		"SkillID": 0
	},
	{
		"ID": 101,
		"Name": "Alhazard",
		"Model": "Spine/Soldier/Shadow_ABS/Shadow_prefab.prefab",
		"CombatModel": "",
		"MeleeATKID": 0,
		"RangeATKID": 0,
		"SkillID": 0
	},
	{
		"ID": 1201,
		"Name": "Dragon Slayer",
		"Model": "Spine/General/Elwin_ABS/Elwin_Skin/Elwin_Skin_Prefab.prefab",
		"CombatModel": "",
		"MeleeATKID": 0,
		"RangeATKID": 0,
		"SkillID": 0
	},
	{
		"ID": 12011,
		"Name": "Dragon Slayer",
		"Model": "Spine/General/Elwin_ABS/Elwin_Skin01_1/Elwin_Skin01_1_Prefab.prefab",
		"CombatModel": "",
		"MeleeATKID": 0,
		"RangeATKID": 0,
		"SkillID": 0
	},
	{
		"ID": 1501,
		"Name": "Cherry Miko",
		"Model": "Spine/General/Riana_ABS/Riana_Skin/Riana_Skin_Prefab.prefab",
		"CombatModel": "",
		"MeleeATKID": 0,
		"RangeATKID": 0,
		"SkillID": 0
	},
	{
		"ID": 601,
		"Name": "Gunslinger",
		"Model": "Spine/General/Leon_ABS/Leon_Skin/Leon_Skin_Prefab.prefab",
		"CombatModel": "",
		"MeleeATKID": 0,
		"RangeATKID": 0,
		"SkillID": 0
	},
	{
		"ID": 701,
		"Name": "Dark Warlord",
		"Model": "Spine/General/Barnhart_ABS/Barnhart_Skin/Barnhart_Skin_Prefab.prefab",
		"CombatModel": "",
		"MeleeATKID": 0,
		"RangeATKID": 0,
		"SkillID": 0
	},
	{
		"ID": 801,
		"Name": "Sonic Fairy",
		"Model": "Spine/General/Lana_ABS/Lana_Skin/Lana_Skin_Prefab.prefab",
		"CombatModel": "",
		"MeleeATKID": 0,
		"RangeATKID": 0,
		"SkillID": 0
	},
	{
		"ID": 1401,
		"Name": "Runaway Angel",
		"Model": "Spine/General/Sherry_ABS/Sherry_Skin/Sherry_Skin01_Prefab.prefab",
		"CombatModel": "Spine/General/Sherry_ABS/Sherry_Skin/Sherry_Skin01_air_Prefab.prefab",
		"MeleeATKID": 0,
		"RangeATKID": 0,
		"SkillID": 0
	},
	{
		"ID": 14011,
		"Name": "Runaway Angel",
		"Model": "Spine/General/Sherry_ABS/Sherry_Skin01_1/Sherry_Skin01_1_Prefab.prefab",
		"CombatModel": "",
		"MeleeATKID": 0,
		"RangeATKID": 0,
		"SkillID": 0
	},
	{
		"ID": 1402,
		"Name": "Princess of Kalxath",
		"Model": "Spine/General/Sherry_ABS/Sherry_Skin/Sherry_Skin02_Prefab.prefab",
		"CombatModel": "Spine/General/Sherry_ABS/Sherry_Skin/Sherry_Skin02_air_Prefab.prefab",
		"MeleeATKID": 0,
		"RangeATKID": 0,
		"SkillID": 0
	},
	{
		"ID": 602,
		"Name": "Tidal Blade",
		"Model": "Spine/General/Leon_ABS/Leon_Skin02/Leon_Skin02_Prefab.prefab",
		"CombatModel": "",
		"MeleeATKID": 0,
		"RangeATKID": 0,
		"SkillID": 0
	},
	{
		"ID": 1202,
		"Name": "Shogun's Spear",
		"Model": "Spine/General/Elwin_ABS/Elwin_Skin02/Elwin_Skin02_Prefab.prefab",
		"CombatModel": "",
		"MeleeATKID": 0,
		"RangeATKID": 0,
		"SkillID": 0
	},
	{
		"ID": 12021,
		"Name": "Shogun's Spear",
		"Model": "Spine/General/Elwin_ABS/Elwin_Skin02_1/Elwin_Skin02_1_Prefab.prefab",
		"CombatModel": "",
		"MeleeATKID": 0,
		"RangeATKID": 0,
		"SkillID": 0
	},
	{
		"ID": 1001,
		"Name": "Burning Passion",
		"Model": "Spine/General/Ledin_ABS/Ledin_Skin01/Ledin_Skin01_Prefab.prefab",
		"CombatModel": "",
		"MeleeATKID": 0,
		"RangeATKID": 0,
		"SkillID": 0
	},
	{
		"ID": 2501,
		"Name": "X-Rigüler",
		"Model": "Spine/General/Alutemurat_ABS/Alutermurat_Skin01/Alutemurat_Skin01_Prefab.prefab",
		"CombatModel": "Spine/General/Alutemurat_ABS/Alutermurat_Skin01/Alutemurat_Skin01_air_Prefab.prefab",
		"MeleeATKID": 0,
		"RangeATKID": 0,
		"SkillID": 0
	},
	{
		"ID": 25011,
		"Name": "X-Rigüler",
		"Model": "Spine/General/Alutemurat_ABS/Alutemurat_Skin01_1/Alutemurat_Skin01_1_Prefab.prefab",
		"CombatModel": "",
		"MeleeATKID": 0,
		"RangeATKID": 0,
		"SkillID": 0
	},
	{
		"ID": 2101,
		"Name": "Mobile Suit Guardian",
		"Model": "Spine/General/Bargas_ABS/Bargas_Skin/Bargas_Skin_Prefab.prefab",
		"CombatModel": "",
		"MeleeATKID": 0,
		"RangeATKID": 0,
		"SkillID": 0
	},
	{
		"ID": 21011,
		"Name": "Mobile Suit Guardian",
		"Model": "Spine/General/Bargas_ABS/Bargas_Skin01_1/Bargas_Skin01_1_Prefab.prefab",
		"CombatModel": "",
		"MeleeATKID": 0,
		"RangeATKID": 0,
		"SkillID": 0
	},
	{
		"ID": 1801,
		"Name": "Pirate Queen",
		"Model": "Spine/General/Imelda_ABS/Imelda_Skin/Imelda_Skin01_Prefab.prefab",
		"CombatModel": "",
		"MeleeATKID": 0,
		"RangeATKID": 0,
		"SkillID": 0
	},
	{
		"ID": 501,
		"Name": "Riot Police",
		"Model": "Spine/General/Chris_ABS/Chris_Skin/Chris_Skin01_Prefab.prefab",
		"CombatModel": "",
		"MeleeATKID": 0,
		"RangeATKID": 0,
		"SkillID": 0
	},
	{
		"ID": 2601,
		"Name": "Goddess of War",
		"Model": "Spine/General/Luna_ABS/Luna_Skin01/Luna_Skin1_Prefab.prefab",
		"CombatModel": "Spine/General/Luna_ABS/Luna_Skin01/Luna_Skin1_air_Prefab.prefab",
		"MeleeATKID": 0,
		"RangeATKID": 0,
		"SkillID": 0
	},
	{
		"ID": 26011,
		"Name": "Goddess of War",
		"Model": "Spine/General/Luna_ABS/Luna_Skin01_1/Luna_Skin01_1_Prefab.prefab",
		"CombatModel": "",
		"MeleeATKID": 0,
		"RangeATKID": 0,
		"SkillID": 0
	},
	{
		"ID": 5201,
		"Name": "Drakesoul Blade",
		"Model": "Spine/General/Angelina_ABS/Angelina_Skin/Angelina_Skin_Prefab.prefab",
		"CombatModel": "",
		"MeleeATKID": 0,
		"RangeATKID": 0,
		"SkillID": 0
	},
	{
		"ID": 52011,
		"Name": "Drakesoul Blade",
		"Model": "Spine/General/Angelina_ABS/Angelina_Skin01_1/Angelina_Skin01_1_Prefab.prefab",
		"CombatModel": "Spine/General/Angelina_ABS/Angelina_Skin01_1/Angelina_Skin01_1_air_Prefab.prefab",
		"MeleeATKID": 0,
		"RangeATKID": 0,
		"SkillID": 0
	},
	{
		"ID": 5101,
		"Name": "Shining Shoot",
		"Model": "Spine/General/Schelfaniel_ABS/Schelfaniel_Skin/Schelfaniel_Skin_Prefab.prefab",
		"CombatModel": "",
		"MeleeATKID": 0,
		"RangeATKID": 0,
		"SkillID": 0
	},
	{
		"ID": 1301,
		"Name": "Magical Mystery",
		"Model": "Spine/General/Hein_ABS/Hein_skin/Hein_Skin_Prefab.prefab",
		"CombatModel": "",
		"MeleeATKID": 0,
		"RangeATKID": 0,
		"SkillID": 0
	},
	{
		"ID": 4901,
		"Name": "Shadows of Summer",
		"Model": "Spine/General/Fana_ABS/Fana_Skin/Fana_Skin_Prefab.prefab",
		"CombatModel": "",
		"MeleeATKID": 0,
		"RangeATKID": 0,
		"SkillID": 0
	},
	{
		"ID": 49011,
		"Name": "Shadows of Summer",
		"Model": "Spine/General/Fana_ABS/Fana_Skin01_1/Fana_Skin01_1_Prefab.prefab",
		"CombatModel": "Spine/General/Fana_ABS/Fana_Skin01_1/Fana_Skin01_1_air_Prefab.prefab",
		"MeleeATKID": 0,
		"RangeATKID": 0,
		"SkillID": 0
	},
	{
		"ID": 3301,
		"Name": "Sunshine Dream",
		"Model": "Spine/General/Freya_ABS/Freya_Skin02/Freya_Skin02_Prefab.prefab",
		"CombatModel": "",
		"MeleeATKID": 0,
		"RangeATKID": 0,
		"SkillID": 0
	},
	{
		"ID": 802,
		"Name": "Coastal Beauty",
		"Model": "Spine/General/Lana_ABS/Lana_Skin03/Lana_Skin03_Prefab.prefab",
		"CombatModel": "",
		"MeleeATKID": 0,
		"RangeATKID": 0,
		"SkillID": 0
	},
	{
		"ID": 2602,
		"Name": "Water Bomb Attack",
		"Model": "Spine/General/Luna_ABS/Luna_Skin02/Luna_skin02_Prefab.prefab",
		"CombatModel": "",
		"MeleeATKID": 0,
		"RangeATKID": 0,
		"SkillID": 0
	},
	{
		"ID": 26021,
		"Name": "Water Bomb Attack",
		"Model": "Spine/General/Luna_ABS/Luna_Skin02_1/Luna_Skin02_1_Prefab.prefab",
		"CombatModel": "Spine/General/Luna_ABS/Luna_Skin02_1/Luna_Skin02_1_air_Prefab.prefab",
		"MeleeATKID": 0,
		"RangeATKID": 0,
		"SkillID": 0
	},
	{
		"ID": 1101,
		"Name": "Romantic Summer",
		"Model": "Spine/General/Norm_ABS/Norm_Skin2/Norm_Skin02_Prefab.prefab",
		"CombatModel": "Spine/General/Norm_ABS/Norm_Skin2/Norm_Skin02_air_Prefab.prefab",
		"MeleeATKID": 0,
		"RangeATKID": 0,
		"SkillID": 0
	},
	{
		"ID": 11011,
		"Name": "Romantic Summer",
		"Model": "Spine/General/Norm_ABS/Norm_Skin02_1/Norm_Skin02_1_Prefab.prefab",
		"CombatModel": "",
		"MeleeATKID": 0,
		"RangeATKID": 0,
		"SkillID": 0
	},
	{
		"ID": 2901,
		"Name": "Beach Babe",
		"Model": "Spine/General/Tialice_ABS/Tialice_Skin/Tialice_skin01_Prefab.prefab",
		"CombatModel": "",
		"MeleeATKID": 0,
		"RangeATKID": 0,
		"SkillID": 0
	},
	{
		"ID": 803,
		"Name": "Cherry Moon",
		"Model": "Spine/General/Lana_ABS/Lana_Skin02/Lana_Skin02_Prefab.prefab",
		"CombatModel": "",
		"MeleeATKID": 0,
		"RangeATKID": 0,
		"SkillID": 0
	},
	{
		"ID": 901,
		"Name": "Soul Reaper",
		"Model": "Spine/General/Boser_ABS/Boser_Skin01/Boser_Skin01_Prefab.prefab",
		"CombatModel": "",
		"MeleeATKID": 0,
		"RangeATKID": 0,
		"SkillID": 0
	},
	{
		"ID": 9011,
		"Name": "Soul Reaper",
		"Model": "Spine/General/Boser_ABS/Boser_Skin01/Boser_Skin01_1_Prefab.prefab",
		"CombatModel": "",
		"MeleeATKID": 0,
		"RangeATKID": 0,
		"SkillID": 0
	},
	{
		"ID": 3601,
		"Name": "Deadly Gentleman",
		"Model": "Spine/General/SilverWolf_ABS/SilverWolf_Skin/SilverWolf_Skin_Prefab.prefab",
		"CombatModel": "",
		"MeleeATKID": 0,
		"RangeATKID": 0,
		"SkillID": 0
	},
	{
		"ID": 2801,
		"Name": "Demon Elf",
		"Model": "Spine/General/Zalrahda_ABS/Deamon/Zalrahda_Crime3_prefab.prefab",
		"CombatModel": "",
		"MeleeATKID": 0,
		"RangeATKID": 0,
		"SkillID": 0
	},
	{
		"ID": 1102,
		"Name": "Galactic Hero",
		"Model": "Spine/General/Norm_ABS/Norm_skin/Norm_Skin_Prefab.prefab",
		"CombatModel": "",
		"MeleeATKID": 0,
		"RangeATKID": 0,
		"SkillID": 0
	},
	{
		"ID": 11021,
		"Name": "Galactic Hero",
		"Model": "Spine/General/Norm_ABS/Norm_Skin01_1/Norm_Skin01_1_Prefab.prefab",
		"CombatModel": "Spine/General/Norm_ABS/Norm_Skin01_1/Norm_Skin01_1_air_Prefab.prefab",
		"MeleeATKID": 0,
		"RangeATKID": 0,
		"SkillID": 0
	},
	{
		"ID": 2701,
		"Name": "Storm God",
		"Model": "Spine/General/Dehault_ABS/Dehault_Skin/Dehault_Skin_Prefab.prefab",
		"CombatModel": "",
		"MeleeATKID": 0,
		"RangeATKID": 0,
		"SkillID": 0
	},
	{
		"ID": 27011,
		"Name": "Storm God",
		"Model": "Spine/General/Dehault_ABS/Dehault_Skin01_1/Dehault_Skin01_1_Prefab.prefab",
		"CombatModel": "",
		"MeleeATKID": 0,
		"RangeATKID": 0,
		"SkillID": 0
	},
	{
		"ID": 3302,
		"Name": "Spartacus",
		"Model": "Spine/General/Freya_ABS/Freya_Skin/Freya_Skin_Prefab.prefab",
		"CombatModel": "",
		"MeleeATKID": 0,
		"RangeATKID": 0,
		"SkillID": 0
	},
	{
		"ID": 33021,
		"Name": "Spartacus",
		"Model": "Spine/General/Freya_ABS/Freya_Skin01_1/Freya_Skin01_1_Prefab.prefab",
		"CombatModel": "",
		"MeleeATKID": 0,
		"RangeATKID": 0,
		"SkillID": 0
	},
	{
		"ID": 1701,
		"Name": "Beat Breaker",
		"Model": "Spine/General/Eggbert_ABS/Eggbert_Skin01/Eggbert_Skin01_Prefab.prefab",
		"CombatModel": "",
		"MeleeATKID": 0,
		"RangeATKID": 0,
		"SkillID": 0
	},
	{
		"ID": 102,
		"Name": "Wine Connoisseur",
		"Model": "Spine/General/Mathew_ABS/Mathew_Skin01/Mathew_Skin01_Prefab.prefab",
		"CombatModel": "",
		"MeleeATKID": 0,
		"RangeATKID": 0,
		"SkillID": 0
	},
	{
		"ID": 1021,
		"Name": "Wine Connoisseur",
		"Model": "Spine/General/Mathew_ABS/Mathew_Skin01_1/Mathew_Skin01_1_Prefab.prefab",
		"CombatModel": "",
		"MeleeATKID": 0,
		"RangeATKID": 0,
		"SkillID": 0
	},
	{
		"ID": 1022,
		"Name": "Wine Connoisseur",
		"Model": "Spine/General/Mathew_ABS/Mathew_Skin01_2/Mathew_Skin01_2_Prefab.prefab",
		"CombatModel": "",
		"MeleeATKID": 0,
		"RangeATKID": 0,
		"SkillID": 0
	},
	{
		"ID": 1023,
		"Name": "Wine Connoisseur",
		"Model": "Spine/General/Mathew_ABS/Mathew_Skin01_3/Mathew_Skin01_3_Prefab.prefab",
		"CombatModel": "Spine/General/Mathew_ABS/Mathew_Skin01_3/Mathew_Skin01_3_air_Prefab.prefab",
		"MeleeATKID": 0,
		"RangeATKID": 0,
		"SkillID": 0
	},
	{
		"ID": 1024,
		"Name": "Wine Connoisseur",
		"Model": "Spine/General/Mathew_ABS/Mathew_Skin01_4/Mathew_Skin01_4_Prefab.prefab",
		"CombatModel": "",
		"MeleeATKID": 0,
		"RangeATKID": 0,
		"SkillID": 0
	},
	{
		"ID": 301,
		"Name": "Chef de Cuisine",
		"Model": "Spine/General/Grenier_ABS/Grenier_Skin01/Grenier_Skin01_Prefab.prefab",
		"CombatModel": "",
		"MeleeATKID": 0,
		"RangeATKID": 0,
		"SkillID": 0
	},
	{
		"ID": 3011,
		"Name": "Chef de Cuisine",
		"Model": "Spine/General/Grenier_ABS/Grenier_Skin01_1/Grenier_Skin01_1_Prefab.prefab",
		"CombatModel": "",
		"MeleeATKID": 0,
		"RangeATKID": 0,
		"SkillID": 0
	},
	{
		"ID": 401,
		"Name": "Magic Maid",
		"Model": "Spine/General/Aimeeda_ABS/Aimeeda_Skin01/Aimeeda_Skin01_Prefab.prefab",
		"CombatModel": "",
		"MeleeATKID": 0,
		"RangeATKID": 0,
		"SkillID": 0
	},
	{
		"ID": 2902,
		"Name": "Godsend",
		"Model": "Spine/General/Tialice_ABS/Tialice_Skin02/Tialice_Skin02_Prefab.prefab",
		"CombatModel": "",
		"MeleeATKID": 0,
		"RangeATKID": 0,
		"SkillID": 0
	},
	{
		"ID": 5301,
		"Name": "Dark Hunter",
		"Model": "Spine/General/Ranford_ABS/Ranford_Skin/Ranford_Skin01_Prefab.prefab",
		"CombatModel": "",
		"MeleeATKID": 0,
		"RangeATKID": 0,
		"SkillID": 0
	},
	{
		"ID": 53011,
		"Name": "Dark Hunter",
		"Model": "Spine/General/Ranford_ABS/Ranford_Skin01_1/Ranford_Skin01_1_Prefab.prefab",
		"CombatModel": "",
		"MeleeATKID": 0,
		"RangeATKID": 0,
		"SkillID": 0
	},
	{
		"ID": 5401,
		"Name": "Blood Succubus",
		"Model": "Spine/General/Listell_ABS/Listell_Skin01/Listell_Skin01_Prefab.prefab",
		"CombatModel": "",
		"MeleeATKID": 0,
		"RangeATKID": 0,
		"SkillID": 0
	},
	{
		"ID": 54011,
		"Name": "Blood Succubus",
		"Model": "Spine/General/Listell_ABS/Listell_Skin01_1/Listell_Skin01_1_Prefab.prefab",
		"CombatModel": "",
		"MeleeATKID": 0,
		"RangeATKID": 0,
		"SkillID": 0
	},
	{
		"ID": 1502,
		"Name": "Eternal Love",
		"Model": "Spine/General/Riana_ABS/Riana_Skin02/Riana_Skin02_Prefab.prefab",
		"CombatModel": "",
		"MeleeATKID": 0,
		"RangeATKID": 0,
		"SkillID": 0
	},
	{
		"ID": 5501,
		"Name": "Fallen Angel",
		"Model": "Spine/General/Landius_ABS/Landius_Skin01_1/Landius_Skin01_1_Prefab.prefab",
		"CombatModel": "",
		"MeleeATKID": 0,
		"RangeATKID": 0,
		"SkillID": 0
	},
	{
		"ID": 55011,
		"Name": "Fallen Angel",
		"Model": "Spine/General/Landius_ABS/Landius_Skin01/Landius_Skin01_Prefab.prefab",
		"CombatModel": "",
		"MeleeATKID": 0,
		"RangeATKID": 0,
		"SkillID": 0
	},
	{
		"ID": 5601,
		"Name": "Lesser Thunder Imp",
		"Model": "Spine/General/Rachel_ABS/Rachel_Skin01/Rachel_Skin01_Prefab.prefab",
		"CombatModel": "",
		"MeleeATKID": 0,
		"RangeATKID": 0,
		"SkillID": 0
	},
	{
		"ID": 56011,
		"Name": "Lesser Thunder Imp",
		"Model": "Spine/General/Rachel_ABS/Rachel_Skin01_1/Rachel_Skin01_1_Prefab.prefab",
		"CombatModel": "",
		"MeleeATKID": 0,
		"RangeATKID": 0,
		"SkillID": 0
	},
	{
		"ID": 1403,
		"Name": "雪莉圣诞",
		"Model": "Spine/General/Sherry_ABS/Sherry_Skin04/Sherry_Skin04_Prefab.prefab",
		"CombatModel": "Spine/General/Sherry_ABS/Sherry_Skin04/Sherry_Skin04_air_Prefab.prefab",
		"MeleeATKID": 0,
		"RangeATKID": 0,
		"SkillID": 0
	},
	{
		"ID": 14031,
		"Name": "雪莉圣诞",
		"Model": "Spine/General/Sherry_ABS/Sherry_Skin04_1/Sherry_Skin04_1_Prefab.prefab",
		"CombatModel": "",
		"MeleeATKID": 0,
		"RangeATKID": 0,
		"SkillID": 0
	},
	{
		"ID": 5102,
		"Name": "雪露法妮尔圣诞",
		"Model": "Spine/General/Schelfaniel_ABS/Schelfaniel_Skin02_1/Schelfaniel_Skin02_1_Prefab.prefab",
		"CombatModel": "",
		"MeleeATKID": 0,
		"RangeATKID": 0,
		"SkillID": 0
	},
	{
		"ID": 51021,
		"Name": "雪露法妮尔圣诞",
		"Model": "Spine/General/Schelfaniel_ABS/Schelfaniel_Skin02/Schelfaniel_Skin02_Prefab.prefab",
		"CombatModel": "",
		"MeleeATKID": 0,
		"RangeATKID": 0,
		"SkillID": 0
	},
	{
		"ID": 5202,
		"Name": "安洁丽娜圣诞",
		"Model": "Spine/General/Angelina_ABS/Angelina_Skin02/Angelina_Skin02_Prefab.prefab",
		"CombatModel": "",
		"MeleeATKID": 0,
		"RangeATKID": 0,
		"SkillID": 0
	},
	{
		"ID": 52021,
		"Name": "安洁丽娜圣诞",
		"Model": "Spine/General/Angelina_ABS/Angelina_Skin02_1/Angelina_Skin02_1_Prefab.prefab",
		"CombatModel": "Spine/General/Angelina_ABS/Angelina_Skin02_1/Angelina_Skin02_1_air_Prefab.prefab",
		"MeleeATKID": 0,
		"RangeATKID": 0,
		"SkillID": 0
	},
	{
		"ID": 1203,
		"Name": "红之骑士",
		"Model": "Spine/General/Elwin_ABS/Elwin_Skin03/Elwin_Skin03_Prefab.prefab",
		"CombatModel": "",
		"MeleeATKID": 0,
		"RangeATKID": 0,
		"SkillID": 0
	},
	{
		"ID": 12031,
		"Name": "红之骑士",
		"Model": "Spine/General/Elwin_ABS/Elwin_Skin03_1/Elwin_Skin03_1_Prefab.prefab",
		"CombatModel": "",
		"MeleeATKID": 0,
		"RangeATKID": 0,
		"SkillID": 0
	},
	{
		"ID": 603,
		"Name": "苍之骑士",
		"Model": "Spine/General/Leon_ABS/Leon_Skin03/Leon_Skin03_Prefab.prefab",
		"CombatModel": "",
		"MeleeATKID": 0,
		"RangeATKID": 0,
		"SkillID": 0
	},
	{
		"ID": 1302,
		"Name": "超时空公主",
		"Model": "Spine/General/Hein_ABS/Hein_Skin02/Hein_Skin02_Prefab.prefab",
		"CombatModel": "",
		"MeleeATKID": 0,
		"RangeATKID": 0,
		"SkillID": 0
	},
	{
		"ID": 7001,
		"Name": "白花恋诗",
		"Model": "Spine/General/Joshua_ABS/Joshua_Skin01/Joshua_Skin01_Prefab.prefab",
		"CombatModel": "",
		"MeleeATKID": 0,
		"RangeATKID": 0,
		"SkillID": 0
	},
	{
		"ID": 402,
		"Name": "镜花伊人",
		"Model": "Spine/General/Aimeeda_ABS/Aimeeda_Skin02/Aimeeda_Skin02_Prefab.prefab",
		"CombatModel": "",
		"MeleeATKID": 0,
		"RangeATKID": 0,
		"SkillID": 0
	},
	{
		"ID": 2802,
		"Name": "凌霜侠影",
		"Model": "Spine/General/Zalrahda_ABS/Zalrahda_Skin02/Zalrahda_Skin02_Prefab.prefab",
		"CombatModel": "",
		"MeleeATKID": 0,
		"RangeATKID": 0,
		"SkillID": 0
	},
	{
		"ID": 502,
		"Name": "Silver Cat",
		"Model": "Spine/General/Chris_ABS/Chris_Skin02/Chris_Skin02_Prefab.prefab",
		"CombatModel": "",
		"MeleeATKID": 0,
		"RangeATKID": 0,
		"SkillID": 0
	},
	{
		"ID": 7201,
		"Name": "Dark Knight",
		"Model": "Spine/General/Leonhardt_ABS/Leonhardt_Skin01/Leonhardt_Skin01_Prefab.prefab",
		"CombatModel": "",
		"MeleeATKID": 0,
		"RangeATKID": 0,
		"SkillID": 0
	},
	{
		"ID": 1002,
		"Name": "战神雷丁",
		"Model": "Spine/General/Ledin_ABS/Ledin_Skin02/Ledin_Skin02_Prefab.prefab",
		"CombatModel": "",
		"MeleeATKID": 0,
		"RangeATKID": 0,
		"SkillID": 0
	},
	{
		"ID": 10021,
		"Name": "战神雷丁",
		"Model": "Spine/General/Ledin_ABS/Ledin_Skin02_1/Ledin_Skin02_1_Prefab.prefab",
		"CombatModel": "",
		"MeleeATKID": 0,
		"RangeATKID": 0,
		"SkillID": 0
	},
	{
		"ID": 2502,
		"Name": "海王元帅",
		"Model": "Spine/General/Alutemurat_ABS/Alutemurat_Skin02/Alutemurat_Skin02_Prefab.prefab",
		"CombatModel": "Spine/General/Alutemurat_ABS/Alutemurat_Skin02/Alutemurat_Skin02_air_Prefab.prefab",
		"MeleeATKID": 0,
		"RangeATKID": 0,
		"SkillID": 0
	},
	{
		"ID": 25021,
		"Name": "海王元帅",
		"Model": "Spine/General/Alutemurat_ABS/Alutemurat_Skin02_1/Alutemurat_Skin02_1_Prefab.prefab",
		"CombatModel": "",
		"MeleeATKID": 0,
		"RangeATKID": 0,
		"SkillID": 0
	},
	{
		"ID": 6001,
		"Name": "偶像西格玛",
		"Model": "Spine/General/Sigma_ABS/Sigma_Skin01_1/Sigma_Skin01_1_Prefab.prefab",
		"CombatModel": "",
		"MeleeATKID": 0,
		"RangeATKID": 0,
		"SkillID": 0
	},
	{
		"ID": 60011,
		"Name": "偶像西格玛",
		"Model": "Spine/General/Sigma_ABS/Sigma_Skin01/Sigma_Skin01_Prefab.prefab",
		"CombatModel": "",
		"MeleeATKID": 0,
		"RangeATKID": 0,
		"SkillID": 0
	},
	{
		"ID": 6101,
		"Name": "偶像拉姆达",
		"Model": "Spine/General/Lambda_ABS/Lambda_Skin01/Lambda_Skin01_Prefab.prefab",
		"CombatModel": "",
		"MeleeATKID": 0,
		"RangeATKID": 0,
		"SkillID": 0
	},
	{
		"ID": 902,
		"Name": "冥王波赞鲁",
		"Model": "Spine/General/Boser_ABS/Boser_Skin02/Boser_Skin02_Prefab.prefab",
		"CombatModel": "",
		"MeleeATKID": 0,
		"RangeATKID": 0,
		"SkillID": 0
	},
	{
		"ID": 3201,
		"Name": "法老艾玛",
		"Model": "Spine/General/EmmaLink_ABS/EmmaLink_Skin01_1/EmmaLink_Skin01_1_Prefab.prefab",
		"CombatModel": "",
		"MeleeATKID": 0,
		"RangeATKID": 0,
		"SkillID": 0
	},
	{
		"ID": 32011,
		"Name": "法老艾玛",
		"Model": "Spine/General/EmmaLink_ABS/EmmaLink_Skin01/EmmaLink_Skin01_Prefab.prefab",
		"CombatModel": "",
		"MeleeATKID": 0,
		"RangeATKID": 0,
		"SkillID": 0
	},
	{
		"ID": 5701,
		"Name": "自由远行者",
		"Model": "Spine/General/Wiler_ABS/Wiler_Skin01_1/Wiler_Skin01_1_Prefab.prefab",
		"CombatModel": "",
		"MeleeATKID": 0,
		"RangeATKID": 0,
		"SkillID": 0
	},
	{
		"ID": 57011,
		"Name": "自由远行者",
		"Model": "Spine/General/Wiler_ABS/Wiler_Skin01/Wiler_Skin01_Prefab.prefab",
		"CombatModel": "",
		"MeleeATKID": 0,
		"RangeATKID": 0,
		"SkillID": 0
	},
	{
		"ID": 1204,
		"Name": "孤王",
		"Model": "Spine/General/Elwin_ABS/Elwin_Skin04/Elwin_Skin04_Prefab.prefab",
		"CombatModel": "",
		"MeleeATKID": 0,
		"RangeATKID": 0,
		"SkillID": 0
	},
	{
		"ID": 12041,
		"Name": "孤王",
		"Model": "Spine/General/Elwin_ABS/Elwin_Skin04_1/Elwin_Skin04_1_Prefab.prefab",
		"CombatModel": "",
		"MeleeATKID": 0,
		"RangeATKID": 0,
		"SkillID": 0
	},
	{
		"ID": 5402,
		"Name": "注射天使",
		"Model": "Spine/General/Listell_ABS/Listell_Skin02/Listell_Skin02_Prefab.prefab",
		"CombatModel": "",
		"MeleeATKID": 0,
		"RangeATKID": 0,
		"SkillID": 0
	},
	{
		"ID": 54021,
		"Name": "注射天使",
		"Model": "Spine/General/Listell_ABS/Listell_Skin02_1/Listell_Skin02_1_Prefab.prefab",
		"CombatModel": "",
		"MeleeATKID": 0,
		"RangeATKID": 0,
		"SkillID": 0
	},
	{
		"ID": 2001,
		"Name": "飞驰少女",
		"Model": "Spine/General/Sonia_ABS/Sonia_Skin01/Sonia_Skin01_Prefab.prefab",
		"CombatModel": "",
		"MeleeATKID": 0,
		"RangeATKID": 0,
		"SkillID": 0
	},
	{
		"ID": 1,
		"Name": "Hardcore Fan",
		"Model": "Spine/Soldier/Qudao_ABS/Qudao_100W/Qudao_Fanti_Prefab.prefab",
		"CombatModel": "",
		"MeleeATKID": 0,
		"RangeATKID": 0,
		"SkillID": 0
	},
	{
		"ID": 2,
		"Name": "Black Pill",
		"Model": "Spine/Soldier/Qudao_ABS/QudaoTW_Xiaoxiong/QudaoTW_Xiaoxiong_Prefab.prefab",
		"CombatModel": "",
		"MeleeATKID": 0,
		"RangeATKID": 0,
		"SkillID": 0
	}
]