[
	{
		"ID": 8,
		"Title": "Dear {NAME}:",
		"Content": "{BEGINTIME}, that Bond took seed... I think you've forgotten? That day, the way you looked at me... I knew I was going to fight for you forever. \n\n　{BATTLETIME} -- Do you know the meaning of this number? That's the number of times we've battled side by side. I constantly contemplate over each battle, trying to imagine the ferocity in your eyes...\n\n  But when will you confess your love to me? I'm tired of waiting and loving you without reciprocation. Let {ENDTIME} be our anniversary!",
		"Signature": "Love, Lana"
	},
	{
		"ID": 14,
		"Title": "To {NAME}:",
		"Content": "{BEGINTIME}, our hearts crashed into one another. Maybe bonds are enigmatic like this... There are few days I remember so clearly, but that's because you are very special to me!\n\n　I don't know if you have been counting, but we've been through {BATTLETIME} battles together! I loved each and every one of our adventures! \n\n　On {ENDTIME}, I will confess my love to you! {NAME}, be my only knight and come on every adventure with me, okay?",
		"Signature": "Brave Cherie"
	},
	{
		"ID": 26,
		"Title": "To {NAME}:",
		"Content": "{BEGINTIME}, Luna's heart met with {NAME}'s heart for the first time. In front of you... I can no longer remain rational. \n\n　Through {BATTLETIME} battles, I have been by your side as the strategist. I hope that I can continue to aid you in future battles. \n\n　Long before {ENDTIME}, we crossed the line of strategist and general... Let me, Luna, be your final spoil.",
		"Signature": "Yours, Luna"
	}
]