[
	{
		"ID": 1,
		"Reward": [
			{
				"GoodsType": "GoodsType_JobMaterial",
				"Id": 1,
				"MinNums": 1,
				"MaxNums": 3,
				"Weight": 2000
			},
			{
				"GoodsType": "GoodsType_Item",
				"Id": 3004,
				"MinNums": 3,
				"MaxNums": 5,
				"Weight": 4000
			},
			{
				"GoodsType": "GoodsType_JobMaterial",
				"Id": 15,
				"MinNums": 1,
				"MaxNums": 5,
				"Weight": 2000
			}
		]
	},
	{
		"ID": 2,
		"Reward": [
			{
				"GoodsType": "GoodsType_JobMaterial",
				"Id": 1,
				"MinNums": 1,
				"MaxNums": 3,
				"Weight": 2000
			},
			{
				"GoodsType": "GoodsType_Item",
				"Id": 3004,
				"MinNums": 3,
				"MaxNums": 5,
				"Weight": 4000
			},
			{
				"GoodsType": "GoodsType_JobMaterial",
				"Id": 15,
				"MinNums": 1,
				"MaxNums": 5,
				"Weight": 3000
			}
		]
	},
	{
		"ID": 3,
		"Reward": [
			{
				"GoodsType": "GoodsType_JobMaterial",
				"Id": 1,
				"MinNums": 1,
				"MaxNums": 3,
				"Weight": 2000
			},
			{
				"GoodsType": "GoodsType_Item",
				"Id": 3004,
				"MinNums": 3,
				"MaxNums": 5,
				"Weight": 4000
			},
			{
				"GoodsType": "GoodsType_JobMaterial",
				"Id": 15,
				"MinNums": 1,
				"MaxNums": 5,
				"Weight": 2000
			}
		]
	},
	{
		"ID": 4,
		"Reward": [
			{
				"GoodsType": "GoodsType_Gold",
				"Id": 0,
				"MinNums": 500,
				"MaxNums": 1000,
				"Weight": 25
			},
			{
				"GoodsType": "GoodsType_Item",
				"Id": 3002,
				"MinNums": 3,
				"MaxNums": 6,
				"Weight": 20
			},
			{
				"GoodsType": "GoodsType_Crystal",
				"Id": 0,
				"MinNums": 2,
				"MaxNums": 4,
				"Weight": 15
			},
			{
				"GoodsType": "GoodsType_Item",
				"Id": 3003,
				"MinNums": 2,
				"MaxNums": 4,
				"Weight": 20
			},
			{
				"GoodsType": "GoodsType_Item",
				"Id": 3100,
				"MinNums": 1,
				"MaxNums": 5,
				"Weight": 20
			}
		]
	},
	{
		"ID": 5,
		"Reward": [
			{
				"GoodsType": "GoodsType_JobMaterial",
				"Id": 1,
				"MinNums": 1,
				"MaxNums": 3,
				"Weight": 2000
			},
			{
				"GoodsType": "GoodsType_Item",
				"Id": 3004,
				"MinNums": 3,
				"MaxNums": 5,
				"Weight": 4000
			},
			{
				"GoodsType": "GoodsType_JobMaterial",
				"Id": 15,
				"MinNums": 1,
				"MaxNums": 5,
				"Weight": 4000
			}
		]
	},
	{
		"ID": 6,
		"Reward": [
			{
				"GoodsType": "GoodsType_JobMaterial",
				"Id": 1,
				"MinNums": 1,
				"MaxNums": 3,
				"Weight": 2000
			},
			{
				"GoodsType": "GoodsType_Item",
				"Id": 3004,
				"MinNums": 3,
				"MaxNums": 5,
				"Weight": 4000
			},
			{
				"GoodsType": "GoodsType_JobMaterial",
				"Id": 15,
				"MinNums": 1,
				"MaxNums": 5,
				"Weight": 2000
			}
		]
	},
	{
		"ID": 7,
		"Reward": [
			{
				"GoodsType": "GoodsType_JobMaterial",
				"Id": 1,
				"MinNums": 1,
				"MaxNums": 3,
				"Weight": 2000
			},
			{
				"GoodsType": "GoodsType_Item",
				"Id": 3004,
				"MinNums": 3,
				"MaxNums": 5,
				"Weight": 4000
			},
			{
				"GoodsType": "GoodsType_JobMaterial",
				"Id": 15,
				"MinNums": 1,
				"MaxNums": 5,
				"Weight": 2000
			}
		]
	},
	{
		"ID": 8,
		"Reward": [
			{
				"GoodsType": "GoodsType_JobMaterial",
				"Id": 1,
				"MinNums": 1,
				"MaxNums": 3,
				"Weight": 2000
			},
			{
				"GoodsType": "GoodsType_Item",
				"Id": 3004,
				"MinNums": 3,
				"MaxNums": 5,
				"Weight": 4000
			},
			{
				"GoodsType": "GoodsType_JobMaterial",
				"Id": 15,
				"MinNums": 1,
				"MaxNums": 5,
				"Weight": 3000
			}
		]
	},
	{
		"ID": 9,
		"Reward": [
			{
				"GoodsType": "GoodsType_JobMaterial",
				"Id": 1,
				"MinNums": 1,
				"MaxNums": 3,
				"Weight": 2000
			},
			{
				"GoodsType": "GoodsType_Item",
				"Id": 3004,
				"MinNums": 3,
				"MaxNums": 5,
				"Weight": 4000
			},
			{
				"GoodsType": "GoodsType_JobMaterial",
				"Id": 15,
				"MinNums": 1,
				"MaxNums": 5,
				"Weight": 2000
			}
		]
	},
	{
		"ID": 10,
		"Reward": [
			{
				"GoodsType": "GoodsType_JobMaterial",
				"Id": 1,
				"MinNums": 1,
				"MaxNums": 3,
				"Weight": 2000
			},
			{
				"GoodsType": "GoodsType_Item",
				"Id": 3004,
				"MinNums": 3,
				"MaxNums": 5,
				"Weight": 4000
			},
			{
				"GoodsType": "GoodsType_JobMaterial",
				"Id": 15,
				"MinNums": 1,
				"MaxNums": 5,
				"Weight": 2000
			}
		]
	},
	{
		"ID": 11,
		"Reward": [
			{
				"GoodsType": "GoodsType_JobMaterial",
				"Id": 1,
				"MinNums": 1,
				"MaxNums": 3,
				"Weight": 2000
			},
			{
				"GoodsType": "GoodsType_Item",
				"Id": 3004,
				"MinNums": 3,
				"MaxNums": 5,
				"Weight": 4000
			},
			{
				"GoodsType": "GoodsType_JobMaterial",
				"Id": 15,
				"MinNums": 1,
				"MaxNums": 5,
				"Weight": 5000
			}
		]
	},
	{
		"ID": 12,
		"Reward": [
			{
				"GoodsType": "GoodsType_JobMaterial",
				"Id": 1,
				"MinNums": 1,
				"MaxNums": 3,
				"Weight": 2000
			},
			{
				"GoodsType": "GoodsType_Item",
				"Id": 3004,
				"MinNums": 3,
				"MaxNums": 5,
				"Weight": 4000
			},
			{
				"GoodsType": "GoodsType_JobMaterial",
				"Id": 15,
				"MinNums": 1,
				"MaxNums": 5,
				"Weight": 3000
			}
		]
	},
	{
		"ID": 13,
		"Reward": [
			{
				"GoodsType": "GoodsType_JobMaterial",
				"Id": 1,
				"MinNums": 1,
				"MaxNums": 3,
				"Weight": 2000
			},
			{
				"GoodsType": "GoodsType_Item",
				"Id": 3004,
				"MinNums": 3,
				"MaxNums": 5,
				"Weight": 4000
			},
			{
				"GoodsType": "GoodsType_JobMaterial",
				"Id": 15,
				"MinNums": 1,
				"MaxNums": 5,
				"Weight": 2000
			}
		]
	},
	{
		"ID": 14,
		"Reward": [
			{
				"GoodsType": "GoodsType_JobMaterial",
				"Id": 1,
				"MinNums": 1,
				"MaxNums": 3,
				"Weight": 2000
			},
			{
				"GoodsType": "GoodsType_Item",
				"Id": 3004,
				"MinNums": 3,
				"MaxNums": 5,
				"Weight": 4000
			},
			{
				"GoodsType": "GoodsType_JobMaterial",
				"Id": 15,
				"MinNums": 1,
				"MaxNums": 5,
				"Weight": 4000
			}
		]
	},
	{
		"ID": 15,
		"Reward": [
			{
				"GoodsType": "GoodsType_Item",
				"Id": 1001,
				"MinNums": 5,
				"MaxNums": 5,
				"Weight": 1000
			},
			{
				"GoodsType": "GoodsType_Item",
				"Id": 1003,
				"MinNums": 5,
				"MaxNums": 5,
				"Weight": 1000
			},
			{
				"GoodsType": "GoodsType_Item",
				"Id": 1004,
				"MinNums": 5,
				"MaxNums": 5,
				"Weight": 1000
			},
			{
				"GoodsType": "GoodsType_Item",
				"Id": 1010,
				"MinNums": 5,
				"MaxNums": 5,
				"Weight": 10
			},
			{
				"GoodsType": "GoodsType_Item",
				"Id": 1011,
				"MinNums": 5,
				"MaxNums": 5,
				"Weight": 10
			},
			{
				"GoodsType": "GoodsType_Item",
				"Id": 1012,
				"MinNums": 5,
				"MaxNums": 5,
				"Weight": 10
			},
			{
				"GoodsType": "GoodsType_Item",
				"Id": 1013,
				"MinNums": 5,
				"MaxNums": 5,
				"Weight": 10
			},
			{
				"GoodsType": "GoodsType_Item",
				"Id": 1014,
				"MinNums": 5,
				"MaxNums": 5,
				"Weight": 10
			},
			{
				"GoodsType": "GoodsType_Item",
				"Id": 1015,
				"MinNums": 5,
				"MaxNums": 5,
				"Weight": 10
			},
			{
				"GoodsType": "GoodsType_Item",
				"Id": 1016,
				"MinNums": 5,
				"MaxNums": 5,
				"Weight": 200
			},
			{
				"GoodsType": "GoodsType_Item",
				"Id": 1017,
				"MinNums": 5,
				"MaxNums": 5,
				"Weight": 200
			},
			{
				"GoodsType": "GoodsType_Item",
				"Id": 1018,
				"MinNums": 5,
				"MaxNums": 5,
				"Weight": 200
			},
			{
				"GoodsType": "GoodsType_Item",
				"Id": 1019,
				"MinNums": 5,
				"MaxNums": 5,
				"Weight": 200
			},
			{
				"GoodsType": "GoodsType_Item",
				"Id": 1020,
				"MinNums": 5,
				"MaxNums": 5,
				"Weight": 200
			},
			{
				"GoodsType": "GoodsType_Item",
				"Id": 1021,
				"MinNums": 5,
				"MaxNums": 5,
				"Weight": 10
			},
			{
				"GoodsType": "GoodsType_Item",
				"Id": 1022,
				"MinNums": 5,
				"MaxNums": 5,
				"Weight": 10
			},
			{
				"GoodsType": "GoodsType_Item",
				"Id": 1023,
				"MinNums": 5,
				"MaxNums": 5,
				"Weight": 10
			},
			{
				"GoodsType": "GoodsType_Item",
				"Id": 1024,
				"MinNums": 5,
				"MaxNums": 5,
				"Weight": 10
			}
		]
	},
	{
		"ID": 16,
		"Reward": [
			{
				"GoodsType": "GoodsType_EnchantStone",
				"Id": 27,
				"MinNums": 1,
				"MaxNums": 1,
				"Weight": 10
			},
			{
				"GoodsType": "GoodsType_EnchantStone",
				"Id": 28,
				"MinNums": 1,
				"MaxNums": 1,
				"Weight": 10
			},
			{
				"GoodsType": "GoodsType_EnchantStone",
				"Id": 29,
				"MinNums": 1,
				"MaxNums": 1,
				"Weight": 10
			},
			{
				"GoodsType": "GoodsType_EnchantStone",
				"Id": 30,
				"MinNums": 1,
				"MaxNums": 1,
				"Weight": 10
			},
			{
				"GoodsType": "GoodsType_EnchantStone",
				"Id": 31,
				"MinNums": 1,
				"MaxNums": 1,
				"Weight": 10
			},
			{
				"GoodsType": "GoodsType_EnchantStone",
				"Id": 32,
				"MinNums": 1,
				"MaxNums": 1,
				"Weight": 10
			},
			{
				"GoodsType": "GoodsType_EnchantStone",
				"Id": 33,
				"MinNums": 1,
				"MaxNums": 1,
				"Weight": 10
			},
			{
				"GoodsType": "GoodsType_EnchantStone",
				"Id": 34,
				"MinNums": 1,
				"MaxNums": 1,
				"Weight": 10
			},
			{
				"GoodsType": "GoodsType_EnchantStone",
				"Id": 35,
				"MinNums": 1,
				"MaxNums": 1,
				"Weight": 10
			},
			{
				"GoodsType": "GoodsType_EnchantStone",
				"Id": 36,
				"MinNums": 1,
				"MaxNums": 1,
				"Weight": 10
			},
			{
				"GoodsType": "GoodsType_EnchantStone",
				"Id": 37,
				"MinNums": 1,
				"MaxNums": 1,
				"Weight": 10
			},
			{
				"GoodsType": "GoodsType_EnchantStone",
				"Id": 38,
				"MinNums": 1,
				"MaxNums": 1,
				"Weight": 10
			},
			{
				"GoodsType": "GoodsType_EnchantStone",
				"Id": 39,
				"MinNums": 1,
				"MaxNums": 1,
				"Weight": 10
			}
		]
	},
	{
		"ID": 101,
		"Reward": [
			{
				"GoodsType": "GoodsType_Equipment",
				"Id": 97,
				"MinNums": 1,
				"MaxNums": 1,
				"Weight": 833
			},
			{
				"GoodsType": "GoodsType_Equipment",
				"Id": 104,
				"MinNums": 1,
				"MaxNums": 1,
				"Weight": 833
			},
			{
				"GoodsType": "GoodsType_Equipment",
				"Id": 111,
				"MinNums": 1,
				"MaxNums": 1,
				"Weight": 833
			},
			{
				"GoodsType": "GoodsType_Equipment",
				"Id": 112,
				"MinNums": 1,
				"MaxNums": 1,
				"Weight": 833
			},
			{
				"GoodsType": "GoodsType_Equipment",
				"Id": 117,
				"MinNums": 1,
				"MaxNums": 1,
				"Weight": 833
			},
			{
				"GoodsType": "GoodsType_Equipment",
				"Id": 118,
				"MinNums": 1,
				"MaxNums": 1,
				"Weight": 833
			},
			{
				"GoodsType": "GoodsType_Equipment",
				"Id": 123,
				"MinNums": 1,
				"MaxNums": 1,
				"Weight": 833
			},
			{
				"GoodsType": "GoodsType_Equipment",
				"Id": 124,
				"MinNums": 1,
				"MaxNums": 1,
				"Weight": 833
			},
			{
				"GoodsType": "GoodsType_Equipment",
				"Id": 98,
				"MinNums": 1,
				"MaxNums": 1,
				"Weight": 370
			},
			{
				"GoodsType": "GoodsType_Equipment",
				"Id": 103,
				"MinNums": 1,
				"MaxNums": 1,
				"Weight": 370
			},
			{
				"GoodsType": "GoodsType_Equipment",
				"Id": 105,
				"MinNums": 1,
				"MaxNums": 1,
				"Weight": 370
			},
			{
				"GoodsType": "GoodsType_Equipment",
				"Id": 113,
				"MinNums": 1,
				"MaxNums": 1,
				"Weight": 370
			},
			{
				"GoodsType": "GoodsType_Equipment",
				"Id": 119,
				"MinNums": 1,
				"MaxNums": 1,
				"Weight": 370
			},
			{
				"GoodsType": "GoodsType_Equipment",
				"Id": 125,
				"MinNums": 1,
				"MaxNums": 1,
				"Weight": 370
			},
			{
				"GoodsType": "GoodsType_Equipment",
				"Id": 129,
				"MinNums": 1,
				"MaxNums": 1,
				"Weight": 370
			},
			{
				"GoodsType": "GoodsType_Equipment",
				"Id": 130,
				"MinNums": 1,
				"MaxNums": 1,
				"Weight": 370
			},
			{
				"GoodsType": "GoodsType_Equipment",
				"Id": 131,
				"MinNums": 1,
				"MaxNums": 1,
				"Weight": 370
			}
		]
	},
	{
		"ID": 102,
		"Reward": [
			{
				"GoodsType": "GoodsType_Equipment",
				"Id": 99,
				"MinNums": 1,
				"MaxNums": 1,
				"Weight": 182
			},
			{
				"GoodsType": "GoodsType_Equipment",
				"Id": 100,
				"MinNums": 1,
				"MaxNums": 1,
				"Weight": 182
			},
			{
				"GoodsType": "GoodsType_Equipment",
				"Id": 106,
				"MinNums": 1,
				"MaxNums": 1,
				"Weight": 182
			},
			{
				"GoodsType": "GoodsType_Equipment",
				"Id": 107,
				"MinNums": 1,
				"MaxNums": 1,
				"Weight": 571
			},
			{
				"GoodsType": "GoodsType_Equipment",
				"Id": 108,
				"MinNums": 1,
				"MaxNums": 1,
				"Weight": 571
			},
			{
				"GoodsType": "GoodsType_Equipment",
				"Id": 114,
				"MinNums": 1,
				"MaxNums": 1,
				"Weight": 571
			},
			{
				"GoodsType": "GoodsType_Equipment",
				"Id": 115,
				"MinNums": 1,
				"MaxNums": 1,
				"Weight": 182
			},
			{
				"GoodsType": "GoodsType_Equipment",
				"Id": 116,
				"MinNums": 1,
				"MaxNums": 1,
				"Weight": 182
			},
			{
				"GoodsType": "GoodsType_Equipment",
				"Id": 120,
				"MinNums": 1,
				"MaxNums": 1,
				"Weight": 571
			},
			{
				"GoodsType": "GoodsType_Equipment",
				"Id": 121,
				"MinNums": 1,
				"MaxNums": 1,
				"Weight": 571
			},
			{
				"GoodsType": "GoodsType_Equipment",
				"Id": 122,
				"MinNums": 1,
				"MaxNums": 1,
				"Weight": 182
			},
			{
				"GoodsType": "GoodsType_Equipment",
				"Id": 126,
				"MinNums": 1,
				"MaxNums": 1,
				"Weight": 571
			},
			{
				"GoodsType": "GoodsType_Equipment",
				"Id": 127,
				"MinNums": 1,
				"MaxNums": 1,
				"Weight": 571
			},
			{
				"GoodsType": "GoodsType_Equipment",
				"Id": 128,
				"MinNums": 1,
				"MaxNums": 1,
				"Weight": 571
			},
			{
				"GoodsType": "GoodsType_Equipment",
				"Id": 132,
				"MinNums": 1,
				"MaxNums": 1,
				"Weight": 182
			},
			{
				"GoodsType": "GoodsType_Equipment",
				"Id": 133,
				"MinNums": 1,
				"MaxNums": 1,
				"Weight": 571
			},
			{
				"GoodsType": "GoodsType_Equipment",
				"Id": 134,
				"MinNums": 1,
				"MaxNums": 1,
				"Weight": 182
			},
			{
				"GoodsType": "GoodsType_Equipment",
				"Id": 256,
				"MinNums": 1,
				"MaxNums": 1,
				"Weight": 571
			},
			{
				"GoodsType": "GoodsType_Equipment",
				"Id": 257,
				"MinNums": 1,
				"MaxNums": 1,
				"Weight": 571
			},
			{
				"GoodsType": "GoodsType_Equipment",
				"Id": 258,
				"MinNums": 1,
				"MaxNums": 1,
				"Weight": 571
			},
			{
				"GoodsType": "GoodsType_Equipment",
				"Id": 260,
				"MinNums": 1,
				"MaxNums": 1,
				"Weight": 182
			},
			{
				"GoodsType": "GoodsType_Equipment",
				"Id": 261,
				"MinNums": 1,
				"MaxNums": 1,
				"Weight": 571
			},
			{
				"GoodsType": "GoodsType_Equipment",
				"Id": 262,
				"MinNums": 1,
				"MaxNums": 1,
				"Weight": 571
			},
			{
				"GoodsType": "GoodsType_Equipment",
				"Id": 263,
				"MinNums": 1,
				"MaxNums": 1,
				"Weight": 182
			},
			{
				"GoodsType": "GoodsType_Equipment",
				"Id": 264,
				"MinNums": 1,
				"MaxNums": 1,
				"Weight": 182
			}
		]
	},
	{
		"ID": 103,
		"Reward": [
			{
				"GoodsType": "GoodsType_Equipment",
				"Id": 97,
				"MinNums": 1,
				"MaxNums": 1,
				"Weight": 750
			},
			{
				"GoodsType": "GoodsType_Equipment",
				"Id": 104,
				"MinNums": 1,
				"MaxNums": 1,
				"Weight": 750
			},
			{
				"GoodsType": "GoodsType_Equipment",
				"Id": 111,
				"MinNums": 1,
				"MaxNums": 1,
				"Weight": 750
			},
			{
				"GoodsType": "GoodsType_Equipment",
				"Id": 112,
				"MinNums": 1,
				"MaxNums": 1,
				"Weight": 750
			},
			{
				"GoodsType": "GoodsType_Equipment",
				"Id": 117,
				"MinNums": 1,
				"MaxNums": 1,
				"Weight": 750
			},
			{
				"GoodsType": "GoodsType_Equipment",
				"Id": 118,
				"MinNums": 1,
				"MaxNums": 1,
				"Weight": 750
			},
			{
				"GoodsType": "GoodsType_Equipment",
				"Id": 123,
				"MinNums": 1,
				"MaxNums": 1,
				"Weight": 750
			},
			{
				"GoodsType": "GoodsType_Equipment",
				"Id": 124,
				"MinNums": 1,
				"MaxNums": 1,
				"Weight": 750
			},
			{
				"GoodsType": "GoodsType_Equipment",
				"Id": 98,
				"MinNums": 1,
				"MaxNums": 1,
				"Weight": 333
			},
			{
				"GoodsType": "GoodsType_Equipment",
				"Id": 103,
				"MinNums": 1,
				"MaxNums": 1,
				"Weight": 333
			},
			{
				"GoodsType": "GoodsType_Equipment",
				"Id": 105,
				"MinNums": 1,
				"MaxNums": 1,
				"Weight": 333
			},
			{
				"GoodsType": "GoodsType_Equipment",
				"Id": 113,
				"MinNums": 1,
				"MaxNums": 1,
				"Weight": 333
			},
			{
				"GoodsType": "GoodsType_Equipment",
				"Id": 119,
				"MinNums": 1,
				"MaxNums": 1,
				"Weight": 333
			},
			{
				"GoodsType": "GoodsType_Equipment",
				"Id": 125,
				"MinNums": 1,
				"MaxNums": 1,
				"Weight": 333
			},
			{
				"GoodsType": "GoodsType_Equipment",
				"Id": 129,
				"MinNums": 1,
				"MaxNums": 1,
				"Weight": 333
			},
			{
				"GoodsType": "GoodsType_Equipment",
				"Id": 130,
				"MinNums": 1,
				"MaxNums": 1,
				"Weight": 333
			},
			{
				"GoodsType": "GoodsType_Equipment",
				"Id": 131,
				"MinNums": 1,
				"MaxNums": 1,
				"Weight": 333
			},
			{
				"GoodsType": "GoodsType_Equipment",
				"Id": 99,
				"MinNums": 1,
				"MaxNums": 1,
				"Weight": 18
			},
			{
				"GoodsType": "GoodsType_Equipment",
				"Id": 100,
				"MinNums": 1,
				"MaxNums": 1,
				"Weight": 18
			},
			{
				"GoodsType": "GoodsType_Equipment",
				"Id": 106,
				"MinNums": 1,
				"MaxNums": 1,
				"Weight": 18
			},
			{
				"GoodsType": "GoodsType_Equipment",
				"Id": 107,
				"MinNums": 1,
				"MaxNums": 1,
				"Weight": 57
			},
			{
				"GoodsType": "GoodsType_Equipment",
				"Id": 108,
				"MinNums": 1,
				"MaxNums": 1,
				"Weight": 57
			},
			{
				"GoodsType": "GoodsType_Equipment",
				"Id": 114,
				"MinNums": 1,
				"MaxNums": 1,
				"Weight": 57
			},
			{
				"GoodsType": "GoodsType_Equipment",
				"Id": 115,
				"MinNums": 1,
				"MaxNums": 1,
				"Weight": 18
			},
			{
				"GoodsType": "GoodsType_Equipment",
				"Id": 116,
				"MinNums": 1,
				"MaxNums": 1,
				"Weight": 18
			},
			{
				"GoodsType": "GoodsType_Equipment",
				"Id": 120,
				"MinNums": 1,
				"MaxNums": 1,
				"Weight": 57
			},
			{
				"GoodsType": "GoodsType_Equipment",
				"Id": 121,
				"MinNums": 1,
				"MaxNums": 1,
				"Weight": 57
			},
			{
				"GoodsType": "GoodsType_Equipment",
				"Id": 122,
				"MinNums": 1,
				"MaxNums": 1,
				"Weight": 18
			},
			{
				"GoodsType": "GoodsType_Equipment",
				"Id": 126,
				"MinNums": 1,
				"MaxNums": 1,
				"Weight": 57
			},
			{
				"GoodsType": "GoodsType_Equipment",
				"Id": 127,
				"MinNums": 1,
				"MaxNums": 1,
				"Weight": 57
			},
			{
				"GoodsType": "GoodsType_Equipment",
				"Id": 128,
				"MinNums": 1,
				"MaxNums": 1,
				"Weight": 57
			},
			{
				"GoodsType": "GoodsType_Equipment",
				"Id": 132,
				"MinNums": 1,
				"MaxNums": 1,
				"Weight": 18
			},
			{
				"GoodsType": "GoodsType_Equipment",
				"Id": 133,
				"MinNums": 1,
				"MaxNums": 1,
				"Weight": 57
			},
			{
				"GoodsType": "GoodsType_Equipment",
				"Id": 134,
				"MinNums": 1,
				"MaxNums": 1,
				"Weight": 18
			},
			{
				"GoodsType": "GoodsType_Equipment",
				"Id": 256,
				"MinNums": 1,
				"MaxNums": 1,
				"Weight": 57
			},
			{
				"GoodsType": "GoodsType_Equipment",
				"Id": 257,
				"MinNums": 1,
				"MaxNums": 1,
				"Weight": 57
			},
			{
				"GoodsType": "GoodsType_Equipment",
				"Id": 258,
				"MinNums": 1,
				"MaxNums": 1,
				"Weight": 57
			},
			{
				"GoodsType": "GoodsType_Equipment",
				"Id": 260,
				"MinNums": 1,
				"MaxNums": 1,
				"Weight": 18
			},
			{
				"GoodsType": "GoodsType_Equipment",
				"Id": 261,
				"MinNums": 1,
				"MaxNums": 1,
				"Weight": 57
			},
			{
				"GoodsType": "GoodsType_Equipment",
				"Id": 262,
				"MinNums": 1,
				"MaxNums": 1,
				"Weight": 57
			},
			{
				"GoodsType": "GoodsType_Equipment",
				"Id": 263,
				"MinNums": 1,
				"MaxNums": 1,
				"Weight": 18
			},
			{
				"GoodsType": "GoodsType_Equipment",
				"Id": 264,
				"MinNums": 1,
				"MaxNums": 1,
				"Weight": 18
			}
		]
	},
	{
		"ID": 104,
		"Reward": [
			{
				"GoodsType": "GoodsType_Equipment",
				"Id": 4,
				"MinNums": 1,
				"MaxNums": 1,
				"Weight": 417
			},
			{
				"GoodsType": "GoodsType_Equipment",
				"Id": 5,
				"MinNums": 1,
				"MaxNums": 1,
				"Weight": 417
			},
			{
				"GoodsType": "GoodsType_Equipment",
				"Id": 12,
				"MinNums": 1,
				"MaxNums": 1,
				"Weight": 417
			},
			{
				"GoodsType": "GoodsType_Equipment",
				"Id": 20,
				"MinNums": 1,
				"MaxNums": 1,
				"Weight": 417
			},
			{
				"GoodsType": "GoodsType_Equipment",
				"Id": 28,
				"MinNums": 1,
				"MaxNums": 1,
				"Weight": 417
			},
			{
				"GoodsType": "GoodsType_Equipment",
				"Id": 29,
				"MinNums": 1,
				"MaxNums": 1,
				"Weight": 417
			},
			{
				"GoodsType": "GoodsType_Equipment",
				"Id": 36,
				"MinNums": 1,
				"MaxNums": 1,
				"Weight": 417
			},
			{
				"GoodsType": "GoodsType_Equipment",
				"Id": 45,
				"MinNums": 1,
				"MaxNums": 1,
				"Weight": 417
			},
			{
				"GoodsType": "GoodsType_Equipment",
				"Id": 51,
				"MinNums": 1,
				"MaxNums": 1,
				"Weight": 417
			},
			{
				"GoodsType": "GoodsType_Equipment",
				"Id": 138,
				"MinNums": 1,
				"MaxNums": 1,
				"Weight": 417
			},
			{
				"GoodsType": "GoodsType_Equipment",
				"Id": 142,
				"MinNums": 1,
				"MaxNums": 1,
				"Weight": 417
			},
			{
				"GoodsType": "GoodsType_Equipment",
				"Id": 148,
				"MinNums": 1,
				"MaxNums": 1,
				"Weight": 417
			},
			{
				"GoodsType": "GoodsType_Equipment",
				"Id": 151,
				"MinNums": 1,
				"MaxNums": 1,
				"Weight": 417
			},
			{
				"GoodsType": "GoodsType_Equipment",
				"Id": 154,
				"MinNums": 1,
				"MaxNums": 1,
				"Weight": 417
			},
			{
				"GoodsType": "GoodsType_Equipment",
				"Id": 207,
				"MinNums": 1,
				"MaxNums": 1,
				"Weight": 417
			},
			{
				"GoodsType": "GoodsType_Equipment",
				"Id": 215,
				"MinNums": 1,
				"MaxNums": 1,
				"Weight": 417
			},
			{
				"GoodsType": "GoodsType_Equipment",
				"Id": 16,
				"MinNums": 1,
				"MaxNums": 1,
				"Weight": 208
			},
			{
				"GoodsType": "GoodsType_Equipment",
				"Id": 21,
				"MinNums": 1,
				"MaxNums": 1,
				"Weight": 208
			},
			{
				"GoodsType": "GoodsType_Equipment",
				"Id": 37,
				"MinNums": 1,
				"MaxNums": 1,
				"Weight": 208
			},
			{
				"GoodsType": "GoodsType_Equipment",
				"Id": 44,
				"MinNums": 1,
				"MaxNums": 1,
				"Weight": 208
			},
			{
				"GoodsType": "GoodsType_Equipment",
				"Id": 135,
				"MinNums": 1,
				"MaxNums": 1,
				"Weight": 208
			},
			{
				"GoodsType": "GoodsType_Equipment",
				"Id": 136,
				"MinNums": 1,
				"MaxNums": 1,
				"Weight": 208
			},
			{
				"GoodsType": "GoodsType_Equipment",
				"Id": 139,
				"MinNums": 1,
				"MaxNums": 1,
				"Weight": 208
			},
			{
				"GoodsType": "GoodsType_Equipment",
				"Id": 143,
				"MinNums": 1,
				"MaxNums": 1,
				"Weight": 208
			},
			{
				"GoodsType": "GoodsType_Equipment",
				"Id": 145,
				"MinNums": 1,
				"MaxNums": 1,
				"Weight": 208
			},
			{
				"GoodsType": "GoodsType_Equipment",
				"Id": 146,
				"MinNums": 1,
				"MaxNums": 1,
				"Weight": 208
			},
			{
				"GoodsType": "GoodsType_Equipment",
				"Id": 149,
				"MinNums": 1,
				"MaxNums": 1,
				"Weight": 208
			},
			{
				"GoodsType": "GoodsType_Equipment",
				"Id": 152,
				"MinNums": 1,
				"MaxNums": 1,
				"Weight": 208
			},
			{
				"GoodsType": "GoodsType_Equipment",
				"Id": 155,
				"MinNums": 1,
				"MaxNums": 1,
				"Weight": 208
			},
			{
				"GoodsType": "GoodsType_Equipment",
				"Id": 156,
				"MinNums": 1,
				"MaxNums": 1,
				"Weight": 208
			},
			{
				"GoodsType": "GoodsType_Equipment",
				"Id": 208,
				"MinNums": 1,
				"MaxNums": 1,
				"Weight": 208
			},
			{
				"GoodsType": "GoodsType_Equipment",
				"Id": 216,
				"MinNums": 1,
				"MaxNums": 1,
				"Weight": 208
			}
		]
	},
	{
		"ID": 105,
		"Reward": [
			{
				"GoodsType": "GoodsType_Equipment",
				"Id": 57,
				"MinNums": 1,
				"MaxNums": 1,
				"Weight": 741
			},
			{
				"GoodsType": "GoodsType_Equipment",
				"Id": 58,
				"MinNums": 1,
				"MaxNums": 1,
				"Weight": 741
			},
			{
				"GoodsType": "GoodsType_Equipment",
				"Id": 65,
				"MinNums": 1,
				"MaxNums": 1,
				"Weight": 741
			},
			{
				"GoodsType": "GoodsType_Equipment",
				"Id": 72,
				"MinNums": 1,
				"MaxNums": 1,
				"Weight": 741
			},
			{
				"GoodsType": "GoodsType_Equipment",
				"Id": 159,
				"MinNums": 1,
				"MaxNums": 1,
				"Weight": 741
			},
			{
				"GoodsType": "GoodsType_Equipment",
				"Id": 167,
				"MinNums": 1,
				"MaxNums": 1,
				"Weight": 741
			},
			{
				"GoodsType": "GoodsType_Equipment",
				"Id": 168,
				"MinNums": 1,
				"MaxNums": 1,
				"Weight": 741
			},
			{
				"GoodsType": "GoodsType_Equipment",
				"Id": 175,
				"MinNums": 1,
				"MaxNums": 1,
				"Weight": 741
			},
			{
				"GoodsType": "GoodsType_Equipment",
				"Id": 176,
				"MinNums": 1,
				"MaxNums": 1,
				"Weight": 741
			},
			{
				"GoodsType": "GoodsType_Equipment",
				"Id": 64,
				"MinNums": 1,
				"MaxNums": 1,
				"Weight": 370
			},
			{
				"GoodsType": "GoodsType_Equipment",
				"Id": 71,
				"MinNums": 1,
				"MaxNums": 1,
				"Weight": 370
			},
			{
				"GoodsType": "GoodsType_Equipment",
				"Id": 160,
				"MinNums": 1,
				"MaxNums": 1,
				"Weight": 370
			},
			{
				"GoodsType": "GoodsType_Equipment",
				"Id": 161,
				"MinNums": 1,
				"MaxNums": 1,
				"Weight": 370
			},
			{
				"GoodsType": "GoodsType_Equipment",
				"Id": 162,
				"MinNums": 1,
				"MaxNums": 1,
				"Weight": 370
			},
			{
				"GoodsType": "GoodsType_Equipment",
				"Id": 169,
				"MinNums": 1,
				"MaxNums": 1,
				"Weight": 370
			},
			{
				"GoodsType": "GoodsType_Equipment",
				"Id": 170,
				"MinNums": 1,
				"MaxNums": 1,
				"Weight": 370
			},
			{
				"GoodsType": "GoodsType_Equipment",
				"Id": 177,
				"MinNums": 1,
				"MaxNums": 1,
				"Weight": 370
			},
			{
				"GoodsType": "GoodsType_Equipment",
				"Id": 178,
				"MinNums": 1,
				"MaxNums": 1,
				"Weight": 370
			}
		]
	},
	{
		"ID": 106,
		"Reward": [
			{
				"GoodsType": "GoodsType_Equipment",
				"Id": 78,
				"MinNums": 1,
				"MaxNums": 1,
				"Weight": 741
			},
			{
				"GoodsType": "GoodsType_Equipment",
				"Id": 79,
				"MinNums": 1,
				"MaxNums": 1,
				"Weight": 741
			},
			{
				"GoodsType": "GoodsType_Equipment",
				"Id": 86,
				"MinNums": 1,
				"MaxNums": 1,
				"Weight": 741
			},
			{
				"GoodsType": "GoodsType_Equipment",
				"Id": 93,
				"MinNums": 1,
				"MaxNums": 1,
				"Weight": 741
			},
			{
				"GoodsType": "GoodsType_Equipment",
				"Id": 183,
				"MinNums": 1,
				"MaxNums": 1,
				"Weight": 741
			},
			{
				"GoodsType": "GoodsType_Equipment",
				"Id": 191,
				"MinNums": 1,
				"MaxNums": 1,
				"Weight": 741
			},
			{
				"GoodsType": "GoodsType_Equipment",
				"Id": 192,
				"MinNums": 1,
				"MaxNums": 1,
				"Weight": 741
			},
			{
				"GoodsType": "GoodsType_Equipment",
				"Id": 199,
				"MinNums": 1,
				"MaxNums": 1,
				"Weight": 741
			},
			{
				"GoodsType": "GoodsType_Equipment",
				"Id": 200,
				"MinNums": 1,
				"MaxNums": 1,
				"Weight": 741
			},
			{
				"GoodsType": "GoodsType_Equipment",
				"Id": 85,
				"MinNums": 1,
				"MaxNums": 1,
				"Weight": 370
			},
			{
				"GoodsType": "GoodsType_Equipment",
				"Id": 92,
				"MinNums": 1,
				"MaxNums": 1,
				"Weight": 370
			},
			{
				"GoodsType": "GoodsType_Equipment",
				"Id": 184,
				"MinNums": 1,
				"MaxNums": 1,
				"Weight": 370
			},
			{
				"GoodsType": "GoodsType_Equipment",
				"Id": 185,
				"MinNums": 1,
				"MaxNums": 1,
				"Weight": 370
			},
			{
				"GoodsType": "GoodsType_Equipment",
				"Id": 186,
				"MinNums": 1,
				"MaxNums": 1,
				"Weight": 370
			},
			{
				"GoodsType": "GoodsType_Equipment",
				"Id": 193,
				"MinNums": 1,
				"MaxNums": 1,
				"Weight": 370
			},
			{
				"GoodsType": "GoodsType_Equipment",
				"Id": 194,
				"MinNums": 1,
				"MaxNums": 1,
				"Weight": 370
			},
			{
				"GoodsType": "GoodsType_Equipment",
				"Id": 201,
				"MinNums": 1,
				"MaxNums": 1,
				"Weight": 370
			},
			{
				"GoodsType": "GoodsType_Equipment",
				"Id": 202,
				"MinNums": 1,
				"MaxNums": 1,
				"Weight": 370
			}
		]
	},
	{
		"ID": 107,
		"Reward": [
			{
				"GoodsType": "GoodsType_Equipment",
				"Id": 6,
				"MinNums": 1,
				"MaxNums": 1,
				"Weight": 571
			},
			{
				"GoodsType": "GoodsType_Equipment",
				"Id": 7,
				"MinNums": 1,
				"MaxNums": 1,
				"Weight": 105
			},
			{
				"GoodsType": "GoodsType_Equipment",
				"Id": 8,
				"MinNums": 1,
				"MaxNums": 1,
				"Weight": 571
			},
			{
				"GoodsType": "GoodsType_Equipment",
				"Id": 13,
				"MinNums": 1,
				"MaxNums": 1,
				"Weight": 571
			},
			{
				"GoodsType": "GoodsType_Equipment",
				"Id": 14,
				"MinNums": 1,
				"MaxNums": 1,
				"Weight": 105
			},
			{
				"GoodsType": "GoodsType_Equipment",
				"Id": 15,
				"MinNums": 1,
				"MaxNums": 1,
				"Weight": 105
			},
			{
				"GoodsType": "GoodsType_Equipment",
				"Id": 22,
				"MinNums": 1,
				"MaxNums": 1,
				"Weight": 571
			},
			{
				"GoodsType": "GoodsType_Equipment",
				"Id": 23,
				"MinNums": 1,
				"MaxNums": 1,
				"Weight": 105
			},
			{
				"GoodsType": "GoodsType_Equipment",
				"Id": 24,
				"MinNums": 1,
				"MaxNums": 1,
				"Weight": 105
			},
			{
				"GoodsType": "GoodsType_Equipment",
				"Id": 30,
				"MinNums": 1,
				"MaxNums": 1,
				"Weight": 105
			},
			{
				"GoodsType": "GoodsType_Equipment",
				"Id": 31,
				"MinNums": 1,
				"MaxNums": 1,
				"Weight": 105
			},
			{
				"GoodsType": "GoodsType_Equipment",
				"Id": 32,
				"MinNums": 1,
				"MaxNums": 1,
				"Weight": 571
			},
			{
				"GoodsType": "GoodsType_Equipment",
				"Id": 38,
				"MinNums": 1,
				"MaxNums": 1,
				"Weight": 571
			},
			{
				"GoodsType": "GoodsType_Equipment",
				"Id": 39,
				"MinNums": 1,
				"MaxNums": 1,
				"Weight": 105
			},
			{
				"GoodsType": "GoodsType_Equipment",
				"Id": 40,
				"MinNums": 1,
				"MaxNums": 1,
				"Weight": 105
			},
			{
				"GoodsType": "GoodsType_Equipment",
				"Id": 46,
				"MinNums": 1,
				"MaxNums": 1,
				"Weight": 105
			},
			{
				"GoodsType": "GoodsType_Equipment",
				"Id": 47,
				"MinNums": 1,
				"MaxNums": 1,
				"Weight": 105
			},
			{
				"GoodsType": "GoodsType_Equipment",
				"Id": 48,
				"MinNums": 1,
				"MaxNums": 1,
				"Weight": 105
			},
			{
				"GoodsType": "GoodsType_Equipment",
				"Id": 52,
				"MinNums": 1,
				"MaxNums": 1,
				"Weight": 105
			},
			{
				"GoodsType": "GoodsType_Equipment",
				"Id": 53,
				"MinNums": 1,
				"MaxNums": 1,
				"Weight": 571
			},
			{
				"GoodsType": "GoodsType_Equipment",
				"Id": 137,
				"MinNums": 1,
				"MaxNums": 1,
				"Weight": 105
			},
			{
				"GoodsType": "GoodsType_Equipment",
				"Id": 140,
				"MinNums": 1,
				"MaxNums": 1,
				"Weight": 571
			},
			{
				"GoodsType": "GoodsType_Equipment",
				"Id": 144,
				"MinNums": 1,
				"MaxNums": 1,
				"Weight": 571
			},
			{
				"GoodsType": "GoodsType_Equipment",
				"Id": 147,
				"MinNums": 1,
				"MaxNums": 1,
				"Weight": 105
			},
			{
				"GoodsType": "GoodsType_Equipment",
				"Id": 150,
				"MinNums": 1,
				"MaxNums": 1,
				"Weight": 105
			},
			{
				"GoodsType": "GoodsType_Equipment",
				"Id": 153,
				"MinNums": 1,
				"MaxNums": 1,
				"Weight": 571
			},
			{
				"GoodsType": "GoodsType_Equipment",
				"Id": 157,
				"MinNums": 1,
				"MaxNums": 1,
				"Weight": 571
			},
			{
				"GoodsType": "GoodsType_Equipment",
				"Id": 158,
				"MinNums": 1,
				"MaxNums": 1,
				"Weight": 105
			},
			{
				"GoodsType": "GoodsType_Equipment",
				"Id": 209,
				"MinNums": 1,
				"MaxNums": 1,
				"Weight": 105
			},
			{
				"GoodsType": "GoodsType_Equipment",
				"Id": 210,
				"MinNums": 1,
				"MaxNums": 1,
				"Weight": 105
			},
			{
				"GoodsType": "GoodsType_Equipment",
				"Id": 212,
				"MinNums": 1,
				"MaxNums": 1,
				"Weight": 571
			},
			{
				"GoodsType": "GoodsType_Equipment",
				"Id": 213,
				"MinNums": 1,
				"MaxNums": 1,
				"Weight": 571
			},
			{
				"GoodsType": "GoodsType_Equipment",
				"Id": 214,
				"MinNums": 1,
				"MaxNums": 1,
				"Weight": 571
			}
		]
	},
	{
		"ID": 108,
		"Reward": [
			{
				"GoodsType": "GoodsType_Equipment",
				"Id": 59,
				"MinNums": 1,
				"MaxNums": 1,
				"Weight": 800
			},
			{
				"GoodsType": "GoodsType_Equipment",
				"Id": 60,
				"MinNums": 1,
				"MaxNums": 1,
				"Weight": 250
			},
			{
				"GoodsType": "GoodsType_Equipment",
				"Id": 66,
				"MinNums": 1,
				"MaxNums": 1,
				"Weight": 800
			},
			{
				"GoodsType": "GoodsType_Equipment",
				"Id": 67,
				"MinNums": 1,
				"MaxNums": 1,
				"Weight": 800
			},
			{
				"GoodsType": "GoodsType_Equipment",
				"Id": 73,
				"MinNums": 1,
				"MaxNums": 1,
				"Weight": 250
			},
			{
				"GoodsType": "GoodsType_Equipment",
				"Id": 74,
				"MinNums": 1,
				"MaxNums": 1,
				"Weight": 800
			},
			{
				"GoodsType": "GoodsType_Equipment",
				"Id": 163,
				"MinNums": 1,
				"MaxNums": 1,
				"Weight": 250
			},
			{
				"GoodsType": "GoodsType_Equipment",
				"Id": 164,
				"MinNums": 1,
				"MaxNums": 1,
				"Weight": 250
			},
			{
				"GoodsType": "GoodsType_Equipment",
				"Id": 165,
				"MinNums": 1,
				"MaxNums": 1,
				"Weight": 800
			},
			{
				"GoodsType": "GoodsType_Equipment",
				"Id": 166,
				"MinNums": 1,
				"MaxNums": 1,
				"Weight": 800
			},
			{
				"GoodsType": "GoodsType_Equipment",
				"Id": 171,
				"MinNums": 1,
				"MaxNums": 1,
				"Weight": 800
			},
			{
				"GoodsType": "GoodsType_Equipment",
				"Id": 172,
				"MinNums": 1,
				"MaxNums": 1,
				"Weight": 250
			},
			{
				"GoodsType": "GoodsType_Equipment",
				"Id": 173,
				"MinNums": 1,
				"MaxNums": 1,
				"Weight": 250
			},
			{
				"GoodsType": "GoodsType_Equipment",
				"Id": 174,
				"MinNums": 1,
				"MaxNums": 1,
				"Weight": 250
			},
			{
				"GoodsType": "GoodsType_Equipment",
				"Id": 179,
				"MinNums": 1,
				"MaxNums": 1,
				"Weight": 800
			},
			{
				"GoodsType": "GoodsType_Equipment",
				"Id": 180,
				"MinNums": 1,
				"MaxNums": 1,
				"Weight": 800
			},
			{
				"GoodsType": "GoodsType_Equipment",
				"Id": 181,
				"MinNums": 1,
				"MaxNums": 1,
				"Weight": 800
			},
			{
				"GoodsType": "GoodsType_Equipment",
				"Id": 182,
				"MinNums": 1,
				"MaxNums": 1,
				"Weight": 250
			}
		]
	},
	{
		"ID": 109,
		"Reward": [
			{
				"GoodsType": "GoodsType_Equipment",
				"Id": 80,
				"MinNums": 1,
				"MaxNums": 1,
				"Weight": 1000
			},
			{
				"GoodsType": "GoodsType_Equipment",
				"Id": 81,
				"MinNums": 1,
				"MaxNums": 1,
				"Weight": 200
			},
			{
				"GoodsType": "GoodsType_Equipment",
				"Id": 87,
				"MinNums": 1,
				"MaxNums": 1,
				"Weight": 1000
			},
			{
				"GoodsType": "GoodsType_Equipment",
				"Id": 88,
				"MinNums": 1,
				"MaxNums": 1,
				"Weight": 1000
			},
			{
				"GoodsType": "GoodsType_Equipment",
				"Id": 94,
				"MinNums": 1,
				"MaxNums": 1,
				"Weight": 200
			},
			{
				"GoodsType": "GoodsType_Equipment",
				"Id": 95,
				"MinNums": 1,
				"MaxNums": 1,
				"Weight": 1000
			},
			{
				"GoodsType": "GoodsType_Equipment",
				"Id": 187,
				"MinNums": 1,
				"MaxNums": 1,
				"Weight": 200
			},
			{
				"GoodsType": "GoodsType_Equipment",
				"Id": 188,
				"MinNums": 1,
				"MaxNums": 1,
				"Weight": 200
			},
			{
				"GoodsType": "GoodsType_Equipment",
				"Id": 189,
				"MinNums": 1,
				"MaxNums": 1,
				"Weight": 1000
			},
			{
				"GoodsType": "GoodsType_Equipment",
				"Id": 190,
				"MinNums": 1,
				"MaxNums": 1,
				"Weight": 1000
			},
			{
				"GoodsType": "GoodsType_Equipment",
				"Id": 195,
				"MinNums": 1,
				"MaxNums": 1,
				"Weight": 200
			},
			{
				"GoodsType": "GoodsType_Equipment",
				"Id": 196,
				"MinNums": 1,
				"MaxNums": 1,
				"Weight": 1000
			},
			{
				"GoodsType": "GoodsType_Equipment",
				"Id": 197,
				"MinNums": 1,
				"MaxNums": 1,
				"Weight": 200
			},
			{
				"GoodsType": "GoodsType_Equipment",
				"Id": 198,
				"MinNums": 1,
				"MaxNums": 1,
				"Weight": 200
			},
			{
				"GoodsType": "GoodsType_Equipment",
				"Id": 203,
				"MinNums": 1,
				"MaxNums": 1,
				"Weight": 1000
			},
			{
				"GoodsType": "GoodsType_Equipment",
				"Id": 204,
				"MinNums": 1,
				"MaxNums": 1,
				"Weight": 200
			},
			{
				"GoodsType": "GoodsType_Equipment",
				"Id": 205,
				"MinNums": 1,
				"MaxNums": 1,
				"Weight": 200
			},
			{
				"GoodsType": "GoodsType_Equipment",
				"Id": 206,
				"MinNums": 1,
				"MaxNums": 1,
				"Weight": 200
			}
		]
	},
	{
		"ID": 110,
		"Reward": [
			{
				"GoodsType": "GoodsType_Equipment",
				"Id": 99,
				"MinNums": 1,
				"MaxNums": 1,
				"Weight": 182
			},
			{
				"GoodsType": "GoodsType_Equipment",
				"Id": 100,
				"MinNums": 1,
				"MaxNums": 1,
				"Weight": 182
			},
			{
				"GoodsType": "GoodsType_Equipment",
				"Id": 106,
				"MinNums": 1,
				"MaxNums": 1,
				"Weight": 182
			},
			{
				"GoodsType": "GoodsType_Equipment",
				"Id": 107,
				"MinNums": 1,
				"MaxNums": 1,
				"Weight": 571
			},
			{
				"GoodsType": "GoodsType_Equipment",
				"Id": 108,
				"MinNums": 1,
				"MaxNums": 1,
				"Weight": 571
			},
			{
				"GoodsType": "GoodsType_Equipment",
				"Id": 114,
				"MinNums": 1,
				"MaxNums": 1,
				"Weight": 571
			},
			{
				"GoodsType": "GoodsType_Equipment",
				"Id": 115,
				"MinNums": 1,
				"MaxNums": 1,
				"Weight": 182
			},
			{
				"GoodsType": "GoodsType_Equipment",
				"Id": 116,
				"MinNums": 1,
				"MaxNums": 1,
				"Weight": 182
			},
			{
				"GoodsType": "GoodsType_Equipment",
				"Id": 120,
				"MinNums": 1,
				"MaxNums": 1,
				"Weight": 571
			},
			{
				"GoodsType": "GoodsType_Equipment",
				"Id": 121,
				"MinNums": 1,
				"MaxNums": 1,
				"Weight": 571
			},
			{
				"GoodsType": "GoodsType_Equipment",
				"Id": 122,
				"MinNums": 1,
				"MaxNums": 1,
				"Weight": 182
			},
			{
				"GoodsType": "GoodsType_Equipment",
				"Id": 126,
				"MinNums": 1,
				"MaxNums": 1,
				"Weight": 571
			},
			{
				"GoodsType": "GoodsType_Equipment",
				"Id": 127,
				"MinNums": 1,
				"MaxNums": 1,
				"Weight": 571
			},
			{
				"GoodsType": "GoodsType_Equipment",
				"Id": 128,
				"MinNums": 1,
				"MaxNums": 1,
				"Weight": 571
			},
			{
				"GoodsType": "GoodsType_Equipment",
				"Id": 132,
				"MinNums": 1,
				"MaxNums": 1,
				"Weight": 182
			},
			{
				"GoodsType": "GoodsType_Equipment",
				"Id": 133,
				"MinNums": 1,
				"MaxNums": 1,
				"Weight": 571
			},
			{
				"GoodsType": "GoodsType_Equipment",
				"Id": 134,
				"MinNums": 1,
				"MaxNums": 1,
				"Weight": 182
			},
			{
				"GoodsType": "GoodsType_Equipment",
				"Id": 256,
				"MinNums": 1,
				"MaxNums": 1,
				"Weight": 571
			},
			{
				"GoodsType": "GoodsType_Equipment",
				"Id": 257,
				"MinNums": 1,
				"MaxNums": 1,
				"Weight": 571
			},
			{
				"GoodsType": "GoodsType_Equipment",
				"Id": 258,
				"MinNums": 1,
				"MaxNums": 1,
				"Weight": 571
			},
			{
				"GoodsType": "GoodsType_Equipment",
				"Id": 260,
				"MinNums": 1,
				"MaxNums": 1,
				"Weight": 182
			},
			{
				"GoodsType": "GoodsType_Equipment",
				"Id": 261,
				"MinNums": 1,
				"MaxNums": 1,
				"Weight": 571
			},
			{
				"GoodsType": "GoodsType_Equipment",
				"Id": 262,
				"MinNums": 1,
				"MaxNums": 1,
				"Weight": 571
			},
			{
				"GoodsType": "GoodsType_Equipment",
				"Id": 263,
				"MinNums": 1,
				"MaxNums": 1,
				"Weight": 182
			},
			{
				"GoodsType": "GoodsType_Equipment",
				"Id": 264,
				"MinNums": 1,
				"MaxNums": 1,
				"Weight": 182
			}
		]
	},
	{
		"ID": 111,
		"Reward": [
			{
				"GoodsType": "GoodsType_Equipment",
				"Id": 4,
				"MinNums": 1,
				"MaxNums": 1,
				"Weight": 125
			},
			{
				"GoodsType": "GoodsType_Equipment",
				"Id": 5,
				"MinNums": 1,
				"MaxNums": 1,
				"Weight": 125
			},
			{
				"GoodsType": "GoodsType_Equipment",
				"Id": 12,
				"MinNums": 1,
				"MaxNums": 1,
				"Weight": 125
			},
			{
				"GoodsType": "GoodsType_Equipment",
				"Id": 20,
				"MinNums": 1,
				"MaxNums": 1,
				"Weight": 125
			},
			{
				"GoodsType": "GoodsType_Equipment",
				"Id": 28,
				"MinNums": 1,
				"MaxNums": 1,
				"Weight": 125
			},
			{
				"GoodsType": "GoodsType_Equipment",
				"Id": 29,
				"MinNums": 1,
				"MaxNums": 1,
				"Weight": 125
			},
			{
				"GoodsType": "GoodsType_Equipment",
				"Id": 36,
				"MinNums": 1,
				"MaxNums": 1,
				"Weight": 125
			},
			{
				"GoodsType": "GoodsType_Equipment",
				"Id": 45,
				"MinNums": 1,
				"MaxNums": 1,
				"Weight": 125
			},
			{
				"GoodsType": "GoodsType_Equipment",
				"Id": 51,
				"MinNums": 1,
				"MaxNums": 1,
				"Weight": 125
			},
			{
				"GoodsType": "GoodsType_Equipment",
				"Id": 57,
				"MinNums": 1,
				"MaxNums": 1,
				"Weight": 222
			},
			{
				"GoodsType": "GoodsType_Equipment",
				"Id": 58,
				"MinNums": 1,
				"MaxNums": 1,
				"Weight": 222
			},
			{
				"GoodsType": "GoodsType_Equipment",
				"Id": 65,
				"MinNums": 1,
				"MaxNums": 1,
				"Weight": 222
			},
			{
				"GoodsType": "GoodsType_Equipment",
				"Id": 72,
				"MinNums": 1,
				"MaxNums": 1,
				"Weight": 222
			},
			{
				"GoodsType": "GoodsType_Equipment",
				"Id": 78,
				"MinNums": 1,
				"MaxNums": 1,
				"Weight": 222
			},
			{
				"GoodsType": "GoodsType_Equipment",
				"Id": 79,
				"MinNums": 1,
				"MaxNums": 1,
				"Weight": 222
			},
			{
				"GoodsType": "GoodsType_Equipment",
				"Id": 86,
				"MinNums": 1,
				"MaxNums": 1,
				"Weight": 222
			},
			{
				"GoodsType": "GoodsType_Equipment",
				"Id": 93,
				"MinNums": 1,
				"MaxNums": 1,
				"Weight": 222
			},
			{
				"GoodsType": "GoodsType_Equipment",
				"Id": 97,
				"MinNums": 1,
				"MaxNums": 1,
				"Weight": 83
			},
			{
				"GoodsType": "GoodsType_Equipment",
				"Id": 104,
				"MinNums": 1,
				"MaxNums": 1,
				"Weight": 83
			},
			{
				"GoodsType": "GoodsType_Equipment",
				"Id": 111,
				"MinNums": 1,
				"MaxNums": 1,
				"Weight": 83
			},
			{
				"GoodsType": "GoodsType_Equipment",
				"Id": 112,
				"MinNums": 1,
				"MaxNums": 1,
				"Weight": 83
			},
			{
				"GoodsType": "GoodsType_Equipment",
				"Id": 117,
				"MinNums": 1,
				"MaxNums": 1,
				"Weight": 83
			},
			{
				"GoodsType": "GoodsType_Equipment",
				"Id": 118,
				"MinNums": 1,
				"MaxNums": 1,
				"Weight": 83
			},
			{
				"GoodsType": "GoodsType_Equipment",
				"Id": 123,
				"MinNums": 1,
				"MaxNums": 1,
				"Weight": 83
			},
			{
				"GoodsType": "GoodsType_Equipment",
				"Id": 124,
				"MinNums": 1,
				"MaxNums": 1,
				"Weight": 83
			},
			{
				"GoodsType": "GoodsType_Equipment",
				"Id": 138,
				"MinNums": 1,
				"MaxNums": 1,
				"Weight": 125
			},
			{
				"GoodsType": "GoodsType_Equipment",
				"Id": 142,
				"MinNums": 1,
				"MaxNums": 1,
				"Weight": 125
			},
			{
				"GoodsType": "GoodsType_Equipment",
				"Id": 148,
				"MinNums": 1,
				"MaxNums": 1,
				"Weight": 125
			},
			{
				"GoodsType": "GoodsType_Equipment",
				"Id": 151,
				"MinNums": 1,
				"MaxNums": 1,
				"Weight": 125
			},
			{
				"GoodsType": "GoodsType_Equipment",
				"Id": 154,
				"MinNums": 1,
				"MaxNums": 1,
				"Weight": 125
			},
			{
				"GoodsType": "GoodsType_Equipment",
				"Id": 159,
				"MinNums": 1,
				"MaxNums": 1,
				"Weight": 222
			},
			{
				"GoodsType": "GoodsType_Equipment",
				"Id": 167,
				"MinNums": 1,
				"MaxNums": 1,
				"Weight": 222
			},
			{
				"GoodsType": "GoodsType_Equipment",
				"Id": 168,
				"MinNums": 1,
				"MaxNums": 1,
				"Weight": 222
			},
			{
				"GoodsType": "GoodsType_Equipment",
				"Id": 175,
				"MinNums": 1,
				"MaxNums": 1,
				"Weight": 222
			},
			{
				"GoodsType": "GoodsType_Equipment",
				"Id": 176,
				"MinNums": 1,
				"MaxNums": 1,
				"Weight": 222
			},
			{
				"GoodsType": "GoodsType_Equipment",
				"Id": 183,
				"MinNums": 1,
				"MaxNums": 1,
				"Weight": 222
			},
			{
				"GoodsType": "GoodsType_Equipment",
				"Id": 191,
				"MinNums": 1,
				"MaxNums": 1,
				"Weight": 222
			},
			{
				"GoodsType": "GoodsType_Equipment",
				"Id": 192,
				"MinNums": 1,
				"MaxNums": 1,
				"Weight": 222
			},
			{
				"GoodsType": "GoodsType_Equipment",
				"Id": 199,
				"MinNums": 1,
				"MaxNums": 1,
				"Weight": 222
			},
			{
				"GoodsType": "GoodsType_Equipment",
				"Id": 200,
				"MinNums": 1,
				"MaxNums": 1,
				"Weight": 222
			},
			{
				"GoodsType": "GoodsType_Equipment",
				"Id": 207,
				"MinNums": 1,
				"MaxNums": 1,
				"Weight": 125
			},
			{
				"GoodsType": "GoodsType_Equipment",
				"Id": 215,
				"MinNums": 1,
				"MaxNums": 1,
				"Weight": 125
			},
			{
				"GoodsType": "GoodsType_Equipment",
				"Id": 16,
				"MinNums": 1,
				"MaxNums": 1,
				"Weight": 63
			},
			{
				"GoodsType": "GoodsType_Equipment",
				"Id": 21,
				"MinNums": 1,
				"MaxNums": 1,
				"Weight": 63
			},
			{
				"GoodsType": "GoodsType_Equipment",
				"Id": 37,
				"MinNums": 1,
				"MaxNums": 1,
				"Weight": 63
			},
			{
				"GoodsType": "GoodsType_Equipment",
				"Id": 44,
				"MinNums": 1,
				"MaxNums": 1,
				"Weight": 63
			},
			{
				"GoodsType": "GoodsType_Equipment",
				"Id": 64,
				"MinNums": 1,
				"MaxNums": 1,
				"Weight": 111
			},
			{
				"GoodsType": "GoodsType_Equipment",
				"Id": 71,
				"MinNums": 1,
				"MaxNums": 1,
				"Weight": 111
			},
			{
				"GoodsType": "GoodsType_Equipment",
				"Id": 85,
				"MinNums": 1,
				"MaxNums": 1,
				"Weight": 111
			},
			{
				"GoodsType": "GoodsType_Equipment",
				"Id": 92,
				"MinNums": 1,
				"MaxNums": 1,
				"Weight": 111
			},
			{
				"GoodsType": "GoodsType_Equipment",
				"Id": 98,
				"MinNums": 1,
				"MaxNums": 1,
				"Weight": 37
			},
			{
				"GoodsType": "GoodsType_Equipment",
				"Id": 103,
				"MinNums": 1,
				"MaxNums": 1,
				"Weight": 37
			},
			{
				"GoodsType": "GoodsType_Equipment",
				"Id": 105,
				"MinNums": 1,
				"MaxNums": 1,
				"Weight": 37
			},
			{
				"GoodsType": "GoodsType_Equipment",
				"Id": 113,
				"MinNums": 1,
				"MaxNums": 1,
				"Weight": 37
			},
			{
				"GoodsType": "GoodsType_Equipment",
				"Id": 119,
				"MinNums": 1,
				"MaxNums": 1,
				"Weight": 37
			},
			{
				"GoodsType": "GoodsType_Equipment",
				"Id": 125,
				"MinNums": 1,
				"MaxNums": 1,
				"Weight": 37
			},
			{
				"GoodsType": "GoodsType_Equipment",
				"Id": 129,
				"MinNums": 1,
				"MaxNums": 1,
				"Weight": 37
			},
			{
				"GoodsType": "GoodsType_Equipment",
				"Id": 130,
				"MinNums": 1,
				"MaxNums": 1,
				"Weight": 37
			},
			{
				"GoodsType": "GoodsType_Equipment",
				"Id": 131,
				"MinNums": 1,
				"MaxNums": 1,
				"Weight": 37
			},
			{
				"GoodsType": "GoodsType_Equipment",
				"Id": 135,
				"MinNums": 1,
				"MaxNums": 1,
				"Weight": 63
			},
			{
				"GoodsType": "GoodsType_Equipment",
				"Id": 136,
				"MinNums": 1,
				"MaxNums": 1,
				"Weight": 63
			},
			{
				"GoodsType": "GoodsType_Equipment",
				"Id": 139,
				"MinNums": 1,
				"MaxNums": 1,
				"Weight": 63
			},
			{
				"GoodsType": "GoodsType_Equipment",
				"Id": 143,
				"MinNums": 1,
				"MaxNums": 1,
				"Weight": 63
			},
			{
				"GoodsType": "GoodsType_Equipment",
				"Id": 145,
				"MinNums": 1,
				"MaxNums": 1,
				"Weight": 63
			},
			{
				"GoodsType": "GoodsType_Equipment",
				"Id": 146,
				"MinNums": 1,
				"MaxNums": 1,
				"Weight": 63
			},
			{
				"GoodsType": "GoodsType_Equipment",
				"Id": 149,
				"MinNums": 1,
				"MaxNums": 1,
				"Weight": 63
			},
			{
				"GoodsType": "GoodsType_Equipment",
				"Id": 152,
				"MinNums": 1,
				"MaxNums": 1,
				"Weight": 63
			},
			{
				"GoodsType": "GoodsType_Equipment",
				"Id": 155,
				"MinNums": 1,
				"MaxNums": 1,
				"Weight": 63
			},
			{
				"GoodsType": "GoodsType_Equipment",
				"Id": 156,
				"MinNums": 1,
				"MaxNums": 1,
				"Weight": 63
			},
			{
				"GoodsType": "GoodsType_Equipment",
				"Id": 160,
				"MinNums": 1,
				"MaxNums": 1,
				"Weight": 111
			},
			{
				"GoodsType": "GoodsType_Equipment",
				"Id": 161,
				"MinNums": 1,
				"MaxNums": 1,
				"Weight": 111
			},
			{
				"GoodsType": "GoodsType_Equipment",
				"Id": 162,
				"MinNums": 1,
				"MaxNums": 1,
				"Weight": 111
			},
			{
				"GoodsType": "GoodsType_Equipment",
				"Id": 169,
				"MinNums": 1,
				"MaxNums": 1,
				"Weight": 111
			},
			{
				"GoodsType": "GoodsType_Equipment",
				"Id": 170,
				"MinNums": 1,
				"MaxNums": 1,
				"Weight": 111
			},
			{
				"GoodsType": "GoodsType_Equipment",
				"Id": 177,
				"MinNums": 1,
				"MaxNums": 1,
				"Weight": 111
			},
			{
				"GoodsType": "GoodsType_Equipment",
				"Id": 178,
				"MinNums": 1,
				"MaxNums": 1,
				"Weight": 111
			},
			{
				"GoodsType": "GoodsType_Equipment",
				"Id": 184,
				"MinNums": 1,
				"MaxNums": 1,
				"Weight": 111
			},
			{
				"GoodsType": "GoodsType_Equipment",
				"Id": 185,
				"MinNums": 1,
				"MaxNums": 1,
				"Weight": 111
			},
			{
				"GoodsType": "GoodsType_Equipment",
				"Id": 186,
				"MinNums": 1,
				"MaxNums": 1,
				"Weight": 111
			},
			{
				"GoodsType": "GoodsType_Equipment",
				"Id": 193,
				"MinNums": 1,
				"MaxNums": 1,
				"Weight": 111
			},
			{
				"GoodsType": "GoodsType_Equipment",
				"Id": 194,
				"MinNums": 1,
				"MaxNums": 1,
				"Weight": 111
			},
			{
				"GoodsType": "GoodsType_Equipment",
				"Id": 201,
				"MinNums": 1,
				"MaxNums": 1,
				"Weight": 111
			},
			{
				"GoodsType": "GoodsType_Equipment",
				"Id": 202,
				"MinNums": 1,
				"MaxNums": 1,
				"Weight": 111
			},
			{
				"GoodsType": "GoodsType_Equipment",
				"Id": 208,
				"MinNums": 1,
				"MaxNums": 1,
				"Weight": 63
			},
			{
				"GoodsType": "GoodsType_Equipment",
				"Id": 216,
				"MinNums": 1,
				"MaxNums": 1,
				"Weight": 63
			}
		]
	},
	{
		"ID": 112,
		"Reward": [
			{
				"GoodsType": "GoodsType_Equipment",
				"Id": 6,
				"MinNums": 1,
				"MaxNums": 1,
				"Weight": 171
			},
			{
				"GoodsType": "GoodsType_Equipment",
				"Id": 7,
				"MinNums": 1,
				"MaxNums": 1,
				"Weight": 32
			},
			{
				"GoodsType": "GoodsType_Equipment",
				"Id": 8,
				"MinNums": 1,
				"MaxNums": 1,
				"Weight": 171
			},
			{
				"GoodsType": "GoodsType_Equipment",
				"Id": 13,
				"MinNums": 1,
				"MaxNums": 1,
				"Weight": 171
			},
			{
				"GoodsType": "GoodsType_Equipment",
				"Id": 14,
				"MinNums": 1,
				"MaxNums": 1,
				"Weight": 32
			},
			{
				"GoodsType": "GoodsType_Equipment",
				"Id": 15,
				"MinNums": 1,
				"MaxNums": 1,
				"Weight": 32
			},
			{
				"GoodsType": "GoodsType_Equipment",
				"Id": 22,
				"MinNums": 1,
				"MaxNums": 1,
				"Weight": 171
			},
			{
				"GoodsType": "GoodsType_Equipment",
				"Id": 23,
				"MinNums": 1,
				"MaxNums": 1,
				"Weight": 32
			},
			{
				"GoodsType": "GoodsType_Equipment",
				"Id": 24,
				"MinNums": 1,
				"MaxNums": 1,
				"Weight": 32
			},
			{
				"GoodsType": "GoodsType_Equipment",
				"Id": 30,
				"MinNums": 1,
				"MaxNums": 1,
				"Weight": 32
			},
			{
				"GoodsType": "GoodsType_Equipment",
				"Id": 31,
				"MinNums": 1,
				"MaxNums": 1,
				"Weight": 32
			},
			{
				"GoodsType": "GoodsType_Equipment",
				"Id": 32,
				"MinNums": 1,
				"MaxNums": 1,
				"Weight": 171
			},
			{
				"GoodsType": "GoodsType_Equipment",
				"Id": 38,
				"MinNums": 1,
				"MaxNums": 1,
				"Weight": 171
			},
			{
				"GoodsType": "GoodsType_Equipment",
				"Id": 39,
				"MinNums": 1,
				"MaxNums": 1,
				"Weight": 32
			},
			{
				"GoodsType": "GoodsType_Equipment",
				"Id": 40,
				"MinNums": 1,
				"MaxNums": 1,
				"Weight": 32
			},
			{
				"GoodsType": "GoodsType_Equipment",
				"Id": 46,
				"MinNums": 1,
				"MaxNums": 1,
				"Weight": 32
			},
			{
				"GoodsType": "GoodsType_Equipment",
				"Id": 47,
				"MinNums": 1,
				"MaxNums": 1,
				"Weight": 32
			},
			{
				"GoodsType": "GoodsType_Equipment",
				"Id": 48,
				"MinNums": 1,
				"MaxNums": 1,
				"Weight": 32
			},
			{
				"GoodsType": "GoodsType_Equipment",
				"Id": 52,
				"MinNums": 1,
				"MaxNums": 1,
				"Weight": 32
			},
			{
				"GoodsType": "GoodsType_Equipment",
				"Id": 53,
				"MinNums": 1,
				"MaxNums": 1,
				"Weight": 171
			},
			{
				"GoodsType": "GoodsType_Equipment",
				"Id": 59,
				"MinNums": 1,
				"MaxNums": 1,
				"Weight": 240
			},
			{
				"GoodsType": "GoodsType_Equipment",
				"Id": 60,
				"MinNums": 1,
				"MaxNums": 1,
				"Weight": 75
			},
			{
				"GoodsType": "GoodsType_Equipment",
				"Id": 66,
				"MinNums": 1,
				"MaxNums": 1,
				"Weight": 240
			},
			{
				"GoodsType": "GoodsType_Equipment",
				"Id": 67,
				"MinNums": 1,
				"MaxNums": 1,
				"Weight": 240
			},
			{
				"GoodsType": "GoodsType_Equipment",
				"Id": 73,
				"MinNums": 1,
				"MaxNums": 1,
				"Weight": 75
			},
			{
				"GoodsType": "GoodsType_Equipment",
				"Id": 74,
				"MinNums": 1,
				"MaxNums": 1,
				"Weight": 240
			},
			{
				"GoodsType": "GoodsType_Equipment",
				"Id": 80,
				"MinNums": 1,
				"MaxNums": 1,
				"Weight": 300
			},
			{
				"GoodsType": "GoodsType_Equipment",
				"Id": 81,
				"MinNums": 1,
				"MaxNums": 1,
				"Weight": 60
			},
			{
				"GoodsType": "GoodsType_Equipment",
				"Id": 87,
				"MinNums": 1,
				"MaxNums": 1,
				"Weight": 300
			},
			{
				"GoodsType": "GoodsType_Equipment",
				"Id": 88,
				"MinNums": 1,
				"MaxNums": 1,
				"Weight": 300
			},
			{
				"GoodsType": "GoodsType_Equipment",
				"Id": 94,
				"MinNums": 1,
				"MaxNums": 1,
				"Weight": 60
			},
			{
				"GoodsType": "GoodsType_Equipment",
				"Id": 95,
				"MinNums": 1,
				"MaxNums": 1,
				"Weight": 300
			},
			{
				"GoodsType": "GoodsType_Equipment",
				"Id": 99,
				"MinNums": 1,
				"MaxNums": 1,
				"Weight": 18
			},
			{
				"GoodsType": "GoodsType_Equipment",
				"Id": 100,
				"MinNums": 1,
				"MaxNums": 1,
				"Weight": 18
			},
			{
				"GoodsType": "GoodsType_Equipment",
				"Id": 106,
				"MinNums": 1,
				"MaxNums": 1,
				"Weight": 18
			},
			{
				"GoodsType": "GoodsType_Equipment",
				"Id": 107,
				"MinNums": 1,
				"MaxNums": 1,
				"Weight": 57
			},
			{
				"GoodsType": "GoodsType_Equipment",
				"Id": 108,
				"MinNums": 1,
				"MaxNums": 1,
				"Weight": 57
			},
			{
				"GoodsType": "GoodsType_Equipment",
				"Id": 114,
				"MinNums": 1,
				"MaxNums": 1,
				"Weight": 57
			},
			{
				"GoodsType": "GoodsType_Equipment",
				"Id": 115,
				"MinNums": 1,
				"MaxNums": 1,
				"Weight": 18
			},
			{
				"GoodsType": "GoodsType_Equipment",
				"Id": 116,
				"MinNums": 1,
				"MaxNums": 1,
				"Weight": 18
			},
			{
				"GoodsType": "GoodsType_Equipment",
				"Id": 120,
				"MinNums": 1,
				"MaxNums": 1,
				"Weight": 57
			},
			{
				"GoodsType": "GoodsType_Equipment",
				"Id": 121,
				"MinNums": 1,
				"MaxNums": 1,
				"Weight": 57
			},
			{
				"GoodsType": "GoodsType_Equipment",
				"Id": 122,
				"MinNums": 1,
				"MaxNums": 1,
				"Weight": 18
			},
			{
				"GoodsType": "GoodsType_Equipment",
				"Id": 126,
				"MinNums": 1,
				"MaxNums": 1,
				"Weight": 57
			},
			{
				"GoodsType": "GoodsType_Equipment",
				"Id": 127,
				"MinNums": 1,
				"MaxNums": 1,
				"Weight": 57
			},
			{
				"GoodsType": "GoodsType_Equipment",
				"Id": 128,
				"MinNums": 1,
				"MaxNums": 1,
				"Weight": 57
			},
			{
				"GoodsType": "GoodsType_Equipment",
				"Id": 132,
				"MinNums": 1,
				"MaxNums": 1,
				"Weight": 18
			},
			{
				"GoodsType": "GoodsType_Equipment",
				"Id": 133,
				"MinNums": 1,
				"MaxNums": 1,
				"Weight": 57
			},
			{
				"GoodsType": "GoodsType_Equipment",
				"Id": 134,
				"MinNums": 1,
				"MaxNums": 1,
				"Weight": 18
			},
			{
				"GoodsType": "GoodsType_Equipment",
				"Id": 137,
				"MinNums": 1,
				"MaxNums": 1,
				"Weight": 32
			},
			{
				"GoodsType": "GoodsType_Equipment",
				"Id": 140,
				"MinNums": 1,
				"MaxNums": 1,
				"Weight": 171
			},
			{
				"GoodsType": "GoodsType_Equipment",
				"Id": 144,
				"MinNums": 1,
				"MaxNums": 1,
				"Weight": 171
			},
			{
				"GoodsType": "GoodsType_Equipment",
				"Id": 147,
				"MinNums": 1,
				"MaxNums": 1,
				"Weight": 32
			},
			{
				"GoodsType": "GoodsType_Equipment",
				"Id": 150,
				"MinNums": 1,
				"MaxNums": 1,
				"Weight": 32
			},
			{
				"GoodsType": "GoodsType_Equipment",
				"Id": 153,
				"MinNums": 1,
				"MaxNums": 1,
				"Weight": 171
			},
			{
				"GoodsType": "GoodsType_Equipment",
				"Id": 157,
				"MinNums": 1,
				"MaxNums": 1,
				"Weight": 171
			},
			{
				"GoodsType": "GoodsType_Equipment",
				"Id": 158,
				"MinNums": 1,
				"MaxNums": 1,
				"Weight": 32
			},
			{
				"GoodsType": "GoodsType_Equipment",
				"Id": 163,
				"MinNums": 1,
				"MaxNums": 1,
				"Weight": 75
			},
			{
				"GoodsType": "GoodsType_Equipment",
				"Id": 164,
				"MinNums": 1,
				"MaxNums": 1,
				"Weight": 75
			},
			{
				"GoodsType": "GoodsType_Equipment",
				"Id": 165,
				"MinNums": 1,
				"MaxNums": 1,
				"Weight": 240
			},
			{
				"GoodsType": "GoodsType_Equipment",
				"Id": 166,
				"MinNums": 1,
				"MaxNums": 1,
				"Weight": 240
			},
			{
				"GoodsType": "GoodsType_Equipment",
				"Id": 171,
				"MinNums": 1,
				"MaxNums": 1,
				"Weight": 240
			},
			{
				"GoodsType": "GoodsType_Equipment",
				"Id": 172,
				"MinNums": 1,
				"MaxNums": 1,
				"Weight": 75
			},
			{
				"GoodsType": "GoodsType_Equipment",
				"Id": 173,
				"MinNums": 1,
				"MaxNums": 1,
				"Weight": 75
			},
			{
				"GoodsType": "GoodsType_Equipment",
				"Id": 174,
				"MinNums": 1,
				"MaxNums": 1,
				"Weight": 75
			},
			{
				"GoodsType": "GoodsType_Equipment",
				"Id": 179,
				"MinNums": 1,
				"MaxNums": 1,
				"Weight": 240
			},
			{
				"GoodsType": "GoodsType_Equipment",
				"Id": 180,
				"MinNums": 1,
				"MaxNums": 1,
				"Weight": 240
			},
			{
				"GoodsType": "GoodsType_Equipment",
				"Id": 181,
				"MinNums": 1,
				"MaxNums": 1,
				"Weight": 240
			},
			{
				"GoodsType": "GoodsType_Equipment",
				"Id": 182,
				"MinNums": 1,
				"MaxNums": 1,
				"Weight": 75
			},
			{
				"GoodsType": "GoodsType_Equipment",
				"Id": 187,
				"MinNums": 1,
				"MaxNums": 1,
				"Weight": 60
			},
			{
				"GoodsType": "GoodsType_Equipment",
				"Id": 188,
				"MinNums": 1,
				"MaxNums": 1,
				"Weight": 60
			},
			{
				"GoodsType": "GoodsType_Equipment",
				"Id": 189,
				"MinNums": 1,
				"MaxNums": 1,
				"Weight": 300
			},
			{
				"GoodsType": "GoodsType_Equipment",
				"Id": 190,
				"MinNums": 1,
				"MaxNums": 1,
				"Weight": 300
			},
			{
				"GoodsType": "GoodsType_Equipment",
				"Id": 195,
				"MinNums": 1,
				"MaxNums": 1,
				"Weight": 60
			},
			{
				"GoodsType": "GoodsType_Equipment",
				"Id": 196,
				"MinNums": 1,
				"MaxNums": 1,
				"Weight": 300
			},
			{
				"GoodsType": "GoodsType_Equipment",
				"Id": 197,
				"MinNums": 1,
				"MaxNums": 1,
				"Weight": 60
			},
			{
				"GoodsType": "GoodsType_Equipment",
				"Id": 198,
				"MinNums": 1,
				"MaxNums": 1,
				"Weight": 60
			},
			{
				"GoodsType": "GoodsType_Equipment",
				"Id": 203,
				"MinNums": 1,
				"MaxNums": 1,
				"Weight": 300
			},
			{
				"GoodsType": "GoodsType_Equipment",
				"Id": 204,
				"MinNums": 1,
				"MaxNums": 1,
				"Weight": 60
			},
			{
				"GoodsType": "GoodsType_Equipment",
				"Id": 205,
				"MinNums": 1,
				"MaxNums": 1,
				"Weight": 60
			},
			{
				"GoodsType": "GoodsType_Equipment",
				"Id": 206,
				"MinNums": 1,
				"MaxNums": 1,
				"Weight": 60
			},
			{
				"GoodsType": "GoodsType_Equipment",
				"Id": 209,
				"MinNums": 1,
				"MaxNums": 1,
				"Weight": 32
			},
			{
				"GoodsType": "GoodsType_Equipment",
				"Id": 210,
				"MinNums": 1,
				"MaxNums": 1,
				"Weight": 32
			},
			{
				"GoodsType": "GoodsType_Equipment",
				"Id": 212,
				"MinNums": 1,
				"MaxNums": 1,
				"Weight": 171
			},
			{
				"GoodsType": "GoodsType_Equipment",
				"Id": 213,
				"MinNums": 1,
				"MaxNums": 1,
				"Weight": 171
			},
			{
				"GoodsType": "GoodsType_Equipment",
				"Id": 214,
				"MinNums": 1,
				"MaxNums": 1,
				"Weight": 171
			},
			{
				"GoodsType": "GoodsType_Equipment",
				"Id": 256,
				"MinNums": 1,
				"MaxNums": 1,
				"Weight": 57
			},
			{
				"GoodsType": "GoodsType_Equipment",
				"Id": 257,
				"MinNums": 1,
				"MaxNums": 1,
				"Weight": 57
			},
			{
				"GoodsType": "GoodsType_Equipment",
				"Id": 258,
				"MinNums": 1,
				"MaxNums": 1,
				"Weight": 57
			},
			{
				"GoodsType": "GoodsType_Equipment",
				"Id": 260,
				"MinNums": 1,
				"MaxNums": 1,
				"Weight": 18
			},
			{
				"GoodsType": "GoodsType_Equipment",
				"Id": 261,
				"MinNums": 1,
				"MaxNums": 1,
				"Weight": 57
			},
			{
				"GoodsType": "GoodsType_Equipment",
				"Id": 262,
				"MinNums": 1,
				"MaxNums": 1,
				"Weight": 57
			},
			{
				"GoodsType": "GoodsType_Equipment",
				"Id": 263,
				"MinNums": 1,
				"MaxNums": 1,
				"Weight": 18
			},
			{
				"GoodsType": "GoodsType_Equipment",
				"Id": 264,
				"MinNums": 1,
				"MaxNums": 1,
				"Weight": 18
			}
		]
	},
	{
		"ID": 113,
		"Reward": [
			{
				"GoodsType": "GoodsType_Crystal",
				"Id": 0,
				"MinNums": 150,
				"MaxNums": 150,
				"Weight": 1
			},
			{
				"GoodsType": "GoodsType_Crystal",
				"Id": 0,
				"MinNums": 50,
				"MaxNums": 50,
				"Weight": 10
			},
			{
				"GoodsType": "GoodsType_Crystal",
				"Id": 0,
				"MinNums": 20,
				"MaxNums": 20,
				"Weight": 20
			},
			{
				"GoodsType": "GoodsType_Gold",
				"Id": 0,
				"MinNums": 120000,
				"MaxNums": 120000,
				"Weight": 10
			},
			{
				"GoodsType": "GoodsType_Gold",
				"Id": 0,
				"MinNums": 90000,
				"MaxNums": 90000,
				"Weight": 13
			},
			{
				"GoodsType": "GoodsType_Gold",
				"Id": 0,
				"MinNums": 60000,
				"MaxNums": 60000,
				"Weight": 16
			},
			{
				"GoodsType": "GoodsType_Item",
				"Id": 3203,
				"MinNums": 1,
				"MaxNums": 1,
				"Weight": 12
			},
			{
				"GoodsType": "GoodsType_Item",
				"Id": 4001,
				"MinNums": 1,
				"MaxNums": 1,
				"Weight": 6
			},
			{
				"GoodsType": "GoodsType_Item",
				"Id": 3503,
				"MinNums": 1,
				"MaxNums": 1,
				"Weight": 12
			}
		]
	},
	{
		"ID": 60016,
		"Reward": [
			{
				"GoodsType": "GoodsType_Crystal",
				"Id": 0,
				"MinNums": 200,
				"MaxNums": 200,
				"Weight": 5
			},
			{
				"GoodsType": "GoodsType_Crystal",
				"Id": 0,
				"MinNums": 150,
				"MaxNums": 150,
				"Weight": 12
			},
			{
				"GoodsType": "GoodsType_Crystal",
				"Id": 0,
				"MinNums": 100,
				"MaxNums": 100,
				"Weight": 15
			},
			{
				"GoodsType": "GoodsType_Gold",
				"Id": 0,
				"MinNums": 300000,
				"MaxNums": 300000,
				"Weight": 10
			},
			{
				"GoodsType": "GoodsType_Gold",
				"Id": 0,
				"MinNums": 200000,
				"MaxNums": 200000,
				"Weight": 20
			},
			{
				"GoodsType": "GoodsType_Gold",
				"Id": 0,
				"MinNums": 150000,
				"MaxNums": 150000,
				"Weight": 25
			},
			{
				"GoodsType": "GoodsType_Item",
				"Id": 4001,
				"MinNums": 2,
				"MaxNums": 2,
				"Weight": 10
			},
			{
				"GoodsType": "GoodsType_Item",
				"Id": 4014,
				"MinNums": 1,
				"MaxNums": 1,
				"Weight": 3
			}
		]
	}
]