[
	{
		"ID": 1,
		"Name": "Langrisser II: Journey of the Light",
		"TitleName": "Langrisser II",
		"Desc": "Time Rift: Chapter 1",
		"Place": "",
		"UnlockConditions": [
			{
				"ConditionType": "RiftChapterUnlockConditionType_Scenario",
				"Param": 4
			}
		],
		"Hard": 1,
		"HardChapter": 11,
		"RiftLevelsID": [
			101,
			102,
			103,
			104,
			105,
			106,
			107,
			108,
			109,
			110,
			111,
			112,
			113,
			114,
			115,
			116,
			117,
			118,
			119
		],
		"Reward1Star": 7,
		"Reward1": [
			{
				"GoodsType": "GoodsType_Item",
				"Id": 1003,
				"Count": 10
			},
			{
				"GoodsType": "GoodsType_Gold",
				"Id": 0,
				"Count": 10000
			}
		],
		"Reward2Star": 14,
		"Reward2": [
			{
				"GoodsType": "GoodsType_Crystal",
				"Id": 0,
				"Count": 60
			},
			{
				"GoodsType": "GoodsType_Item",
				"Id": 1004,
				"Count": 10
			},
			{
				"GoodsType": "GoodsType_Item",
				"Id": 4000,
				"Count": 3
			}
		],
		"Reward3Star": 21,
		"Reward3": [
			{
				"GoodsType": "GoodsType_Crystal",
				"Id": 0,
				"Count": 90
			},
			{
				"GoodsType": "GoodsType_Item",
				"Id": 1001,
				"Count": 10
			},
			{
				"GoodsType": "GoodsType_Item",
				"Id": 4001,
				"Count": 1
			}
		],
		"Image": "UI/RiftImage_ABS/1/UI_TimeDrive_02.png",
		"ChapterBGPrefabName": "UI/Rift_ABS/Prefab/RiftPanel01UIPrefab.prefab",
		"IsOpened": true
	},
	{
		"ID": 2,
		"Name": "Langrisser II: Langrisser and Alhazard",
		"TitleName": "Langrisser II",
		"Desc": "Time Rift: Chapter 2",
		"Place": "",
		"UnlockConditions": [
			{
				"ConditionType": "RiftChapterUnlockConditionType_Scenario",
				"Param": 9
			}
		],
		"Hard": 1,
		"HardChapter": 12,
		"RiftLevelsID": [
			201,
			202,
			203,
			204,
			205,
			206,
			207,
			208,
			209,
			210,
			211,
			212,
			213,
			214,
			215,
			216,
			217,
			218,
			219
		],
		"Reward1Star": 7,
		"Reward1": [
			{
				"GoodsType": "GoodsType_Item",
				"Id": 1003,
				"Count": 10
			},
			{
				"GoodsType": "GoodsType_Gold",
				"Id": 0,
				"Count": 20000
			}
		],
		"Reward2Star": 14,
		"Reward2": [
			{
				"GoodsType": "GoodsType_Crystal",
				"Id": 0,
				"Count": 60
			},
			{
				"GoodsType": "GoodsType_Item",
				"Id": 1004,
				"Count": 10
			},
			{
				"GoodsType": "GoodsType_Item",
				"Id": 4000,
				"Count": 3
			}
		],
		"Reward3Star": 21,
		"Reward3": [
			{
				"GoodsType": "GoodsType_Crystal",
				"Id": 0,
				"Count": 90
			},
			{
				"GoodsType": "GoodsType_Item",
				"Id": 1001,
				"Count": 10
			},
			{
				"GoodsType": "GoodsType_Item",
				"Id": 4001,
				"Count": 1
			}
		],
		"Image": "UI/RiftImage_ABS/1/UI_TimeDrive_03.png",
		"ChapterBGPrefabName": "UI/Rift_ABS/Prefab/RiftPanel02UIPrefab.prefab",
		"IsOpened": true
	},
	{
		"ID": 3,
		"Name": "Langrisser II: Glorious Legend",
		"TitleName": "Langrisser II",
		"Desc": "Time Rift: Chapter 3",
		"Place": "",
		"UnlockConditions": [
			{
				"ConditionType": "RiftChapterUnlockConditionType_Scenario",
				"Param": 15
			}
		],
		"Hard": 1,
		"HardChapter": 13,
		"RiftLevelsID": [
			301,
			302,
			303,
			304,
			305,
			306,
			307,
			308,
			309,
			310,
			311,
			312,
			313,
			314,
			315,
			316,
			317,
			318,
			319
		],
		"Reward1Star": 7,
		"Reward1": [
			{
				"GoodsType": "GoodsType_Item",
				"Id": 1003,
				"Count": 10
			},
			{
				"GoodsType": "GoodsType_Gold",
				"Id": 0,
				"Count": 30000
			}
		],
		"Reward2Star": 14,
		"Reward2": [
			{
				"GoodsType": "GoodsType_Crystal",
				"Id": 0,
				"Count": 60
			},
			{
				"GoodsType": "GoodsType_Item",
				"Id": 1004,
				"Count": 10
			},
			{
				"GoodsType": "GoodsType_Item",
				"Id": 4000,
				"Count": 3
			}
		],
		"Reward3Star": 21,
		"Reward3": [
			{
				"GoodsType": "GoodsType_Crystal",
				"Id": 0,
				"Count": 90
			},
			{
				"GoodsType": "GoodsType_Item",
				"Id": 1001,
				"Count": 10
			},
			{
				"GoodsType": "GoodsType_Item",
				"Id": 4001,
				"Count": 1
			}
		],
		"Image": "UI/RiftImage_ABS/1/UI_TimeDrive_04.png",
		"ChapterBGPrefabName": "UI/Rift_ABS/Prefab/RiftPanel03UIPrefab.prefab",
		"IsOpened": true
	},
	{
		"ID": 4,
		"Name": "Langrisser II: Another Path",
		"TitleName": "Langrisser II",
		"Desc": "Time Rift: Chapter 4",
		"Place": "",
		"UnlockConditions": [
			{
				"ConditionType": "RiftChapterUnlockConditionType_Scenario",
				"Param": 18
			}
		],
		"Hard": 1,
		"HardChapter": 14,
		"RiftLevelsID": [
			401,
			402,
			403,
			404,
			405,
			406,
			407,
			408,
			409,
			410,
			411,
			412,
			413,
			414,
			415,
			416,
			417,
			418,
			419,
			420
		],
		"Reward1Star": 7,
		"Reward1": [
			{
				"GoodsType": "GoodsType_Item",
				"Id": 1003,
				"Count": 10
			},
			{
				"GoodsType": "GoodsType_Gold",
				"Id": 0,
				"Count": 40000
			}
		],
		"Reward2Star": 14,
		"Reward2": [
			{
				"GoodsType": "GoodsType_Crystal",
				"Id": 0,
				"Count": 60
			},
			{
				"GoodsType": "GoodsType_Item",
				"Id": 1004,
				"Count": 10
			},
			{
				"GoodsType": "GoodsType_Item",
				"Id": 4000,
				"Count": 3
			}
		],
		"Reward3Star": 21,
		"Reward3": [
			{
				"GoodsType": "GoodsType_Crystal",
				"Id": 0,
				"Count": 90
			},
			{
				"GoodsType": "GoodsType_Item",
				"Id": 1001,
				"Count": 10
			},
			{
				"GoodsType": "GoodsType_Item",
				"Id": 4001,
				"Count": 1
			}
		],
		"Image": "UI/RiftImage_ABS/1/UI_TimeDrive_05.png",
		"ChapterBGPrefabName": "UI/Rift_ABS/Prefab/RiftPanel04UIPrefab.prefab",
		"IsOpened": true
	},
	{
		"ID": 5,
		"Name": "Langrisser II- The Empire's Honor",
		"TitleName": "Langrisser II",
		"Desc": "Time Rift: Chapter 5",
		"Place": "",
		"UnlockConditions": [
			{
				"ConditionType": "RiftChapterUnlockConditionType_Scenario",
				"Param": 22
			}
		],
		"Hard": 1,
		"HardChapter": 15,
		"RiftLevelsID": [
			501,
			502,
			503,
			504,
			505,
			506,
			507,
			508,
			509,
			510,
			511,
			512,
			513,
			514,
			515,
			516,
			517,
			518,
			519,
			520
		],
		"Reward1Star": 7,
		"Reward1": [
			{
				"GoodsType": "GoodsType_Item",
				"Id": 1003,
				"Count": 15
			},
			{
				"GoodsType": "GoodsType_Gold",
				"Id": 0,
				"Count": 50000
			}
		],
		"Reward2Star": 14,
		"Reward2": [
			{
				"GoodsType": "GoodsType_Crystal",
				"Id": 0,
				"Count": 60
			},
			{
				"GoodsType": "GoodsType_Item",
				"Id": 1004,
				"Count": 15
			},
			{
				"GoodsType": "GoodsType_Item",
				"Id": 4000,
				"Count": 3
			}
		],
		"Reward3Star": 21,
		"Reward3": [
			{
				"GoodsType": "GoodsType_Crystal",
				"Id": 0,
				"Count": 90
			},
			{
				"GoodsType": "GoodsType_Item",
				"Id": 1001,
				"Count": 15
			},
			{
				"GoodsType": "GoodsType_Item",
				"Id": 4001,
				"Count": 1
			}
		],
		"Image": "UI/RiftImage_ABS/1/UI_TimeDrive_06.png",
		"ChapterBGPrefabName": "UI/Rift_ABS/Prefab/RiftPanel05UIPrefab.prefab",
		"IsOpened": true
	},
	{
		"ID": 6,
		"Name": "Langrisser I: The Sworn Prince",
		"TitleName": "Langrisser I",
		"Desc": "Time Rift: Chapter 6",
		"Place": "",
		"UnlockConditions": [
			{
				"ConditionType": "RiftChapterUnlockConditionType_Scenario",
				"Param": 24
			}
		],
		"Hard": 1,
		"HardChapter": 16,
		"RiftLevelsID": [
			601,
			602,
			603,
			604,
			605,
			606,
			607,
			608,
			609,
			610,
			611,
			612,
			613,
			614,
			615,
			616,
			617,
			618
		],
		"Reward1Star": 6,
		"Reward1": [
			{
				"GoodsType": "GoodsType_Item",
				"Id": 1003,
				"Count": 20
			},
			{
				"GoodsType": "GoodsType_Gold",
				"Id": 0,
				"Count": 60000
			}
		],
		"Reward2Star": 12,
		"Reward2": [
			{
				"GoodsType": "GoodsType_Crystal",
				"Id": 0,
				"Count": 60
			},
			{
				"GoodsType": "GoodsType_Item",
				"Id": 1004,
				"Count": 20
			},
			{
				"GoodsType": "GoodsType_Item",
				"Id": 4000,
				"Count": 3
			}
		],
		"Reward3Star": 18,
		"Reward3": [
			{
				"GoodsType": "GoodsType_Crystal",
				"Id": 0,
				"Count": 90
			},
			{
				"GoodsType": "GoodsType_Item",
				"Id": 1001,
				"Count": 20
			},
			{
				"GoodsType": "GoodsType_Item",
				"Id": 4001,
				"Count": 2
			}
		],
		"Image": "UI/RiftImage_ABS/1/UI_TimeDrive_01.png",
		"ChapterBGPrefabName": "UI/Rift_ABS/Prefab/RiftPanel06UIPrefab.prefab",
		"IsOpened": true
	},
	{
		"ID": 7,
		"Name": "Langrisser 1 - Imperial Crusade",
		"TitleName": "Langrisser I",
		"Desc": "Time Rift Chapter 7",
		"Place": "",
		"UnlockConditions": [
			{
				"ConditionType": "RiftChapterUnlockConditionType_Scenario",
				"Param": 26
			}
		],
		"Hard": 1,
		"HardChapter": 17,
		"RiftLevelsID": [
			701,
			702,
			703,
			704,
			705,
			706,
			707,
			708,
			709,
			710,
			711,
			712,
			713,
			714,
			715,
			716,
			717,
			718,
			719,
			720
		],
		"Reward1Star": 7,
		"Reward1": [
			{
				"GoodsType": "GoodsType_Item",
				"Id": 1003,
				"Count": 15
			},
			{
				"GoodsType": "GoodsType_Gold",
				"Id": 0,
				"Count": 70000
			}
		],
		"Reward2Star": 14,
		"Reward2": [
			{
				"GoodsType": "GoodsType_Crystal",
				"Id": 0,
				"Count": 60
			},
			{
				"GoodsType": "GoodsType_Item",
				"Id": 1004,
				"Count": 15
			},
			{
				"GoodsType": "GoodsType_Item",
				"Id": 4001,
				"Count": 1
			}
		],
		"Reward3Star": 21,
		"Reward3": [
			{
				"GoodsType": "GoodsType_Crystal",
				"Id": 0,
				"Count": 90
			},
			{
				"GoodsType": "GoodsType_Item",
				"Id": 1001,
				"Count": 15
			},
			{
				"GoodsType": "GoodsType_Item",
				"Id": 4001,
				"Count": 2
			}
		],
		"Image": "UI/RiftImage_ABS/1/UI_TimeDrive_07.png",
		"ChapterBGPrefabName": "UI/Rift_ABS/Prefab/RiftPanel07UIPrefab.prefab",
		"IsOpened": true
	},
	{
		"ID": 8,
		"Name": "Langrisser 1 - End of Darkness",
		"TitleName": "Langrisser I",
		"Desc": "Time Rift Chapter 8",
		"Place": "",
		"UnlockConditions": [
			{
				"ConditionType": "RiftChapterUnlockConditionType_Scenario",
				"Param": 28
			}
		],
		"Hard": 1,
		"HardChapter": 18,
		"RiftLevelsID": [
			801,
			802,
			803,
			804,
			805,
			806,
			807,
			808,
			809,
			810,
			811,
			812,
			813,
			814,
			815,
			816,
			817,
			818,
			819,
			820
		],
		"Reward1Star": 7,
		"Reward1": [
			{
				"GoodsType": "GoodsType_Item",
				"Id": 1003,
				"Count": 20
			},
			{
				"GoodsType": "GoodsType_Gold",
				"Id": 0,
				"Count": 80000
			}
		],
		"Reward2Star": 14,
		"Reward2": [
			{
				"GoodsType": "GoodsType_Crystal",
				"Id": 0,
				"Count": 60
			},
			{
				"GoodsType": "GoodsType_Item",
				"Id": 1004,
				"Count": 20
			},
			{
				"GoodsType": "GoodsType_Item",
				"Id": 4001,
				"Count": 2
			}
		],
		"Reward3Star": 21,
		"Reward3": [
			{
				"GoodsType": "GoodsType_Crystal",
				"Id": 0,
				"Count": 90
			},
			{
				"GoodsType": "GoodsType_Item",
				"Id": 1001,
				"Count": 20
			},
			{
				"GoodsType": "GoodsType_Item",
				"Id": 4001,
				"Count": 2
			}
		],
		"Image": "UI/RiftImage_ABS/1/UI_TimeDrive_08.png",
		"ChapterBGPrefabName": "UI/Rift_ABS/Prefab/RiftPanel08UIPrefab.prefab",
		"IsOpened": true
	},
	{
		"ID": 9,
		"Name": "Langrisser III - The First Knight",
		"TitleName": "LANGRISSER III",
		"Desc": "Time Rift: Chapter 9",
		"Place": "",
		"UnlockConditions": [
			{
				"ConditionType": "RiftChapterUnlockConditionType_Scenario",
				"Param": 31
			}
		],
		"Hard": 1,
		"HardChapter": 19,
		"RiftLevelsID": [
			901,
			902,
			903,
			904,
			905,
			906,
			907,
			908,
			909,
			910,
			911,
			912,
			913,
			914,
			915,
			916,
			917,
			918,
			919
		],
		"Reward1Star": 9,
		"Reward1": [
			{
				"GoodsType": "GoodsType_Item",
				"Id": 1003,
				"Count": 20
			},
			{
				"GoodsType": "GoodsType_Gold",
				"Id": 0,
				"Count": 90000
			}
		],
		"Reward2Star": 18,
		"Reward2": [
			{
				"GoodsType": "GoodsType_Crystal",
				"Id": 0,
				"Count": 60
			},
			{
				"GoodsType": "GoodsType_Item",
				"Id": 1004,
				"Count": 20
			},
			{
				"GoodsType": "GoodsType_Item",
				"Id": 4001,
				"Count": 2
			}
		],
		"Reward3Star": 27,
		"Reward3": [
			{
				"GoodsType": "GoodsType_Crystal",
				"Id": 0,
				"Count": 90
			},
			{
				"GoodsType": "GoodsType_Item",
				"Id": 1001,
				"Count": 20
			},
			{
				"GoodsType": "GoodsType_Item",
				"Id": 4001,
				"Count": 3
			}
		],
		"Image": "UI/RiftImage_ABS/1/UI_TimeDrive_09.png",
		"ChapterBGPrefabName": "UI/Rift_ABS/Prefab/RiftPanel09UIPrefab.prefab",
		"IsOpened": true
	},
	{
		"ID": 10,
		"Name": "Langrisser 3 - Lushiris Gate",
		"TitleName": "LANGRISSER III",
		"Desc": "Time Rift: Chapter 10",
		"Place": "",
		"UnlockConditions": [
			{
				"ConditionType": "RiftChapterUnlockConditionType_Scenario",
				"Param": 35
			}
		],
		"Hard": 1,
		"HardChapter": 20,
		"RiftLevelsID": [
			1001,
			1002,
			1003,
			1004,
			1005,
			1006,
			1007,
			1008,
			1009,
			1010,
			1011,
			1012,
			1013,
			1014,
			1015,
			1016,
			1017,
			1018,
			1019
		],
		"Reward1Star": 9,
		"Reward1": [
			{
				"GoodsType": "GoodsType_Item",
				"Id": 1003,
				"Count": 20
			},
			{
				"GoodsType": "GoodsType_Gold",
				"Id": 0,
				"Count": 120000
			}
		],
		"Reward2Star": 18,
		"Reward2": [
			{
				"GoodsType": "GoodsType_Crystal",
				"Id": 0,
				"Count": 60
			},
			{
				"GoodsType": "GoodsType_Item",
				"Id": 1004,
				"Count": 20
			},
			{
				"GoodsType": "GoodsType_Item",
				"Id": 4001,
				"Count": 2
			}
		],
		"Reward3Star": 27,
		"Reward3": [
			{
				"GoodsType": "GoodsType_Crystal",
				"Id": 0,
				"Count": 90
			},
			{
				"GoodsType": "GoodsType_Item",
				"Id": 1001,
				"Count": 20
			},
			{
				"GoodsType": "GoodsType_Item",
				"Id": 4001,
				"Count": 3
			}
		],
		"Image": "UI/RiftImage_ABS/1/UI_TimeDrive_10.png",
		"ChapterBGPrefabName": "UI/Rift_ABS/Prefab/RiftPanel10UIPrefab.prefab",
		"IsOpened": true
	},
	{
		"ID": 11,
		"Name": "Langrisser II: Journey of the Light",
		"TitleName": "Langrisser II",
		"Desc": "Time Rift: Chapter 1 (Elite)",
		"Place": "",
		"UnlockConditions": [
			{
				"ConditionType": "RiftChapterUnlockConditionType_ChapterStar",
				"Param": 18
			}
		],
		"Hard": 2,
		"HardChapter": 1,
		"RiftLevelsID": [
			5101,
			5104,
			5107,
			5110,
			5113,
			5116,
			5119
		],
		"Reward1Star": 7,
		"Reward1": [
			{
				"GoodsType": "GoodsType_Item",
				"Id": 1003,
				"Count": 10
			},
			{
				"GoodsType": "GoodsType_Gold",
				"Id": 0,
				"Count": 20000
			}
		],
		"Reward2Star": 14,
		"Reward2": [
			{
				"GoodsType": "GoodsType_Crystal",
				"Id": 0,
				"Count": 60
			},
			{
				"GoodsType": "GoodsType_Item",
				"Id": 1004,
				"Count": 10
			},
			{
				"GoodsType": "GoodsType_Item",
				"Id": 4000,
				"Count": 5
			}
		],
		"Reward3Star": 21,
		"Reward3": [
			{
				"GoodsType": "GoodsType_Crystal",
				"Id": 0,
				"Count": 90
			},
			{
				"GoodsType": "GoodsType_Item",
				"Id": 1001,
				"Count": 10
			},
			{
				"GoodsType": "GoodsType_Item",
				"Id": 4001,
				"Count": 1
			}
		],
		"Image": "UI/RiftImage_ABS/1/UI_TimeDrive_02.png",
		"ChapterBGPrefabName": "UI/Rift_ABS/Prefab/RiftPanel01UIPrefab.prefab",
		"IsOpened": true
	},
	{
		"ID": 12,
		"Name": "Langrisser II: Langrisser and Alhazard",
		"TitleName": "Langrisser II",
		"Desc": "Time Rift: Chapter 2 (Elite)",
		"Place": "",
		"UnlockConditions": [
			{
				"ConditionType": "RiftChapterUnlockConditionType_ChapterStar",
				"Param": 18
			}
		],
		"Hard": 2,
		"HardChapter": 2,
		"RiftLevelsID": [
			5201,
			5204,
			5207,
			5210,
			5213,
			5216,
			5219
		],
		"Reward1Star": 7,
		"Reward1": [
			{
				"GoodsType": "GoodsType_Item",
				"Id": 1003,
				"Count": 10
			},
			{
				"GoodsType": "GoodsType_Gold",
				"Id": 0,
				"Count": 30000
			}
		],
		"Reward2Star": 14,
		"Reward2": [
			{
				"GoodsType": "GoodsType_Crystal",
				"Id": 0,
				"Count": 60
			},
			{
				"GoodsType": "GoodsType_Item",
				"Id": 1004,
				"Count": 10
			},
			{
				"GoodsType": "GoodsType_Item",
				"Id": 4000,
				"Count": 5
			}
		],
		"Reward3Star": 21,
		"Reward3": [
			{
				"GoodsType": "GoodsType_Crystal",
				"Id": 0,
				"Count": 90
			},
			{
				"GoodsType": "GoodsType_Item",
				"Id": 1001,
				"Count": 10
			},
			{
				"GoodsType": "GoodsType_Item",
				"Id": 4001,
				"Count": 1
			}
		],
		"Image": "UI/RiftImage_ABS/1/UI_TimeDrive_03.png",
		"ChapterBGPrefabName": "UI/Rift_ABS/Prefab/RiftPanel02UIPrefab.prefab",
		"IsOpened": true
	},
	{
		"ID": 13,
		"Name": "Langrisser II: Glorious Legend",
		"TitleName": "Langrisser II",
		"Desc": "Time Rift: Chapter 3 (Elite)",
		"Place": "",
		"UnlockConditions": [
			{
				"ConditionType": "RiftChapterUnlockConditionType_ChapterStar",
				"Param": 18
			}
		],
		"Hard": 2,
		"HardChapter": 3,
		"RiftLevelsID": [
			5301,
			5304,
			5307,
			5310,
			5313,
			5316,
			5319
		],
		"Reward1Star": 7,
		"Reward1": [
			{
				"GoodsType": "GoodsType_Item",
				"Id": 1003,
				"Count": 15
			},
			{
				"GoodsType": "GoodsType_Gold",
				"Id": 0,
				"Count": 40000
			}
		],
		"Reward2Star": 14,
		"Reward2": [
			{
				"GoodsType": "GoodsType_Crystal",
				"Id": 0,
				"Count": 60
			},
			{
				"GoodsType": "GoodsType_Item",
				"Id": 1004,
				"Count": 15
			},
			{
				"GoodsType": "GoodsType_Item",
				"Id": 4000,
				"Count": 5
			}
		],
		"Reward3Star": 21,
		"Reward3": [
			{
				"GoodsType": "GoodsType_Crystal",
				"Id": 0,
				"Count": 90
			},
			{
				"GoodsType": "GoodsType_Item",
				"Id": 1001,
				"Count": 15
			},
			{
				"GoodsType": "GoodsType_Item",
				"Id": 4001,
				"Count": 2
			}
		],
		"Image": "UI/RiftImage_ABS/1/UI_TimeDrive_04.png",
		"ChapterBGPrefabName": "UI/Rift_ABS/Prefab/RiftPanel03UIPrefab.prefab",
		"IsOpened": true
	},
	{
		"ID": 14,
		"Name": "Langrisser II: Another Path",
		"TitleName": "Langrisser II",
		"Desc": "Time Rift: Chapter 4 (Elite)",
		"Place": "",
		"UnlockConditions": [
			{
				"ConditionType": "RiftChapterUnlockConditionType_ChapterStar",
				"Param": 18
			}
		],
		"Hard": 2,
		"HardChapter": 4,
		"RiftLevelsID": [
			5401,
			5404,
			5407,
			5410,
			5414,
			5417,
			5420
		],
		"Reward1Star": 7,
		"Reward1": [
			{
				"GoodsType": "GoodsType_Item",
				"Id": 1003,
				"Count": 15
			},
			{
				"GoodsType": "GoodsType_Gold",
				"Id": 0,
				"Count": 50000
			}
		],
		"Reward2Star": 14,
		"Reward2": [
			{
				"GoodsType": "GoodsType_Crystal",
				"Id": 0,
				"Count": 60
			},
			{
				"GoodsType": "GoodsType_Item",
				"Id": 1004,
				"Count": 15
			},
			{
				"GoodsType": "GoodsType_Item",
				"Id": 4000,
				"Count": 5
			}
		],
		"Reward3Star": 21,
		"Reward3": [
			{
				"GoodsType": "GoodsType_Crystal",
				"Id": 0,
				"Count": 90
			},
			{
				"GoodsType": "GoodsType_Item",
				"Id": 1001,
				"Count": 15
			},
			{
				"GoodsType": "GoodsType_Item",
				"Id": 4001,
				"Count": 2
			}
		],
		"Image": "UI/RiftImage_ABS/1/UI_TimeDrive_05.png",
		"ChapterBGPrefabName": "UI/Rift_ABS/Prefab/RiftPanel04UIPrefab.prefab",
		"IsOpened": true
	},
	{
		"ID": 15,
		"Name": "Langrisser II- The Empire's Honor",
		"TitleName": "Langrisser II",
		"Desc": "Time Rift: Chapter 5 (Elite)",
		"Place": "",
		"UnlockConditions": [
			{
				"ConditionType": "RiftChapterUnlockConditionType_ChapterStar",
				"Param": 18
			}
		],
		"Hard": 2,
		"HardChapter": 5,
		"RiftLevelsID": [
			5501,
			5504,
			5507,
			5510,
			5513,
			5516,
			5520
		],
		"Reward1Star": 7,
		"Reward1": [
			{
				"GoodsType": "GoodsType_Item",
				"Id": 1003,
				"Count": 20
			},
			{
				"GoodsType": "GoodsType_Gold",
				"Id": 0,
				"Count": 60000
			}
		],
		"Reward2Star": 14,
		"Reward2": [
			{
				"GoodsType": "GoodsType_Crystal",
				"Id": 0,
				"Count": 60
			},
			{
				"GoodsType": "GoodsType_Item",
				"Id": 1004,
				"Count": 20
			},
			{
				"GoodsType": "GoodsType_Item",
				"Id": 4000,
				"Count": 5
			}
		],
		"Reward3Star": 21,
		"Reward3": [
			{
				"GoodsType": "GoodsType_Crystal",
				"Id": 0,
				"Count": 90
			},
			{
				"GoodsType": "GoodsType_Item",
				"Id": 1001,
				"Count": 20
			},
			{
				"GoodsType": "GoodsType_Item",
				"Id": 4001,
				"Count": 2
			}
		],
		"Image": "UI/RiftImage_ABS/1/UI_TimeDrive_06.png",
		"ChapterBGPrefabName": "UI/Rift_ABS/Prefab/RiftPanel05UIPrefab.prefab",
		"IsOpened": true
	},
	{
		"ID": 16,
		"Name": "Langrisser I: The Sworn Prince",
		"TitleName": "Langrisser I",
		"Desc": "Time Rift: Chapter 6 (Elite)",
		"Place": "",
		"UnlockConditions": [
			{
				"ConditionType": "RiftChapterUnlockConditionType_ChapterStar",
				"Param": 15
			}
		],
		"Hard": 2,
		"HardChapter": 6,
		"RiftLevelsID": [
			5601,
			5604,
			5607,
			5610,
			5614,
			5618
		],
		"Reward1Star": 6,
		"Reward1": [
			{
				"GoodsType": "GoodsType_Item",
				"Id": 1003,
				"Count": 20
			},
			{
				"GoodsType": "GoodsType_Gold",
				"Id": 0,
				"Count": 70000
			}
		],
		"Reward2Star": 12,
		"Reward2": [
			{
				"GoodsType": "GoodsType_Crystal",
				"Id": 0,
				"Count": 60
			},
			{
				"GoodsType": "GoodsType_Item",
				"Id": 1004,
				"Count": 20
			},
			{
				"GoodsType": "GoodsType_Item",
				"Id": 4000,
				"Count": 6
			}
		],
		"Reward3Star": 18,
		"Reward3": [
			{
				"GoodsType": "GoodsType_Crystal",
				"Id": 0,
				"Count": 90
			},
			{
				"GoodsType": "GoodsType_Item",
				"Id": 1001,
				"Count": 20
			},
			{
				"GoodsType": "GoodsType_Item",
				"Id": 4001,
				"Count": 3
			}
		],
		"Image": "UI/RiftImage_ABS/1/UI_TimeDrive_01.png",
		"ChapterBGPrefabName": "UI/Rift_ABS/Prefab/RiftPanel06UIPrefab.prefab",
		"IsOpened": true
	},
	{
		"ID": 17,
		"Name": "Langrisser 1 - Imperial Crusade",
		"TitleName": "Langrisser I",
		"Desc": "Time Rift Chapter 7 Elite",
		"Place": "",
		"UnlockConditions": [
			{
				"ConditionType": "RiftChapterUnlockConditionType_ChapterStar",
				"Param": 18
			}
		],
		"Hard": 2,
		"HardChapter": 7,
		"RiftLevelsID": [
			5701,
			5704,
			5707,
			5710,
			5713,
			5716,
			5720
		],
		"Reward1Star": 7,
		"Reward1": [
			{
				"GoodsType": "GoodsType_Item",
				"Id": 1003,
				"Count": 20
			},
			{
				"GoodsType": "GoodsType_Gold",
				"Id": 0,
				"Count": 80000
			}
		],
		"Reward2Star": 14,
		"Reward2": [
			{
				"GoodsType": "GoodsType_Crystal",
				"Id": 0,
				"Count": 60
			},
			{
				"GoodsType": "GoodsType_Item",
				"Id": 1004,
				"Count": 20
			},
			{
				"GoodsType": "GoodsType_Item",
				"Id": 4001,
				"Count": 1
			}
		],
		"Reward3Star": 21,
		"Reward3": [
			{
				"GoodsType": "GoodsType_Crystal",
				"Id": 0,
				"Count": 90
			},
			{
				"GoodsType": "GoodsType_Item",
				"Id": 1001,
				"Count": 20
			},
			{
				"GoodsType": "GoodsType_Item",
				"Id": 4001,
				"Count": 3
			}
		],
		"Image": "UI/RiftImage_ABS/1/UI_TimeDrive_07.png",
		"ChapterBGPrefabName": "UI/Rift_ABS/Prefab/RiftPanel07UIPrefab.prefab",
		"IsOpened": true
	},
	{
		"ID": 18,
		"Name": "Langrisser 1 - End of Darkness",
		"TitleName": "Langrisser I",
		"Desc": "Time Rift Chapter 8 Elite",
		"Place": "",
		"UnlockConditions": [
			{
				"ConditionType": "RiftChapterUnlockConditionType_ChapterStar",
				"Param": 18
			}
		],
		"Hard": 2,
		"HardChapter": 8,
		"RiftLevelsID": [
			5801,
			5804,
			5807,
			5811,
			5814,
			5817,
			5820
		],
		"Reward1Star": 7,
		"Reward1": [
			{
				"GoodsType": "GoodsType_Item",
				"Id": 1003,
				"Count": 20
			},
			{
				"GoodsType": "GoodsType_Gold",
				"Id": 0,
				"Count": 90000
			}
		],
		"Reward2Star": 14,
		"Reward2": [
			{
				"GoodsType": "GoodsType_Crystal",
				"Id": 0,
				"Count": 60
			},
			{
				"GoodsType": "GoodsType_Item",
				"Id": 1004,
				"Count": 20
			},
			{
				"GoodsType": "GoodsType_Item",
				"Id": 4001,
				"Count": 2
			}
		],
		"Reward3Star": 21,
		"Reward3": [
			{
				"GoodsType": "GoodsType_Crystal",
				"Id": 0,
				"Count": 90
			},
			{
				"GoodsType": "GoodsType_Item",
				"Id": 1001,
				"Count": 20
			},
			{
				"GoodsType": "GoodsType_Item",
				"Id": 4001,
				"Count": 3
			}
		],
		"Image": "UI/RiftImage_ABS/1/UI_TimeDrive_08.png",
		"ChapterBGPrefabName": "UI/Rift_ABS/Prefab/RiftPanel08UIPrefab.prefab",
		"IsOpened": true
	},
	{
		"ID": 19,
		"Name": "Langrisser III - The First Knight",
		"TitleName": "LANGRISSER III",
		"Desc": "Time Rift: Chapter 9 (Elite)",
		"Place": "",
		"UnlockConditions": [
			{
				"ConditionType": "RiftChapterUnlockConditionType_ChapterStar",
				"Param": 24
			}
		],
		"Hard": 2,
		"HardChapter": 9,
		"RiftLevelsID": [
			5901,
			5903,
			5906,
			5908,
			5910,
			5912,
			5914,
			5917,
			5919
		],
		"Reward1Star": 9,
		"Reward1": [
			{
				"GoodsType": "GoodsType_Item",
				"Id": 1003,
				"Count": 20
			},
			{
				"GoodsType": "GoodsType_Gold",
				"Id": 0,
				"Count": 120000
			}
		],
		"Reward2Star": 18,
		"Reward2": [
			{
				"GoodsType": "GoodsType_Crystal",
				"Id": 0,
				"Count": 60
			},
			{
				"GoodsType": "GoodsType_Item",
				"Id": 1004,
				"Count": 20
			},
			{
				"GoodsType": "GoodsType_Item",
				"Id": 4001,
				"Count": 2
			}
		],
		"Reward3Star": 27,
		"Reward3": [
			{
				"GoodsType": "GoodsType_Crystal",
				"Id": 0,
				"Count": 90
			},
			{
				"GoodsType": "GoodsType_Item",
				"Id": 1001,
				"Count": 20
			},
			{
				"GoodsType": "GoodsType_Item",
				"Id": 4001,
				"Count": 4
			}
		],
		"Image": "UI/RiftImage_ABS/1/UI_TimeDrive_09.png",
		"ChapterBGPrefabName": "UI/Rift_ABS/Prefab/RiftPanel09UIPrefab.prefab",
		"IsOpened": true
	},
	{
		"ID": 20,
		"Name": "Langrisser 3 - Lushiris Gate",
		"TitleName": "LANGRISSER III",
		"Desc": "Time Rift: Chapter 10 (Elite)",
		"Place": "",
		"UnlockConditions": [
			{
				"ConditionType": "RiftChapterUnlockConditionType_ChapterStar",
				"Param": 24
			}
		],
		"Hard": 2,
		"HardChapter": 10,
		"RiftLevelsID": [
			6001,
			6003,
			6006,
			6008,
			6010,
			6012,
			6014,
			6017,
			6019
		],
		"Reward1Star": 9,
		"Reward1": [
			{
				"GoodsType": "GoodsType_Item",
				"Id": 1003,
				"Count": 20
			},
			{
				"GoodsType": "GoodsType_Gold",
				"Id": 0,
				"Count": 150000
			}
		],
		"Reward2Star": 18,
		"Reward2": [
			{
				"GoodsType": "GoodsType_Crystal",
				"Id": 0,
				"Count": 60
			},
			{
				"GoodsType": "GoodsType_Item",
				"Id": 1004,
				"Count": 20
			},
			{
				"GoodsType": "GoodsType_Item",
				"Id": 4001,
				"Count": 2
			}
		],
		"Reward3Star": 27,
		"Reward3": [
			{
				"GoodsType": "GoodsType_Crystal",
				"Id": 0,
				"Count": 90
			},
			{
				"GoodsType": "GoodsType_Item",
				"Id": 1001,
				"Count": 20
			},
			{
				"GoodsType": "GoodsType_Item",
				"Id": 4001,
				"Count": 4
			}
		],
		"Image": "UI/RiftImage_ABS/1/UI_TimeDrive_10.png",
		"ChapterBGPrefabName": "UI/Rift_ABS/Prefab/RiftPanel10UIPrefab.prefab",
		"IsOpened": true
	}
]