[
	{
		"ID": 1,
		"Month": "MonthType_January",
		"Day": 1,
		"Reward": [
			{
				"GoodsType": "GoodsType_Gold",
				"Id": 0,
				"Count": 5000
			}
		]
	},
	{
		"ID": 2,
		"Month": "MonthType_January",
		"Day": 2,
		"Reward": [
			{
				"GoodsType": "GoodsType_Item",
				"Id": 4000,
				"Count": 2
			}
		]
	},
	{
		"ID": 3,
		"Month": "MonthType_January",
		"Day": 3,
		"Reward": [
			{
				"GoodsType": "GoodsType_Item",
				"Id": 4001,
				"Count": 1
			}
		]
	},
	{
		"ID": 4,
		"Month": "MonthType_January",
		"Day": 4,
		"Reward": [
			{
				"GoodsType": "GoodsType_Item",
				"Id": 3003,
				"Count": 5
			}
		]
	},
	{
		"ID": 5,
		"Month": "MonthType_January",
		"Day": 5,
		"Reward": [
			{
				"GoodsType": "GoodsType_Item",
				"Id": 3101,
				"Count": 1
			}
		]
	},
	{
		"ID": 6,
		"Month": "MonthType_January",
		"Day": 6,
		"Reward": [
			{
				"GoodsType": "GoodsType_Equipment",
				"Id": 301,
				"Count": 5
			}
		]
	},
	{
		"ID": 7,
		"Month": "MonthType_January",
		"Day": 7,
		"Reward": [
			{
				"GoodsType": "GoodsType_Crystal",
				"Id": 0,
				"Count": 20
			}
		]
	},
	{
		"ID": 8,
		"Month": "MonthType_January",
		"Day": 8,
		"Reward": [
			{
				"GoodsType": "GoodsType_Gold",
				"Id": 0,
				"Count": 10000
			}
		]
	},
	{
		"ID": 9,
		"Month": "MonthType_January",
		"Day": 9,
		"Reward": [
			{
				"GoodsType": "GoodsType_Item",
				"Id": 4000,
				"Count": 3
			}
		]
	},
	{
		"ID": 10,
		"Month": "MonthType_January",
		"Day": 10,
		"Reward": [
			{
				"GoodsType": "GoodsType_Item",
				"Id": 4001,
				"Count": 1
			}
		]
	},
	{
		"ID": 11,
		"Month": "MonthType_January",
		"Day": 11,
		"Reward": [
			{
				"GoodsType": "GoodsType_Item",
				"Id": 3003,
				"Count": 15
			}
		]
	},
	{
		"ID": 12,
		"Month": "MonthType_January",
		"Day": 12,
		"Reward": [
			{
				"GoodsType": "GoodsType_Item",
				"Id": 3101,
				"Count": 2
			}
		]
	},
	{
		"ID": 13,
		"Month": "MonthType_January",
		"Day": 13,
		"Reward": [
			{
				"GoodsType": "GoodsType_Equipment",
				"Id": 302,
				"Count": 3
			}
		]
	},
	{
		"ID": 14,
		"Month": "MonthType_January",
		"Day": 14,
		"Reward": [
			{
				"GoodsType": "GoodsType_Crystal",
				"Id": 0,
				"Count": 30
			}
		]
	},
	{
		"ID": 15,
		"Month": "MonthType_January",
		"Day": 15,
		"Reward": [
			{
				"GoodsType": "GoodsType_Gold",
				"Id": 0,
				"Count": 15000
			}
		]
	},
	{
		"ID": 16,
		"Month": "MonthType_January",
		"Day": 16,
		"Reward": [
			{
				"GoodsType": "GoodsType_Item",
				"Id": 4000,
				"Count": 5
			}
		]
	},
	{
		"ID": 17,
		"Month": "MonthType_January",
		"Day": 17,
		"Reward": [
			{
				"GoodsType": "GoodsType_Item",
				"Id": 4001,
				"Count": 1
			}
		]
	},
	{
		"ID": 18,
		"Month": "MonthType_January",
		"Day": 18,
		"Reward": [
			{
				"GoodsType": "GoodsType_Item",
				"Id": 3004,
				"Count": 5
			}
		]
	},
	{
		"ID": 19,
		"Month": "MonthType_January",
		"Day": 19,
		"Reward": [
			{
				"GoodsType": "GoodsType_Item",
				"Id": 3102,
				"Count": 1
			}
		]
	},
	{
		"ID": 20,
		"Month": "MonthType_January",
		"Day": 20,
		"Reward": [
			{
				"GoodsType": "GoodsType_Equipment",
				"Id": 303,
				"Count": 2
			}
		]
	},
	{
		"ID": 21,
		"Month": "MonthType_January",
		"Day": 21,
		"Reward": [
			{
				"GoodsType": "GoodsType_Crystal",
				"Id": 0,
				"Count": 40
			}
		]
	},
	{
		"ID": 22,
		"Month": "MonthType_January",
		"Day": 22,
		"Reward": [
			{
				"GoodsType": "GoodsType_Gold",
				"Id": 0,
				"Count": 20000
			}
		]
	},
	{
		"ID": 23,
		"Month": "MonthType_January",
		"Day": 23,
		"Reward": [
			{
				"GoodsType": "GoodsType_MithralStone",
				"Id": 0,
				"Count": 300
			}
		]
	},
	{
		"ID": 24,
		"Month": "MonthType_January",
		"Day": 24,
		"Reward": [
			{
				"GoodsType": "GoodsType_Item",
				"Id": 4001,
				"Count": 2
			}
		]
	},
	{
		"ID": 25,
		"Month": "MonthType_January",
		"Day": 25,
		"Reward": [
			{
				"GoodsType": "GoodsType_Item",
				"Id": 3004,
				"Count": 8
			}
		]
	},
	{
		"ID": 26,
		"Month": "MonthType_January",
		"Day": 26,
		"Reward": [
			{
				"GoodsType": "GoodsType_Crystal",
				"Id": 0,
				"Count": 50
			}
		]
	},
	{
		"ID": 27,
		"Month": "MonthType_January",
		"Day": 27,
		"Reward": [
			{
				"GoodsType": "GoodsType_Equipment",
				"Id": 303,
				"Count": 3
			}
		]
	},
	{
		"ID": 28,
		"Month": "MonthType_January",
		"Day": 28,
		"Reward": [
			{
				"GoodsType": "GoodsType_Crystal",
				"Id": 0,
				"Count": 60
			}
		]
	},
	{
		"ID": 29,
		"Month": "MonthType_January",
		"Day": 29,
		"Reward": [
			{
				"GoodsType": "GoodsType_Item",
				"Id": 4001,
				"Count": 2
			}
		]
	},
	{
		"ID": 30,
		"Month": "MonthType_January",
		"Day": 30,
		"Reward": [
			{
				"GoodsType": "GoodsType_Crystal",
				"Id": 0,
				"Count": 80
			}
		]
	},
	{
		"ID": 31,
		"Month": "MonthType_January",
		"Day": 31,
		"Reward": [
			{
				"GoodsType": "GoodsType_MithralStone",
				"Id": 0,
				"Count": 600
			}
		]
	},
	{
		"ID": 32,
		"Month": "MonthType_February",
		"Day": 1,
		"Reward": [
			{
				"GoodsType": "GoodsType_Gold",
				"Id": 0,
				"Count": 5000
			}
		]
	},
	{
		"ID": 33,
		"Month": "MonthType_February",
		"Day": 2,
		"Reward": [
			{
				"GoodsType": "GoodsType_Item",
				"Id": 4000,
				"Count": 2
			}
		]
	},
	{
		"ID": 34,
		"Month": "MonthType_February",
		"Day": 3,
		"Reward": [
			{
				"GoodsType": "GoodsType_Item",
				"Id": 4001,
				"Count": 1
			}
		]
	},
	{
		"ID": 35,
		"Month": "MonthType_February",
		"Day": 4,
		"Reward": [
			{
				"GoodsType": "GoodsType_Item",
				"Id": 3003,
				"Count": 5
			}
		]
	},
	{
		"ID": 36,
		"Month": "MonthType_February",
		"Day": 5,
		"Reward": [
			{
				"GoodsType": "GoodsType_Item",
				"Id": 3101,
				"Count": 1
			}
		]
	},
	{
		"ID": 37,
		"Month": "MonthType_February",
		"Day": 6,
		"Reward": [
			{
				"GoodsType": "GoodsType_Equipment",
				"Id": 301,
				"Count": 5
			}
		]
	},
	{
		"ID": 38,
		"Month": "MonthType_February",
		"Day": 7,
		"Reward": [
			{
				"GoodsType": "GoodsType_Crystal",
				"Id": 0,
				"Count": 20
			}
		]
	},
	{
		"ID": 39,
		"Month": "MonthType_February",
		"Day": 8,
		"Reward": [
			{
				"GoodsType": "GoodsType_Gold",
				"Id": 0,
				"Count": 10000
			}
		]
	},
	{
		"ID": 40,
		"Month": "MonthType_February",
		"Day": 9,
		"Reward": [
			{
				"GoodsType": "GoodsType_Item",
				"Id": 4000,
				"Count": 3
			}
		]
	},
	{
		"ID": 41,
		"Month": "MonthType_February",
		"Day": 10,
		"Reward": [
			{
				"GoodsType": "GoodsType_Item",
				"Id": 4001,
				"Count": 1
			}
		]
	},
	{
		"ID": 42,
		"Month": "MonthType_February",
		"Day": 11,
		"Reward": [
			{
				"GoodsType": "GoodsType_Item",
				"Id": 3003,
				"Count": 15
			}
		]
	},
	{
		"ID": 43,
		"Month": "MonthType_February",
		"Day": 12,
		"Reward": [
			{
				"GoodsType": "GoodsType_Item",
				"Id": 3101,
				"Count": 2
			}
		]
	},
	{
		"ID": 44,
		"Month": "MonthType_February",
		"Day": 13,
		"Reward": [
			{
				"GoodsType": "GoodsType_Equipment",
				"Id": 302,
				"Count": 3
			}
		]
	},
	{
		"ID": 45,
		"Month": "MonthType_February",
		"Day": 14,
		"Reward": [
			{
				"GoodsType": "GoodsType_Crystal",
				"Id": 0,
				"Count": 30
			}
		]
	},
	{
		"ID": 46,
		"Month": "MonthType_February",
		"Day": 15,
		"Reward": [
			{
				"GoodsType": "GoodsType_Gold",
				"Id": 0,
				"Count": 15000
			}
		]
	},
	{
		"ID": 47,
		"Month": "MonthType_February",
		"Day": 16,
		"Reward": [
			{
				"GoodsType": "GoodsType_Item",
				"Id": 4000,
				"Count": 5
			}
		]
	},
	{
		"ID": 48,
		"Month": "MonthType_February",
		"Day": 17,
		"Reward": [
			{
				"GoodsType": "GoodsType_Item",
				"Id": 4001,
				"Count": 1
			}
		]
	},
	{
		"ID": 49,
		"Month": "MonthType_February",
		"Day": 18,
		"Reward": [
			{
				"GoodsType": "GoodsType_Item",
				"Id": 3004,
				"Count": 5
			}
		]
	},
	{
		"ID": 50,
		"Month": "MonthType_February",
		"Day": 19,
		"Reward": [
			{
				"GoodsType": "GoodsType_Item",
				"Id": 3102,
				"Count": 1
			}
		]
	},
	{
		"ID": 51,
		"Month": "MonthType_February",
		"Day": 20,
		"Reward": [
			{
				"GoodsType": "GoodsType_Equipment",
				"Id": 303,
				"Count": 2
			}
		]
	},
	{
		"ID": 52,
		"Month": "MonthType_February",
		"Day": 21,
		"Reward": [
			{
				"GoodsType": "GoodsType_Crystal",
				"Id": 0,
				"Count": 40
			}
		]
	},
	{
		"ID": 53,
		"Month": "MonthType_February",
		"Day": 22,
		"Reward": [
			{
				"GoodsType": "GoodsType_Gold",
				"Id": 0,
				"Count": 20000
			}
		]
	},
	{
		"ID": 54,
		"Month": "MonthType_February",
		"Day": 23,
		"Reward": [
			{
				"GoodsType": "GoodsType_MithralStone",
				"Id": 0,
				"Count": 300
			}
		]
	},
	{
		"ID": 55,
		"Month": "MonthType_February",
		"Day": 24,
		"Reward": [
			{
				"GoodsType": "GoodsType_Item",
				"Id": 4001,
				"Count": 2
			}
		]
	},
	{
		"ID": 56,
		"Month": "MonthType_February",
		"Day": 25,
		"Reward": [
			{
				"GoodsType": "GoodsType_Item",
				"Id": 3004,
				"Count": 8
			}
		]
	},
	{
		"ID": 57,
		"Month": "MonthType_February",
		"Day": 26,
		"Reward": [
			{
				"GoodsType": "GoodsType_Crystal",
				"Id": 0,
				"Count": 50
			}
		]
	},
	{
		"ID": 58,
		"Month": "MonthType_February",
		"Day": 27,
		"Reward": [
			{
				"GoodsType": "GoodsType_Equipment",
				"Id": 303,
				"Count": 3
			}
		]
	},
	{
		"ID": 59,
		"Month": "MonthType_February",
		"Day": 28,
		"Reward": [
			{
				"GoodsType": "GoodsType_Crystal",
				"Id": 0,
				"Count": 60
			}
		]
	},
	{
		"ID": 60,
		"Month": "MonthType_February",
		"Day": 29,
		"Reward": [
			{
				"GoodsType": "GoodsType_Item",
				"Id": 4001,
				"Count": 2
			}
		]
	},
	{
		"ID": 61,
		"Month": "MonthType_March",
		"Day": 1,
		"Reward": [
			{
				"GoodsType": "GoodsType_Gold",
				"Id": 0,
				"Count": 5000
			}
		]
	},
	{
		"ID": 62,
		"Month": "MonthType_March",
		"Day": 2,
		"Reward": [
			{
				"GoodsType": "GoodsType_Item",
				"Id": 4000,
				"Count": 2
			}
		]
	},
	{
		"ID": 63,
		"Month": "MonthType_March",
		"Day": 3,
		"Reward": [
			{
				"GoodsType": "GoodsType_Item",
				"Id": 4001,
				"Count": 1
			}
		]
	},
	{
		"ID": 64,
		"Month": "MonthType_March",
		"Day": 4,
		"Reward": [
			{
				"GoodsType": "GoodsType_Item",
				"Id": 3003,
				"Count": 5
			}
		]
	},
	{
		"ID": 65,
		"Month": "MonthType_March",
		"Day": 5,
		"Reward": [
			{
				"GoodsType": "GoodsType_Item",
				"Id": 3101,
				"Count": 1
			}
		]
	},
	{
		"ID": 66,
		"Month": "MonthType_March",
		"Day": 6,
		"Reward": [
			{
				"GoodsType": "GoodsType_Equipment",
				"Id": 301,
				"Count": 5
			}
		]
	},
	{
		"ID": 67,
		"Month": "MonthType_March",
		"Day": 7,
		"Reward": [
			{
				"GoodsType": "GoodsType_Crystal",
				"Id": 0,
				"Count": 20
			}
		]
	},
	{
		"ID": 68,
		"Month": "MonthType_March",
		"Day": 8,
		"Reward": [
			{
				"GoodsType": "GoodsType_Gold",
				"Id": 0,
				"Count": 10000
			}
		]
	},
	{
		"ID": 69,
		"Month": "MonthType_March",
		"Day": 9,
		"Reward": [
			{
				"GoodsType": "GoodsType_Item",
				"Id": 4000,
				"Count": 3
			}
		]
	},
	{
		"ID": 70,
		"Month": "MonthType_March",
		"Day": 10,
		"Reward": [
			{
				"GoodsType": "GoodsType_Item",
				"Id": 4001,
				"Count": 1
			}
		]
	},
	{
		"ID": 71,
		"Month": "MonthType_March",
		"Day": 11,
		"Reward": [
			{
				"GoodsType": "GoodsType_Item",
				"Id": 3003,
				"Count": 15
			}
		]
	},
	{
		"ID": 72,
		"Month": "MonthType_March",
		"Day": 12,
		"Reward": [
			{
				"GoodsType": "GoodsType_Item",
				"Id": 3101,
				"Count": 2
			}
		]
	},
	{
		"ID": 73,
		"Month": "MonthType_March",
		"Day": 13,
		"Reward": [
			{
				"GoodsType": "GoodsType_Equipment",
				"Id": 302,
				"Count": 3
			}
		]
	},
	{
		"ID": 74,
		"Month": "MonthType_March",
		"Day": 14,
		"Reward": [
			{
				"GoodsType": "GoodsType_Crystal",
				"Id": 0,
				"Count": 30
			}
		]
	},
	{
		"ID": 75,
		"Month": "MonthType_March",
		"Day": 15,
		"Reward": [
			{
				"GoodsType": "GoodsType_Gold",
				"Id": 0,
				"Count": 15000
			}
		]
	},
	{
		"ID": 76,
		"Month": "MonthType_March",
		"Day": 16,
		"Reward": [
			{
				"GoodsType": "GoodsType_Item",
				"Id": 4000,
				"Count": 5
			}
		]
	},
	{
		"ID": 77,
		"Month": "MonthType_March",
		"Day": 17,
		"Reward": [
			{
				"GoodsType": "GoodsType_Item",
				"Id": 4001,
				"Count": 1
			}
		]
	},
	{
		"ID": 78,
		"Month": "MonthType_March",
		"Day": 18,
		"Reward": [
			{
				"GoodsType": "GoodsType_Item",
				"Id": 3004,
				"Count": 5
			}
		]
	},
	{
		"ID": 79,
		"Month": "MonthType_March",
		"Day": 19,
		"Reward": [
			{
				"GoodsType": "GoodsType_Item",
				"Id": 3102,
				"Count": 1
			}
		]
	},
	{
		"ID": 80,
		"Month": "MonthType_March",
		"Day": 20,
		"Reward": [
			{
				"GoodsType": "GoodsType_Equipment",
				"Id": 303,
				"Count": 2
			}
		]
	},
	{
		"ID": 81,
		"Month": "MonthType_March",
		"Day": 21,
		"Reward": [
			{
				"GoodsType": "GoodsType_Crystal",
				"Id": 0,
				"Count": 40
			}
		]
	},
	{
		"ID": 82,
		"Month": "MonthType_March",
		"Day": 22,
		"Reward": [
			{
				"GoodsType": "GoodsType_Gold",
				"Id": 0,
				"Count": 20000
			}
		]
	},
	{
		"ID": 83,
		"Month": "MonthType_March",
		"Day": 23,
		"Reward": [
			{
				"GoodsType": "GoodsType_MithralStone",
				"Id": 0,
				"Count": 300
			}
		]
	},
	{
		"ID": 84,
		"Month": "MonthType_March",
		"Day": 24,
		"Reward": [
			{
				"GoodsType": "GoodsType_Item",
				"Id": 4001,
				"Count": 2
			}
		]
	},
	{
		"ID": 85,
		"Month": "MonthType_March",
		"Day": 25,
		"Reward": [
			{
				"GoodsType": "GoodsType_Item",
				"Id": 3004,
				"Count": 8
			}
		]
	},
	{
		"ID": 86,
		"Month": "MonthType_March",
		"Day": 26,
		"Reward": [
			{
				"GoodsType": "GoodsType_Crystal",
				"Id": 0,
				"Count": 50
			}
		]
	},
	{
		"ID": 87,
		"Month": "MonthType_March",
		"Day": 27,
		"Reward": [
			{
				"GoodsType": "GoodsType_Equipment",
				"Id": 303,
				"Count": 3
			}
		]
	},
	{
		"ID": 88,
		"Month": "MonthType_March",
		"Day": 28,
		"Reward": [
			{
				"GoodsType": "GoodsType_Crystal",
				"Id": 0,
				"Count": 60
			}
		]
	},
	{
		"ID": 89,
		"Month": "MonthType_March",
		"Day": 29,
		"Reward": [
			{
				"GoodsType": "GoodsType_Item",
				"Id": 4001,
				"Count": 2
			}
		]
	},
	{
		"ID": 90,
		"Month": "MonthType_March",
		"Day": 30,
		"Reward": [
			{
				"GoodsType": "GoodsType_Crystal",
				"Id": 0,
				"Count": 80
			}
		]
	},
	{
		"ID": 91,
		"Month": "MonthType_March",
		"Day": 31,
		"Reward": [
			{
				"GoodsType": "GoodsType_MithralStone",
				"Id": 0,
				"Count": 600
			}
		]
	},
	{
		"ID": 92,
		"Month": "MonthType_April",
		"Day": 1,
		"Reward": [
			{
				"GoodsType": "GoodsType_Gold",
				"Id": 0,
				"Count": 5000
			}
		]
	},
	{
		"ID": 93,
		"Month": "MonthType_April",
		"Day": 2,
		"Reward": [
			{
				"GoodsType": "GoodsType_Item",
				"Id": 4000,
				"Count": 2
			}
		]
	},
	{
		"ID": 94,
		"Month": "MonthType_April",
		"Day": 3,
		"Reward": [
			{
				"GoodsType": "GoodsType_Item",
				"Id": 4001,
				"Count": 1
			}
		]
	},
	{
		"ID": 95,
		"Month": "MonthType_April",
		"Day": 4,
		"Reward": [
			{
				"GoodsType": "GoodsType_Item",
				"Id": 3003,
				"Count": 5
			}
		]
	},
	{
		"ID": 96,
		"Month": "MonthType_April",
		"Day": 5,
		"Reward": [
			{
				"GoodsType": "GoodsType_Item",
				"Id": 3101,
				"Count": 1
			}
		]
	},
	{
		"ID": 97,
		"Month": "MonthType_April",
		"Day": 6,
		"Reward": [
			{
				"GoodsType": "GoodsType_Equipment",
				"Id": 301,
				"Count": 5
			}
		]
	},
	{
		"ID": 98,
		"Month": "MonthType_April",
		"Day": 7,
		"Reward": [
			{
				"GoodsType": "GoodsType_Crystal",
				"Id": 0,
				"Count": 20
			}
		]
	},
	{
		"ID": 99,
		"Month": "MonthType_April",
		"Day": 8,
		"Reward": [
			{
				"GoodsType": "GoodsType_Gold",
				"Id": 0,
				"Count": 10000
			}
		]
	},
	{
		"ID": 100,
		"Month": "MonthType_April",
		"Day": 9,
		"Reward": [
			{
				"GoodsType": "GoodsType_Item",
				"Id": 4000,
				"Count": 3
			}
		]
	},
	{
		"ID": 101,
		"Month": "MonthType_April",
		"Day": 10,
		"Reward": [
			{
				"GoodsType": "GoodsType_Item",
				"Id": 4001,
				"Count": 1
			}
		]
	},
	{
		"ID": 102,
		"Month": "MonthType_April",
		"Day": 11,
		"Reward": [
			{
				"GoodsType": "GoodsType_Item",
				"Id": 3003,
				"Count": 15
			}
		]
	},
	{
		"ID": 103,
		"Month": "MonthType_April",
		"Day": 12,
		"Reward": [
			{
				"GoodsType": "GoodsType_Item",
				"Id": 3101,
				"Count": 2
			}
		]
	},
	{
		"ID": 104,
		"Month": "MonthType_April",
		"Day": 13,
		"Reward": [
			{
				"GoodsType": "GoodsType_Equipment",
				"Id": 302,
				"Count": 3
			}
		]
	},
	{
		"ID": 105,
		"Month": "MonthType_April",
		"Day": 14,
		"Reward": [
			{
				"GoodsType": "GoodsType_Crystal",
				"Id": 0,
				"Count": 30
			}
		]
	},
	{
		"ID": 106,
		"Month": "MonthType_April",
		"Day": 15,
		"Reward": [
			{
				"GoodsType": "GoodsType_Gold",
				"Id": 0,
				"Count": 15000
			}
		]
	},
	{
		"ID": 107,
		"Month": "MonthType_April",
		"Day": 16,
		"Reward": [
			{
				"GoodsType": "GoodsType_Item",
				"Id": 4000,
				"Count": 5
			}
		]
	},
	{
		"ID": 108,
		"Month": "MonthType_April",
		"Day": 17,
		"Reward": [
			{
				"GoodsType": "GoodsType_Item",
				"Id": 4001,
				"Count": 1
			}
		]
	},
	{
		"ID": 109,
		"Month": "MonthType_April",
		"Day": 18,
		"Reward": [
			{
				"GoodsType": "GoodsType_Item",
				"Id": 3004,
				"Count": 5
			}
		]
	},
	{
		"ID": 110,
		"Month": "MonthType_April",
		"Day": 19,
		"Reward": [
			{
				"GoodsType": "GoodsType_Item",
				"Id": 3102,
				"Count": 1
			}
		]
	},
	{
		"ID": 111,
		"Month": "MonthType_April",
		"Day": 20,
		"Reward": [
			{
				"GoodsType": "GoodsType_Equipment",
				"Id": 303,
				"Count": 2
			}
		]
	},
	{
		"ID": 112,
		"Month": "MonthType_April",
		"Day": 21,
		"Reward": [
			{
				"GoodsType": "GoodsType_Crystal",
				"Id": 0,
				"Count": 40
			}
		]
	},
	{
		"ID": 113,
		"Month": "MonthType_April",
		"Day": 22,
		"Reward": [
			{
				"GoodsType": "GoodsType_Gold",
				"Id": 0,
				"Count": 20000
			}
		]
	},
	{
		"ID": 114,
		"Month": "MonthType_April",
		"Day": 23,
		"Reward": [
			{
				"GoodsType": "GoodsType_MithralStone",
				"Id": 0,
				"Count": 300
			}
		]
	},
	{
		"ID": 115,
		"Month": "MonthType_April",
		"Day": 24,
		"Reward": [
			{
				"GoodsType": "GoodsType_Item",
				"Id": 4001,
				"Count": 2
			}
		]
	},
	{
		"ID": 116,
		"Month": "MonthType_April",
		"Day": 25,
		"Reward": [
			{
				"GoodsType": "GoodsType_Item",
				"Id": 3004,
				"Count": 8
			}
		]
	},
	{
		"ID": 117,
		"Month": "MonthType_April",
		"Day": 26,
		"Reward": [
			{
				"GoodsType": "GoodsType_Crystal",
				"Id": 0,
				"Count": 50
			}
		]
	},
	{
		"ID": 118,
		"Month": "MonthType_April",
		"Day": 27,
		"Reward": [
			{
				"GoodsType": "GoodsType_Equipment",
				"Id": 303,
				"Count": 3
			}
		]
	},
	{
		"ID": 119,
		"Month": "MonthType_April",
		"Day": 28,
		"Reward": [
			{
				"GoodsType": "GoodsType_Crystal",
				"Id": 0,
				"Count": 60
			}
		]
	},
	{
		"ID": 120,
		"Month": "MonthType_April",
		"Day": 29,
		"Reward": [
			{
				"GoodsType": "GoodsType_Item",
				"Id": 4001,
				"Count": 2
			}
		]
	},
	{
		"ID": 121,
		"Month": "MonthType_April",
		"Day": 30,
		"Reward": [
			{
				"GoodsType": "GoodsType_Crystal",
				"Id": 0,
				"Count": 80
			}
		]
	},
	{
		"ID": 122,
		"Month": "MonthType_May",
		"Day": 1,
		"Reward": [
			{
				"GoodsType": "GoodsType_Gold",
				"Id": 0,
				"Count": 5000
			}
		]
	},
	{
		"ID": 123,
		"Month": "MonthType_May",
		"Day": 2,
		"Reward": [
			{
				"GoodsType": "GoodsType_Item",
				"Id": 4000,
				"Count": 2
			}
		]
	},
	{
		"ID": 124,
		"Month": "MonthType_May",
		"Day": 3,
		"Reward": [
			{
				"GoodsType": "GoodsType_Item",
				"Id": 4001,
				"Count": 1
			}
		]
	},
	{
		"ID": 125,
		"Month": "MonthType_May",
		"Day": 4,
		"Reward": [
			{
				"GoodsType": "GoodsType_Item",
				"Id": 3003,
				"Count": 5
			}
		]
	},
	{
		"ID": 126,
		"Month": "MonthType_May",
		"Day": 5,
		"Reward": [
			{
				"GoodsType": "GoodsType_Item",
				"Id": 3101,
				"Count": 1
			}
		]
	},
	{
		"ID": 127,
		"Month": "MonthType_May",
		"Day": 6,
		"Reward": [
			{
				"GoodsType": "GoodsType_Equipment",
				"Id": 301,
				"Count": 5
			}
		]
	},
	{
		"ID": 128,
		"Month": "MonthType_May",
		"Day": 7,
		"Reward": [
			{
				"GoodsType": "GoodsType_Crystal",
				"Id": 0,
				"Count": 20
			}
		]
	},
	{
		"ID": 129,
		"Month": "MonthType_May",
		"Day": 8,
		"Reward": [
			{
				"GoodsType": "GoodsType_Gold",
				"Id": 0,
				"Count": 10000
			}
		]
	},
	{
		"ID": 130,
		"Month": "MonthType_May",
		"Day": 9,
		"Reward": [
			{
				"GoodsType": "GoodsType_Item",
				"Id": 4000,
				"Count": 3
			}
		]
	},
	{
		"ID": 131,
		"Month": "MonthType_May",
		"Day": 10,
		"Reward": [
			{
				"GoodsType": "GoodsType_Item",
				"Id": 4001,
				"Count": 1
			}
		]
	},
	{
		"ID": 132,
		"Month": "MonthType_May",
		"Day": 11,
		"Reward": [
			{
				"GoodsType": "GoodsType_Item",
				"Id": 3003,
				"Count": 15
			}
		]
	},
	{
		"ID": 133,
		"Month": "MonthType_May",
		"Day": 12,
		"Reward": [
			{
				"GoodsType": "GoodsType_Item",
				"Id": 3101,
				"Count": 2
			}
		]
	},
	{
		"ID": 134,
		"Month": "MonthType_May",
		"Day": 13,
		"Reward": [
			{
				"GoodsType": "GoodsType_Equipment",
				"Id": 302,
				"Count": 3
			}
		]
	},
	{
		"ID": 135,
		"Month": "MonthType_May",
		"Day": 14,
		"Reward": [
			{
				"GoodsType": "GoodsType_Crystal",
				"Id": 0,
				"Count": 30
			}
		]
	},
	{
		"ID": 136,
		"Month": "MonthType_May",
		"Day": 15,
		"Reward": [
			{
				"GoodsType": "GoodsType_Gold",
				"Id": 0,
				"Count": 15000
			}
		]
	},
	{
		"ID": 137,
		"Month": "MonthType_May",
		"Day": 16,
		"Reward": [
			{
				"GoodsType": "GoodsType_Item",
				"Id": 4000,
				"Count": 5
			}
		]
	},
	{
		"ID": 138,
		"Month": "MonthType_May",
		"Day": 17,
		"Reward": [
			{
				"GoodsType": "GoodsType_Item",
				"Id": 4001,
				"Count": 1
			}
		]
	},
	{
		"ID": 139,
		"Month": "MonthType_May",
		"Day": 18,
		"Reward": [
			{
				"GoodsType": "GoodsType_Item",
				"Id": 3004,
				"Count": 5
			}
		]
	},
	{
		"ID": 140,
		"Month": "MonthType_May",
		"Day": 19,
		"Reward": [
			{
				"GoodsType": "GoodsType_Item",
				"Id": 3102,
				"Count": 1
			}
		]
	},
	{
		"ID": 141,
		"Month": "MonthType_May",
		"Day": 20,
		"Reward": [
			{
				"GoodsType": "GoodsType_Equipment",
				"Id": 303,
				"Count": 2
			}
		]
	},
	{
		"ID": 142,
		"Month": "MonthType_May",
		"Day": 21,
		"Reward": [
			{
				"GoodsType": "GoodsType_Crystal",
				"Id": 0,
				"Count": 40
			}
		]
	},
	{
		"ID": 143,
		"Month": "MonthType_May",
		"Day": 22,
		"Reward": [
			{
				"GoodsType": "GoodsType_Gold",
				"Id": 0,
				"Count": 20000
			}
		]
	},
	{
		"ID": 144,
		"Month": "MonthType_May",
		"Day": 23,
		"Reward": [
			{
				"GoodsType": "GoodsType_MithralStone",
				"Id": 0,
				"Count": 300
			}
		]
	},
	{
		"ID": 145,
		"Month": "MonthType_May",
		"Day": 24,
		"Reward": [
			{
				"GoodsType": "GoodsType_Item",
				"Id": 4001,
				"Count": 2
			}
		]
	},
	{
		"ID": 146,
		"Month": "MonthType_May",
		"Day": 25,
		"Reward": [
			{
				"GoodsType": "GoodsType_Item",
				"Id": 3004,
				"Count": 8
			}
		]
	},
	{
		"ID": 147,
		"Month": "MonthType_May",
		"Day": 26,
		"Reward": [
			{
				"GoodsType": "GoodsType_Crystal",
				"Id": 0,
				"Count": 50
			}
		]
	},
	{
		"ID": 148,
		"Month": "MonthType_May",
		"Day": 27,
		"Reward": [
			{
				"GoodsType": "GoodsType_Equipment",
				"Id": 303,
				"Count": 3
			}
		]
	},
	{
		"ID": 149,
		"Month": "MonthType_May",
		"Day": 28,
		"Reward": [
			{
				"GoodsType": "GoodsType_Crystal",
				"Id": 0,
				"Count": 60
			}
		]
	},
	{
		"ID": 150,
		"Month": "MonthType_May",
		"Day": 29,
		"Reward": [
			{
				"GoodsType": "GoodsType_Item",
				"Id": 4001,
				"Count": 2
			}
		]
	},
	{
		"ID": 151,
		"Month": "MonthType_May",
		"Day": 30,
		"Reward": [
			{
				"GoodsType": "GoodsType_Crystal",
				"Id": 0,
				"Count": 80
			}
		]
	},
	{
		"ID": 152,
		"Month": "MonthType_May",
		"Day": 31,
		"Reward": [
			{
				"GoodsType": "GoodsType_MithralStone",
				"Id": 0,
				"Count": 600
			}
		]
	},
	{
		"ID": 153,
		"Month": "MonthType_June",
		"Day": 1,
		"Reward": [
			{
				"GoodsType": "GoodsType_Gold",
				"Id": 0,
				"Count": 5000
			}
		]
	},
	{
		"ID": 154,
		"Month": "MonthType_June",
		"Day": 2,
		"Reward": [
			{
				"GoodsType": "GoodsType_Item",
				"Id": 4000,
				"Count": 2
			}
		]
	},
	{
		"ID": 155,
		"Month": "MonthType_June",
		"Day": 3,
		"Reward": [
			{
				"GoodsType": "GoodsType_Item",
				"Id": 4001,
				"Count": 1
			}
		]
	},
	{
		"ID": 156,
		"Month": "MonthType_June",
		"Day": 4,
		"Reward": [
			{
				"GoodsType": "GoodsType_Item",
				"Id": 3003,
				"Count": 5
			}
		]
	},
	{
		"ID": 157,
		"Month": "MonthType_June",
		"Day": 5,
		"Reward": [
			{
				"GoodsType": "GoodsType_Item",
				"Id": 3101,
				"Count": 1
			}
		]
	},
	{
		"ID": 158,
		"Month": "MonthType_June",
		"Day": 6,
		"Reward": [
			{
				"GoodsType": "GoodsType_Equipment",
				"Id": 301,
				"Count": 5
			}
		]
	},
	{
		"ID": 159,
		"Month": "MonthType_June",
		"Day": 7,
		"Reward": [
			{
				"GoodsType": "GoodsType_Crystal",
				"Id": 0,
				"Count": 20
			}
		]
	},
	{
		"ID": 160,
		"Month": "MonthType_June",
		"Day": 8,
		"Reward": [
			{
				"GoodsType": "GoodsType_Gold",
				"Id": 0,
				"Count": 10000
			}
		]
	},
	{
		"ID": 161,
		"Month": "MonthType_June",
		"Day": 9,
		"Reward": [
			{
				"GoodsType": "GoodsType_Item",
				"Id": 4000,
				"Count": 3
			}
		]
	},
	{
		"ID": 162,
		"Month": "MonthType_June",
		"Day": 10,
		"Reward": [
			{
				"GoodsType": "GoodsType_Item",
				"Id": 4001,
				"Count": 1
			}
		]
	},
	{
		"ID": 163,
		"Month": "MonthType_June",
		"Day": 11,
		"Reward": [
			{
				"GoodsType": "GoodsType_Item",
				"Id": 3003,
				"Count": 15
			}
		]
	},
	{
		"ID": 164,
		"Month": "MonthType_June",
		"Day": 12,
		"Reward": [
			{
				"GoodsType": "GoodsType_Item",
				"Id": 3101,
				"Count": 2
			}
		]
	},
	{
		"ID": 165,
		"Month": "MonthType_June",
		"Day": 13,
		"Reward": [
			{
				"GoodsType": "GoodsType_Equipment",
				"Id": 302,
				"Count": 3
			}
		]
	},
	{
		"ID": 166,
		"Month": "MonthType_June",
		"Day": 14,
		"Reward": [
			{
				"GoodsType": "GoodsType_Crystal",
				"Id": 0,
				"Count": 30
			}
		]
	},
	{
		"ID": 167,
		"Month": "MonthType_June",
		"Day": 15,
		"Reward": [
			{
				"GoodsType": "GoodsType_Gold",
				"Id": 0,
				"Count": 15000
			}
		]
	},
	{
		"ID": 168,
		"Month": "MonthType_June",
		"Day": 16,
		"Reward": [
			{
				"GoodsType": "GoodsType_Item",
				"Id": 4000,
				"Count": 5
			}
		]
	},
	{
		"ID": 169,
		"Month": "MonthType_June",
		"Day": 17,
		"Reward": [
			{
				"GoodsType": "GoodsType_Item",
				"Id": 4001,
				"Count": 1
			}
		]
	},
	{
		"ID": 170,
		"Month": "MonthType_June",
		"Day": 18,
		"Reward": [
			{
				"GoodsType": "GoodsType_Item",
				"Id": 3004,
				"Count": 5
			}
		]
	},
	{
		"ID": 171,
		"Month": "MonthType_June",
		"Day": 19,
		"Reward": [
			{
				"GoodsType": "GoodsType_Item",
				"Id": 3102,
				"Count": 1
			}
		]
	},
	{
		"ID": 172,
		"Month": "MonthType_June",
		"Day": 20,
		"Reward": [
			{
				"GoodsType": "GoodsType_Equipment",
				"Id": 303,
				"Count": 2
			}
		]
	},
	{
		"ID": 173,
		"Month": "MonthType_June",
		"Day": 21,
		"Reward": [
			{
				"GoodsType": "GoodsType_Crystal",
				"Id": 0,
				"Count": 40
			}
		]
	},
	{
		"ID": 174,
		"Month": "MonthType_June",
		"Day": 22,
		"Reward": [
			{
				"GoodsType": "GoodsType_Gold",
				"Id": 0,
				"Count": 20000
			}
		]
	},
	{
		"ID": 175,
		"Month": "MonthType_June",
		"Day": 23,
		"Reward": [
			{
				"GoodsType": "GoodsType_MithralStone",
				"Id": 0,
				"Count": 300
			}
		]
	},
	{
		"ID": 176,
		"Month": "MonthType_June",
		"Day": 24,
		"Reward": [
			{
				"GoodsType": "GoodsType_Item",
				"Id": 4001,
				"Count": 2
			}
		]
	},
	{
		"ID": 177,
		"Month": "MonthType_June",
		"Day": 25,
		"Reward": [
			{
				"GoodsType": "GoodsType_Item",
				"Id": 3004,
				"Count": 8
			}
		]
	},
	{
		"ID": 178,
		"Month": "MonthType_June",
		"Day": 26,
		"Reward": [
			{
				"GoodsType": "GoodsType_Crystal",
				"Id": 0,
				"Count": 50
			}
		]
	},
	{
		"ID": 179,
		"Month": "MonthType_June",
		"Day": 27,
		"Reward": [
			{
				"GoodsType": "GoodsType_Equipment",
				"Id": 303,
				"Count": 3
			}
		]
	},
	{
		"ID": 180,
		"Month": "MonthType_June",
		"Day": 28,
		"Reward": [
			{
				"GoodsType": "GoodsType_Crystal",
				"Id": 0,
				"Count": 60
			}
		]
	},
	{
		"ID": 181,
		"Month": "MonthType_June",
		"Day": 29,
		"Reward": [
			{
				"GoodsType": "GoodsType_Item",
				"Id": 4001,
				"Count": 2
			}
		]
	},
	{
		"ID": 182,
		"Month": "MonthType_June",
		"Day": 30,
		"Reward": [
			{
				"GoodsType": "GoodsType_Crystal",
				"Id": 0,
				"Count": 80
			}
		]
	},
	{
		"ID": 183,
		"Month": "MonthType_July",
		"Day": 1,
		"Reward": [
			{
				"GoodsType": "GoodsType_Gold",
				"Id": 0,
				"Count": 5000
			}
		]
	},
	{
		"ID": 184,
		"Month": "MonthType_July",
		"Day": 2,
		"Reward": [
			{
				"GoodsType": "GoodsType_Item",
				"Id": 4000,
				"Count": 2
			}
		]
	},
	{
		"ID": 185,
		"Month": "MonthType_July",
		"Day": 3,
		"Reward": [
			{
				"GoodsType": "GoodsType_Item",
				"Id": 4001,
				"Count": 1
			}
		]
	},
	{
		"ID": 186,
		"Month": "MonthType_July",
		"Day": 4,
		"Reward": [
			{
				"GoodsType": "GoodsType_Item",
				"Id": 3003,
				"Count": 5
			}
		]
	},
	{
		"ID": 187,
		"Month": "MonthType_July",
		"Day": 5,
		"Reward": [
			{
				"GoodsType": "GoodsType_Item",
				"Id": 3101,
				"Count": 1
			}
		]
	},
	{
		"ID": 188,
		"Month": "MonthType_July",
		"Day": 6,
		"Reward": [
			{
				"GoodsType": "GoodsType_Equipment",
				"Id": 301,
				"Count": 5
			}
		]
	},
	{
		"ID": 189,
		"Month": "MonthType_July",
		"Day": 7,
		"Reward": [
			{
				"GoodsType": "GoodsType_Crystal",
				"Id": 0,
				"Count": 20
			}
		]
	},
	{
		"ID": 190,
		"Month": "MonthType_July",
		"Day": 8,
		"Reward": [
			{
				"GoodsType": "GoodsType_Gold",
				"Id": 0,
				"Count": 10000
			}
		]
	},
	{
		"ID": 191,
		"Month": "MonthType_July",
		"Day": 9,
		"Reward": [
			{
				"GoodsType": "GoodsType_Item",
				"Id": 4000,
				"Count": 3
			}
		]
	},
	{
		"ID": 192,
		"Month": "MonthType_July",
		"Day": 10,
		"Reward": [
			{
				"GoodsType": "GoodsType_Item",
				"Id": 4001,
				"Count": 1
			}
		]
	},
	{
		"ID": 193,
		"Month": "MonthType_July",
		"Day": 11,
		"Reward": [
			{
				"GoodsType": "GoodsType_Item",
				"Id": 3003,
				"Count": 15
			}
		]
	},
	{
		"ID": 194,
		"Month": "MonthType_July",
		"Day": 12,
		"Reward": [
			{
				"GoodsType": "GoodsType_Item",
				"Id": 3101,
				"Count": 2
			}
		]
	},
	{
		"ID": 195,
		"Month": "MonthType_July",
		"Day": 13,
		"Reward": [
			{
				"GoodsType": "GoodsType_Equipment",
				"Id": 302,
				"Count": 3
			}
		]
	},
	{
		"ID": 196,
		"Month": "MonthType_July",
		"Day": 14,
		"Reward": [
			{
				"GoodsType": "GoodsType_Crystal",
				"Id": 0,
				"Count": 30
			}
		]
	},
	{
		"ID": 197,
		"Month": "MonthType_July",
		"Day": 15,
		"Reward": [
			{
				"GoodsType": "GoodsType_Gold",
				"Id": 0,
				"Count": 15000
			}
		]
	},
	{
		"ID": 198,
		"Month": "MonthType_July",
		"Day": 16,
		"Reward": [
			{
				"GoodsType": "GoodsType_Item",
				"Id": 4000,
				"Count": 5
			}
		]
	},
	{
		"ID": 199,
		"Month": "MonthType_July",
		"Day": 17,
		"Reward": [
			{
				"GoodsType": "GoodsType_Item",
				"Id": 4001,
				"Count": 1
			}
		]
	},
	{
		"ID": 200,
		"Month": "MonthType_July",
		"Day": 18,
		"Reward": [
			{
				"GoodsType": "GoodsType_Item",
				"Id": 3004,
				"Count": 5
			}
		]
	},
	{
		"ID": 201,
		"Month": "MonthType_July",
		"Day": 19,
		"Reward": [
			{
				"GoodsType": "GoodsType_Item",
				"Id": 3102,
				"Count": 1
			}
		]
	},
	{
		"ID": 202,
		"Month": "MonthType_July",
		"Day": 20,
		"Reward": [
			{
				"GoodsType": "GoodsType_Equipment",
				"Id": 303,
				"Count": 2
			}
		]
	},
	{
		"ID": 203,
		"Month": "MonthType_July",
		"Day": 21,
		"Reward": [
			{
				"GoodsType": "GoodsType_Crystal",
				"Id": 0,
				"Count": 40
			}
		]
	},
	{
		"ID": 204,
		"Month": "MonthType_July",
		"Day": 22,
		"Reward": [
			{
				"GoodsType": "GoodsType_Gold",
				"Id": 0,
				"Count": 20000
			}
		]
	},
	{
		"ID": 205,
		"Month": "MonthType_July",
		"Day": 23,
		"Reward": [
			{
				"GoodsType": "GoodsType_MithralStone",
				"Id": 0,
				"Count": 300
			}
		]
	},
	{
		"ID": 206,
		"Month": "MonthType_July",
		"Day": 24,
		"Reward": [
			{
				"GoodsType": "GoodsType_Item",
				"Id": 4001,
				"Count": 2
			}
		]
	},
	{
		"ID": 207,
		"Month": "MonthType_July",
		"Day": 25,
		"Reward": [
			{
				"GoodsType": "GoodsType_Item",
				"Id": 3004,
				"Count": 8
			}
		]
	},
	{
		"ID": 208,
		"Month": "MonthType_July",
		"Day": 26,
		"Reward": [
			{
				"GoodsType": "GoodsType_Crystal",
				"Id": 0,
				"Count": 50
			}
		]
	},
	{
		"ID": 209,
		"Month": "MonthType_July",
		"Day": 27,
		"Reward": [
			{
				"GoodsType": "GoodsType_Equipment",
				"Id": 303,
				"Count": 3
			}
		]
	},
	{
		"ID": 210,
		"Month": "MonthType_July",
		"Day": 28,
		"Reward": [
			{
				"GoodsType": "GoodsType_Crystal",
				"Id": 0,
				"Count": 60
			}
		]
	},
	{
		"ID": 211,
		"Month": "MonthType_July",
		"Day": 29,
		"Reward": [
			{
				"GoodsType": "GoodsType_Item",
				"Id": 4001,
				"Count": 2
			}
		]
	},
	{
		"ID": 212,
		"Month": "MonthType_July",
		"Day": 30,
		"Reward": [
			{
				"GoodsType": "GoodsType_Crystal",
				"Id": 0,
				"Count": 80
			}
		]
	},
	{
		"ID": 213,
		"Month": "MonthType_July",
		"Day": 31,
		"Reward": [
			{
				"GoodsType": "GoodsType_MithralStone",
				"Id": 0,
				"Count": 600
			}
		]
	},
	{
		"ID": 214,
		"Month": "MonthType_August",
		"Day": 1,
		"Reward": [
			{
				"GoodsType": "GoodsType_Gold",
				"Id": 0,
				"Count": 5000
			}
		]
	},
	{
		"ID": 215,
		"Month": "MonthType_August",
		"Day": 2,
		"Reward": [
			{
				"GoodsType": "GoodsType_Item",
				"Id": 4000,
				"Count": 2
			}
		]
	},
	{
		"ID": 216,
		"Month": "MonthType_August",
		"Day": 3,
		"Reward": [
			{
				"GoodsType": "GoodsType_Item",
				"Id": 4001,
				"Count": 1
			}
		]
	},
	{
		"ID": 217,
		"Month": "MonthType_August",
		"Day": 4,
		"Reward": [
			{
				"GoodsType": "GoodsType_Item",
				"Id": 3003,
				"Count": 5
			}
		]
	},
	{
		"ID": 218,
		"Month": "MonthType_August",
		"Day": 5,
		"Reward": [
			{
				"GoodsType": "GoodsType_Item",
				"Id": 3101,
				"Count": 1
			}
		]
	},
	{
		"ID": 219,
		"Month": "MonthType_August",
		"Day": 6,
		"Reward": [
			{
				"GoodsType": "GoodsType_Equipment",
				"Id": 301,
				"Count": 5
			}
		]
	},
	{
		"ID": 220,
		"Month": "MonthType_August",
		"Day": 7,
		"Reward": [
			{
				"GoodsType": "GoodsType_Crystal",
				"Id": 0,
				"Count": 20
			}
		]
	},
	{
		"ID": 221,
		"Month": "MonthType_August",
		"Day": 8,
		"Reward": [
			{
				"GoodsType": "GoodsType_Gold",
				"Id": 0,
				"Count": 10000
			}
		]
	},
	{
		"ID": 222,
		"Month": "MonthType_August",
		"Day": 9,
		"Reward": [
			{
				"GoodsType": "GoodsType_Item",
				"Id": 4000,
				"Count": 3
			}
		]
	},
	{
		"ID": 223,
		"Month": "MonthType_August",
		"Day": 10,
		"Reward": [
			{
				"GoodsType": "GoodsType_Item",
				"Id": 4001,
				"Count": 1
			}
		]
	},
	{
		"ID": 224,
		"Month": "MonthType_August",
		"Day": 11,
		"Reward": [
			{
				"GoodsType": "GoodsType_Item",
				"Id": 3003,
				"Count": 15
			}
		]
	},
	{
		"ID": 225,
		"Month": "MonthType_August",
		"Day": 12,
		"Reward": [
			{
				"GoodsType": "GoodsType_Item",
				"Id": 3101,
				"Count": 2
			}
		]
	},
	{
		"ID": 226,
		"Month": "MonthType_August",
		"Day": 13,
		"Reward": [
			{
				"GoodsType": "GoodsType_Equipment",
				"Id": 302,
				"Count": 3
			}
		]
	},
	{
		"ID": 227,
		"Month": "MonthType_August",
		"Day": 14,
		"Reward": [
			{
				"GoodsType": "GoodsType_Crystal",
				"Id": 0,
				"Count": 30
			}
		]
	},
	{
		"ID": 228,
		"Month": "MonthType_August",
		"Day": 15,
		"Reward": [
			{
				"GoodsType": "GoodsType_Gold",
				"Id": 0,
				"Count": 15000
			}
		]
	},
	{
		"ID": 229,
		"Month": "MonthType_August",
		"Day": 16,
		"Reward": [
			{
				"GoodsType": "GoodsType_Item",
				"Id": 4000,
				"Count": 5
			}
		]
	},
	{
		"ID": 230,
		"Month": "MonthType_August",
		"Day": 17,
		"Reward": [
			{
				"GoodsType": "GoodsType_Item",
				"Id": 4001,
				"Count": 1
			}
		]
	},
	{
		"ID": 231,
		"Month": "MonthType_August",
		"Day": 18,
		"Reward": [
			{
				"GoodsType": "GoodsType_Item",
				"Id": 3004,
				"Count": 5
			}
		]
	},
	{
		"ID": 232,
		"Month": "MonthType_August",
		"Day": 19,
		"Reward": [
			{
				"GoodsType": "GoodsType_Item",
				"Id": 3102,
				"Count": 1
			}
		]
	},
	{
		"ID": 233,
		"Month": "MonthType_August",
		"Day": 20,
		"Reward": [
			{
				"GoodsType": "GoodsType_Equipment",
				"Id": 303,
				"Count": 2
			}
		]
	},
	{
		"ID": 234,
		"Month": "MonthType_August",
		"Day": 21,
		"Reward": [
			{
				"GoodsType": "GoodsType_Crystal",
				"Id": 0,
				"Count": 40
			}
		]
	},
	{
		"ID": 235,
		"Month": "MonthType_August",
		"Day": 22,
		"Reward": [
			{
				"GoodsType": "GoodsType_Gold",
				"Id": 0,
				"Count": 20000
			}
		]
	},
	{
		"ID": 236,
		"Month": "MonthType_August",
		"Day": 23,
		"Reward": [
			{
				"GoodsType": "GoodsType_MithralStone",
				"Id": 0,
				"Count": 300
			}
		]
	},
	{
		"ID": 237,
		"Month": "MonthType_August",
		"Day": 24,
		"Reward": [
			{
				"GoodsType": "GoodsType_Item",
				"Id": 4001,
				"Count": 2
			}
		]
	},
	{
		"ID": 238,
		"Month": "MonthType_August",
		"Day": 25,
		"Reward": [
			{
				"GoodsType": "GoodsType_Item",
				"Id": 3004,
				"Count": 8
			}
		]
	},
	{
		"ID": 239,
		"Month": "MonthType_August",
		"Day": 26,
		"Reward": [
			{
				"GoodsType": "GoodsType_Crystal",
				"Id": 0,
				"Count": 50
			}
		]
	},
	{
		"ID": 240,
		"Month": "MonthType_August",
		"Day": 27,
		"Reward": [
			{
				"GoodsType": "GoodsType_Equipment",
				"Id": 303,
				"Count": 3
			}
		]
	},
	{
		"ID": 241,
		"Month": "MonthType_August",
		"Day": 28,
		"Reward": [
			{
				"GoodsType": "GoodsType_Crystal",
				"Id": 0,
				"Count": 60
			}
		]
	},
	{
		"ID": 242,
		"Month": "MonthType_August",
		"Day": 29,
		"Reward": [
			{
				"GoodsType": "GoodsType_Item",
				"Id": 4001,
				"Count": 2
			}
		]
	},
	{
		"ID": 243,
		"Month": "MonthType_August",
		"Day": 30,
		"Reward": [
			{
				"GoodsType": "GoodsType_Crystal",
				"Id": 0,
				"Count": 80
			}
		]
	},
	{
		"ID": 244,
		"Month": "MonthType_August",
		"Day": 31,
		"Reward": [
			{
				"GoodsType": "GoodsType_MithralStone",
				"Id": 0,
				"Count": 600
			}
		]
	},
	{
		"ID": 245,
		"Month": "MonthType_September",
		"Day": 1,
		"Reward": [
			{
				"GoodsType": "GoodsType_Gold",
				"Id": 0,
				"Count": 5000
			}
		]
	},
	{
		"ID": 246,
		"Month": "MonthType_September",
		"Day": 2,
		"Reward": [
			{
				"GoodsType": "GoodsType_Item",
				"Id": 4000,
				"Count": 2
			}
		]
	},
	{
		"ID": 247,
		"Month": "MonthType_September",
		"Day": 3,
		"Reward": [
			{
				"GoodsType": "GoodsType_Item",
				"Id": 4001,
				"Count": 1
			}
		]
	},
	{
		"ID": 248,
		"Month": "MonthType_September",
		"Day": 4,
		"Reward": [
			{
				"GoodsType": "GoodsType_Item",
				"Id": 3003,
				"Count": 5
			}
		]
	},
	{
		"ID": 249,
		"Month": "MonthType_September",
		"Day": 5,
		"Reward": [
			{
				"GoodsType": "GoodsType_Item",
				"Id": 3101,
				"Count": 1
			}
		]
	},
	{
		"ID": 250,
		"Month": "MonthType_September",
		"Day": 6,
		"Reward": [
			{
				"GoodsType": "GoodsType_Equipment",
				"Id": 301,
				"Count": 5
			}
		]
	},
	{
		"ID": 251,
		"Month": "MonthType_September",
		"Day": 7,
		"Reward": [
			{
				"GoodsType": "GoodsType_Crystal",
				"Id": 0,
				"Count": 20
			}
		]
	},
	{
		"ID": 252,
		"Month": "MonthType_September",
		"Day": 8,
		"Reward": [
			{
				"GoodsType": "GoodsType_Gold",
				"Id": 0,
				"Count": 10000
			}
		]
	},
	{
		"ID": 253,
		"Month": "MonthType_September",
		"Day": 9,
		"Reward": [
			{
				"GoodsType": "GoodsType_Item",
				"Id": 4000,
				"Count": 3
			}
		]
	},
	{
		"ID": 254,
		"Month": "MonthType_September",
		"Day": 10,
		"Reward": [
			{
				"GoodsType": "GoodsType_Item",
				"Id": 4001,
				"Count": 1
			}
		]
	},
	{
		"ID": 255,
		"Month": "MonthType_September",
		"Day": 11,
		"Reward": [
			{
				"GoodsType": "GoodsType_Item",
				"Id": 3003,
				"Count": 15
			}
		]
	},
	{
		"ID": 256,
		"Month": "MonthType_September",
		"Day": 12,
		"Reward": [
			{
				"GoodsType": "GoodsType_Item",
				"Id": 3101,
				"Count": 2
			}
		]
	},
	{
		"ID": 257,
		"Month": "MonthType_September",
		"Day": 13,
		"Reward": [
			{
				"GoodsType": "GoodsType_Equipment",
				"Id": 302,
				"Count": 3
			}
		]
	},
	{
		"ID": 258,
		"Month": "MonthType_September",
		"Day": 14,
		"Reward": [
			{
				"GoodsType": "GoodsType_Crystal",
				"Id": 0,
				"Count": 30
			}
		]
	},
	{
		"ID": 259,
		"Month": "MonthType_September",
		"Day": 15,
		"Reward": [
			{
				"GoodsType": "GoodsType_Gold",
				"Id": 0,
				"Count": 15000
			}
		]
	},
	{
		"ID": 260,
		"Month": "MonthType_September",
		"Day": 16,
		"Reward": [
			{
				"GoodsType": "GoodsType_Item",
				"Id": 4000,
				"Count": 5
			}
		]
	},
	{
		"ID": 261,
		"Month": "MonthType_September",
		"Day": 17,
		"Reward": [
			{
				"GoodsType": "GoodsType_Item",
				"Id": 4001,
				"Count": 1
			}
		]
	},
	{
		"ID": 262,
		"Month": "MonthType_September",
		"Day": 18,
		"Reward": [
			{
				"GoodsType": "GoodsType_Item",
				"Id": 3004,
				"Count": 5
			}
		]
	},
	{
		"ID": 263,
		"Month": "MonthType_September",
		"Day": 19,
		"Reward": [
			{
				"GoodsType": "GoodsType_Item",
				"Id": 3102,
				"Count": 1
			}
		]
	},
	{
		"ID": 264,
		"Month": "MonthType_September",
		"Day": 20,
		"Reward": [
			{
				"GoodsType": "GoodsType_Equipment",
				"Id": 303,
				"Count": 2
			}
		]
	},
	{
		"ID": 265,
		"Month": "MonthType_September",
		"Day": 21,
		"Reward": [
			{
				"GoodsType": "GoodsType_Crystal",
				"Id": 0,
				"Count": 40
			}
		]
	},
	{
		"ID": 266,
		"Month": "MonthType_September",
		"Day": 22,
		"Reward": [
			{
				"GoodsType": "GoodsType_Gold",
				"Id": 0,
				"Count": 20000
			}
		]
	},
	{
		"ID": 267,
		"Month": "MonthType_September",
		"Day": 23,
		"Reward": [
			{
				"GoodsType": "GoodsType_MithralStone",
				"Id": 0,
				"Count": 300
			}
		]
	},
	{
		"ID": 268,
		"Month": "MonthType_September",
		"Day": 24,
		"Reward": [
			{
				"GoodsType": "GoodsType_Item",
				"Id": 4001,
				"Count": 2
			}
		]
	},
	{
		"ID": 269,
		"Month": "MonthType_September",
		"Day": 25,
		"Reward": [
			{
				"GoodsType": "GoodsType_Item",
				"Id": 3004,
				"Count": 8
			}
		]
	},
	{
		"ID": 270,
		"Month": "MonthType_September",
		"Day": 26,
		"Reward": [
			{
				"GoodsType": "GoodsType_Crystal",
				"Id": 0,
				"Count": 50
			}
		]
	},
	{
		"ID": 271,
		"Month": "MonthType_September",
		"Day": 27,
		"Reward": [
			{
				"GoodsType": "GoodsType_Equipment",
				"Id": 303,
				"Count": 3
			}
		]
	},
	{
		"ID": 272,
		"Month": "MonthType_September",
		"Day": 28,
		"Reward": [
			{
				"GoodsType": "GoodsType_Crystal",
				"Id": 0,
				"Count": 60
			}
		]
	},
	{
		"ID": 273,
		"Month": "MonthType_September",
		"Day": 29,
		"Reward": [
			{
				"GoodsType": "GoodsType_Item",
				"Id": 4001,
				"Count": 2
			}
		]
	},
	{
		"ID": 274,
		"Month": "MonthType_September",
		"Day": 30,
		"Reward": [
			{
				"GoodsType": "GoodsType_Crystal",
				"Id": 0,
				"Count": 80
			}
		]
	},
	{
		"ID": 275,
		"Month": "MonthType_October",
		"Day": 1,
		"Reward": [
			{
				"GoodsType": "GoodsType_Gold",
				"Id": 0,
				"Count": 5000
			}
		]
	},
	{
		"ID": 276,
		"Month": "MonthType_October",
		"Day": 2,
		"Reward": [
			{
				"GoodsType": "GoodsType_Item",
				"Id": 4000,
				"Count": 2
			}
		]
	},
	{
		"ID": 277,
		"Month": "MonthType_October",
		"Day": 3,
		"Reward": [
			{
				"GoodsType": "GoodsType_Item",
				"Id": 4001,
				"Count": 1
			}
		]
	},
	{
		"ID": 278,
		"Month": "MonthType_October",
		"Day": 4,
		"Reward": [
			{
				"GoodsType": "GoodsType_Item",
				"Id": 3003,
				"Count": 5
			}
		]
	},
	{
		"ID": 279,
		"Month": "MonthType_October",
		"Day": 5,
		"Reward": [
			{
				"GoodsType": "GoodsType_Item",
				"Id": 3101,
				"Count": 1
			}
		]
	},
	{
		"ID": 280,
		"Month": "MonthType_October",
		"Day": 6,
		"Reward": [
			{
				"GoodsType": "GoodsType_Equipment",
				"Id": 301,
				"Count": 5
			}
		]
	},
	{
		"ID": 281,
		"Month": "MonthType_October",
		"Day": 7,
		"Reward": [
			{
				"GoodsType": "GoodsType_Crystal",
				"Id": 0,
				"Count": 20
			}
		]
	},
	{
		"ID": 282,
		"Month": "MonthType_October",
		"Day": 8,
		"Reward": [
			{
				"GoodsType": "GoodsType_Gold",
				"Id": 0,
				"Count": 10000
			}
		]
	},
	{
		"ID": 283,
		"Month": "MonthType_October",
		"Day": 9,
		"Reward": [
			{
				"GoodsType": "GoodsType_Item",
				"Id": 4000,
				"Count": 3
			}
		]
	},
	{
		"ID": 284,
		"Month": "MonthType_October",
		"Day": 10,
		"Reward": [
			{
				"GoodsType": "GoodsType_Item",
				"Id": 4001,
				"Count": 1
			}
		]
	},
	{
		"ID": 285,
		"Month": "MonthType_October",
		"Day": 11,
		"Reward": [
			{
				"GoodsType": "GoodsType_Item",
				"Id": 3003,
				"Count": 15
			}
		]
	},
	{
		"ID": 286,
		"Month": "MonthType_October",
		"Day": 12,
		"Reward": [
			{
				"GoodsType": "GoodsType_Item",
				"Id": 3101,
				"Count": 2
			}
		]
	},
	{
		"ID": 287,
		"Month": "MonthType_October",
		"Day": 13,
		"Reward": [
			{
				"GoodsType": "GoodsType_Equipment",
				"Id": 302,
				"Count": 3
			}
		]
	},
	{
		"ID": 288,
		"Month": "MonthType_October",
		"Day": 14,
		"Reward": [
			{
				"GoodsType": "GoodsType_Crystal",
				"Id": 0,
				"Count": 30
			}
		]
	},
	{
		"ID": 289,
		"Month": "MonthType_October",
		"Day": 15,
		"Reward": [
			{
				"GoodsType": "GoodsType_Gold",
				"Id": 0,
				"Count": 15000
			}
		]
	},
	{
		"ID": 290,
		"Month": "MonthType_October",
		"Day": 16,
		"Reward": [
			{
				"GoodsType": "GoodsType_Item",
				"Id": 4000,
				"Count": 5
			}
		]
	},
	{
		"ID": 291,
		"Month": "MonthType_October",
		"Day": 17,
		"Reward": [
			{
				"GoodsType": "GoodsType_Item",
				"Id": 4001,
				"Count": 1
			}
		]
	},
	{
		"ID": 292,
		"Month": "MonthType_October",
		"Day": 18,
		"Reward": [
			{
				"GoodsType": "GoodsType_Item",
				"Id": 3004,
				"Count": 5
			}
		]
	},
	{
		"ID": 293,
		"Month": "MonthType_October",
		"Day": 19,
		"Reward": [
			{
				"GoodsType": "GoodsType_Item",
				"Id": 3102,
				"Count": 1
			}
		]
	},
	{
		"ID": 294,
		"Month": "MonthType_October",
		"Day": 20,
		"Reward": [
			{
				"GoodsType": "GoodsType_Equipment",
				"Id": 303,
				"Count": 2
			}
		]
	},
	{
		"ID": 295,
		"Month": "MonthType_October",
		"Day": 21,
		"Reward": [
			{
				"GoodsType": "GoodsType_Crystal",
				"Id": 0,
				"Count": 40
			}
		]
	},
	{
		"ID": 296,
		"Month": "MonthType_October",
		"Day": 22,
		"Reward": [
			{
				"GoodsType": "GoodsType_Gold",
				"Id": 0,
				"Count": 20000
			}
		]
	},
	{
		"ID": 297,
		"Month": "MonthType_October",
		"Day": 23,
		"Reward": [
			{
				"GoodsType": "GoodsType_MithralStone",
				"Id": 0,
				"Count": 300
			}
		]
	},
	{
		"ID": 298,
		"Month": "MonthType_October",
		"Day": 24,
		"Reward": [
			{
				"GoodsType": "GoodsType_Item",
				"Id": 4001,
				"Count": 2
			}
		]
	},
	{
		"ID": 299,
		"Month": "MonthType_October",
		"Day": 25,
		"Reward": [
			{
				"GoodsType": "GoodsType_Item",
				"Id": 3004,
				"Count": 8
			}
		]
	},
	{
		"ID": 300,
		"Month": "MonthType_October",
		"Day": 26,
		"Reward": [
			{
				"GoodsType": "GoodsType_Crystal",
				"Id": 0,
				"Count": 50
			}
		]
	},
	{
		"ID": 301,
		"Month": "MonthType_October",
		"Day": 27,
		"Reward": [
			{
				"GoodsType": "GoodsType_Equipment",
				"Id": 303,
				"Count": 3
			}
		]
	},
	{
		"ID": 302,
		"Month": "MonthType_October",
		"Day": 28,
		"Reward": [
			{
				"GoodsType": "GoodsType_Crystal",
				"Id": 0,
				"Count": 60
			}
		]
	},
	{
		"ID": 303,
		"Month": "MonthType_October",
		"Day": 29,
		"Reward": [
			{
				"GoodsType": "GoodsType_Item",
				"Id": 4001,
				"Count": 2
			}
		]
	},
	{
		"ID": 304,
		"Month": "MonthType_October",
		"Day": 30,
		"Reward": [
			{
				"GoodsType": "GoodsType_Crystal",
				"Id": 0,
				"Count": 80
			}
		]
	},
	{
		"ID": 305,
		"Month": "MonthType_October",
		"Day": 31,
		"Reward": [
			{
				"GoodsType": "GoodsType_MithralStone",
				"Id": 0,
				"Count": 600
			}
		]
	},
	{
		"ID": 306,
		"Month": "MonthType_November",
		"Day": 1,
		"Reward": [
			{
				"GoodsType": "GoodsType_Gold",
				"Id": 0,
				"Count": 5000
			}
		]
	},
	{
		"ID": 307,
		"Month": "MonthType_November",
		"Day": 2,
		"Reward": [
			{
				"GoodsType": "GoodsType_Item",
				"Id": 4000,
				"Count": 2
			}
		]
	},
	{
		"ID": 308,
		"Month": "MonthType_November",
		"Day": 3,
		"Reward": [
			{
				"GoodsType": "GoodsType_Item",
				"Id": 4001,
				"Count": 1
			}
		]
	},
	{
		"ID": 309,
		"Month": "MonthType_November",
		"Day": 4,
		"Reward": [
			{
				"GoodsType": "GoodsType_Item",
				"Id": 3003,
				"Count": 5
			}
		]
	},
	{
		"ID": 310,
		"Month": "MonthType_November",
		"Day": 5,
		"Reward": [
			{
				"GoodsType": "GoodsType_Item",
				"Id": 3101,
				"Count": 1
			}
		]
	},
	{
		"ID": 311,
		"Month": "MonthType_November",
		"Day": 6,
		"Reward": [
			{
				"GoodsType": "GoodsType_Equipment",
				"Id": 301,
				"Count": 5
			}
		]
	},
	{
		"ID": 312,
		"Month": "MonthType_November",
		"Day": 7,
		"Reward": [
			{
				"GoodsType": "GoodsType_Crystal",
				"Id": 0,
				"Count": 20
			}
		]
	},
	{
		"ID": 313,
		"Month": "MonthType_November",
		"Day": 8,
		"Reward": [
			{
				"GoodsType": "GoodsType_Gold",
				"Id": 0,
				"Count": 10000
			}
		]
	},
	{
		"ID": 314,
		"Month": "MonthType_November",
		"Day": 9,
		"Reward": [
			{
				"GoodsType": "GoodsType_Item",
				"Id": 4000,
				"Count": 3
			}
		]
	},
	{
		"ID": 315,
		"Month": "MonthType_November",
		"Day": 10,
		"Reward": [
			{
				"GoodsType": "GoodsType_Item",
				"Id": 4001,
				"Count": 1
			}
		]
	},
	{
		"ID": 316,
		"Month": "MonthType_November",
		"Day": 11,
		"Reward": [
			{
				"GoodsType": "GoodsType_Item",
				"Id": 3003,
				"Count": 15
			}
		]
	},
	{
		"ID": 317,
		"Month": "MonthType_November",
		"Day": 12,
		"Reward": [
			{
				"GoodsType": "GoodsType_Item",
				"Id": 3101,
				"Count": 2
			}
		]
	},
	{
		"ID": 318,
		"Month": "MonthType_November",
		"Day": 13,
		"Reward": [
			{
				"GoodsType": "GoodsType_Equipment",
				"Id": 302,
				"Count": 3
			}
		]
	},
	{
		"ID": 319,
		"Month": "MonthType_November",
		"Day": 14,
		"Reward": [
			{
				"GoodsType": "GoodsType_Crystal",
				"Id": 0,
				"Count": 30
			}
		]
	},
	{
		"ID": 320,
		"Month": "MonthType_November",
		"Day": 15,
		"Reward": [
			{
				"GoodsType": "GoodsType_Gold",
				"Id": 0,
				"Count": 15000
			}
		]
	},
	{
		"ID": 321,
		"Month": "MonthType_November",
		"Day": 16,
		"Reward": [
			{
				"GoodsType": "GoodsType_Item",
				"Id": 4000,
				"Count": 5
			}
		]
	},
	{
		"ID": 322,
		"Month": "MonthType_November",
		"Day": 17,
		"Reward": [
			{
				"GoodsType": "GoodsType_Item",
				"Id": 4001,
				"Count": 1
			}
		]
	},
	{
		"ID": 323,
		"Month": "MonthType_November",
		"Day": 18,
		"Reward": [
			{
				"GoodsType": "GoodsType_Item",
				"Id": 3004,
				"Count": 5
			}
		]
	},
	{
		"ID": 324,
		"Month": "MonthType_November",
		"Day": 19,
		"Reward": [
			{
				"GoodsType": "GoodsType_Item",
				"Id": 3102,
				"Count": 1
			}
		]
	},
	{
		"ID": 325,
		"Month": "MonthType_November",
		"Day": 20,
		"Reward": [
			{
				"GoodsType": "GoodsType_Equipment",
				"Id": 303,
				"Count": 2
			}
		]
	},
	{
		"ID": 326,
		"Month": "MonthType_November",
		"Day": 21,
		"Reward": [
			{
				"GoodsType": "GoodsType_Crystal",
				"Id": 0,
				"Count": 40
			}
		]
	},
	{
		"ID": 327,
		"Month": "MonthType_November",
		"Day": 22,
		"Reward": [
			{
				"GoodsType": "GoodsType_Gold",
				"Id": 0,
				"Count": 20000
			}
		]
	},
	{
		"ID": 328,
		"Month": "MonthType_November",
		"Day": 23,
		"Reward": [
			{
				"GoodsType": "GoodsType_MithralStone",
				"Id": 0,
				"Count": 300
			}
		]
	},
	{
		"ID": 329,
		"Month": "MonthType_November",
		"Day": 24,
		"Reward": [
			{
				"GoodsType": "GoodsType_Item",
				"Id": 4001,
				"Count": 2
			}
		]
	},
	{
		"ID": 330,
		"Month": "MonthType_November",
		"Day": 25,
		"Reward": [
			{
				"GoodsType": "GoodsType_Item",
				"Id": 3004,
				"Count": 8
			}
		]
	},
	{
		"ID": 331,
		"Month": "MonthType_November",
		"Day": 26,
		"Reward": [
			{
				"GoodsType": "GoodsType_Crystal",
				"Id": 0,
				"Count": 50
			}
		]
	},
	{
		"ID": 332,
		"Month": "MonthType_November",
		"Day": 27,
		"Reward": [
			{
				"GoodsType": "GoodsType_Equipment",
				"Id": 303,
				"Count": 3
			}
		]
	},
	{
		"ID": 333,
		"Month": "MonthType_November",
		"Day": 28,
		"Reward": [
			{
				"GoodsType": "GoodsType_Crystal",
				"Id": 0,
				"Count": 60
			}
		]
	},
	{
		"ID": 334,
		"Month": "MonthType_November",
		"Day": 29,
		"Reward": [
			{
				"GoodsType": "GoodsType_Item",
				"Id": 4001,
				"Count": 2
			}
		]
	},
	{
		"ID": 335,
		"Month": "MonthType_November",
		"Day": 30,
		"Reward": [
			{
				"GoodsType": "GoodsType_Crystal",
				"Id": 0,
				"Count": 80
			}
		]
	},
	{
		"ID": 336,
		"Month": "MonthType_December",
		"Day": 1,
		"Reward": [
			{
				"GoodsType": "GoodsType_Gold",
				"Id": 0,
				"Count": 5000
			}
		]
	},
	{
		"ID": 337,
		"Month": "MonthType_December",
		"Day": 2,
		"Reward": [
			{
				"GoodsType": "GoodsType_Item",
				"Id": 4000,
				"Count": 2
			}
		]
	},
	{
		"ID": 338,
		"Month": "MonthType_December",
		"Day": 3,
		"Reward": [
			{
				"GoodsType": "GoodsType_Item",
				"Id": 4001,
				"Count": 1
			}
		]
	},
	{
		"ID": 339,
		"Month": "MonthType_December",
		"Day": 4,
		"Reward": [
			{
				"GoodsType": "GoodsType_Item",
				"Id": 3003,
				"Count": 5
			}
		]
	},
	{
		"ID": 340,
		"Month": "MonthType_December",
		"Day": 5,
		"Reward": [
			{
				"GoodsType": "GoodsType_Item",
				"Id": 3101,
				"Count": 1
			}
		]
	},
	{
		"ID": 341,
		"Month": "MonthType_December",
		"Day": 6,
		"Reward": [
			{
				"GoodsType": "GoodsType_Equipment",
				"Id": 301,
				"Count": 5
			}
		]
	},
	{
		"ID": 342,
		"Month": "MonthType_December",
		"Day": 7,
		"Reward": [
			{
				"GoodsType": "GoodsType_Crystal",
				"Id": 0,
				"Count": 20
			}
		]
	},
	{
		"ID": 343,
		"Month": "MonthType_December",
		"Day": 8,
		"Reward": [
			{
				"GoodsType": "GoodsType_Gold",
				"Id": 0,
				"Count": 10000
			}
		]
	},
	{
		"ID": 344,
		"Month": "MonthType_December",
		"Day": 9,
		"Reward": [
			{
				"GoodsType": "GoodsType_Item",
				"Id": 4000,
				"Count": 3
			}
		]
	},
	{
		"ID": 345,
		"Month": "MonthType_December",
		"Day": 10,
		"Reward": [
			{
				"GoodsType": "GoodsType_Item",
				"Id": 4001,
				"Count": 1
			}
		]
	},
	{
		"ID": 346,
		"Month": "MonthType_December",
		"Day": 11,
		"Reward": [
			{
				"GoodsType": "GoodsType_Item",
				"Id": 3003,
				"Count": 15
			}
		]
	},
	{
		"ID": 347,
		"Month": "MonthType_December",
		"Day": 12,
		"Reward": [
			{
				"GoodsType": "GoodsType_Item",
				"Id": 3101,
				"Count": 2
			}
		]
	},
	{
		"ID": 348,
		"Month": "MonthType_December",
		"Day": 13,
		"Reward": [
			{
				"GoodsType": "GoodsType_Equipment",
				"Id": 302,
				"Count": 3
			}
		]
	},
	{
		"ID": 349,
		"Month": "MonthType_December",
		"Day": 14,
		"Reward": [
			{
				"GoodsType": "GoodsType_Crystal",
				"Id": 0,
				"Count": 30
			}
		]
	},
	{
		"ID": 350,
		"Month": "MonthType_December",
		"Day": 15,
		"Reward": [
			{
				"GoodsType": "GoodsType_Gold",
				"Id": 0,
				"Count": 15000
			}
		]
	},
	{
		"ID": 351,
		"Month": "MonthType_December",
		"Day": 16,
		"Reward": [
			{
				"GoodsType": "GoodsType_Item",
				"Id": 4000,
				"Count": 5
			}
		]
	},
	{
		"ID": 352,
		"Month": "MonthType_December",
		"Day": 17,
		"Reward": [
			{
				"GoodsType": "GoodsType_Item",
				"Id": 4001,
				"Count": 1
			}
		]
	},
	{
		"ID": 353,
		"Month": "MonthType_December",
		"Day": 18,
		"Reward": [
			{
				"GoodsType": "GoodsType_Item",
				"Id": 3004,
				"Count": 5
			}
		]
	},
	{
		"ID": 354,
		"Month": "MonthType_December",
		"Day": 19,
		"Reward": [
			{
				"GoodsType": "GoodsType_Item",
				"Id": 3102,
				"Count": 1
			}
		]
	},
	{
		"ID": 355,
		"Month": "MonthType_December",
		"Day": 20,
		"Reward": [
			{
				"GoodsType": "GoodsType_Equipment",
				"Id": 303,
				"Count": 2
			}
		]
	},
	{
		"ID": 356,
		"Month": "MonthType_December",
		"Day": 21,
		"Reward": [
			{
				"GoodsType": "GoodsType_Crystal",
				"Id": 0,
				"Count": 40
			}
		]
	},
	{
		"ID": 357,
		"Month": "MonthType_December",
		"Day": 22,
		"Reward": [
			{
				"GoodsType": "GoodsType_Gold",
				"Id": 0,
				"Count": 20000
			}
		]
	},
	{
		"ID": 358,
		"Month": "MonthType_December",
		"Day": 23,
		"Reward": [
			{
				"GoodsType": "GoodsType_MithralStone",
				"Id": 0,
				"Count": 300
			}
		]
	},
	{
		"ID": 359,
		"Month": "MonthType_December",
		"Day": 24,
		"Reward": [
			{
				"GoodsType": "GoodsType_Item",
				"Id": 4001,
				"Count": 2
			}
		]
	},
	{
		"ID": 360,
		"Month": "MonthType_December",
		"Day": 25,
		"Reward": [
			{
				"GoodsType": "GoodsType_Item",
				"Id": 3004,
				"Count": 8
			}
		]
	},
	{
		"ID": 361,
		"Month": "MonthType_December",
		"Day": 26,
		"Reward": [
			{
				"GoodsType": "GoodsType_Crystal",
				"Id": 0,
				"Count": 50
			}
		]
	},
	{
		"ID": 362,
		"Month": "MonthType_December",
		"Day": 27,
		"Reward": [
			{
				"GoodsType": "GoodsType_Equipment",
				"Id": 303,
				"Count": 3
			}
		]
	},
	{
		"ID": 363,
		"Month": "MonthType_December",
		"Day": 28,
		"Reward": [
			{
				"GoodsType": "GoodsType_Crystal",
				"Id": 0,
				"Count": 60
			}
		]
	},
	{
		"ID": 364,
		"Month": "MonthType_December",
		"Day": 29,
		"Reward": [
			{
				"GoodsType": "GoodsType_Item",
				"Id": 4001,
				"Count": 2
			}
		]
	},
	{
		"ID": 365,
		"Month": "MonthType_December",
		"Day": 30,
		"Reward": [
			{
				"GoodsType": "GoodsType_Crystal",
				"Id": 0,
				"Count": 80
			}
		]
	},
	{
		"ID": 366,
		"Month": "MonthType_December",
		"Day": 31,
		"Reward": [
			{
				"GoodsType": "GoodsType_MithralStone",
				"Id": 0,
				"Count": 600
			}
		]
	}
]