[
	{
		"ID": 1,
		"Desc": "Pay Items",
		"AchievementID": 0,
		"ItemCost": [
			{
				"GoodsType": "GoodsType_Item",
				"Id": 4008,
				"Count": 9999
			}
		]
	},
	{
		"ID": 2,
		"Desc": "Pay Items",
		"AchievementID": 0,
		"ItemCost": [
			{
				"GoodsType": "GoodsType_Item",
				"Id": 4008,
				"Count": 9999
			}
		]
	},
	{
		"ID": 3,
		"Desc": "Pay Items",
		"AchievementID": 0,
		"ItemCost": [
			{
				"GoodsType": "GoodsType_Item",
				"Id": 4008,
				"Count": 9999
			}
		]
	},
	{
		"ID": 4,
		"Desc": "Pay Items",
		"AchievementID": 0,
		"ItemCost": [
			{
				"GoodsType": "GoodsType_Item",
				"Id": 4008,
				"Count": 9999
			}
		]
	},
	{
		"ID": 5,
		"Desc": "Pay Items",
		"AchievementID": 0,
		"ItemCost": [
			{
				"GoodsType": "GoodsType_Item",
				"Id": 4008,
				"Count": 9999
			}
		]
	},
	{
		"ID": 6,
		"Desc": "Defeat Laird",
		"AchievementID": 4
	},
	{
		"ID": 7,
		"Desc": "Defeat Leon",
		"AchievementID": 5
	},
	{
		"ID": 8,
		"Desc": "Complete stage within 5 rounds",
		"AchievementID": 6
	},
	{
		"ID": 9,
		"Desc": "Win with 3 or less heroes deployed",
		"AchievementID": 7
	},
	{
		"ID": 10,
		"Desc": "Defeat Egbert",
		"AchievementID": 8
	},
	{
		"ID": 11,
		"Desc": "Complete the level without defeating Zorum",
		"AchievementID": 9
	},
	{
		"ID": 12,
		"Desc": "Complete stage within 4 rounds",
		"AchievementID": 10
	},
	{
		"ID": 13,
		"Desc": "Complete stage within 6 rounds",
		"AchievementID": 11
	},
	{
		"ID": 14,
		"Desc": "Condition 14",
		"AchievementID": 4
	},
	{
		"ID": 15,
		"Desc": "Condition 15",
		"AchievementID": 4
	}
]