[
	{
		"ID": 1,
		"RewardGroupID": 1,
		"RewardItems": [
			{
				"GoodsType": "GoodsType_GuildMedal",
				"Id": 0,
				"Count": 40
			},
			{
				"GoodsType": "GoodsType_Gold",
				"Id": 0,
				"Count": 2000
			}
		],
		"Points": 100,
		"Name": "Phase 1"
	},
	{
		"ID": 2,
		"RewardGroupID": 1,
		"RewardItems": [
			{
				"GoodsType": "GoodsType_GuildMedal",
				"Id": 0,
				"Count": 40
			},
			{
				"GoodsType": "GoodsType_Gold",
				"Id": 0,
				"Count": 2000
			}
		],
		"Points": 200,
		"Name": "Phase 2"
	},
	{
		"ID": 3,
		"RewardGroupID": 1,
		"RewardItems": [
			{
				"GoodsType": "GoodsType_GuildMedal",
				"Id": 0,
				"Count": 40
			},
			{
				"GoodsType": "GoodsType_Gold",
				"Id": 0,
				"Count": 2000
			}
		],
		"Points": 300,
		"Name": "Phase 3"
	},
	{
		"ID": 4,
		"RewardGroupID": 1,
		"RewardItems": [
			{
				"GoodsType": "GoodsType_GuildMedal",
				"Id": 0,
				"Count": 80
			},
			{
				"GoodsType": "GoodsType_Gold",
				"Id": 0,
				"Count": 4000
			}
		],
		"Points": 400,
		"Name": "Phase 4"
	},
	{
		"ID": 5,
		"RewardGroupID": 1,
		"RewardItems": [
			{
				"GoodsType": "GoodsType_GuildMedal",
				"Id": 0,
				"Count": 80
			},
			{
				"GoodsType": "GoodsType_Gold",
				"Id": 0,
				"Count": 4000
			}
		],
		"Points": 600,
		"Name": "Phase 5"
	},
	{
		"ID": 6,
		"RewardGroupID": 1,
		"RewardItems": [
			{
				"GoodsType": "GoodsType_GuildMedal",
				"Id": 0,
				"Count": 80
			},
			{
				"GoodsType": "GoodsType_Gold",
				"Id": 0,
				"Count": 4000
			}
		],
		"Points": 800,
		"Name": "Stage 6"
	},
	{
		"ID": 7,
		"RewardGroupID": 1,
		"RewardItems": [
			{
				"GoodsType": "GoodsType_GuildMedal",
				"Id": 0,
				"Count": 120
			},
			{
				"GoodsType": "GoodsType_Gold",
				"Id": 0,
				"Count": 6000
			}
		],
		"Points": 1000,
		"Name": "Stage 7"
	},
	{
		"ID": 8,
		"RewardGroupID": 1,
		"RewardItems": [
			{
				"GoodsType": "GoodsType_GuildMedal",
				"Id": 0,
				"Count": 120
			},
			{
				"GoodsType": "GoodsType_Gold",
				"Id": 0,
				"Count": 6000
			}
		],
		"Points": 1500,
		"Name": "Stage 8"
	},
	{
		"ID": 9,
		"RewardGroupID": 1,
		"RewardItems": [
			{
				"GoodsType": "GoodsType_GuildMedal",
				"Id": 0,
				"Count": 120
			},
			{
				"GoodsType": "GoodsType_Gold",
				"Id": 0,
				"Count": 6000
			}
		],
		"Points": 2000,
		"Name": "Stage 9"
	},
	{
		"ID": 10,
		"RewardGroupID": 1,
		"RewardItems": [
			{
				"GoodsType": "GoodsType_GuildMedal",
				"Id": 0,
				"Count": 160
			},
			{
				"GoodsType": "GoodsType_Gold",
				"Id": 0,
				"Count": 8000
			}
		],
		"Points": 2500,
		"Name": "Stage 10"
	},
	{
		"ID": 11,
		"RewardGroupID": 1,
		"RewardItems": [
			{
				"GoodsType": "GoodsType_GuildMedal",
				"Id": 0,
				"Count": 160
			},
			{
				"GoodsType": "GoodsType_Gold",
				"Id": 0,
				"Count": 8000
			}
		],
		"Points": 3500,
		"Name": "Stage 11"
	},
	{
		"ID": 12,
		"RewardGroupID": 1,
		"RewardItems": [
			{
				"GoodsType": "GoodsType_GuildMedal",
				"Id": 0,
				"Count": 160
			},
			{
				"GoodsType": "GoodsType_Gold",
				"Id": 0,
				"Count": 8000
			}
		],
		"Points": 5000,
		"Name": "Stage 12"
	},
	{
		"ID": 13,
		"RewardGroupID": 2,
		"RewardItems": [
			{
				"GoodsType": "GoodsType_GuildMedal",
				"Id": 0,
				"Count": 50
			},
			{
				"GoodsType": "GoodsType_Gold",
				"Id": 0,
				"Count": 2500
			}
		],
		"Points": 100,
		"Name": "Phase 1"
	},
	{
		"ID": 14,
		"RewardGroupID": 2,
		"RewardItems": [
			{
				"GoodsType": "GoodsType_GuildMedal",
				"Id": 0,
				"Count": 50
			},
			{
				"GoodsType": "GoodsType_Gold",
				"Id": 0,
				"Count": 2500
			}
		],
		"Points": 200,
		"Name": "Phase 2"
	},
	{
		"ID": 15,
		"RewardGroupID": 2,
		"RewardItems": [
			{
				"GoodsType": "GoodsType_GuildMedal",
				"Id": 0,
				"Count": 50
			},
			{
				"GoodsType": "GoodsType_Gold",
				"Id": 0,
				"Count": 2500
			}
		],
		"Points": 300,
		"Name": "Phase 3"
	},
	{
		"ID": 16,
		"RewardGroupID": 2,
		"RewardItems": [
			{
				"GoodsType": "GoodsType_GuildMedal",
				"Id": 0,
				"Count": 100
			},
			{
				"GoodsType": "GoodsType_Gold",
				"Id": 0,
				"Count": 5000
			}
		],
		"Points": 400,
		"Name": "Phase 4"
	},
	{
		"ID": 17,
		"RewardGroupID": 2,
		"RewardItems": [
			{
				"GoodsType": "GoodsType_GuildMedal",
				"Id": 0,
				"Count": 100
			},
			{
				"GoodsType": "GoodsType_Gold",
				"Id": 0,
				"Count": 5000
			}
		],
		"Points": 600,
		"Name": "Phase 5"
	},
	{
		"ID": 18,
		"RewardGroupID": 2,
		"RewardItems": [
			{
				"GoodsType": "GoodsType_GuildMedal",
				"Id": 0,
				"Count": 100
			},
			{
				"GoodsType": "GoodsType_Gold",
				"Id": 0,
				"Count": 5000
			}
		],
		"Points": 800,
		"Name": "Stage 6"
	},
	{
		"ID": 19,
		"RewardGroupID": 2,
		"RewardItems": [
			{
				"GoodsType": "GoodsType_GuildMedal",
				"Id": 0,
				"Count": 150
			},
			{
				"GoodsType": "GoodsType_Gold",
				"Id": 0,
				"Count": 7500
			}
		],
		"Points": 1000,
		"Name": "Stage 7"
	},
	{
		"ID": 20,
		"RewardGroupID": 2,
		"RewardItems": [
			{
				"GoodsType": "GoodsType_GuildMedal",
				"Id": 0,
				"Count": 150
			},
			{
				"GoodsType": "GoodsType_Gold",
				"Id": 0,
				"Count": 7500
			}
		],
		"Points": 1500,
		"Name": "Stage 8"
	},
	{
		"ID": 21,
		"RewardGroupID": 2,
		"RewardItems": [
			{
				"GoodsType": "GoodsType_GuildMedal",
				"Id": 0,
				"Count": 150
			},
			{
				"GoodsType": "GoodsType_Gold",
				"Id": 0,
				"Count": 7500
			}
		],
		"Points": 2000,
		"Name": "Stage 9"
	},
	{
		"ID": 22,
		"RewardGroupID": 2,
		"RewardItems": [
			{
				"GoodsType": "GoodsType_GuildMedal",
				"Id": 0,
				"Count": 200
			},
			{
				"GoodsType": "GoodsType_Gold",
				"Id": 0,
				"Count": 10000
			}
		],
		"Points": 2500,
		"Name": "Stage 10"
	},
	{
		"ID": 23,
		"RewardGroupID": 2,
		"RewardItems": [
			{
				"GoodsType": "GoodsType_GuildMedal",
				"Id": 0,
				"Count": 200
			},
			{
				"GoodsType": "GoodsType_Gold",
				"Id": 0,
				"Count": 10000
			}
		],
		"Points": 3500,
		"Name": "Stage 11"
	},
	{
		"ID": 24,
		"RewardGroupID": 2,
		"RewardItems": [
			{
				"GoodsType": "GoodsType_GuildMedal",
				"Id": 0,
				"Count": 200
			},
			{
				"GoodsType": "GoodsType_Gold",
				"Id": 0,
				"Count": 10000
			}
		],
		"Points": 5000,
		"Name": "Stage 12"
	},
	{
		"ID": 25,
		"RewardGroupID": 3,
		"RewardItems": [
			{
				"GoodsType": "GoodsType_GuildMedal",
				"Id": 0,
				"Count": 75
			},
			{
				"GoodsType": "GoodsType_Gold",
				"Id": 0,
				"Count": 3750
			}
		],
		"Points": 100,
		"Name": "Phase 1"
	},
	{
		"ID": 26,
		"RewardGroupID": 3,
		"RewardItems": [
			{
				"GoodsType": "GoodsType_GuildMedal",
				"Id": 0,
				"Count": 75
			},
			{
				"GoodsType": "GoodsType_Gold",
				"Id": 0,
				"Count": 3750
			}
		],
		"Points": 200,
		"Name": "Phase 2"
	},
	{
		"ID": 27,
		"RewardGroupID": 3,
		"RewardItems": [
			{
				"GoodsType": "GoodsType_GuildMedal",
				"Id": 0,
				"Count": 75
			},
			{
				"GoodsType": "GoodsType_Gold",
				"Id": 0,
				"Count": 3750
			}
		],
		"Points": 300,
		"Name": "Phase 3"
	},
	{
		"ID": 28,
		"RewardGroupID": 3,
		"RewardItems": [
			{
				"GoodsType": "GoodsType_GuildMedal",
				"Id": 0,
				"Count": 150
			},
			{
				"GoodsType": "GoodsType_Gold",
				"Id": 0,
				"Count": 7500
			}
		],
		"Points": 400,
		"Name": "Phase 4"
	},
	{
		"ID": 29,
		"RewardGroupID": 3,
		"RewardItems": [
			{
				"GoodsType": "GoodsType_GuildMedal",
				"Id": 0,
				"Count": 150
			},
			{
				"GoodsType": "GoodsType_Gold",
				"Id": 0,
				"Count": 7500
			}
		],
		"Points": 600,
		"Name": "Phase 5"
	},
	{
		"ID": 30,
		"RewardGroupID": 3,
		"RewardItems": [
			{
				"GoodsType": "GoodsType_GuildMedal",
				"Id": 0,
				"Count": 150
			},
			{
				"GoodsType": "GoodsType_Gold",
				"Id": 0,
				"Count": 7500
			}
		],
		"Points": 800,
		"Name": "Stage 6"
	},
	{
		"ID": 31,
		"RewardGroupID": 3,
		"RewardItems": [
			{
				"GoodsType": "GoodsType_GuildMedal",
				"Id": 0,
				"Count": 225
			},
			{
				"GoodsType": "GoodsType_Gold",
				"Id": 0,
				"Count": 11250
			}
		],
		"Points": 1000,
		"Name": "Stage 7"
	},
	{
		"ID": 32,
		"RewardGroupID": 3,
		"RewardItems": [
			{
				"GoodsType": "GoodsType_GuildMedal",
				"Id": 0,
				"Count": 225
			},
			{
				"GoodsType": "GoodsType_Gold",
				"Id": 0,
				"Count": 11250
			}
		],
		"Points": 1500,
		"Name": "Stage 8"
	},
	{
		"ID": 33,
		"RewardGroupID": 3,
		"RewardItems": [
			{
				"GoodsType": "GoodsType_GuildMedal",
				"Id": 0,
				"Count": 225
			},
			{
				"GoodsType": "GoodsType_Gold",
				"Id": 0,
				"Count": 11250
			}
		],
		"Points": 2000,
		"Name": "Stage 9"
	},
	{
		"ID": 34,
		"RewardGroupID": 3,
		"RewardItems": [
			{
				"GoodsType": "GoodsType_GuildMedal",
				"Id": 0,
				"Count": 300
			},
			{
				"GoodsType": "GoodsType_Gold",
				"Id": 0,
				"Count": 15000
			}
		],
		"Points": 2500,
		"Name": "Stage 10"
	},
	{
		"ID": 35,
		"RewardGroupID": 3,
		"RewardItems": [
			{
				"GoodsType": "GoodsType_GuildMedal",
				"Id": 0,
				"Count": 300
			},
			{
				"GoodsType": "GoodsType_Gold",
				"Id": 0,
				"Count": 15000
			}
		],
		"Points": 3500,
		"Name": "Stage 11"
	},
	{
		"ID": 36,
		"RewardGroupID": 3,
		"RewardItems": [
			{
				"GoodsType": "GoodsType_GuildMedal",
				"Id": 0,
				"Count": 300
			},
			{
				"GoodsType": "GoodsType_Gold",
				"Id": 0,
				"Count": 15000
			}
		],
		"Points": 5000,
		"Name": "Stage 12"
	},
	{
		"ID": 37,
		"RewardGroupID": 4,
		"RewardItems": [
			{
				"GoodsType": "GoodsType_GuildMedal",
				"Id": 0,
				"Count": 100
			},
			{
				"GoodsType": "GoodsType_Gold",
				"Id": 0,
				"Count": 5000
			}
		],
		"Points": 100,
		"Name": "Phase 1"
	},
	{
		"ID": 38,
		"RewardGroupID": 4,
		"RewardItems": [
			{
				"GoodsType": "GoodsType_GuildMedal",
				"Id": 0,
				"Count": 100
			},
			{
				"GoodsType": "GoodsType_Gold",
				"Id": 0,
				"Count": 5000
			}
		],
		"Points": 200,
		"Name": "Phase 2"
	},
	{
		"ID": 39,
		"RewardGroupID": 4,
		"RewardItems": [
			{
				"GoodsType": "GoodsType_GuildMedal",
				"Id": 0,
				"Count": 100
			},
			{
				"GoodsType": "GoodsType_Gold",
				"Id": 0,
				"Count": 5000
			}
		],
		"Points": 300,
		"Name": "Phase 3"
	},
	{
		"ID": 40,
		"RewardGroupID": 4,
		"RewardItems": [
			{
				"GoodsType": "GoodsType_GuildMedal",
				"Id": 0,
				"Count": 200
			},
			{
				"GoodsType": "GoodsType_Gold",
				"Id": 0,
				"Count": 10000
			}
		],
		"Points": 400,
		"Name": "Phase 4"
	},
	{
		"ID": 41,
		"RewardGroupID": 4,
		"RewardItems": [
			{
				"GoodsType": "GoodsType_GuildMedal",
				"Id": 0,
				"Count": 200
			},
			{
				"GoodsType": "GoodsType_Gold",
				"Id": 0,
				"Count": 10000
			}
		],
		"Points": 600,
		"Name": "Phase 5"
	},
	{
		"ID": 42,
		"RewardGroupID": 4,
		"RewardItems": [
			{
				"GoodsType": "GoodsType_GuildMedal",
				"Id": 0,
				"Count": 200
			},
			{
				"GoodsType": "GoodsType_Gold",
				"Id": 0,
				"Count": 10000
			}
		],
		"Points": 800,
		"Name": "Stage 6"
	},
	{
		"ID": 43,
		"RewardGroupID": 4,
		"RewardItems": [
			{
				"GoodsType": "GoodsType_GuildMedal",
				"Id": 0,
				"Count": 300
			},
			{
				"GoodsType": "GoodsType_Gold",
				"Id": 0,
				"Count": 15000
			}
		],
		"Points": 1000,
		"Name": "Stage 7"
	},
	{
		"ID": 44,
		"RewardGroupID": 4,
		"RewardItems": [
			{
				"GoodsType": "GoodsType_GuildMedal",
				"Id": 0,
				"Count": 300
			},
			{
				"GoodsType": "GoodsType_Gold",
				"Id": 0,
				"Count": 15000
			}
		],
		"Points": 1500,
		"Name": "Stage 8"
	},
	{
		"ID": 45,
		"RewardGroupID": 4,
		"RewardItems": [
			{
				"GoodsType": "GoodsType_GuildMedal",
				"Id": 0,
				"Count": 300
			},
			{
				"GoodsType": "GoodsType_Gold",
				"Id": 0,
				"Count": 15000
			}
		],
		"Points": 2000,
		"Name": "Stage 9"
	},
	{
		"ID": 46,
		"RewardGroupID": 4,
		"RewardItems": [
			{
				"GoodsType": "GoodsType_GuildMedal",
				"Id": 0,
				"Count": 400
			},
			{
				"GoodsType": "GoodsType_Gold",
				"Id": 0,
				"Count": 20000
			}
		],
		"Points": 2500,
		"Name": "Stage 10"
	},
	{
		"ID": 47,
		"RewardGroupID": 4,
		"RewardItems": [
			{
				"GoodsType": "GoodsType_GuildMedal",
				"Id": 0,
				"Count": 400
			},
			{
				"GoodsType": "GoodsType_Gold",
				"Id": 0,
				"Count": 20000
			}
		],
		"Points": 3500,
		"Name": "Stage 11"
	},
	{
		"ID": 48,
		"RewardGroupID": 4,
		"RewardItems": [
			{
				"GoodsType": "GoodsType_GuildMedal",
				"Id": 0,
				"Count": 400
			},
			{
				"GoodsType": "GoodsType_Gold",
				"Id": 0,
				"Count": 20000
			}
		],
		"Points": 5000,
		"Name": "Stage 12"
	},
	{
		"ID": 49,
		"RewardGroupID": 5,
		"RewardItems": [
			{
				"GoodsType": "GoodsType_GuildMedal",
				"Id": 0,
				"Count": 125
			},
			{
				"GoodsType": "GoodsType_Gold",
				"Id": 0,
				"Count": 6250
			}
		],
		"Points": 100,
		"Name": "Phase 1"
	},
	{
		"ID": 50,
		"RewardGroupID": 5,
		"RewardItems": [
			{
				"GoodsType": "GoodsType_GuildMedal",
				"Id": 0,
				"Count": 125
			},
			{
				"GoodsType": "GoodsType_Gold",
				"Id": 0,
				"Count": 6250
			}
		],
		"Points": 200,
		"Name": "Phase 2"
	},
	{
		"ID": 51,
		"RewardGroupID": 5,
		"RewardItems": [
			{
				"GoodsType": "GoodsType_GuildMedal",
				"Id": 0,
				"Count": 125
			},
			{
				"GoodsType": "GoodsType_Gold",
				"Id": 0,
				"Count": 6250
			}
		],
		"Points": 300,
		"Name": "Phase 3"
	},
	{
		"ID": 52,
		"RewardGroupID": 5,
		"RewardItems": [
			{
				"GoodsType": "GoodsType_GuildMedal",
				"Id": 0,
				"Count": 250
			},
			{
				"GoodsType": "GoodsType_Gold",
				"Id": 0,
				"Count": 12500
			}
		],
		"Points": 400,
		"Name": "Phase 4"
	},
	{
		"ID": 53,
		"RewardGroupID": 5,
		"RewardItems": [
			{
				"GoodsType": "GoodsType_GuildMedal",
				"Id": 0,
				"Count": 250
			},
			{
				"GoodsType": "GoodsType_Gold",
				"Id": 0,
				"Count": 12500
			}
		],
		"Points": 600,
		"Name": "Phase 5"
	},
	{
		"ID": 54,
		"RewardGroupID": 5,
		"RewardItems": [
			{
				"GoodsType": "GoodsType_GuildMedal",
				"Id": 0,
				"Count": 250
			},
			{
				"GoodsType": "GoodsType_Gold",
				"Id": 0,
				"Count": 12500
			}
		],
		"Points": 800,
		"Name": "Stage 6"
	},
	{
		"ID": 55,
		"RewardGroupID": 5,
		"RewardItems": [
			{
				"GoodsType": "GoodsType_GuildMedal",
				"Id": 0,
				"Count": 375
			},
			{
				"GoodsType": "GoodsType_Gold",
				"Id": 0,
				"Count": 18750
			}
		],
		"Points": 1000,
		"Name": "Stage 7"
	},
	{
		"ID": 56,
		"RewardGroupID": 5,
		"RewardItems": [
			{
				"GoodsType": "GoodsType_GuildMedal",
				"Id": 0,
				"Count": 375
			},
			{
				"GoodsType": "GoodsType_Gold",
				"Id": 0,
				"Count": 18750
			}
		],
		"Points": 1500,
		"Name": "Stage 8"
	},
	{
		"ID": 57,
		"RewardGroupID": 5,
		"RewardItems": [
			{
				"GoodsType": "GoodsType_GuildMedal",
				"Id": 0,
				"Count": 375
			},
			{
				"GoodsType": "GoodsType_Gold",
				"Id": 0,
				"Count": 18750
			}
		],
		"Points": 2000,
		"Name": "Stage 9"
	},
	{
		"ID": 58,
		"RewardGroupID": 5,
		"RewardItems": [
			{
				"GoodsType": "GoodsType_GuildMedal",
				"Id": 0,
				"Count": 500
			},
			{
				"GoodsType": "GoodsType_Gold",
				"Id": 0,
				"Count": 25000
			}
		],
		"Points": 2500,
		"Name": "Stage 10"
	},
	{
		"ID": 59,
		"RewardGroupID": 5,
		"RewardItems": [
			{
				"GoodsType": "GoodsType_GuildMedal",
				"Id": 0,
				"Count": 500
			},
			{
				"GoodsType": "GoodsType_Gold",
				"Id": 0,
				"Count": 25000
			}
		],
		"Points": 3500,
		"Name": "Stage 11"
	},
	{
		"ID": 60,
		"RewardGroupID": 5,
		"RewardItems": [
			{
				"GoodsType": "GoodsType_GuildMedal",
				"Id": 0,
				"Count": 500
			},
			{
				"GoodsType": "GoodsType_Gold",
				"Id": 0,
				"Count": 25000
			}
		],
		"Points": 5000,
		"Name": "Stage 12"
	},
	{
		"ID": 61,
		"RewardGroupID": 6,
		"RewardItems": [
			{
				"GoodsType": "GoodsType_GuildMedal",
				"Id": 0,
				"Count": 150
			},
			{
				"GoodsType": "GoodsType_Gold",
				"Id": 0,
				"Count": 7500
			}
		],
		"Points": 100,
		"Name": "Phase 1"
	},
	{
		"ID": 62,
		"RewardGroupID": 6,
		"RewardItems": [
			{
				"GoodsType": "GoodsType_GuildMedal",
				"Id": 0,
				"Count": 150
			},
			{
				"GoodsType": "GoodsType_Gold",
				"Id": 0,
				"Count": 7500
			}
		],
		"Points": 200,
		"Name": "Phase 2"
	},
	{
		"ID": 63,
		"RewardGroupID": 6,
		"RewardItems": [
			{
				"GoodsType": "GoodsType_GuildMedal",
				"Id": 0,
				"Count": 150
			},
			{
				"GoodsType": "GoodsType_Gold",
				"Id": 0,
				"Count": 7500
			}
		],
		"Points": 300,
		"Name": "Phase 3"
	},
	{
		"ID": 64,
		"RewardGroupID": 6,
		"RewardItems": [
			{
				"GoodsType": "GoodsType_GuildMedal",
				"Id": 0,
				"Count": 300
			},
			{
				"GoodsType": "GoodsType_Gold",
				"Id": 0,
				"Count": 15000
			}
		],
		"Points": 400,
		"Name": "Phase 4"
	},
	{
		"ID": 65,
		"RewardGroupID": 6,
		"RewardItems": [
			{
				"GoodsType": "GoodsType_GuildMedal",
				"Id": 0,
				"Count": 300
			},
			{
				"GoodsType": "GoodsType_Gold",
				"Id": 0,
				"Count": 15000
			}
		],
		"Points": 600,
		"Name": "Phase 5"
	},
	{
		"ID": 66,
		"RewardGroupID": 6,
		"RewardItems": [
			{
				"GoodsType": "GoodsType_GuildMedal",
				"Id": 0,
				"Count": 300
			},
			{
				"GoodsType": "GoodsType_Gold",
				"Id": 0,
				"Count": 15000
			}
		],
		"Points": 800,
		"Name": "Stage 6"
	},
	{
		"ID": 67,
		"RewardGroupID": 6,
		"RewardItems": [
			{
				"GoodsType": "GoodsType_GuildMedal",
				"Id": 0,
				"Count": 450
			},
			{
				"GoodsType": "GoodsType_Gold",
				"Id": 0,
				"Count": 22500
			}
		],
		"Points": 1000,
		"Name": "Stage 7"
	},
	{
		"ID": 68,
		"RewardGroupID": 6,
		"RewardItems": [
			{
				"GoodsType": "GoodsType_GuildMedal",
				"Id": 0,
				"Count": 450
			},
			{
				"GoodsType": "GoodsType_Gold",
				"Id": 0,
				"Count": 22500
			}
		],
		"Points": 1500,
		"Name": "Stage 8"
	},
	{
		"ID": 69,
		"RewardGroupID": 6,
		"RewardItems": [
			{
				"GoodsType": "GoodsType_GuildMedal",
				"Id": 0,
				"Count": 450
			},
			{
				"GoodsType": "GoodsType_Gold",
				"Id": 0,
				"Count": 22500
			}
		],
		"Points": 2000,
		"Name": "Stage 9"
	},
	{
		"ID": 70,
		"RewardGroupID": 6,
		"RewardItems": [
			{
				"GoodsType": "GoodsType_GuildMedal",
				"Id": 0,
				"Count": 600
			},
			{
				"GoodsType": "GoodsType_Gold",
				"Id": 0,
				"Count": 30000
			}
		],
		"Points": 2500,
		"Name": "Stage 10"
	},
	{
		"ID": 71,
		"RewardGroupID": 6,
		"RewardItems": [
			{
				"GoodsType": "GoodsType_GuildMedal",
				"Id": 0,
				"Count": 600
			},
			{
				"GoodsType": "GoodsType_Gold",
				"Id": 0,
				"Count": 30000
			}
		],
		"Points": 3500,
		"Name": "Stage 11"
	},
	{
		"ID": 72,
		"RewardGroupID": 6,
		"RewardItems": [
			{
				"GoodsType": "GoodsType_GuildMedal",
				"Id": 0,
				"Count": 600
			},
			{
				"GoodsType": "GoodsType_Gold",
				"Id": 0,
				"Count": 30000
			}
		],
		"Points": 5000,
		"Name": "Stage 12"
	}
]