[
	{
		"ID": 1,
		"Description": "Lance",
		"GroupID": 20,
		"CardItems": [
			{
				"GoodsType": "GoodsType_Hero",
				"Id": 16,
				"Count": 1
			}
		],
		"DefaultWeight": 10
	},
	{
		"ID": 2,
		"Description": "Lester",
		"GroupID": 21,
		"CardItems": [
			{
				"GoodsType": "GoodsType_Hero",
				"Id": 19,
				"Count": 1
			}
		],
		"DefaultWeight": 10
	},
	{
		"ID": 3,
		"Description": "Jessica",
		"GroupID": 21,
		"CardItems": [
			{
				"GoodsType": "GoodsType_Hero",
				"Id": 22,
				"Count": 1
			}
		],
		"DefaultWeight": 10
	},
	{
		"ID": 4,
		"Description": "Rohga",
		"GroupID": 21,
		"CardItems": [
			{
				"GoodsType": "GoodsType_Hero",
				"Id": 23,
				"Count": 1
			}
		],
		"DefaultWeight": 10
	},
	{
		"ID": 5,
		"Description": "Scott",
		"GroupID": 21,
		"CardItems": [
			{
				"GoodsType": "GoodsType_Hero",
				"Id": 24,
				"Count": 1
			}
		],
		"DefaultWeight": 10
	},
	{
		"ID": 6,
		"Description": "Lewin",
		"GroupID": 21,
		"CardItems": [
			{
				"GoodsType": "GoodsType_Hero",
				"Id": 40,
				"Count": 1
			}
		],
		"DefaultWeight": 10
	},
	{
		"ID": 7,
		"Description": "Pierre",
		"GroupID": 21,
		"CardItems": [
			{
				"GoodsType": "GoodsType_Hero",
				"Id": 41,
				"Count": 1
			}
		],
		"DefaultWeight": 10
	},
	{
		"ID": 8,
		"Description": "Dios",
		"GroupID": 21,
		"CardItems": [
			{
				"GoodsType": "GoodsType_Hero",
				"Id": 42,
				"Count": 1
			}
		],
		"DefaultWeight": 10
	},
	{
		"ID": 9,
		"Description": "Anna",
		"GroupID": 21,
		"CardItems": [
			{
				"GoodsType": "GoodsType_Hero",
				"Id": 43,
				"Count": 1
			}
		],
		"DefaultWeight": 10
	},
	{
		"ID": 10,
		"Description": "Laird",
		"GroupID": 21,
		"CardItems": [
			{
				"GoodsType": "GoodsType_Hero",
				"Id": 44,
				"Count": 1
			}
		],
		"DefaultWeight": 10
	},
	{
		"ID": 11,
		"Description": "Keith",
		"GroupID": 21,
		"CardItems": [
			{
				"GoodsType": "GoodsType_Hero",
				"Id": 45,
				"Count": 1
			}
		],
		"DefaultWeight": 10
	},
	{
		"ID": 12,
		"Description": "Leticia",
		"GroupID": 21,
		"CardItems": [
			{
				"GoodsType": "GoodsType_Hero",
				"Id": 47,
				"Count": 1
			}
		],
		"DefaultWeight": 10
	},
	{
		"ID": 13,
		"Description": "Aaron",
		"GroupID": 21,
		"CardItems": [
			{
				"GoodsType": "GoodsType_Hero",
				"Id": 48,
				"Count": 1
			}
		],
		"DefaultWeight": 10
	},
	{
		"ID": 14,
		"Description": "Sonya",
		"GroupID": 22,
		"CardItems": [
			{
				"GoodsType": "GoodsType_Hero",
				"Id": 20,
				"Count": 1
			}
		],
		"DefaultWeight": 10
	},
	{
		"ID": 15,
		"Description": "Silver Wolf",
		"GroupID": 22,
		"CardItems": [
			{
				"GoodsType": "GoodsType_Hero",
				"Id": 36,
				"Count": 1
			}
		],
		"DefaultWeight": 10
	},
	{
		"ID": 16,
		"Description": "Chris",
		"GroupID": 22,
		"CardItems": [
			{
				"GoodsType": "GoodsType_Hero",
				"Id": 5,
				"Count": 1
			}
		],
		"DefaultWeight": 10
	},
	{
		"ID": 17,
		"Description": "Narm",
		"GroupID": 22,
		"CardItems": [
			{
				"GoodsType": "GoodsType_Hero",
				"Id": 11,
				"Count": 1
			}
		],
		"DefaultWeight": 10
	},
	{
		"ID": 18,
		"Description": "Hein",
		"GroupID": 22,
		"CardItems": [
			{
				"GoodsType": "GoodsType_Hero",
				"Id": 13,
				"Count": 1
			}
		],
		"DefaultWeight": 10
	},
	{
		"ID": 19,
		"Description": "Lance",
		"GroupID": 22,
		"CardItems": [
			{
				"GoodsType": "GoodsType_Hero",
				"Id": 16,
				"Count": 1
			}
		],
		"DefaultWeight": 10
	},
	{
		"ID": 20,
		"Description": "Egbert",
		"GroupID": 22,
		"CardItems": [
			{
				"GoodsType": "GoodsType_Hero",
				"Id": 17,
				"Count": 1
			}
		],
		"DefaultWeight": 10
	},
	{
		"ID": 21,
		"Description": "Imelda",
		"GroupID": 22,
		"CardItems": [
			{
				"GoodsType": "GoodsType_Hero",
				"Id": 18,
				"Count": 1
			}
		],
		"DefaultWeight": 10
	},
	{
		"ID": 22,
		"Description": "Vargas",
		"GroupID": 22,
		"CardItems": [
			{
				"GoodsType": "GoodsType_Hero",
				"Id": 21,
				"Count": 1
			}
		],
		"DefaultWeight": 10
	},
	{
		"ID": 23,
		"Description": "Sophia",
		"GroupID": 22,
		"CardItems": [
			{
				"GoodsType": "GoodsType_Hero",
				"Id": 31,
				"Count": 1
			}
		],
		"DefaultWeight": 10
	},
	{
		"ID": 24,
		"Description": "Emerick",
		"GroupID": 22,
		"CardItems": [
			{
				"GoodsType": "GoodsType_Hero",
				"Id": 32,
				"Count": 1
			}
		],
		"DefaultWeight": 10
	},
	{
		"ID": 25,
		"Description": "Freya",
		"GroupID": 22,
		"CardItems": [
			{
				"GoodsType": "GoodsType_Hero",
				"Id": 33,
				"Count": 1
			}
		],
		"DefaultWeight": 10
	},
	{
		"ID": 26,
		"Description": "Kirikaze",
		"GroupID": 22,
		"CardItems": [
			{
				"GoodsType": "GoodsType_Hero",
				"Id": 34,
				"Count": 1
			}
		],
		"DefaultWeight": 10
	},
	{
		"ID": 27,
		"Description": "Liffany",
		"GroupID": 22,
		"CardItems": [
			{
				"GoodsType": "GoodsType_Hero",
				"Id": 30,
				"Count": 1
			}
		],
		"DefaultWeight": 10
	},
	{
		"ID": 28,
		"Description": "Varna",
		"GroupID": 22,
		"CardItems": [
			{
				"GoodsType": "GoodsType_Hero",
				"Id": 49,
				"Count": 1
			}
		],
		"DefaultWeight": 10
	},
	{
		"ID": 29,
		"Description": "Feraquea",
		"GroupID": 22,
		"CardItems": [
			{
				"GoodsType": "GoodsType_Hero",
				"Id": 39,
				"Count": 1
			}
		],
		"DefaultWeight": 10
	},
	{
		"ID": 30,
		"Description": "Leon",
		"GroupID": 23,
		"CardItems": [
			{
				"GoodsType": "GoodsType_Hero",
				"Id": 6,
				"Count": 1
			}
		],
		"DefaultWeight": 10
	},
	{
		"ID": 31,
		"Description": "Bernhardt",
		"GroupID": 23,
		"CardItems": [
			{
				"GoodsType": "GoodsType_Hero",
				"Id": 7,
				"Count": 1
			}
		],
		"DefaultWeight": 10
	},
	{
		"ID": 32,
		"Description": "Bozel",
		"GroupID": 23,
		"CardItems": [
			{
				"GoodsType": "GoodsType_Hero",
				"Id": 9,
				"Count": 1
			}
		],
		"DefaultWeight": 10
	},
	{
		"ID": 33,
		"Description": "Ledin",
		"GroupID": 23,
		"CardItems": [
			{
				"GoodsType": "GoodsType_Hero",
				"Id": 10,
				"Count": 1
			}
		],
		"DefaultWeight": 10
	},
	{
		"ID": 34,
		"Description": "Elwin",
		"GroupID": 23,
		"CardItems": [
			{
				"GoodsType": "GoodsType_Hero",
				"Id": 12,
				"Count": 1
			}
		],
		"DefaultWeight": 10
	},
	{
		"ID": 35,
		"Description": "Cherie",
		"GroupID": 23,
		"CardItems": [
			{
				"GoodsType": "GoodsType_Hero",
				"Id": 14,
				"Count": 1
			}
		],
		"DefaultWeight": 10
	},
	{
		"ID": 36,
		"Description": "Liana",
		"GroupID": 23,
		"CardItems": [
			{
				"GoodsType": "GoodsType_Hero",
				"Id": 15,
				"Count": 1
			}
		],
		"DefaultWeight": 10
	},
	{
		"ID": 37,
		"Description": "Lana",
		"GroupID": 23,
		"CardItems": [
			{
				"GoodsType": "GoodsType_Hero",
				"Id": 8,
				"Count": 1
			}
		],
		"DefaultWeight": 10
	},
	{
		"ID": 38,
		"Description": "Altemuller",
		"GroupID": 23,
		"CardItems": [
			{
				"GoodsType": "GoodsType_Hero",
				"Id": 25,
				"Count": 1
			}
		],
		"DefaultWeight": 10
	},
	{
		"ID": 39,
		"Description": "Luna",
		"GroupID": 23,
		"CardItems": [
			{
				"GoodsType": "GoodsType_Hero",
				"Id": 26,
				"Count": 1
			}
		],
		"DefaultWeight": 10
	},
	{
		"ID": 40,
		"Description": "Dieharte",
		"GroupID": 23,
		"CardItems": [
			{
				"GoodsType": "GoodsType_Hero",
				"Id": 27,
				"Count": 1
			}
		],
		"DefaultWeight": 10
	},
	{
		"ID": 41,
		"Description": "Tiaris",
		"GroupID": 23,
		"CardItems": [
			{
				"GoodsType": "GoodsType_Hero",
				"Id": 29,
				"Count": 1
			}
		],
		"DefaultWeight": 10
	},
	{
		"ID": 42,
		"Description": "Shelfaniel",
		"GroupID": 23,
		"CardItems": [
			{
				"GoodsType": "GoodsType_Hero",
				"Id": 51,
				"Count": 1
			}
		],
		"DefaultWeight": 10
	},
	{
		"ID": 43,
		"Description": "安洁莉娜",
		"GroupID": 23,
		"CardItems": [
			{
				"GoodsType": "GoodsType_Hero",
				"Id": 52,
				"Count": 1
			}
		],
		"DefaultWeight": 10
	},
	{
		"ID": 44,
		"Description": "Zerida",
		"GroupID": 23,
		"CardItems": [
			{
				"GoodsType": "GoodsType_Hero",
				"Id": 28,
				"Count": 1
			}
		],
		"DefaultWeight": 10
	},
	{
		"ID": 45,
		"Description": "Jugler",
		"GroupID": 23,
		"CardItems": [
			{
				"GoodsType": "GoodsType_Hero",
				"Id": 37,
				"Count": 1
			}
		],
		"DefaultWeight": 10
	},
	{
		"ID": 46,
		"Description": "Gerold & Layla",
		"GroupID": 23,
		"CardItems": [
			{
				"GoodsType": "GoodsType_Hero",
				"Id": 38,
				"Count": 1
			}
		],
		"DefaultWeight": 10
	},
	{
		"ID": 47,
		"Description": "Lanford",
		"GroupID": 23,
		"CardItems": [
			{
				"GoodsType": "GoodsType_Hero",
				"Id": 53,
				"Count": 1
			}
		],
		"DefaultWeight": 10
	},
	{
		"ID": 48,
		"Description": "Listell",
		"GroupID": 23,
		"CardItems": [
			{
				"GoodsType": "GoodsType_Hero",
				"Id": 54,
				"Count": 1
			}
		],
		"DefaultWeight": 10
	},
	{
		"ID": 49,
		"Description": "Landius",
		"GroupID": 23,
		"CardItems": [
			{
				"GoodsType": "GoodsType_Hero",
				"Id": 55,
				"Count": 1
			}
		],
		"DefaultWeight": 10
	},
	{
		"ID": 50,
		"Description": "Rachel",
		"GroupID": 23,
		"CardItems": [
			{
				"GoodsType": "GoodsType_Hero",
				"Id": 56,
				"Count": 1
			}
		],
		"DefaultWeight": 10
	},
	{
		"ID": 51,
		"Description": "Combat Knife",
		"GroupID": 31,
		"CardItems": [
			{
				"GoodsType": "GoodsType_Equipment",
				"Id": 2,
				"Count": 1
			}
		],
		"DefaultWeight": 10
	},
	{
		"ID": 52,
		"Description": "Main Gauche",
		"GroupID": 31,
		"CardItems": [
			{
				"GoodsType": "GoodsType_Equipment",
				"Id": 3,
				"Count": 1
			}
		],
		"DefaultWeight": 10
	},
	{
		"ID": 53,
		"Description": "Claymore",
		"GroupID": 31,
		"CardItems": [
			{
				"GoodsType": "GoodsType_Equipment",
				"Id": 10,
				"Count": 1
			}
		],
		"DefaultWeight": 10
	},
	{
		"ID": 54,
		"Description": "Saber",
		"GroupID": 31,
		"CardItems": [
			{
				"GoodsType": "GoodsType_Equipment",
				"Id": 11,
				"Count": 1
			}
		],
		"DefaultWeight": 10
	},
	{
		"ID": 55,
		"Description": "Battle Axe",
		"GroupID": 31,
		"CardItems": [
			{
				"GoodsType": "GoodsType_Equipment",
				"Id": 18,
				"Count": 1
			}
		],
		"DefaultWeight": 10
	},
	{
		"ID": 56,
		"Description": "Double Bladed Axe",
		"GroupID": 31,
		"CardItems": [
			{
				"GoodsType": "GoodsType_Equipment",
				"Id": 19,
				"Count": 1
			}
		],
		"DefaultWeight": 10
	},
	{
		"ID": 57,
		"Description": "Mace",
		"GroupID": 31,
		"CardItems": [
			{
				"GoodsType": "GoodsType_Equipment",
				"Id": 26,
				"Count": 1
			}
		],
		"DefaultWeight": 10
	},
	{
		"ID": 58,
		"Description": "Morning Star",
		"GroupID": 31,
		"CardItems": [
			{
				"GoodsType": "GoodsType_Equipment",
				"Id": 27,
				"Count": 1
			}
		],
		"DefaultWeight": 10
	},
	{
		"ID": 59,
		"Description": "Knight Lance",
		"GroupID": 31,
		"CardItems": [
			{
				"GoodsType": "GoodsType_Equipment",
				"Id": 34,
				"Count": 1
			}
		],
		"DefaultWeight": 10
	},
	{
		"ID": 60,
		"Description": "Trident",
		"GroupID": 31,
		"CardItems": [
			{
				"GoodsType": "GoodsType_Equipment",
				"Id": 35,
				"Count": 1
			}
		],
		"DefaultWeight": 10
	},
	{
		"ID": 61,
		"Description": "Crystal Staff",
		"GroupID": 31,
		"CardItems": [
			{
				"GoodsType": "GoodsType_Equipment",
				"Id": 42,
				"Count": 1
			}
		],
		"DefaultWeight": 10
	},
	{
		"ID": 62,
		"Description": "Wizard Rod",
		"GroupID": 31,
		"CardItems": [
			{
				"GoodsType": "GoodsType_Equipment",
				"Id": 43,
				"Count": 1
			}
		],
		"DefaultWeight": 10
	},
	{
		"ID": 63,
		"Description": "Wood Bow",
		"GroupID": 31,
		"CardItems": [
			{
				"GoodsType": "GoodsType_Equipment",
				"Id": 50,
				"Count": 1
			}
		],
		"DefaultWeight": 10
	},
	{
		"ID": 64,
		"Description": "Knight Armor",
		"GroupID": 31,
		"CardItems": [
			{
				"GoodsType": "GoodsType_Equipment",
				"Id": 55,
				"Count": 1
			}
		],
		"DefaultWeight": 10
	},
	{
		"ID": 65,
		"Description": "Fierce Armor",
		"GroupID": 31,
		"CardItems": [
			{
				"GoodsType": "GoodsType_Equipment",
				"Id": 56,
				"Count": 1
			}
		],
		"DefaultWeight": 10
	},
	{
		"ID": 66,
		"Description": "Battle Vest",
		"GroupID": 31,
		"CardItems": [
			{
				"GoodsType": "GoodsType_Equipment",
				"Id": 62,
				"Count": 1
			}
		],
		"DefaultWeight": 10
	},
	{
		"ID": 67,
		"Description": "Studded Leather",
		"GroupID": 31,
		"CardItems": [
			{
				"GoodsType": "GoodsType_Equipment",
				"Id": 63,
				"Count": 1
			}
		],
		"DefaultWeight": 10
	},
	{
		"ID": 68,
		"Description": "Ritual Robe",
		"GroupID": 31,
		"CardItems": [
			{
				"GoodsType": "GoodsType_Equipment",
				"Id": 69,
				"Count": 1
			}
		],
		"DefaultWeight": 10
	},
	{
		"ID": 69,
		"Description": "Magic Cloak",
		"GroupID": 31,
		"CardItems": [
			{
				"GoodsType": "GoodsType_Equipment",
				"Id": 70,
				"Count": 1
			}
		],
		"DefaultWeight": 10
	},
	{
		"ID": 70,
		"Description": "Knight Helmet",
		"GroupID": 31,
		"CardItems": [
			{
				"GoodsType": "GoodsType_Equipment",
				"Id": 76,
				"Count": 1
			}
		],
		"DefaultWeight": 10
	},
	{
		"ID": 71,
		"Description": "Fierce Helmet",
		"GroupID": 31,
		"CardItems": [
			{
				"GoodsType": "GoodsType_Equipment",
				"Id": 77,
				"Count": 1
			}
		],
		"DefaultWeight": 10
	},
	{
		"ID": 72,
		"Description": "Battle Headband",
		"GroupID": 31,
		"CardItems": [
			{
				"GoodsType": "GoodsType_Equipment",
				"Id": 83,
				"Count": 1
			}
		],
		"DefaultWeight": 10
	},
	{
		"ID": 73,
		"Description": "Refined Leather Helmet",
		"GroupID": 31,
		"CardItems": [
			{
				"GoodsType": "GoodsType_Equipment",
				"Id": 84,
				"Count": 1
			}
		],
		"DefaultWeight": 10
	},
	{
		"ID": 74,
		"Description": "Ritual Hood",
		"GroupID": 31,
		"CardItems": [
			{
				"GoodsType": "GoodsType_Equipment",
				"Id": 90,
				"Count": 1
			}
		],
		"DefaultWeight": 10
	},
	{
		"ID": 75,
		"Description": "Magic Pointed Hat",
		"GroupID": 31,
		"CardItems": [
			{
				"GoodsType": "GoodsType_Equipment",
				"Id": 91,
				"Count": 1
			}
		],
		"DefaultWeight": 10
	},
	{
		"ID": 76,
		"Description": "Kris",
		"GroupID": 32,
		"CardItems": [
			{
				"GoodsType": "GoodsType_Equipment",
				"Id": 4,
				"Count": 1
			}
		],
		"DefaultWeight": 10
	},
	{
		"ID": 77,
		"Description": "Aristocratic Dagger",
		"GroupID": 32,
		"CardItems": [
			{
				"GoodsType": "GoodsType_Equipment",
				"Id": 5,
				"Count": 1
			}
		],
		"DefaultWeight": 10
	},
	{
		"ID": 78,
		"Description": "Mithril Sword",
		"GroupID": 32,
		"CardItems": [
			{
				"GoodsType": "GoodsType_Equipment",
				"Id": 12,
				"Count": 1
			}
		],
		"DefaultWeight": 10
	},
	{
		"ID": 79,
		"Description": "Mithril Axe",
		"GroupID": 32,
		"CardItems": [
			{
				"GoodsType": "GoodsType_Equipment",
				"Id": 20,
				"Count": 1
			}
		],
		"DefaultWeight": 10
	},
	{
		"ID": 80,
		"Description": "Mithril War Hammer",
		"GroupID": 32,
		"CardItems": [
			{
				"GoodsType": "GoodsType_Equipment",
				"Id": 28,
				"Count": 1
			}
		],
		"DefaultWeight": 10
	},
	{
		"ID": 81,
		"Description": "Flail",
		"GroupID": 32,
		"CardItems": [
			{
				"GoodsType": "GoodsType_Equipment",
				"Id": 29,
				"Count": 1
			}
		],
		"DefaultWeight": 10
	},
	{
		"ID": 82,
		"Description": "Blood Lance",
		"GroupID": 32,
		"CardItems": [
			{
				"GoodsType": "GoodsType_Equipment",
				"Id": 36,
				"Count": 1
			}
		],
		"DefaultWeight": 10
	},
	{
		"ID": 83,
		"Description": "Life Staff",
		"GroupID": 32,
		"CardItems": [
			{
				"GoodsType": "GoodsType_Equipment",
				"Id": 45,
				"Count": 1
			}
		],
		"DefaultWeight": 10
	},
	{
		"ID": 84,
		"Description": "Elven Bow",
		"GroupID": 32,
		"CardItems": [
			{
				"GoodsType": "GoodsType_Equipment",
				"Id": 51,
				"Count": 1
			}
		],
		"DefaultWeight": 10
	},
	{
		"ID": 85,
		"Description": "Mithril Armor",
		"GroupID": 32,
		"CardItems": [
			{
				"GoodsType": "GoodsType_Equipment",
				"Id": 57,
				"Count": 1
			}
		],
		"DefaultWeight": 10
	},
	{
		"ID": 86,
		"Description": "Dragon Scale Armor",
		"GroupID": 32,
		"CardItems": [
			{
				"GoodsType": "GoodsType_Equipment",
				"Id": 58,
				"Count": 1
			}
		],
		"DefaultWeight": 10
	},
	{
		"ID": 87,
		"Description": "Feathered Light Armor",
		"GroupID": 32,
		"CardItems": [
			{
				"GoodsType": "GoodsType_Equipment",
				"Id": 65,
				"Count": 1
			}
		],
		"DefaultWeight": 10
	},
	{
		"ID": 88,
		"Description": "Ghost Robe",
		"GroupID": 32,
		"CardItems": [
			{
				"GoodsType": "GoodsType_Equipment",
				"Id": 72,
				"Count": 1
			}
		],
		"DefaultWeight": 10
	},
	{
		"ID": 89,
		"Description": "Chain Helmet",
		"GroupID": 32,
		"CardItems": [
			{
				"GoodsType": "GoodsType_Equipment",
				"Id": 78,
				"Count": 1
			}
		],
		"DefaultWeight": 10
	},
	{
		"ID": 90,
		"Description": "Dragon Scale Helmet",
		"GroupID": 32,
		"CardItems": [
			{
				"GoodsType": "GoodsType_Equipment",
				"Id": 79,
				"Count": 1
			}
		],
		"DefaultWeight": 10
	},
	{
		"ID": 91,
		"Description": "Feathered Hat",
		"GroupID": 32,
		"CardItems": [
			{
				"GoodsType": "GoodsType_Equipment",
				"Id": 86,
				"Count": 1
			}
		],
		"DefaultWeight": 10
	},
	{
		"ID": 92,
		"Description": "Ghost Mask",
		"GroupID": 32,
		"CardItems": [
			{
				"GoodsType": "GoodsType_Equipment",
				"Id": 93,
				"Count": 1
			}
		],
		"DefaultWeight": 10
	},
	{
		"ID": 93,
		"Description": "Greaves",
		"GroupID": 32,
		"CardItems": [
			{
				"GoodsType": "GoodsType_Equipment",
				"Id": 97,
				"Count": 1
			}
		],
		"DefaultWeight": 10
	},
	{
		"ID": 94,
		"Description": "Protect Ring",
		"GroupID": 32,
		"CardItems": [
			{
				"GoodsType": "GoodsType_Equipment",
				"Id": 104,
				"Count": 1
			}
		],
		"DefaultWeight": 10
	},
	{
		"ID": 95,
		"Description": "Sentinel Emblem",
		"GroupID": 32,
		"CardItems": [
			{
				"GoodsType": "GoodsType_Equipment",
				"Id": 111,
				"Count": 1
			}
		],
		"DefaultWeight": 10
	},
	{
		"ID": 96,
		"Description": "Prophet's Pendant",
		"GroupID": 32,
		"CardItems": [
			{
				"GoodsType": "GoodsType_Equipment",
				"Id": 112,
				"Count": 1
			}
		],
		"DefaultWeight": 10
	},
	{
		"ID": 97,
		"Description": "Emblem of Courage",
		"GroupID": 32,
		"CardItems": [
			{
				"GoodsType": "GoodsType_Equipment",
				"Id": 117,
				"Count": 1
			}
		],
		"DefaultWeight": 10
	},
	{
		"ID": 98,
		"Description": "Crystal Anklet",
		"GroupID": 32,
		"CardItems": [
			{
				"GoodsType": "GoodsType_Equipment",
				"Id": 118,
				"Count": 1
			}
		],
		"DefaultWeight": 10
	},
	{
		"ID": 99,
		"Description": "Cross",
		"GroupID": 32,
		"CardItems": [
			{
				"GoodsType": "GoodsType_Equipment",
				"Id": 123,
				"Count": 1
			}
		],
		"DefaultWeight": 10
	},
	{
		"ID": 100,
		"Description": "Scarab",
		"GroupID": 32,
		"CardItems": [
			{
				"GoodsType": "GoodsType_Equipment",
				"Id": 124,
				"Count": 1
			}
		],
		"DefaultWeight": 10
	},
	{
		"ID": 101,
		"Description": "Oath Sword",
		"GroupID": 32,
		"CardItems": [
			{
				"GoodsType": "GoodsType_Equipment",
				"Id": 138,
				"Count": 1
			}
		],
		"DefaultWeight": 10
	},
	{
		"ID": 102,
		"Description": "Crescent Axe",
		"GroupID": 32,
		"CardItems": [
			{
				"GoodsType": "GoodsType_Equipment",
				"Id": 142,
				"Count": 1
			}
		],
		"DefaultWeight": 10
	},
	{
		"ID": 103,
		"Description": "Emerald Lance",
		"GroupID": 32,
		"CardItems": [
			{
				"GoodsType": "GoodsType_Equipment",
				"Id": 148,
				"Count": 1
			}
		],
		"DefaultWeight": 10
	},
	{
		"ID": 104,
		"Description": "Sage Staff",
		"GroupID": 32,
		"CardItems": [
			{
				"GoodsType": "GoodsType_Equipment",
				"Id": 151,
				"Count": 1
			}
		],
		"DefaultWeight": 10
	},
	{
		"ID": 105,
		"Description": "Gemini Bow",
		"GroupID": 32,
		"CardItems": [
			{
				"GoodsType": "GoodsType_Equipment",
				"Id": 154,
				"Count": 1
			}
		],
		"DefaultWeight": 10
	},
	{
		"ID": 106,
		"Description": "Emerald Armor",
		"GroupID": 32,
		"CardItems": [
			{
				"GoodsType": "GoodsType_Equipment",
				"Id": 159,
				"Count": 1
			}
		],
		"DefaultWeight": 10
	},
	{
		"ID": 107,
		"Description": "Survival Vest",
		"GroupID": 32,
		"CardItems": [
			{
				"GoodsType": "GoodsType_Equipment",
				"Id": 167,
				"Count": 1
			}
		],
		"DefaultWeight": 10
	},
	{
		"ID": 108,
		"Description": "Adventurer Jacket",
		"GroupID": 32,
		"CardItems": [
			{
				"GoodsType": "GoodsType_Equipment",
				"Id": 168,
				"Count": 1
			}
		],
		"DefaultWeight": 10
	},
	{
		"ID": 109,
		"Description": "Green Leaf Coat",
		"GroupID": 32,
		"CardItems": [
			{
				"GoodsType": "GoodsType_Equipment",
				"Id": 175,
				"Count": 1
			}
		],
		"DefaultWeight": 10
	},
	{
		"ID": 110,
		"Description": "Emerald Robe",
		"GroupID": 32,
		"CardItems": [
			{
				"GoodsType": "GoodsType_Equipment",
				"Id": 176,
				"Count": 1
			}
		],
		"DefaultWeight": 10
	},
	{
		"ID": 111,
		"Description": "Emerald Helmet",
		"GroupID": 32,
		"CardItems": [
			{
				"GoodsType": "GoodsType_Equipment",
				"Id": 183,
				"Count": 1
			}
		],
		"DefaultWeight": 10
	},
	{
		"ID": 112,
		"Description": "Survival Helmet",
		"GroupID": 32,
		"CardItems": [
			{
				"GoodsType": "GoodsType_Equipment",
				"Id": 191,
				"Count": 1
			}
		],
		"DefaultWeight": 10
	},
	{
		"ID": 113,
		"Description": "Adventurer Hat",
		"GroupID": 32,
		"CardItems": [
			{
				"GoodsType": "GoodsType_Equipment",
				"Id": 192,
				"Count": 1
			}
		],
		"DefaultWeight": 10
	},
	{
		"ID": 114,
		"Description": "Green Leaf Crown",
		"GroupID": 32,
		"CardItems": [
			{
				"GoodsType": "GoodsType_Equipment",
				"Id": 199,
				"Count": 1
			}
		],
		"DefaultWeight": 10
	},
	{
		"ID": 115,
		"Description": "Emerald Crown",
		"GroupID": 32,
		"CardItems": [
			{
				"GoodsType": "GoodsType_Equipment",
				"Id": 200,
				"Count": 1
			}
		],
		"DefaultWeight": 10
	},
	{
		"ID": 116,
		"Description": "Secret Arts Staff",
		"GroupID": 32,
		"CardItems": [
			{
				"GoodsType": "GoodsType_Equipment",
				"Id": 207,
				"Count": 1
			}
		],
		"DefaultWeight": 10
	},
	{
		"ID": 117,
		"Description": "Blessing Staff",
		"GroupID": 32,
		"CardItems": [
			{
				"GoodsType": "GoodsType_Equipment",
				"Id": 215,
				"Count": 1
			}
		],
		"DefaultWeight": 10
	},
	{
		"ID": 118,
		"Description": "Magic Blade Sigma",
		"GroupID": 32,
		"CardItems": [
			{
				"GoodsType": "GoodsType_Equipment",
				"Id": 16,
				"Count": 1
			}
		],
		"DefaultWeight": 10
	},
	{
		"ID": 119,
		"Description": "Rune Axe",
		"GroupID": 32,
		"CardItems": [
			{
				"GoodsType": "GoodsType_Equipment",
				"Id": 21,
				"Count": 1
			}
		],
		"DefaultWeight": 10
	},
	{
		"ID": 120,
		"Description": "Flame Lance",
		"GroupID": 32,
		"CardItems": [
			{
				"GoodsType": "GoodsType_Equipment",
				"Id": 37,
				"Count": 1
			}
		],
		"DefaultWeight": 10
	},
	{
		"ID": 121,
		"Description": "Scorching Staff",
		"GroupID": 32,
		"CardItems": [
			{
				"GoodsType": "GoodsType_Equipment",
				"Id": 44,
				"Count": 1
			}
		],
		"DefaultWeight": 10
	},
	{
		"ID": 122,
		"Description": "Swift Jacket",
		"GroupID": 32,
		"CardItems": [
			{
				"GoodsType": "GoodsType_Equipment",
				"Id": 64,
				"Count": 1
			}
		],
		"DefaultWeight": 10
	},
	{
		"ID": 123,
		"Description": "Devout Coat",
		"GroupID": 32,
		"CardItems": [
			{
				"GoodsType": "GoodsType_Equipment",
				"Id": 71,
				"Count": 1
			}
		],
		"DefaultWeight": 10
	},
	{
		"ID": 124,
		"Description": "Swift Helmet",
		"GroupID": 32,
		"CardItems": [
			{
				"GoodsType": "GoodsType_Equipment",
				"Id": 85,
				"Count": 1
			}
		],
		"DefaultWeight": 10
	},
	{
		"ID": 125,
		"Description": "Devout Crown",
		"GroupID": 32,
		"CardItems": [
			{
				"GoodsType": "GoodsType_Equipment",
				"Id": 92,
				"Count": 1
			}
		],
		"DefaultWeight": 10
	},
	{
		"ID": 126,
		"Description": "Speed Boots",
		"GroupID": 32,
		"CardItems": [
			{
				"GoodsType": "GoodsType_Equipment",
				"Id": 98,
				"Count": 1
			}
		],
		"DefaultWeight": 10
	},
	{
		"ID": 127,
		"Description": "Assault Ring",
		"GroupID": 32,
		"CardItems": [
			{
				"GoodsType": "GoodsType_Equipment",
				"Id": 103,
				"Count": 1
			}
		],
		"DefaultWeight": 10
	},
	{
		"ID": 128,
		"Description": "Meditation Ring",
		"GroupID": 32,
		"CardItems": [
			{
				"GoodsType": "GoodsType_Equipment",
				"Id": 105,
				"Count": 1
			}
		],
		"DefaultWeight": 10
	},
	{
		"ID": 129,
		"Description": "Truth Pendant",
		"GroupID": 32,
		"CardItems": [
			{
				"GoodsType": "GoodsType_Equipment",
				"Id": 113,
				"Count": 1
			}
		],
		"DefaultWeight": 10
	},
	{
		"ID": 130,
		"Description": "Esoteric Slate",
		"GroupID": 32,
		"CardItems": [
			{
				"GoodsType": "GoodsType_Equipment",
				"Id": 119,
				"Count": 1
			}
		],
		"DefaultWeight": 10
	},
	{
		"ID": 131,
		"Description": "圣象",
		"GroupID": 32,
		"CardItems": [
			{
				"GoodsType": "GoodsType_Equipment",
				"Id": 125,
				"Count": 1
			}
		],
		"DefaultWeight": 10
	},
	{
		"ID": 132,
		"Description": "Crystal Ball",
		"GroupID": 32,
		"CardItems": [
			{
				"GoodsType": "GoodsType_Equipment",
				"Id": 129,
				"Count": 1
			}
		],
		"DefaultWeight": 10
	},
	{
		"ID": 133,
		"Description": "Amulet",
		"GroupID": 32,
		"CardItems": [
			{
				"GoodsType": "GoodsType_Equipment",
				"Id": 130,
				"Count": 1
			}
		],
		"DefaultWeight": 10
	},
	{
		"ID": 134,
		"Description": "Scryer",
		"GroupID": 32,
		"CardItems": [
			{
				"GoodsType": "GoodsType_Equipment",
				"Id": 131,
				"Count": 1
			}
		],
		"DefaultWeight": 10
	},
	{
		"ID": 135,
		"Description": "Cinquedea",
		"GroupID": 32,
		"CardItems": [
			{
				"GoodsType": "GoodsType_Equipment",
				"Id": 135,
				"Count": 1
			}
		],
		"DefaultWeight": 10
	},
	{
		"ID": 136,
		"Description": "Emerald Dagger",
		"GroupID": 32,
		"CardItems": [
			{
				"GoodsType": "GoodsType_Equipment",
				"Id": 136,
				"Count": 1
			}
		],
		"DefaultWeight": 10
	},
	{
		"ID": 137,
		"Description": "Injunction Sword",
		"GroupID": 32,
		"CardItems": [
			{
				"GoodsType": "GoodsType_Equipment",
				"Id": 139,
				"Count": 1
			}
		],
		"DefaultWeight": 10
	},
	{
		"ID": 138,
		"Description": "Berserker Axe",
		"GroupID": 32,
		"CardItems": [
			{
				"GoodsType": "GoodsType_Equipment",
				"Id": 143,
				"Count": 1
			}
		],
		"DefaultWeight": 10
	},
	{
		"ID": 139,
		"Description": "Emerald Hammer",
		"GroupID": 32,
		"CardItems": [
			{
				"GoodsType": "GoodsType_Equipment",
				"Id": 145,
				"Count": 1
			}
		],
		"DefaultWeight": 10
	},
	{
		"ID": 140,
		"Description": "Crystal Hammer",
		"GroupID": 32,
		"CardItems": [
			{
				"GoodsType": "GoodsType_Equipment",
				"Id": 146,
				"Count": 1
			}
		],
		"DefaultWeight": 10
	},
	{
		"ID": 141,
		"Description": "Barrier Lance",
		"GroupID": 32,
		"CardItems": [
			{
				"GoodsType": "GoodsType_Equipment",
				"Id": 149,
				"Count": 1
			}
		],
		"DefaultWeight": 10
	},
	{
		"ID": 142,
		"Description": "Burst Staff",
		"GroupID": 32,
		"CardItems": [
			{
				"GoodsType": "GoodsType_Equipment",
				"Id": 152,
				"Count": 1
			}
		],
		"DefaultWeight": 10
	},
	{
		"ID": 143,
		"Description": "Machine Crossbow",
		"GroupID": 32,
		"CardItems": [
			{
				"GoodsType": "GoodsType_Equipment",
				"Id": 155,
				"Count": 1
			}
		],
		"DefaultWeight": 10
	},
	{
		"ID": 144,
		"Description": "Crescent Bow",
		"GroupID": 32,
		"CardItems": [
			{
				"GoodsType": "GoodsType_Equipment",
				"Id": 156,
				"Count": 1
			}
		],
		"DefaultWeight": 10
	},
	{
		"ID": 145,
		"Description": "Holy Steel Armor",
		"GroupID": 32,
		"CardItems": [
			{
				"GoodsType": "GoodsType_Equipment",
				"Id": 160,
				"Count": 1
			}
		],
		"DefaultWeight": 10
	},
	{
		"ID": 146,
		"Description": "Battle Heat Armor",
		"GroupID": 32,
		"CardItems": [
			{
				"GoodsType": "GoodsType_Equipment",
				"Id": 161,
				"Count": 1
			}
		],
		"DefaultWeight": 10
	},
	{
		"ID": 147,
		"Description": "Black Iron Armor",
		"GroupID": 32,
		"CardItems": [
			{
				"GoodsType": "GoodsType_Equipment",
				"Id": 162,
				"Count": 1
			}
		],
		"DefaultWeight": 10
	},
	{
		"ID": 148,
		"Description": "Oak Jacket",
		"GroupID": 32,
		"CardItems": [
			{
				"GoodsType": "GoodsType_Equipment",
				"Id": 169,
				"Count": 1
			}
		],
		"DefaultWeight": 10
	},
	{
		"ID": 149,
		"Description": "Samurai Garb",
		"GroupID": 32,
		"CardItems": [
			{
				"GoodsType": "GoodsType_Equipment",
				"Id": 170,
				"Count": 1
			}
		],
		"DefaultWeight": 10
	},
	{
		"ID": 150,
		"Description": "Alchemy Robe",
		"GroupID": 32,
		"CardItems": [
			{
				"GoodsType": "GoodsType_Equipment",
				"Id": 177,
				"Count": 1
			}
		],
		"DefaultWeight": 10
	},
	{
		"ID": 151,
		"Description": "Chameleon Robe",
		"GroupID": 32,
		"CardItems": [
			{
				"GoodsType": "GoodsType_Equipment",
				"Id": 178,
				"Count": 1
			}
		],
		"DefaultWeight": 10
	},
	{
		"ID": 152,
		"Description": "Horror Helmet",
		"GroupID": 32,
		"CardItems": [
			{
				"GoodsType": "GoodsType_Equipment",
				"Id": 184,
				"Count": 1
			}
		],
		"DefaultWeight": 10
	},
	{
		"ID": 153,
		"Description": "Diamond Helmet",
		"GroupID": 32,
		"CardItems": [
			{
				"GoodsType": "GoodsType_Equipment",
				"Id": 185,
				"Count": 1
			}
		],
		"DefaultWeight": 10
	},
	{
		"ID": 154,
		"Description": "Berserker Helmet",
		"GroupID": 32,
		"CardItems": [
			{
				"GoodsType": "GoodsType_Equipment",
				"Id": 186,
				"Count": 1
			}
		],
		"DefaultWeight": 10
	},
	{
		"ID": 155,
		"Description": "Performer Mask",
		"GroupID": 32,
		"CardItems": [
			{
				"GoodsType": "GoodsType_Equipment",
				"Id": 193,
				"Count": 1
			}
		],
		"DefaultWeight": 10
	},
	{
		"ID": 156,
		"Description": "Oak Crown",
		"GroupID": 32,
		"CardItems": [
			{
				"GoodsType": "GoodsType_Equipment",
				"Id": 194,
				"Count": 1
			}
		],
		"DefaultWeight": 10
	},
	{
		"ID": 157,
		"Description": "Warlock's Hood",
		"GroupID": 32,
		"CardItems": [
			{
				"GoodsType": "GoodsType_Equipment",
				"Id": 201,
				"Count": 1
			}
		],
		"DefaultWeight": 10
	},
	{
		"ID": 158,
		"Description": "Sage Hat",
		"GroupID": 32,
		"CardItems": [
			{
				"GoodsType": "GoodsType_Equipment",
				"Id": 202,
				"Count": 1
			}
		],
		"DefaultWeight": 10
	},
	{
		"ID": 159,
		"Description": "Galaxy Staff",
		"GroupID": 32,
		"CardItems": [
			{
				"GoodsType": "GoodsType_Equipment",
				"Id": 208,
				"Count": 1
			}
		],
		"DefaultWeight": 10
	},
	{
		"ID": 160,
		"Description": "Angel Staff",
		"GroupID": 32,
		"CardItems": [
			{
				"GoodsType": "GoodsType_Equipment",
				"Id": 216,
				"Count": 1
			}
		],
		"DefaultWeight": 10
	},
	{
		"ID": 161,
		"Description": "Nighthawk",
		"GroupID": 33,
		"CardItems": [
			{
				"GoodsType": "GoodsType_Equipment",
				"Id": 6,
				"Count": 1
			}
		],
		"DefaultWeight": 10
	},
	{
		"ID": 162,
		"Description": "Wind Cutter Dagger",
		"GroupID": 33,
		"CardItems": [
			{
				"GoodsType": "GoodsType_Equipment",
				"Id": 8,
				"Count": 1
			}
		],
		"DefaultWeight": 10
	},
	{
		"ID": 163,
		"Description": "Frostrend",
		"GroupID": 33,
		"CardItems": [
			{
				"GoodsType": "GoodsType_Equipment",
				"Id": 13,
				"Count": 1
			}
		],
		"DefaultWeight": 10
	},
	{
		"ID": 164,
		"Description": "Devil Axe",
		"GroupID": 33,
		"CardItems": [
			{
				"GoodsType": "GoodsType_Equipment",
				"Id": 22,
				"Count": 1
			}
		],
		"DefaultWeight": 10
	},
	{
		"ID": 165,
		"Description": "Broken Star",
		"GroupID": 33,
		"CardItems": [
			{
				"GoodsType": "GoodsType_Equipment",
				"Id": 32,
				"Count": 1
			}
		],
		"DefaultWeight": 10
	},
	{
		"ID": 166,
		"Description": "Last Knight",
		"GroupID": 33,
		"CardItems": [
			{
				"GoodsType": "GoodsType_Equipment",
				"Id": 38,
				"Count": 1
			}
		],
		"DefaultWeight": 10
	},
	{
		"ID": 167,
		"Description": "Hydra's Bow",
		"GroupID": 33,
		"CardItems": [
			{
				"GoodsType": "GoodsType_Equipment",
				"Id": 53,
				"Count": 1
			}
		],
		"DefaultWeight": 10
	},
	{
		"ID": 168,
		"Description": "Seal Guardian",
		"GroupID": 33,
		"CardItems": [
			{
				"GoodsType": "GoodsType_Equipment",
				"Id": 140,
				"Count": 1
			}
		],
		"DefaultWeight": 10
	},
	{
		"ID": 169,
		"Description": "Peacemaker",
		"GroupID": 33,
		"CardItems": [
			{
				"GoodsType": "GoodsType_Equipment",
				"Id": 144,
				"Count": 1
			}
		],
		"DefaultWeight": 10
	},
	{
		"ID": 170,
		"Description": "Goddess's Left Hand",
		"GroupID": 33,
		"CardItems": [
			{
				"GoodsType": "GoodsType_Equipment",
				"Id": 153,
				"Count": 1
			}
		],
		"DefaultWeight": 10
	},
	{
		"ID": 171,
		"Description": "Bloody Melody",
		"GroupID": 33,
		"CardItems": [
			{
				"GoodsType": "GoodsType_Equipment",
				"Id": 157,
				"Count": 1
			}
		],
		"DefaultWeight": 10
	},
	{
		"ID": 172,
		"Description": "Blue Moon",
		"GroupID": 33,
		"CardItems": [
			{
				"GoodsType": "GoodsType_Equipment",
				"Id": 212,
				"Count": 1
			}
		],
		"DefaultWeight": 10
	},
	{
		"ID": 173,
		"Description": "Olver's Staff",
		"GroupID": 33,
		"CardItems": [
			{
				"GoodsType": "GoodsType_Equipment",
				"Id": 213,
				"Count": 1
			}
		],
		"DefaultWeight": 10
	},
	{
		"ID": 174,
		"Description": "Purgatory",
		"GroupID": 33,
		"CardItems": [
			{
				"GoodsType": "GoodsType_Equipment",
				"Id": 214,
				"Count": 1
			}
		],
		"DefaultWeight": 10
	},
	{
		"ID": 175,
		"Description": "Aeneas' Armor",
		"GroupID": 33,
		"CardItems": [
			{
				"GoodsType": "GoodsType_Equipment",
				"Id": 59,
				"Count": 1
			}
		],
		"DefaultWeight": 10
	},
	{
		"ID": 176,
		"Description": "Twilight Armor",
		"GroupID": 33,
		"CardItems": [
			{
				"GoodsType": "GoodsType_Equipment",
				"Id": 66,
				"Count": 1
			}
		],
		"DefaultWeight": 10
	},
	{
		"ID": 177,
		"Description": "Assault Suit",
		"GroupID": 33,
		"CardItems": [
			{
				"GoodsType": "GoodsType_Equipment",
				"Id": 67,
				"Count": 1
			}
		],
		"DefaultWeight": 10
	},
	{
		"ID": 178,
		"Description": "Dark Robe",
		"GroupID": 33,
		"CardItems": [
			{
				"GoodsType": "GoodsType_Equipment",
				"Id": 74,
				"Count": 1
			}
		],
		"DefaultWeight": 10
	},
	{
		"ID": 179,
		"Description": "Mirror Armor",
		"GroupID": 33,
		"CardItems": [
			{
				"GoodsType": "GoodsType_Equipment",
				"Id": 165,
				"Count": 1
			}
		],
		"DefaultWeight": 10
	},
	{
		"ID": 180,
		"Description": "Carbon Fiber Armor",
		"GroupID": 33,
		"CardItems": [
			{
				"GoodsType": "GoodsType_Equipment",
				"Id": 166,
				"Count": 1
			}
		],
		"DefaultWeight": 10
	},
	{
		"ID": 181,
		"Description": "Gargoyle Jacket",
		"GroupID": 33,
		"CardItems": [
			{
				"GoodsType": "GoodsType_Equipment",
				"Id": 171,
				"Count": 1
			}
		],
		"DefaultWeight": 10
	},
	{
		"ID": 182,
		"Description": "Goddess Dress",
		"GroupID": 33,
		"CardItems": [
			{
				"GoodsType": "GoodsType_Equipment",
				"Id": 179,
				"Count": 1
			}
		],
		"DefaultWeight": 10
	},
	{
		"ID": 183,
		"Description": "Galaxy Cloak",
		"GroupID": 33,
		"CardItems": [
			{
				"GoodsType": "GoodsType_Equipment",
				"Id": 180,
				"Count": 1
			}
		],
		"DefaultWeight": 10
	},
	{
		"ID": 184,
		"Description": "Death's Robe",
		"GroupID": 33,
		"CardItems": [
			{
				"GoodsType": "GoodsType_Equipment",
				"Id": 181,
				"Count": 1
			}
		],
		"DefaultWeight": 10
	},
	{
		"ID": 185,
		"Description": "Aeneas' Helmet",
		"GroupID": 33,
		"CardItems": [
			{
				"GoodsType": "GoodsType_Equipment",
				"Id": 80,
				"Count": 1
			}
		],
		"DefaultWeight": 10
	},
	{
		"ID": 186,
		"Description": "Twilight Helmet",
		"GroupID": 33,
		"CardItems": [
			{
				"GoodsType": "GoodsType_Equipment",
				"Id": 87,
				"Count": 1
			}
		],
		"DefaultWeight": 10
	},
	{
		"ID": 187,
		"Description": "Assault Headgear",
		"GroupID": 33,
		"CardItems": [
			{
				"GoodsType": "GoodsType_Equipment",
				"Id": 88,
				"Count": 1
			}
		],
		"DefaultWeight": 10
	},
	{
		"ID": 188,
		"Description": "Dark Crown",
		"GroupID": 33,
		"CardItems": [
			{
				"GoodsType": "GoodsType_Equipment",
				"Id": 95,
				"Count": 1
			}
		],
		"DefaultWeight": 10
	},
	{
		"ID": 189,
		"Description": "Reaper Breath",
		"GroupID": 33,
		"CardItems": [
			{
				"GoodsType": "GoodsType_Equipment",
				"Id": 189,
				"Count": 1
			}
		],
		"DefaultWeight": 10
	},
	{
		"ID": 190,
		"Description": "Carbon Fiber Helm",
		"GroupID": 33,
		"CardItems": [
			{
				"GoodsType": "GoodsType_Equipment",
				"Id": 190,
				"Count": 1
			}
		],
		"DefaultWeight": 10
	},
	{
		"ID": 191,
		"Description": "Loki's Mask",
		"GroupID": 33,
		"CardItems": [
			{
				"GoodsType": "GoodsType_Equipment",
				"Id": 196,
				"Count": 1
			}
		],
		"DefaultWeight": 10
	},
	{
		"ID": 192,
		"Description": "Tiara",
		"GroupID": 33,
		"CardItems": [
			{
				"GoodsType": "GoodsType_Equipment",
				"Id": 203,
				"Count": 1
			}
		],
		"DefaultWeight": 10
	},
	{
		"ID": 193,
		"Description": "Holy Ring",
		"GroupID": 33,
		"CardItems": [
			{
				"GoodsType": "GoodsType_Equipment",
				"Id": 107,
				"Count": 1
			}
		],
		"DefaultWeight": 10
	},
	{
		"ID": 194,
		"Description": "Draupnir",
		"GroupID": 33,
		"CardItems": [
			{
				"GoodsType": "GoodsType_Equipment",
				"Id": 108,
				"Count": 1
			}
		],
		"DefaultWeight": 10
	},
	{
		"ID": 195,
		"Description": "Slayer's Emblem",
		"GroupID": 33,
		"CardItems": [
			{
				"GoodsType": "GoodsType_Equipment",
				"Id": 114,
				"Count": 1
			}
		],
		"DefaultWeight": 10
	},
	{
		"ID": 196,
		"Description": "Veil of Light",
		"GroupID": 33,
		"CardItems": [
			{
				"GoodsType": "GoodsType_Equipment",
				"Id": 120,
				"Count": 1
			}
		],
		"DefaultWeight": 10
	},
	{
		"ID": 197,
		"Description": "Star Earring",
		"GroupID": 33,
		"CardItems": [
			{
				"GoodsType": "GoodsType_Equipment",
				"Id": 121,
				"Count": 1
			}
		],
		"DefaultWeight": 10
	},
	{
		"ID": 198,
		"Description": "Holy Ark",
		"GroupID": 33,
		"CardItems": [
			{
				"GoodsType": "GoodsType_Equipment",
				"Id": 126,
				"Count": 1
			}
		],
		"DefaultWeight": 10
	},
	{
		"ID": 199,
		"Description": "True Cross",
		"GroupID": 33,
		"CardItems": [
			{
				"GoodsType": "GoodsType_Equipment",
				"Id": 127,
				"Count": 1
			}
		],
		"DefaultWeight": 10
	},
	{
		"ID": 200,
		"Description": "Holy Grail",
		"GroupID": 33,
		"CardItems": [
			{
				"GoodsType": "GoodsType_Equipment",
				"Id": 128,
				"Count": 1
			}
		],
		"DefaultWeight": 10
	},
	{
		"ID": 201,
		"Description": "Angel Feather",
		"GroupID": 33,
		"CardItems": [
			{
				"GoodsType": "GoodsType_Equipment",
				"Id": 133,
				"Count": 1
			}
		],
		"DefaultWeight": 10
	},
	{
		"ID": 202,
		"Description": "Giant Belt",
		"GroupID": 33,
		"CardItems": [
			{
				"GoodsType": "GoodsType_Equipment",
				"Id": 256,
				"Count": 1
			}
		],
		"DefaultWeight": 10
	},
	{
		"ID": 203,
		"Description": "Elven Belt",
		"GroupID": 33,
		"CardItems": [
			{
				"GoodsType": "GoodsType_Equipment",
				"Id": 257,
				"Count": 1
			}
		],
		"DefaultWeight": 10
	},
	{
		"ID": 204,
		"Description": "Lone Star Armlet",
		"GroupID": 33,
		"CardItems": [
			{
				"GoodsType": "GoodsType_Equipment",
				"Id": 258,
				"Count": 1
			}
		],
		"DefaultWeight": 10
	},
	{
		"ID": 205,
		"Description": "Judge Talisman",
		"GroupID": 33,
		"CardItems": [
			{
				"GoodsType": "GoodsType_Equipment",
				"Id": 261,
				"Count": 1
			}
		],
		"DefaultWeight": 10
	},
	{
		"ID": 206,
		"Description": "Eye of the Beholder",
		"GroupID": 33,
		"CardItems": [
			{
				"GoodsType": "GoodsType_Equipment",
				"Id": 262,
				"Count": 1
			}
		],
		"DefaultWeight": 10
	},
	{
		"ID": 207,
		"Description": "Báthory, the Seductress",
		"GroupID": 33,
		"CardItems": [
			{
				"GoodsType": "GoodsType_Equipment",
				"Id": 7,
				"Count": 1
			}
		],
		"DefaultWeight": 10
	},
	{
		"ID": 208,
		"Description": "Dragonslayer Gram",
		"GroupID": 33,
		"CardItems": [
			{
				"GoodsType": "GoodsType_Equipment",
				"Id": 14,
				"Count": 1
			}
		],
		"DefaultWeight": 10
	},
	{
		"ID": 209,
		"Description": "Blood Sword Hrunting",
		"GroupID": 33,
		"CardItems": [
			{
				"GoodsType": "GoodsType_Equipment",
				"Id": 15,
				"Count": 1
			}
		],
		"DefaultWeight": 10
	},
	{
		"ID": 210,
		"Description": "Throne Guardian",
		"GroupID": 33,
		"CardItems": [
			{
				"GoodsType": "GoodsType_Equipment",
				"Id": 23,
				"Count": 1
			}
		],
		"DefaultWeight": 10
	},
	{
		"ID": 211,
		"Description": "Ragnarok",
		"GroupID": 33,
		"CardItems": [
			{
				"GoodsType": "GoodsType_Equipment",
				"Id": 24,
				"Count": 1
			}
		],
		"DefaultWeight": 10
	},
	{
		"ID": 212,
		"Description": "Oath of Justice",
		"GroupID": 33,
		"CardItems": [
			{
				"GoodsType": "GoodsType_Equipment",
				"Id": 30,
				"Count": 1
			}
		],
		"DefaultWeight": 10
	},
	{
		"ID": 213,
		"Description": "Mjölnir",
		"GroupID": 33,
		"CardItems": [
			{
				"GoodsType": "GoodsType_Equipment",
				"Id": 31,
				"Count": 1
			}
		],
		"DefaultWeight": 10
	},
	{
		"ID": 214,
		"Description": "Cursed Lance",
		"GroupID": 33,
		"CardItems": [
			{
				"GoodsType": "GoodsType_Equipment",
				"Id": 39,
				"Count": 1
			}
		],
		"DefaultWeight": 10
	},
	{
		"ID": 215,
		"Description": "Blue Star",
		"GroupID": 33,
		"CardItems": [
			{
				"GoodsType": "GoodsType_Equipment",
				"Id": 40,
				"Count": 1
			}
		],
		"DefaultWeight": 10
	},
	{
		"ID": 216,
		"Description": "Mistletoe",
		"GroupID": 33,
		"CardItems": [
			{
				"GoodsType": "GoodsType_Equipment",
				"Id": 46,
				"Count": 1
			}
		],
		"DefaultWeight": 10
	},
	{
		"ID": 217,
		"Description": "Astaroth",
		"GroupID": 33,
		"CardItems": [
			{
				"GoodsType": "GoodsType_Equipment",
				"Id": 47,
				"Count": 1
			}
		],
		"DefaultWeight": 10
	},
	{
		"ID": 218,
		"Description": "Miracle Staff",
		"GroupID": 33,
		"CardItems": [
			{
				"GoodsType": "GoodsType_Equipment",
				"Id": 48,
				"Count": 1
			}
		],
		"DefaultWeight": 10
	},
	{
		"ID": 219,
		"Description": "Ullr's Bow",
		"GroupID": 33,
		"CardItems": [
			{
				"GoodsType": "GoodsType_Equipment",
				"Id": 52,
				"Count": 1
			}
		],
		"DefaultWeight": 10
	},
	{
		"ID": 220,
		"Description": "Spirit Griever",
		"GroupID": 33,
		"CardItems": [
			{
				"GoodsType": "GoodsType_Equipment",
				"Id": 137,
				"Count": 1
			}
		],
		"DefaultWeight": 10
	},
	{
		"ID": 221,
		"Description": "Gift of Eternal Life",
		"GroupID": 33,
		"CardItems": [
			{
				"GoodsType": "GoodsType_Equipment",
				"Id": 147,
				"Count": 1
			}
		],
		"DefaultWeight": 10
	},
	{
		"ID": 222,
		"Description": "Yggdrasil Branch",
		"GroupID": 33,
		"CardItems": [
			{
				"GoodsType": "GoodsType_Equipment",
				"Id": 150,
				"Count": 1
			}
		],
		"DefaultWeight": 10
	},
	{
		"ID": 223,
		"Description": "Extreme Magic Bow",
		"GroupID": 33,
		"CardItems": [
			{
				"GoodsType": "GoodsType_Equipment",
				"Id": 158,
				"Count": 1
			}
		],
		"DefaultWeight": 10
	},
	{
		"ID": 224,
		"Description": "Gate of Truth",
		"GroupID": 33,
		"CardItems": [
			{
				"GoodsType": "GoodsType_Equipment",
				"Id": 209,
				"Count": 1
			}
		],
		"DefaultWeight": 10
	},
	{
		"ID": 225,
		"Description": "Red Moon",
		"GroupID": 33,
		"CardItems": [
			{
				"GoodsType": "GoodsType_Equipment",
				"Id": 210,
				"Count": 1
			}
		],
		"DefaultWeight": 10
	},
	{
		"ID": 226,
		"Description": "Gaea's Armor",
		"GroupID": 33,
		"CardItems": [
			{
				"GoodsType": "GoodsType_Equipment",
				"Id": 60,
				"Count": 1
			}
		],
		"DefaultWeight": 10
	},
	{
		"ID": 227,
		"Description": "Tennyo's Robe",
		"GroupID": 33,
		"CardItems": [
			{
				"GoodsType": "GoodsType_Equipment",
				"Id": 73,
				"Count": 1
			}
		],
		"DefaultWeight": 10
	},
	{
		"ID": 228,
		"Description": "Bloodline Magic Armor",
		"GroupID": 33,
		"CardItems": [
			{
				"GoodsType": "GoodsType_Equipment",
				"Id": 163,
				"Count": 1
			}
		],
		"DefaultWeight": 10
	},
	{
		"ID": 229,
		"Description": "Aeolus' Battle Armor",
		"GroupID": 33,
		"CardItems": [
			{
				"GoodsType": "GoodsType_Equipment",
				"Id": 164,
				"Count": 1
			}
		],
		"DefaultWeight": 10
	},
	{
		"ID": 230,
		"Description": "Monkey King's Vest",
		"GroupID": 33,
		"CardItems": [
			{
				"GoodsType": "GoodsType_Equipment",
				"Id": 172,
				"Count": 1
			}
		],
		"DefaultWeight": 10
	},
	{
		"ID": 231,
		"Description": "Demon Lizard Skin",
		"GroupID": 33,
		"CardItems": [
			{
				"GoodsType": "GoodsType_Equipment",
				"Id": 173,
				"Count": 1
			}
		],
		"DefaultWeight": 10
	},
	{
		"ID": 232,
		"Description": "Last Rites",
		"GroupID": 33,
		"CardItems": [
			{
				"GoodsType": "GoodsType_Equipment",
				"Id": 174,
				"Count": 1
			}
		],
		"DefaultWeight": 10
	},
	{
		"ID": 233,
		"Description": "Baldr's White Robe",
		"GroupID": 33,
		"CardItems": [
			{
				"GoodsType": "GoodsType_Equipment",
				"Id": 182,
				"Count": 1
			}
		],
		"DefaultWeight": 10
	},
	{
		"ID": 234,
		"Description": "Gaea's Helmet",
		"GroupID": 33,
		"CardItems": [
			{
				"GoodsType": "GoodsType_Equipment",
				"Id": 81,
				"Count": 1
			}
		],
		"DefaultWeight": 10
	},
	{
		"ID": 235,
		"Description": "Tennyo's Headdress",
		"GroupID": 33,
		"CardItems": [
			{
				"GoodsType": "GoodsType_Equipment",
				"Id": 94,
				"Count": 1
			}
		],
		"DefaultWeight": 10
	},
	{
		"ID": 236,
		"Description": "Chief's Helmet",
		"GroupID": 33,
		"CardItems": [
			{
				"GoodsType": "GoodsType_Equipment",
				"Id": 187,
				"Count": 1
			}
		],
		"DefaultWeight": 10
	},
	{
		"ID": 237,
		"Description": "Vampire Mask",
		"GroupID": 33,
		"CardItems": [
			{
				"GoodsType": "GoodsType_Equipment",
				"Id": 188,
				"Count": 1
			}
		],
		"DefaultWeight": 10
	},
	{
		"ID": 238,
		"Description": "King's Crown",
		"GroupID": 33,
		"CardItems": [
			{
				"GoodsType": "GoodsType_Equipment",
				"Id": 195,
				"Count": 1
			}
		],
		"DefaultWeight": 10
	},
	{
		"ID": 239,
		"Description": "Jörmungandr's Eye",
		"GroupID": 33,
		"CardItems": [
			{
				"GoodsType": "GoodsType_Equipment",
				"Id": 197,
				"Count": 1
			}
		],
		"DefaultWeight": 10
	},
	{
		"ID": 240,
		"Description": "Njord's Feathered Crown",
		"GroupID": 33,
		"CardItems": [
			{
				"GoodsType": "GoodsType_Equipment",
				"Id": 198,
				"Count": 1
			}
		],
		"DefaultWeight": 10
	},
	{
		"ID": 241,
		"Description": "Soul Stealer Headdress",
		"GroupID": 33,
		"CardItems": [
			{
				"GoodsType": "GoodsType_Equipment",
				"Id": 204,
				"Count": 1
			}
		],
		"DefaultWeight": 10
	},
	{
		"ID": 242,
		"Description": "Charon",
		"GroupID": 33,
		"CardItems": [
			{
				"GoodsType": "GoodsType_Equipment",
				"Id": 205,
				"Count": 1
			}
		],
		"DefaultWeight": 10
	},
	{
		"ID": 243,
		"Description": "Odin's Battle Helm",
		"GroupID": 33,
		"CardItems": [
			{
				"GoodsType": "GoodsType_Equipment",
				"Id": 206,
				"Count": 1
			}
		],
		"DefaultWeight": 10
	},
	{
		"ID": 244,
		"Description": "Winged Shin Guards",
		"GroupID": 33,
		"CardItems": [
			{
				"GoodsType": "GoodsType_Equipment",
				"Id": 99,
				"Count": 1
			}
		],
		"DefaultWeight": 10
	},
	{
		"ID": 245,
		"Description": "Divine Boots",
		"GroupID": 33,
		"CardItems": [
			{
				"GoodsType": "GoodsType_Equipment",
				"Id": 100,
				"Count": 1
			}
		],
		"DefaultWeight": 10
	},
	{
		"ID": 246,
		"Description": "Elven Ring",
		"GroupID": 33,
		"CardItems": [
			{
				"GoodsType": "GoodsType_Equipment",
				"Id": 106,
				"Count": 1
			}
		],
		"DefaultWeight": 10
	},
	{
		"ID": 247,
		"Description": "Goddess Tear",
		"GroupID": 33,
		"CardItems": [
			{
				"GoodsType": "GoodsType_Equipment",
				"Id": 115,
				"Count": 1
			}
		],
		"DefaultWeight": 10
	},
	{
		"ID": 248,
		"Description": "Dimensional Jewel",
		"GroupID": 33,
		"CardItems": [
			{
				"GoodsType": "GoodsType_Equipment",
				"Id": 116,
				"Count": 1
			}
		],
		"DefaultWeight": 10
	},
	{
		"ID": 249,
		"Description": "Overlord Badge",
		"GroupID": 33,
		"CardItems": [
			{
				"GoodsType": "GoodsType_Equipment",
				"Id": 122,
				"Count": 1
			}
		],
		"DefaultWeight": 10
	},
	{
		"ID": 250,
		"Description": "King Amulet",
		"GroupID": 33,
		"CardItems": [
			{
				"GoodsType": "GoodsType_Equipment",
				"Id": 132,
				"Count": 1
			}
		],
		"DefaultWeight": 10
	},
	{
		"ID": 251,
		"Description": "Blood Pact",
		"GroupID": 33,
		"CardItems": [
			{
				"GoodsType": "GoodsType_Equipment",
				"Id": 134,
				"Count": 1
			}
		],
		"DefaultWeight": 10
	},
	{
		"ID": 252,
		"Description": "Thor's Necklace",
		"GroupID": 33,
		"CardItems": [
			{
				"GoodsType": "GoodsType_Equipment",
				"Id": 260,
				"Count": 1
			}
		],
		"DefaultWeight": 10
	},
	{
		"ID": 253,
		"Description": "Spirit Boots",
		"GroupID": 33,
		"CardItems": [
			{
				"GoodsType": "GoodsType_Equipment",
				"Id": 263,
				"Count": 1
			}
		],
		"DefaultWeight": 10
	},
	{
		"ID": 254,
		"Description": "Vidar's Rose",
		"GroupID": 33,
		"CardItems": [
			{
				"GoodsType": "GoodsType_Equipment",
				"Id": 264,
				"Count": 1
			}
		],
		"DefaultWeight": 10
	}
]