[
	{
		"ID": 1,
		"Name": "Village",
		"Desc": "Village",
		"FuncType": "CollectionActivityWaypointFuncType_Default",
		"WaypointsID": [
			6,
			11
		],
		"Model": "CollectionActivityMap/Waypoint1_ABS/Icon_Christmas3_Prefab.prefab",
		"InitState": "CollectionActivityWaypointStateType_Locked",
		"ScenarioLevelIdList": [
			4,
			6,
			12,
			15,
			23
		],
		"ChallengeLevelIdList": [
			1
		],
		"LootLevelIdList": [
			4,
			15,
			16
		]
	},
	{
		"ID": 2,
		"Name": "Camp",
		"Desc": "Camp",
		"FuncType": "CollectionActivityWaypointFuncType_Default",
		"WaypointsID": [
			9,
			12
		],
		"Model": "CollectionActivityMap/Waypoint1_ABS/Icon_Christmas1_Prefab.prefab",
		"InitState": "CollectionActivityWaypointStateType_Unlocked",
		"ScenarioLevelIdList": [
			1,
			8,
			9,
			16,
			19,
			22,
			26
		],
		"ChallengeLevelIdList": [
			4
		],
		"LootLevelIdList": [
			1,
			5,
			9,
			13
		]
	},
	{
		"ID": 3,
		"Name": "集市",
		"Desc": "集市",
		"FuncType": "CollectionActivityWaypointFuncType_Default",
		"WaypointsID": [
			8
		],
		"Model": "CollectionActivityMap/Waypoint1_ABS/Icon_Christmas4_Prefab.prefab",
		"InitState": "CollectionActivityWaypointStateType_Locked",
		"ScenarioLevelIdList": [
			3,
			7,
			11,
			17,
			20,
			25,
			28
		],
		"ChallengeLevelIdList": [
			3
		],
		"LootLevelIdList": [
			8,
			12
		]
	},
	{
		"ID": 4,
		"Name": "Eatery",
		"Desc": "Eatery",
		"FuncType": "CollectionActivityWaypointFuncType_Default",
		"WaypointsID": [
			13,
			14
		],
		"Model": "CollectionActivityMap/Waypoint1_ABS/Icon_Christmas5_Prefab.prefab",
		"InitState": "CollectionActivityWaypointStateType_Locked",
		"ScenarioLevelIdList": [
			2,
			10,
			14,
			18,
			24,
			27
		],
		"ChallengeLevelIdList": [
			5
		],
		"LootLevelIdList": [
			3,
			7,
			11
		]
	},
	{
		"ID": 5,
		"Name": "Mountain Valley",
		"Desc": "Mountain Valley",
		"FuncType": "CollectionActivityWaypointFuncType_Default",
		"WaypointsID": [
			16
		],
		"Model": "CollectionActivityMap/Waypoint1_ABS/Icon_Christmas2_Prefab.prefab",
		"InitState": "CollectionActivityWaypointStateType_Locked",
		"ScenarioLevelIdList": [
			5,
			13,
			21
		],
		"ChallengeLevelIdList": [
			2
		],
		"LootLevelIdList": [
			2,
			6,
			10,
			14
		]
	},
	{
		"ID": 6,
		"Name": "Waypoint 6",
		"Desc": "Waypoint 6",
		"FuncType": "CollectionActivityWaypointFuncType_Empty",
		"WaypointsID": [
			1,
			7
		],
		"Model": "CollectionActivityMap/Waypoint1_ABS/Icon-ThePlace_Prefab.prefab",
		"InitState": "CollectionActivityWaypointStateType_Unlocked"
	},
	{
		"ID": 7,
		"Name": "Waypoint 7",
		"Desc": "Waypoint 7",
		"FuncType": "CollectionActivityWaypointFuncType_Empty",
		"WaypointsID": [
			6,
			8
		],
		"Model": "CollectionActivityMap/Waypoint1_ABS/Icon-ThePlace_Prefab.prefab",
		"InitState": "CollectionActivityWaypointStateType_Unlocked"
	},
	{
		"ID": 8,
		"Name": "Waypoint 8",
		"Desc": "Waypoint 8",
		"FuncType": "CollectionActivityWaypointFuncType_Empty",
		"WaypointsID": [
			7,
			3
		],
		"Model": "CollectionActivityMap/Waypoint1_ABS/Icon-ThePlace_Prefab.prefab",
		"InitState": "CollectionActivityWaypointStateType_Unlocked"
	},
	{
		"ID": 9,
		"Name": "路点9",
		"Desc": "路点9",
		"FuncType": "CollectionActivityWaypointFuncType_Empty",
		"WaypointsID": [
			2,
			10
		],
		"Model": "CollectionActivityMap/Waypoint1_ABS/Icon-ThePlace_Prefab.prefab",
		"InitState": "CollectionActivityWaypointStateType_Unlocked"
	},
	{
		"ID": 10,
		"Name": "路点10",
		"Desc": "路点10",
		"FuncType": "CollectionActivityWaypointFuncType_Empty",
		"WaypointsID": [
			9,
			11
		],
		"Model": "CollectionActivityMap/Waypoint1_ABS/Icon-ThePlace_Prefab.prefab",
		"InitState": "CollectionActivityWaypointStateType_Unlocked"
	},
	{
		"ID": 11,
		"Name": "Waypoint 11",
		"Desc": "Waypoint 11",
		"FuncType": "CollectionActivityWaypointFuncType_Empty",
		"WaypointsID": [
			10,
			1
		],
		"Model": "CollectionActivityMap/Waypoint1_ABS/Icon-ThePlace_Prefab.prefab",
		"InitState": "CollectionActivityWaypointStateType_Unlocked"
	},
	{
		"ID": 12,
		"Name": "Waypoint 12",
		"Desc": "Waypoint 12",
		"FuncType": "CollectionActivityWaypointFuncType_Empty",
		"WaypointsID": [
			2,
			13
		],
		"Model": "CollectionActivityMap/Waypoint1_ABS/Icon-ThePlace_Prefab.prefab",
		"InitState": "CollectionActivityWaypointStateType_Unlocked"
	},
	{
		"ID": 13,
		"Name": "Waypoint 13",
		"Desc": "Waypoint 13",
		"FuncType": "CollectionActivityWaypointFuncType_Empty",
		"WaypointsID": [
			12,
			4
		],
		"Model": "CollectionActivityMap/Waypoint1_ABS/Icon-ThePlace_Prefab.prefab",
		"InitState": "CollectionActivityWaypointStateType_Unlocked"
	},
	{
		"ID": 14,
		"Name": "Waypoint 14",
		"Desc": "Waypoint 14",
		"FuncType": "CollectionActivityWaypointFuncType_Empty",
		"WaypointsID": [
			4,
			15
		],
		"Model": "CollectionActivityMap/Waypoint1_ABS/Icon-ThePlace_Prefab.prefab",
		"InitState": "CollectionActivityWaypointStateType_Unlocked"
	},
	{
		"ID": 15,
		"Name": "Waypoint 15",
		"Desc": "Waypoint 15",
		"FuncType": "CollectionActivityWaypointFuncType_Empty",
		"WaypointsID": [
			14,
			16
		],
		"Model": "CollectionActivityMap/Waypoint1_ABS/Icon-ThePlace_Prefab.prefab",
		"InitState": "CollectionActivityWaypointStateType_Unlocked"
	},
	{
		"ID": 16,
		"Name": "Waypoint 16",
		"Desc": "Waypoint 16",
		"FuncType": "CollectionActivityWaypointFuncType_Empty",
		"WaypointsID": [
			15,
			5
		],
		"Model": "CollectionActivityMap/Waypoint1_ABS/Icon-ThePlace_Prefab.prefab",
		"InitState": "CollectionActivityWaypointStateType_Unlocked"
	}
]