v -0.015705641359090805 0.009618383832275867 0.0911022275686264
v -0.004956535529345274 0.014665772207081318 0.06595262885093689
v -0.01897321827709675 -0.017438219860196114 -0.00666675204411149
v -0.01897321827709675 -0.017438219860196114 -0.00666675204411149
v -0.025972861796617508 -0.010891221463680267 -0.006666930858045816
v -0.015705641359090805 0.009618383832275867 0.0911022275686264
v -0.00289896153844893 0.03162385895848274 0.030607309192419052
v 0.008100190199911594 0.03033522702753544 0.03312111645936966
v 0.000750736566260457 0.031699731945991516 0.07640169560909271
v 0.029247412458062172 0.007987534627318382 0.0610162727534771
v 0.02836931124329567 0.021556593477725983 0.03750624880194664
v 0.0379008874297142 0.016999484971165657 0.01226199883967638
v 0.032358791679143906 -0.020215319469571114 -0.0066670808009803295
v 0.029247412458062172 0.007987534627318382 0.0610162727534771
v 0.03480178862810135 -0.0059529016725718975 0.01521993987262249
v 0.021719221025705338 0.010871633887290955 0.11134924739599228
v -0.023324886336922646 0.019950026646256447 0.08136327564716339
v -0.03049633838236332 -0.008473827503621578 -0.006666988600045443
v -0.035879530012607574 0.013055078685283661 -0.0066667282953858376
v 0.000750736566260457 0.031699731945991516 0.07640169560909271
v -0.005188467912375927 0.020775487646460533 0.06105851009488106
v -0.00486883707344532 0.0313560850918293 0.05399344488978386
v -0.023324886336922646 0.019950026646256447 0.08136327564716339
v -0.035879530012607574 0.013055078685283661 -0.0066667282953858376
v -0.02944229356944561 0.02071492187678814 0.03023265302181244
v 0.019991794601082802 0.03563263639807701 0.034371137619018555
v 0.012469029985368252 0.0342935286462307 -0.006667033769190311
v 0.02404959127306938 0.0380590446293354 -0.006667508743703365
v 0.008100190199911594 0.03033522702753544 0.03312111645936966
v 0.014146486297249794 0.030769219622015953 0.04055488482117653
v 0.016473544761538506 0.02224905975162983 0.10939475148916245
v 0.007300421595573425 0.035200562328100204 -0.0066671427339315414
v 0.019850870594382286 0.023690009489655495 0.11027828603982925
v 0.02836931124329567 0.021556593477725983 0.03750624880194664
v 0.029247412458062172 0.007987534627318382 0.0610162727534771
v 0.015959713608026505 0.020018145442008972 0.15487074851989746
v 0.01742783561348915 0.013609283603727818 0.11295133084058762
v 0.009435574524104595 0.012632925063371658 0.11063101887702942
v 0.03755415976047516 0.015205372124910355 0.02713911235332489
v 0.04105811193585396 0.0029544115532189608 0.034770283848047256
v 0.029247412458062172 0.007987534627318382 0.0610162727534771
v 0.01742783561348915 0.013609283603727818 0.11295133084058762
v 0.017908453941345215 -0.017561180517077446 0.008319192565977573
v 0.009435574524104595 0.012632925063371658 0.11063101887702942
v -0.01897321827709675 -0.017438219860196114 -0.00666675204411149
v -0.0013544788816943765 -0.010591922327876091 0.030864853411912918
v 5.197077825869201e-06 -0.018057415261864662 0.03648688644170761
v -0.023178670555353165 0.026263905689120293 0.030570540577173233
v -0.015952732414007187 0.025228938087821007 0.024456152692437172
v -0.01598428562283516 0.023525070399045944 0.09238144755363464
v -0.00884917564690113 0.02357468008995056 0.03486989438533783
v -0.005188467912375927 0.020775487646460533 0.06105851009488106
v -0.01598428562283516 0.023525070399045944 0.09238144755363464
v 0.06184711307287216 -0.0005795764736831188 -0.006667311768978834
v 0.047563422471284866 0.007427541073411703 0.02148948237299919
v 0.0544879175722599 0.005945621524006128 -0.00666747847571969
v 0.05931917950510979 -0.007927009835839272 -0.006667250767350197
v 0.051739443093538284 0.01496309507638216 -0.006667515262961388
v 0.047563422471284866 0.007427541073411703 0.02148948237299919
v 0.04451028257608414 0.014907192438840866 -0.006666612345725298
v 0.0544879175722599 0.005945621524006128 -0.00666747847571969
v 0.008100190199911594 0.03033522702753544 0.03312111645936966
v 0.014033855870366096 0.023436900228261948 0.11324454843997955
v 0.009945470839738846 0.023543907329440117 0.11454441398382187
v 0.007907375693321228 0.015701744705438614 0.11479358375072479
v -0.005188467912375927 0.020775487646460533 0.06105851009488106
v 0.008582727052271366 0.023123571649193764 0.11759411543607712
v -0.005188467912375927 0.020775487646460533 0.06105851009488106
v 0.007907375693321228 0.015701744705438614 0.11479358375072479
v -0.004956535529345274 0.014665772207081318 0.06595262885093689
v -0.015705641359090805 0.009618383832275867 0.0911022275686264
v -0.0063642775639891624 0.016135236248373985 0.11491817981004715
v -0.004956535529345274 0.014665772207081318 0.06595262885093689
v 0.0016530848806723952 -0.007611243985593319 0.042356617748737335
v 0.014134746044874191 -0.022409748286008835 -0.006666865665465593
v 5.197077825869201e-06 -0.018057415261864662 0.03648688644170761
v 0.011112447828054428 -0.012251605279743671 0.016172248870134354
v 0.014033855870366096 0.023436900228261948 0.11324454843997955
v 0.016081882640719414 0.022647859528660774 0.15449519455432892
v 0.008582727052271366 0.023123571649193764 0.11759411543607712
v 0.023108502849936485 0.015118686482310295 0.1168125569820404
v 0.016081882640719414 0.022647859528660774 0.15449519455432892
v 0.019850870594382286 0.023690009489655495 0.11027828603982925
v 0.03700091689825058 0.021865205839276314 -0.006667646579444408
v 0.0379008874297142 0.016999484971165657 0.01226199883967638
v 0.030424093827605247 0.025849470868706703 -0.006667604204267263
v 0.04451028257608414 0.014907192438840866 -0.006666612345725298
v 0.044696372002363205 0.023824432864785194 -0.006667550653219223
v 0.051739443093538284 0.01496309507638216 -0.006667515262961388
v -0.00486883707344532 0.0313560850918293 0.05399344488978386
v -0.005188467912375927 0.020775487646460533 0.06105851009488106
v -0.00884917564690113 0.02357468008995056 0.03486989438533783
v -0.00486883707344532 0.0313560850918293 0.05399344488978386
v -0.010006485506892204 0.039482276886701584 -0.006667288951575756
v -0.0067063914611935616 0.040991414338350296 -0.0066672563552856445
v 0.019991794601082802 0.03563263639807701 0.034371137619018555
v 0.02404959127306938 0.0380590446293354 -0.006667508743703365
v 0.025720007717609406 0.02820802852511406 0.022864216938614845
v 0.02836931124329567 0.021556593477725983 0.03750624880194664
v 0.019850870594382286 0.023690009489655495 0.11027828603982925
v 0.020384129136800766 0.028082476928830147 0.04450308158993721
v -0.00289896153844893 0.03162385895848274 0.030607309192419052
v -0.0067063914611935616 0.040991414338350296 -0.0066672563552856445
v 0.0021726679988205433 0.035545919090509415 0.004448657389730215
v 0.021719221025705338 0.010871633887290955 0.11134924739599228
v 0.015959713608026505 0.020018145442008972 0.15487074851989746
v 0.023108502849936485 0.015118686482310295 0.1168125569820404
v 0.029247412458062172 0.007987534627318382 0.0610162727534771
v 0.021719221025705338 0.010871633887290955 0.11134924739599228
v 0.02356148138642311 0.016974227502942085 0.11379512399435043
v 0.01742783561348915 0.013609283603727818 0.11295133084058762
v 0.032358791679143906 -0.020215319469571114 -0.0066670808009803295
v 0.024120712652802467 -0.015454184263944626 -0.006667053326964378
v 0.021719221025705338 0.010871633887290955 0.11134924739599228
v -0.023324886336922646 0.019950026646256447 0.08136327564716339
v -0.02944229356944561 0.02071492187678814 0.03023265302181244
v -0.023178670555353165 0.026263905689120293 0.030570540577173233
v -0.029127631336450577 0.02447027713060379 -0.006666809320449829
v 0.008582727052271366 0.023123571649193764 0.11759411543607712
v 0.015959713608026505 0.020018145442008972 0.15487074851989746
v 0.007907375693321228 0.015701744705438614 0.11479358375072479
v 0.016081882640719414 0.022647859528660774 0.15449519455432892
v 0.009435574524104595 0.012632925063371658 0.11063101887702942
v 0.007907375693321228 0.015701744705438614 0.11479358375072479
v 0.015959713608026505 0.020018145442008972 0.15487074851989746
v -0.01598428562283516 0.023525070399045944 0.09238144755363464
v -0.023324886336922646 0.019950026646256447 0.08136327564716339
v -0.023178670555353165 0.026263905689120293 0.030570540577173233
v -0.023324886336922646 0.019950026646256447 0.08136327564716339
v -0.01598428562283516 0.023525070399045944 0.09238144755363464
v -0.018865004181861877 0.018973276019096375 0.09146282076835632
v -0.015952732414007187 0.025228938087821007 0.024456152692437172
v -0.029127631336450577 0.02447027713060379 -0.006666809320449829
v -0.015395527705550194 0.035339388996362686 0.025350920855998993
v -0.00884917564690113 0.02357468008995056 0.03486989438533783
v -0.015395527705550194 0.035339388996362686 0.025350920855998993
v -0.00486883707344532 0.0313560850918293 0.05399344488978386
v -0.005188467912375927 0.020775487646460533 0.06105851009488106
v -0.004956535529345274 0.014665772207081318 0.06595262885093689
v -0.0063642775639891624 0.016135236248373985 0.11491817981004715
v -0.0067063914611935616 0.040991414338350296 -0.0066672563552856445
v 0.007300421595573425 0.035200562328100204 -0.0066671427339315414
v 0.0021726679988205433 0.035545919090509415 0.004448657389730215
v 0.039540935307741165 -0.013876578770577908 -0.006667157635092735
v 0.04105811193585396 0.0029544115532189608 0.034770283848047256
v 0.0468221940100193 -0.01653665490448475 -0.006667078472673893
v 0.03480178862810135 -0.0059529016725718975 0.01521993987262249
v 0.03480178862810135 -0.0059529016725718975 0.01521993987262249
v 0.029247412458062172 0.007987534627318382 0.0610162727534771
v 0.04105811193585396 0.0029544115532189608 0.034770283848047256
v 0.029247412458062172 0.007987534627318382 0.0610162727534771
v 0.02356148138642311 0.016974227502942085 0.11379512399435043
v 0.019850870594382286 0.023690009489655495 0.11027828603982925
v 0.017908453941345215 -0.017561180517077446 0.008319192565977573
v 0.01742783561348915 0.013609283603727818 0.11295133084058762
v 0.024120712652802467 -0.015454184263944626 -0.006667053326964378
v 0.007300421595573425 0.035200562328100204 -0.0066671427339315414
v 0.018858127295970917 0.03529133275151253 0.04245562106370926
v 0.014146486297249794 0.030769219622015953 0.04055488482117653
v 0.018858127295970917 0.03529133275151253 0.04245562106370926
v 0.025720007717609406 0.02820802852511406 0.022864216938614845
v 0.020384129136800766 0.028082476928830147 0.04450308158993721
v -0.015705641359090805 0.009618383832275867 0.0911022275686264
v -0.03049633838236332 -0.008473827503621578 -0.006666988600045443
v -0.023324886336922646 0.019950026646256447 0.08136327564716339
v -0.018865004181861877 0.018973276019096375 0.09146282076835632
v -0.0063642775639891624 0.016135236248373985 0.11491817981004715
v -0.015705641359090805 0.009618383832275867 0.0911022275686264
v 0.014134746044874191 -0.022409748286008835 -0.006666865665465593
v -0.004676332231611013 -0.03248397260904312 -0.006666920147836208
v 5.197077825869201e-06 -0.018057415261864662 0.03648688644170761
v -0.004697924014180899 -0.022336283698678017 0.016256241127848625
v -0.004676332231611013 -0.03248397260904312 -0.006666920147836208
v -0.00961267575621605 -0.021246692165732384 -0.006666786503046751
v -0.0063642775639891624 0.016135236248373985 0.11491817981004715
v -0.01598428562283516 0.023525070399045944 0.09238144755363464
v -0.005188467912375927 0.020775487646460533 0.06105851009488106
v -0.01598428562283516 0.023525070399045944 0.09238144755363464
v -0.0063642775639891624 0.016135236248373985 0.11491817981004715
v -0.018865004181861877 0.018973276019096375 0.09146282076835632
v 0.030424093827605247 0.025849470868706703 -0.006667604204267263
v 0.025720007717609406 0.02820802852511406 0.022864216938614845
v 0.02404959127306938 0.0380590446293354 -0.006667508743703365
v 0.02836931124329567 0.021556593477725983 0.03750624880194664
v 0.030723683536052704 0.02811725065112114 0.02286282554268837
v 0.0379008874297142 0.016999484971165657 0.01226199883967638
v -0.035879530012607574 0.013055078685283661 -0.0066667282953858376
v -0.02774268016219139 0.023685548454523087 -0.006667041219770908
v -0.029127631336450577 0.02447027713060379 -0.006666809320449829
v -0.004697924014180899 -0.022336283698678017 0.016256241127848625
v -0.00961267575621605 -0.021246692165732384 -0.006666786503046751
v -0.01897321827709675 -0.017438219860196114 -0.00666675204411149
v 0.0468221940100193 -0.01653665490448475 -0.006667078472673893
v 0.04105811193585396 0.0029544115532189608 0.034770283848047256
v 0.05931917950510979 -0.007927009835839272 -0.006667250767350197
v -0.025972861796617508 -0.010891221463680267 -0.006666930858045816
v -0.03049633838236332 -0.008473827503621578 -0.006666988600045443
v -0.015705641359090805 0.009618383832275867 0.0911022275686264
v 0.03700091689825058 0.021865205839276314 -0.006667646579444408
v 0.044696372002363205 0.023824432864785194 -0.006667550653219223
v 0.0379008874297142 0.016999484971165657 0.01226199883967638
v 0.008100190199911594 0.03033522702753544 0.03312111645936966
v 0.009945470839738846 0.023543907329440117 0.11454441398382187
v 0.000750736566260457 0.031699731945991516 0.07640169560909271
v 0.008582727052271366 0.023123571649193764 0.11759411543607712
v -0.005188467912375927 0.020775487646460533 0.06105851009488106
v 0.000750736566260457 0.031699731945991516 0.07640169560909271
v -0.015395527705550194 0.035339388996362686 0.025350920855998993
v -0.010006485506892204 0.039482276886701584 -0.006667288951575756
v -0.00486883707344532 0.0313560850918293 0.05399344488978386
v 0.017908453941345215 -0.017561180517077446 0.008319192565977573
v 0.014134746044874191 -0.022409748286008835 -0.006666865665465593
v 0.011786718852818012 -0.013423248194158077 0.014644980430603027
v 0.011786718852818012 -0.013423248194158077 0.014644980430603027
v 0.014134746044874191 -0.022409748286008835 -0.006666865665465593
v 0.011112447828054428 -0.012251605279743671 0.016172248870134354
v 0.019850870594382286 0.023690009489655495 0.11027828603982925
v 0.016081882640719414 0.022647859528660774 0.15449519455432892
v 0.016473544761538506 0.02224905975162983 0.10939475148916245
v 0.020384129136800766 0.028082476928830147 0.04450308158993721
v 0.019850870594382286 0.023690009489655495 0.11027828603982925
v 0.016473544761538506 0.02224905975162983 0.10939475148916245
v -0.023178670555353165 0.026263905689120293 0.030570540577173233
v -0.029127631336450577 0.02447027713060379 -0.006666809320449829
v -0.015952732414007187 0.025228938087821007 0.024456152692437172
v 0.04451028257608414 0.014907192438840866 -0.006666612345725298
v 0.0379008874297142 0.016999484971165657 0.01226199883967638
v 0.044696372002363205 0.023824432864785194 -0.006667550653219223
v 0.0379008874297142 0.016999484971165657 0.01226199883967638
v 0.03755415976047516 0.015205372124910355 0.02713911235332489
v 0.029247412458062172 0.007987534627318382 0.0610162727534771
v 0.018858127295970917 0.03529133275151253 0.04245562106370926
v 0.007300421595573425 0.035200562328100204 -0.0066671427339315414
v 0.019991794601082802 0.03563263639807701 0.034371137619018555
v 0.025720007717609406 0.02820802852511406 0.022864216938614845
v 0.018858127295970917 0.03529133275151253 0.04245562106370926
v 0.019991794601082802 0.03563263639807701 0.034371137619018555
v -0.029127631336450577 0.02447027713060379 -0.006666809320449829
v -0.02944229356944561 0.02071492187678814 0.03023265302181244
v -0.035879530012607574 0.013055078685283661 -0.0066667282953858376
v 0.02836931124329567 0.021556593477725983 0.03750624880194664
v 0.020384129136800766 0.028082476928830147 0.04450308158993721
v 0.025720007717609406 0.02820802852511406 0.022864216938614845
v 0.025720007717609406 0.02820802852511406 0.022864216938614845
v 0.030723683536052704 0.02811725065112114 0.02286282554268837
v 0.02836931124329567 0.021556593477725983 0.03750624880194664
v 0.05931917950510979 -0.007927009835839272 -0.006667250767350197
v 0.04105811193585396 0.0029544115532189608 0.034770283848047256
v 0.047563422471284866 0.007427541073411703 0.02148948237299919
v 0.04105811193585396 0.0029544115532189608 0.034770283848047256
v 0.03755415976047516 0.015205372124910355 0.02713911235332489
v 0.047563422471284866 0.007427541073411703 0.02148948237299919
v 0.008100190199911594 0.03033522702753544 0.03312111645936966
v -0.00289896153844893 0.03162385895848274 0.030607309192419052
v 0.0021726679988205433 0.035545919090509415 0.004448657389730215
v 0.007300421595573425 0.035200562328100204 -0.0066671427339315414
v 0.008100190199911594 0.03033522702753544 0.03312111645936966
v 0.0021726679988205433 0.035545919090509415 0.004448657389730215
v 0.007300421595573425 0.035200562328100204 -0.0066671427339315414
v 0.012469029985368252 0.0342935286462307 -0.006667033769190311
v 0.019991794601082802 0.03563263639807701 0.034371137619018555
v 0.023108502849936485 0.015118686482310295 0.1168125569820404
v 0.015959713608026505 0.020018145442008972 0.15487074851989746
v 0.016081882640719414 0.022647859528660774 0.15449519455432892
v 0.0016530848806723952 -0.007611243985593319 0.042356617748737335
v 5.197077825869201e-06 -0.018057415261864662 0.03648688644170761
v -0.0013544788816943765 -0.010591922327876091 0.030864853411912918
v 0.007907375693321228 0.015701744705438614 0.11479358375072479
v -0.0030745756812393665 0.007958559319376945 0.06574642658233643
v -0.004956535529345274 0.014665772207081318 0.06595262885093689
v 0.015959713608026505 0.020018145442008972 0.15487074851989746
v 0.021719221025705338 0.010871633887290955 0.11134924739599228
v 0.01742783561348915 0.013609283603727818 0.11295133084058762
v 0.03480178862810135 -0.0059529016725718975 0.01521993987262249
v 0.033608127385377884 -0.011735749430954456 -0.00666702538728714
v 0.032358791679143906 -0.020215319469571114 -0.0066670808009803295
v 0.014134746044874191 -0.022409748286008835 -0.006666865665465593
v 0.017908453941345215 -0.017561180517077446 0.008319192565977573
v 0.024120712652802467 -0.015454184263944626 -0.006667053326964378
v -0.01897321827709675 -0.017438219860196114 -0.00666675204411149
v 5.197077825869201e-06 -0.018057415261864662 0.03648688644170761
v -0.004697924014180899 -0.022336283698678017 0.016256241127848625
v -0.004676332231611013 -0.03248397260904312 -0.006666920147836208
v -0.004697924014180899 -0.022336283698678017 0.016256241127848625
v 5.197077825869201e-06 -0.018057415261864662 0.03648688644170761
v -0.018865004181861877 0.018973276019096375 0.09146282076835632
v -0.015705641359090805 0.009618383832275867 0.0911022275686264
v -0.023324886336922646 0.019950026646256447 0.08136327564716339
v 0.033608127385377884 -0.011735749430954456 -0.00666702538728714
v 0.03480178862810135 -0.0059529016725718975 0.01521993987262249
v 0.039540935307741165 -0.013876578770577908 -0.006667157635092735
v 0.008100190199911594 0.03033522702753544 0.03312111645936966
v 0.016473544761538506 0.02224905975162983 0.10939475148916245
v 0.014033855870366096 0.023436900228261948 0.11324454843997955
v 0.016081882640719414 0.022647859528660774 0.15449519455432892
v 0.014033855870366096 0.023436900228261948 0.11324454843997955
v 0.016473544761538506 0.02224905975162983 0.10939475148916245
v -0.00486883707344532 0.0313560850918293 0.05399344488978386
v -0.0067063914611935616 0.040991414338350296 -0.0066672563552856445
v -0.00289896153844893 0.03162385895848274 0.030607309192419052
v 0.000750736566260457 0.031699731945991516 0.07640169560909271
v -0.00486883707344532 0.0313560850918293 0.05399344488978386
v -0.00289896153844893 0.03162385895848274 0.030607309192419052
v 0.009945470839738846 0.023543907329440117 0.11454441398382187
v 0.014033855870366096 0.023436900228261948 0.11324454843997955
v 0.008582727052271366 0.023123571649193764 0.11759411543607712
v 0.008582727052271366 0.023123571649193764 0.11759411543607712
v 0.000750736566260457 0.031699731945991516 0.07640169560909271
v 0.009945470839738846 0.023543907329440117 0.11454441398382187
v 0.021719221025705338 0.010871633887290955 0.11134924739599228
v 0.023108502849936485 0.015118686482310295 0.1168125569820404
v 0.02356148138642311 0.016974227502942085 0.11379512399435043
v 0.019850870594382286 0.023690009489655495 0.11027828603982925
v 0.02356148138642311 0.016974227502942085 0.11379512399435043
v 0.023108502849936485 0.015118686482310295 0.1168125569820404
v -0.010006485506892204 0.039482276886701584 -0.006667288951575756
v -0.015395527705550194 0.035339388996362686 0.025350920855998993
v -0.018986845389008522 0.037055134773254395 -0.006667199078947306
v -0.015395527705550194 0.035339388996362686 0.025350920855998993
v -0.029127631336450577 0.02447027713060379 -0.006666809320449829
v -0.018986845389008522 0.037055134773254395 -0.006667199078947306
v 0.030424093827605247 0.025849470868706703 -0.006667604204267263
v 0.0379008874297142 0.016999484971165657 0.01226199883967638
v 0.030723683536052704 0.02811725065112114 0.02286282554268837
v 0.030424093827605247 0.025849470868706703 -0.006667604204267263
v 0.030723683536052704 0.02811725065112114 0.02286282554268837
v 0.025720007717609406 0.02820802852511406 0.022864216938614845
v -0.015952732414007187 0.025228938087821007 0.024456152692437172
v -0.015395527705550194 0.035339388996362686 0.025350920855998993
v -0.00884917564690113 0.02357468008995056 0.03486989438533783
v -0.015952732414007187 0.025228938087821007 0.024456152692437172
v -0.00884917564690113 0.02357468008995056 0.03486989438533783
v -0.01598428562283516 0.023525070399045944 0.09238144755363464
v 0.020384129136800766 0.028082476928830147 0.04450308158993721
v 0.014146486297249794 0.030769219622015953 0.04055488482117653
v 0.018858127295970917 0.03529133275151253 0.04245562106370926
v 0.014146486297249794 0.030769219622015953 0.04055488482117653
v 0.020384129136800766 0.028082476928830147 0.04450308158993721
v 0.016473544761538506 0.02224905975162983 0.10939475148916245
v 0.03755415976047516 0.015205372124910355 0.02713911235332489
v 0.04451028257608414 0.014907192438840866 -0.006666612345725298
v 0.047563422471284866 0.007427541073411703 0.02148948237299919
v 0.0379008874297142 0.016999484971165657 0.01226199883967638
v 0.04451028257608414 0.014907192438840866 -0.006666612345725298
v 0.03755415976047516 0.015205372124910355 0.02713911235332489
v -0.004956535529345274 0.014665772207081318 0.06595262885093689
v -0.0030745756812393665 0.007958559319376945 0.06574642658233643
v -0.01897321827709675 -0.017438219860196114 -0.00666675204411149
v -0.01897321827709675 -0.017438219860196114 -0.00666675204411149
v -0.0030745756812393665 0.007958559319376945 0.06574642658233643
v -0.0013544788816943765 -0.010591922327876091 0.030864853411912918
v 0.007907375693321228 0.015701744705438614 0.11479358375072479
v -0.0013544788816943765 -0.010591922327876091 0.030864853411912918
v -0.0030745756812393665 0.007958559319376945 0.06574642658233643
v 0.0016530848806723952 -0.007611243985593319 0.042356617748737335
v 0.0016530848806723952 -0.007611243985593319 0.042356617748737335
v 0.007907375693321228 0.015701744705438614 0.11479358375072479
v 0.011112447828054428 -0.012251605279743671 0.016172248870134354
v 0.009435574524104595 0.012632925063371658 0.11063101887702942
v 0.011112447828054428 -0.012251605279743671 0.016172248870134354
v 0.007907375693321228 0.015701744705438614 0.11479358375072479
v 0.011112447828054428 -0.012251605279743671 0.016172248870134354
v 0.009435574524104595 0.012632925063371658 0.11063101887702942
v 0.011786718852818012 -0.013423248194158077 0.014644980430603027
v 0.011786718852818012 -0.013423248194158077 0.014644980430603027
v 0.009435574524104595 0.012632925063371658 0.11063101887702942
v 0.017908453941345215 -0.017561180517077446 0.008319192565977573
vn 0.6008480191230774 -0.7639215588569641 0.2353839874267578
vn 0.6008480191230774 -0.7639215588569641 0.2353839874267578
vn 0.6008480191230774 -0.7639215588569641 0.2353839874267578
vn -0.6989288926124573 -0.6761665344238281 0.233017697930336
vn -0.6989288926124573 -0.6761665940284729 0.2330177128314972
vn -0.6989288926124573 -0.6761665940284729 0.2330177128314972
vn 0.1188604086637497 0.9928487539291382 -0.011117824353277683
vn 0.1188604086637497 0.9928487539291382 -0.011117824353277683
vn 0.1188604012131691 0.9928487539291382 -0.011117824353277683
vn 0.8520056009292603 0.46657830476760864 0.23746822774410248
vn 0.8816858530044556 0.392362117767334 0.2620723247528076
vn 0.8816858530044556 0.3923620879650116 0.2620723247528076
vn -0.23432496190071106 -0.9361010193824768 0.2623104155063629
vn -0.23432499170303345 -0.9361010193824768 0.2623104453086853
vn 0.886253297328949 -0.4255668520927429 0.18288807570934296
vn -0.23432496190071106 -0.9361010193824768 0.2623104155063629
vn -0.9583393931388855 -0.23962965607643127 0.15544520318508148
vn -0.9514390826225281 -0.2601216733455658 0.16462229192256927
vn -0.9514390826225281 -0.2601216733455658 0.16462229192256927
vn -0.9536017775535583 0.18658347427845 0.23628418147563934
vn -0.9536017775535583 0.18658347427845 0.23628416657447815
vn -0.9536017775535583 0.18658347427845 0.23628416657447815
vn -0.9640963077545166 0.2374473661184311 0.11889921128749847
vn -0.9640963077545166 0.2374473661184311 0.11889920383691788
vn -0.9640963077545166 0.2374473363161087 0.11889919638633728
vn -0.299051433801651 0.9539269208908081 0.024323439225554466
vn -0.299051433801651 0.9539269804954529 0.024323439225554466
vn -0.299051433801651 0.9539269208908081 0.024323439225554466
vn -0.21982507407665253 0.967843770980835 0.12229223549365997
vn -0.21982507407665253 0.967843770980835 0.12229223549365997
vn -0.2818380892276764 0.9435246586799622 0.17415064573287964
vn -0.21982508897781372 0.9678437113761902 0.12229222804307938
vn 0.9885525703430176 0.061351630836725235 0.1378396451473236
vn 0.9885525703430176 0.06135163456201553 0.1378396451473236
vn 0.9636659622192383 0.24534538388252258 0.10561074316501617
vn -0.0050825029611587524 -0.9153332114219666 0.40266522765159607
vn -0.0050825015641748905 -0.9153332114219666 0.4026651978492737
vn -0.005082502029836178 -0.9153332114219666 0.40266522765159607
vn 0.8407160639762878 0.43841105699539185 0.3177925646305084
vn 0.8407160639762878 0.43841105699539185 0.31779250502586365
vn 0.8510945439338684 0.4305611550807953 0.30042511224746704
vn 0.015555990859866142 -0.9396418929100037 0.34180548787117004
vn 0.015555991791188717 -0.9396418929100037 0.34180548787117004
vn 0.015555990859866142 -0.9396418929100037 0.34180548787117004
vn -0.8854867219924927 0.16565923392772675 0.4341316521167755
vn -0.8854867219924927 0.16565924882888794 0.43413159251213074
vn -0.8854867219924927 0.16565923392772675 0.43413159251213074
vn 0.16962425410747528 0.9849309921264648 0.03374374285340309
vn 0.1696242243051529 0.9849309921264648 0.03374374285340309
vn 0.1696242392063141 0.9849309921264648 0.03374373912811279
vn 0.3103567361831665 0.9488469362258911 0.058035943657159805
vn 0.3103567361831665 0.9488469362258911 0.058035947382450104
vn 0.3103567063808441 0.9488469362258911 0.058035943657159805
vn 0.848380982875824 -0.24870721995830536 0.46732690930366516
vn 0.848380982875824 -0.24870721995830536 0.4673268496990204
vn 0.6449338793754578 0.7570832371711731 0.10433235764503479
vn 0.848380982875824 -0.24870716035366058 0.4673268496990204
vn 0.9368976950645447 0.2942328155040741 0.1888117492198944
vn 0.9368976950645447 0.2942328155040741 0.1888117492198944
vn 0.34710052609443665 0.9027243852615356 0.2541848421096802
vn 0.9368975758552551 0.2942328155040741 0.18881173431873322
vn 0.05268432945013046 0.9950898885726929 0.08378750830888748
vn 0.05268433317542076 0.9950898885726929 0.08378752321004868
vn 0.05268432945013046 0.9950898885726929 0.08378751575946808
vn -0.9022815227508545 0.24816593527793884 0.3525643050670624
vn -0.902281641960144 0.24816593527793884 0.3525643050670624
vn -0.9505338668823242 -0.030160948634147644 0.3091530501842499
vn -0.902281641960144 0.24816593527793884 0.3525643050670624
vn -0.9022815227508545 0.24816593527793884 0.3525643050670624
vn -0.9022815227508545 0.24816593527793884 0.3525643050670624
vn 0.6351970434188843 -0.7206370830535889 0.2778611481189728
vn 0.6351970434188843 -0.7206370830535889 0.2778611481189728
vn 0.6351970434188843 -0.7206370830535889 0.2778611183166504
vn 0.7861542701721191 -0.4938879609107971 0.37153223156929016
vn 0.7861542701721191 -0.4938880205154419 0.3715322017669678
vn 0.8780992031097412 -0.3320821523666382 0.3444753587245941
vn 0.7861542701721191 -0.4938879609107971 0.37153223156929016
vn -0.010828073136508465 0.9982380867004395 0.05833969637751579
vn -0.01082807220518589 0.9982380867004395 0.058339692652225494
vn -0.01082807220518589 0.9982380867004395 0.058339692652225494
vn 0.8447813391685486 0.48816245794296265 0.21918442845344543
vn 0.8447813391685486 0.48816245794296265 0.21918444335460663
vn 0.8447813391685486 0.48816245794296265 0.21918442845344543
vn 0.5202335119247437 0.8413181900978088 0.1467679738998413
vn 0.5202335119247437 0.8413181900978088 0.1467679738998413
vn 0.5202334523200989 0.8413181900978088 0.1467679738998413
vn 0.6733039617538452 0.5568132996559143 0.48643672466278076
vn 0.6733039617538452 0.5568132996559143 0.4864366948604584
vn 0.6733039617538452 0.5568132996559143 0.4864366948604584
vn -0.9799132347106934 0.13037031888961792 0.1509093940258026
vn -0.9799132347106934 0.13037030398845673 0.15090937912464142
vn -0.9799132347106934 0.13037031888961792 0.15090936422348022
vn -0.424752801656723 0.8926077485084534 0.1511172503232956
vn -0.424752801656723 0.8926077485084534 0.1511172503232956
vn -0.42475277185440063 0.8926077485084534 0.1511172503232956
vn 0.8588283061981201 0.5016227960586548 0.10386774688959122
vn 0.8588283061981201 0.5016227960586548 0.10386774688959122
vn 0.8588283061981201 0.50162273645401 0.10386774688959122
vn 0.645815908908844 0.7630728483200073 0.02533041313290596
vn 0.645815908908844 0.7630728483200073 0.02533041313290596
vn 0.645815908908844 0.7630728483200073 0.02533041313290596
vn 0.2948378622531891 0.9349473118782043 0.19734300673007965
vn 0.2948378324508667 0.9349473118782043 0.19734299182891846
vn 0.2948378622531891 0.9349473118782043 0.19734300673007965
vn 0.27364403009414673 -0.7918492555618286 0.5459794998168945
vn 0.27364403009414673 -0.7918492555618286 0.5459794998168945
vn 0.27364403009414673 -0.7918493151664734 0.5459794402122498
vn 0.9259599447250366 -0.3429127037525177 0.1581427901983261
vn 0.8343458771705627 -0.4027312099933624 0.37639668583869934
vn 0.8343458771705627 -0.4027312099933624 0.37639668583869934
vn -0.4656924605369568 -0.8576425909996033 0.21812769770622253
vn -0.4656924605369568 -0.8576425909996033 0.21812766790390015
vn -0.4830460250377655 -0.8493608832359314 0.2127269208431244
vn -0.4656924605369568 -0.8576425909996033 0.21812766790390015
vn -0.6631270051002502 0.7430213689804077 0.0904536023736
vn -0.6631270051002502 0.7430213689804077 0.0904536023736
vn -0.6631270051002502 0.7430213093757629 0.0904536023736
vn -0.6634587645530701 0.7441791892051697 0.07758764177560806
vn -0.776803731918335 0.12425784766674042 0.6173620820045471
vn -0.776803731918335 0.12425784766674042 0.6173620820045471
vn -0.8146426677703857 -0.13839147984981537 0.5632096529006958
vn -0.776803731918335 0.12425784766674042 0.6173620820045471
vn -0.32354894280433655 -0.8144453763961792 0.4816584587097168
vn -0.32354894280433655 -0.8144453763961792 0.4816584587097168
vn -0.32354894280433655 -0.814445436000824 0.481658399105072
vn 0.5771828293800354 0.8163878321647644 -0.01925497129559517
vn 0.577182948589325 0.8163878321647644 -0.01925497129559517
vn 0.5771828293800354 0.8163878321647644 -0.01925497129559517
vn -0.789433479309082 0.40685081481933594 0.4596380889415741
vn -0.789433479309082 0.40685081481933594 0.4596380293369293
vn -0.789433479309082 0.40685081481933594 0.4596380889415741
vn -0.9022260308265686 0.011570445261895657 0.4311082363128662
vn -0.9022260308265686 0.011570446193218231 0.431108295917511
vn -0.9022260308265686 0.011570445261895657 0.4311082363128662
vn -0.9158918857574463 -0.2673698961734772 0.29942524433135986
vn -0.9158918857574463 -0.2673698663711548 0.29942527413368225
vn -0.9158918857574463 -0.2673698961734772 0.29942527413368225
vn 0.9007955193519592 0.29180073738098145 0.32158926129341125
vn 0.9007955193519592 0.2918007969856262 0.32158929109573364
vn 0.9007955193519592 0.29180076718330383 0.32158929109573364
vn 0.3676164746284485 0.9195187091827393 0.13908064365386963
vn 0.3676165044307709 0.9195187091827393 0.13908065855503082
vn 0.3676164746284485 0.9195187091827393 0.13908064365386963
vn 0.16969074308872223 -0.916163980960846 0.36310967803001404
vn 0.16969074308872223 -0.916163980960846 0.36310964822769165
vn -0.3585778772830963 -0.8612244129180908 0.3601590096950531
vn 0.16969074308872223 -0.916163980960846 0.36310964822769165
vn 0.2816290259361267 -0.9039754867553711 0.3217350244522095
vn 0.3080669343471527 -0.8990806937217712 0.31104451417922974
vn 0.2816290259361267 -0.9039754867553711 0.3217350244522095
vn 0.8727937936782837 0.487966388463974 0.010940739884972572
vn 0.8850716948509216 0.46274152398109436 -0.05018320679664612
vn 0.8850716948509216 0.46274152398109436 -0.05018320307135582
vn 0.7371760606765747 -0.6356884837150574 0.22906668484210968
vn 0.7371760606765747 -0.6356885433197021 0.22906669974327087
vn 0.7371760606765747 -0.6356884837150574 0.22906669974327087
vn -0.7169528007507324 0.676845371723175 0.16691027581691742
vn -0.7169528007507324 0.676845371723175 0.16691027581691742
vn -0.7169528007507324 0.676845371723175 0.16691027581691742
vn 0.9360750913619995 0.2641467750072479 0.23235714435577393
vn 0.9360750913619995 0.2641468346118927 0.2323571741580963
vn 0.9360750913619995 0.2641467750072479 0.2323571890592575
vn -0.6904289722442627 -0.6794201731681824 0.24838678538799286
vn -0.6904290318489075 -0.6794201135635376 0.24838680028915405
vn -0.8715167045593262 -0.4414326250553131 0.2135317325592041
vn -0.8810746669769287 -0.311286062002182 0.3561016023159027
vn -0.8810746669769287 -0.31128600239753723 0.3561016023159027
vn -0.8810746669769287 -0.3112860321998596 0.3561016321182251
vn 0.45069342851638794 -0.8566430807113647 0.2510736882686615
vn 0.45069339871406555 -0.8566430807113647 0.2510736882686615
vn 0.4506934881210327 -0.8566430807113647 0.2510736882686615
vn -0.8860138654708862 -0.4162522256374359 0.20423926413059235
vn -0.8860137462615967 -0.4162521958351135 0.20423923432826996
vn -0.8860138654708862 -0.4162522256374359 0.20423924922943115
vn 0.6774918437004089 0.6680014133453369 0.3078618347644806
vn 0.6774918437004089 0.6680014133453369 0.3078618347644806
vn 0.6774918437004089 0.6680014133453369 0.3078618347644806
vn -0.779608428478241 0.39537644386291504 0.4856831431388855
vn -0.779608428478241 0.39537644386291504 0.4856831431388855
vn -0.779608428478241 0.39537644386291504 0.4856831431388855
vn 0.886116623878479 0.4548613131046295 0.08887413144111633
vn 0.886116623878479 0.4548613131046295 0.08887411653995514
vn 0.886116623878479 0.4548613131046295 0.08887413144111633
vn 0.9059572815895081 0.31247588992118835 0.28565770387649536
vn 0.9059572815895081 0.31247588992118835 0.285657674074173
vn 0.9059572815895081 0.31247586011886597 0.285657674074173
vn -0.7505369186401367 0.4023893475532532 -0.5241919159889221
vn -0.7505369186401367 0.4023893177509308 -0.5241919159889221
vn -0.7505369186401367 0.4023893475532532 -0.5241919159889221
vn -0.37496620416641235 -0.9260098338127136 0.04365907236933708
vn -0.37496617436408997 -0.9260098338127136 0.04365906864404678
vn -0.37496620416641235 -0.9260098338127136 0.04365907236933708
vn 0.5578378438949585 -0.7158012390136719 0.4200541377067566
vn 0.5578377842903137 -0.7158012986183167 0.420054167509079
vn 0.5578379034996033 -0.7158012390136719 0.4200541377067566
vn -0.48366662859916687 -0.8387382626533508 0.25016939640045166
vn -0.4836665987968445 -0.8387382626533508 0.2501693665981293
vn -0.4836665987968445 -0.8387382626533508 0.25016939640045166
vn -0.2674104869365692 0.9435219168663025 0.19559630751609802
vn -0.2674104571342468 0.9435219168663025 0.19559630751609802
vn -0.2674104571342468 0.9435219168663025 0.19559629261493683
vn 0.5822407603263855 0.8097015619277954 0.07334262132644653
vn 0.5822407603263855 0.8097015619277954 0.07334262132644653
vn 0.5822407603263855 0.8097015023231506 0.07334262132644653
vn -0.9504292011260986 0.10633080452680588 0.2921954393386841
vn -0.9504292011260986 0.10633079707622528 0.2921954393386841
vn -0.9504292011260986 0.10633080452680588 0.2921954393386841
vn 0.031024057418107986 0.9914833903312683 0.12648333609104156
vn 0.031024057418107986 0.9914833903312683 0.12648333609104156
vn 0.031024057418107986 0.9914833903312683 0.12648333609104156
vn -0.17540714144706726 -0.8930255770683289 0.4144122898578644
vn -0.17540714144706726 -0.8930255770683289 0.4144122898578644
vn -0.17540714144706726 -0.8930255770683289 0.4144122898578644
vn -0.6384666562080383 -0.7204340696334839 0.2708045244216919
vn -0.6384666562080383 -0.7204340696334839 0.2708045244216919
vn -0.6384666562080383 -0.7204340696334839 0.2708045244216919
vn -0.3857751190662384 0.9221287369728088 -0.029261697083711624
vn -0.3857751190662384 0.9221286773681641 -0.029261695221066475
vn -0.385775089263916 0.9221287369728088 -0.029261697083711624
vn -0.40604278445243835 0.9115005731582642 0.0655444785952568
vn -0.40604281425476074 0.9115005731582642 0.0655444785952568
vn -0.40604275465011597 0.9115005731582642 0.0655444785952568
vn 0.08487597852945328 0.9940713047981262 -0.0679582878947258
vn 0.08487597852945328 0.9940713047981262 -0.0679582804441452
vn 0.08487597852945328 0.9940713047981262 -0.0679582804441452
vn 0.8419362902641296 0.4032152593135834 0.35855358839035034
vn 0.8419362902641296 0.40321528911590576 0.35855361819267273
vn 0.8419362902641296 0.4032152593135834 0.35855358839035034
vn 0.19414469599723816 0.9733684659004211 0.12190858274698257
vn 0.19414469599723816 0.9733684659004211 0.12190859764814377
vn -0.3826409578323364 0.9182692170143127 0.10182126611471176
vn -0.11672081798315048 0.992836058139801 0.025547469034790993
vn -0.11672081053256989 0.992836058139801 0.025547467172145844
vn -0.11672081053256989 0.992836058139801 0.025547467172145844
vn 0.878117561340332 0.45675620436668396 0.14241930842399597
vn 0.878117561340332 0.45675620436668396 0.14241930842399597
vn 0.878117561340332 0.45675620436668396 0.14241930842399597
vn -0.8579294085502625 0.5113755464553833 0.049520112574100494
vn -0.8579294085502625 0.5113755464553833 0.04952012002468109
vn -0.8579294085502625 0.5113755464553833 0.049520112574100494
vn 0.7120456099510193 0.6787956953048706 0.17952010035514832
vn 0.7120456099510193 0.6787956953048706 0.17952010035514832
vn 0.7120456099510193 0.6787956953048706 0.17952010035514832
vn 0.016650406643748283 0.9114658236503601 0.41103872656822205
vn 0.016650406643748283 0.9114658236503601 0.41103872656822205
vn 0.016650406643748283 0.9114658236503601 0.41103875637054443
vn 0.9063252806663513 -0.09675911068916321 0.411354124546051
vn 0.9063252806663513 -0.09675911068916321 0.411354124546051
vn 0.9063252806663513 -0.09675911068916321 0.411354124546051
vn 0.6884492039680481 0.5150137543678284 0.5106844305992126
vn 0.6884491443634033 0.5150137543678284 0.5106844902038574
vn 0.6884492039680481 0.5150137543678284 0.5106844305992126
vn 0.07807157188653946 0.9835967421531677 0.16261062026023865
vn 0.07807157188653946 0.9835967421531677 0.16261062026023865
vn 0.07807157188653946 0.9835967421531677 0.16261062026023865
vn 0.3037663698196411 0.9464672207832336 0.10920462757349014
vn 0.3037663996219635 0.9464672207832336 0.10920462757349014
vn 0.3037663698196411 0.9464672207832336 0.10920462012290955
vn 0.18804211914539337 0.9797893762588501 -0.06821205466985703
vn 0.18804213404655457 0.9797893762588501 -0.06821205466985703
vn 0.18804211914539337 0.9797893762588501 -0.06821206212043762
vn 0.8386964797973633 0.03861977159976959 0.5432279706001282
vn 0.8386964797973633 0.038619767874479294 0.543228030204773
vn 0.8386965990066528 0.03861977159976959 0.5432279706001282
vn -0.9681116342544556 0.012117295525968075 0.25022608041763306
vn -0.9681116342544556 0.0121172945946455 0.25022608041763306
vn -0.9681116342544556 0.0121172945946455 0.25022608041763306
vn -0.9001510739326477 -0.26324012875556946 0.34703391790390015
vn -0.9001510739326477 -0.26324015855789185 0.34703388810157776
vn -0.9001511931419373 -0.26324018836021423 0.34703388810157776
vn -0.4166144132614136 -0.8467152118682861 0.33091673254966736
vn -0.4166143536567688 -0.8467152118682861 0.33091673254966736
vn -0.4166144132614136 -0.8467152118682861 0.33091676235198975
vn 0.989357054233551 -0.1445533186197281 -0.01664297841489315
vn 0.989357054233551 -0.1445533186197281 -0.01664297841489315
vn 0.989357054233551 -0.1445533037185669 -0.016642976552248
vn 0.5854625701904297 -0.7988447546958923 0.13813291490077972
vn 0.5854625105857849 -0.7988447546958923 0.13813291490077972
vn 0.5854625105857849 -0.7988447546958923 0.13813292980194092
vn -0.6354964971542358 -0.7121294140815735 0.2983555793762207
vn -0.6354964971542358 -0.7121294140815735 0.2983555793762207
vn -0.6354964971542358 -0.7121294140815735 0.2983555793762207
vn -0.7341859936714172 -0.6092959642410278 0.2995487153530121
vn -0.7341859936714172 -0.6092959642410278 0.2995487153530121
vn -0.7341859936714172 -0.6092959642410278 0.2995487153530121
vn -0.8085225820541382 -0.29273462295532227 0.5104876756668091
vn -0.8085225820541382 -0.29273462295532227 0.5104876756668091
vn -0.8801456093788147 -0.3110674321651459 0.35858163237571716
vn -0.26565226912498474 -0.9245500564575195 0.2731962502002716
vn -0.26565223932266235 -0.9245500564575195 0.2731962502002716
vn -0.26565223932266235 -0.9245500564575195 0.2731962502002716
vn 0.4790666997432709 0.8771598935127258 0.03294860199093819
vn 0.47906675934791565 0.8771598935127258 0.03294859826564789
vn 0.4790666401386261 0.8771598935127258 0.03294859826564789
vn 0.4236232340335846 0.9057714939117432 -0.011014966294169426
vn 0.4236232042312622 0.9057714939117432 -0.011014964431524277
vn 0.4236232042312622 0.9057714939117432 -0.011014964431524277
vn 0.7819010019302368 0.6191195845603943 0.0729505866765976
vn 0.781900942325592 0.6191195845603943 0.0729505866765976
vn 0.7819010019302368 0.6191195845603943 0.0729505866765976
vn -0.0796993300318718 0.996807873249054 0.004700330086052418
vn -0.0796993225812912 0.996807873249054 0.004700330086052418
vn -0.0796993225812912 0.996807873249054 0.004700330086052418
vn 0.08011569082736969 0.9819831848144531 0.1711447387933731
vn 0.08011568337678909 0.9819831848144531 0.17114470899105072
vn 0.08011568337678909 0.9819831848144531 0.1711447536945343
vn 0.29775869846343994 0.9186469316482544 0.25966787338256836
vn 0.29775869846343994 0.9186469316482544 0.25966787338256836
vn 0.29775872826576233 0.918647050857544 0.25966787338256836
vn 0.9599513411521912 -0.27882829308509827 -0.027354314923286438
vn 0.9599512815475464 -0.27882829308509827 -0.02735431306064129
vn 0.9599512815475464 -0.27882829308509827 -0.02735431306064129
vn 0.6470204591751099 0.6023188233375549 0.46752169728279114
vn 0.6470204591751099 0.6023188233375549 0.46752169728279114
vn 0.6470203995704651 0.6023188233375549 0.4675217270851135
vn -0.2520192563533783 0.9645693898200989 0.07805244624614716
vn -0.2520192563533783 0.9645693898200989 0.07805246114730835
vn -0.2520192861557007 0.9645693898200989 0.07805246114730835
vn -0.7533341646194458 0.6472645401954651 0.11634546518325806
vn -0.7533342242240906 0.6472644805908203 0.11634546518325806
vn -0.7533341646194458 0.6472645401954651 0.11634548008441925
vn 0.8195685148239136 0.5712704658508301 -0.044245585799217224
vn 0.819568395614624 0.5712704062461853 -0.04424557089805603
vn 0.8195685148239136 0.5712704658508301 -0.04424557834863663
vn 0.018082639202475548 0.9977138042449951 -0.0651177167892456
vn 0.018082639202475548 0.9977138042449951 -0.0651177167892456
vn 0.018082639202475548 0.9977138042449951 -0.06511770933866501
vn -0.8264154195785522 -0.004283893387764692 0.5630446672439575
vn -0.8264154195785522 -0.004283892922103405 0.563044548034668
vn -0.8264154195785522 -0.004283892922103405 0.5630446076393127
vn 0.17918412387371063 0.9832292199134827 0.033961884677410126
vn 0.17918410897254944 0.9832292199134827 0.03396188095211983
vn 0.17918409407138824 0.9832292199134827 0.033961884677410126
vn -0.4848390817642212 0.1424551159143448 0.8629238605499268
vn -0.48483914136886597 0.14245513081550598 0.8629238605499268
vn -0.4848390817642212 0.1424551159143448 0.8629238605499268
vn 0.3181093633174896 0.9382612109184265 0.13591325283050537
vn 0.3181093633174896 0.9382612109184265 0.13591325283050537
vn 0.3181093633174896 0.9382612109184265 0.13591325283050537
vn 0.6594146490097046 0.735470175743103 0.15574319660663605
vn 0.6594146490097046 0.735470175743103 0.15574318170547485
vn 0.6594146490097046 0.735470175743103 0.15574316680431366
vn 0.5008955597877502 0.8578171730041504 0.11512281745672226
vn 0.5008955597877502 0.8578171730041504 0.11512280255556107
vn 0.500895619392395 0.8578171730041504 0.11512281745672226
vn -0.9123600721359253 -0.2655753493309021 0.3115587532520294
vn -0.9123600721359253 -0.2655753195285797 0.31155872344970703
vn -0.9123600721359253 -0.2655753195285797 0.31155869364738464
vn -0.45022130012512207 -0.7973790168762207 0.4018552303314209
vn -0.45022130012512207 -0.7973790168762207 0.4018552303314209
vn -0.45022132992744446 -0.7973790168762207 0.4018551707267761
vn -0.6583023071289062 -0.6686657071113586 0.34572267532348633
vn -0.658302366733551 -0.6686657071113586 0.34572261571884155
vn -0.5626192688941956 -0.7410968542098999 0.3663809299468994
vn -0.658302366733551 -0.6686657071113586 0.3457227051258087
vn 0.5191474556922913 -0.7894672751426697 0.3274555504322052
vn 0.5191474556922913 -0.7894672751426697 0.3274555504322052
vn 0.519147515296936 -0.7894672751426697 0.3274555802345276
vn -0.7487954497337341 -0.6426010727882385 0.16238611936569214
vn -0.7487954497337341 -0.6426010727882385 0.16238610446453094
vn -0.7957192063331604 -0.5887957215309143 0.14195309579372406
vn -0.7487954497337341 -0.6426010727882385 0.16238610446453094
vn -0.7487954497337341 -0.6426010727882385 0.16238611936569214
vn -0.7487954497337341 -0.6426010727882385 0.16238610446453094
vn -0.32174235582351685 -0.9044042229652405 0.28024065494537354
vn -0.32174235582351685 -0.9044042229652405 0.28024065494537354
vn -0.32174238562583923 -0.9044042229652405 0.2802406847476959
vt 0.23992958664894104 0.44055765867233276
vt 0.33046719431877136 0.47413498163223267
vt 0.3599373698234558 0.8351954966783524
vt 0.3599373698234558 0.8351954966783524
vt 0.3147289752960205 0.8491749167442322
vt 0.23992958664894104 0.44055765867233276
vt 0.41757139563560486 0.15686500072479248
vt 0.4650906026363373 0.18417435884475708
vt 0.3957051634788513 0.36649060249328613
vt 0.5684349536895752 0.3810267448425293
vt 0.5749214887619019 0.2552630305290222
vt 0.6728892922401428 0.1672307848930359
vt 0.6602815985679626 0.8038924336433411
vt 0.5635209083557129 0.4722081422805786
vt 0.659376859664917 0.6841597855091095
vt 0.492016464471817 0.38260310888290405
vt 0.28766703605651855 0.35383516550064087
vt 0.04914801940321922 0.0738457441329956
vt 0.15084709227085114 0.045917630195617676
vt 0.3957051634788513 0.36649060249328613
vt 0.35269543528556824 0.29328495264053345
vt 0.38435640931129456 0.25929325819015503
vt 0.28766703605651855 0.35383516550064087
vt 0.15084709227085114 0.045917630195617676
vt 0.22263750433921814 0.18358421325683594
vt 0.5158407688140869 0.20584142208099365
vt 0.5388455986976624 0.016184747219085693
vt 0.6043510437011719 0.011944353580474854
vt 0.4650906026363373 0.18417435884475708
vt 0.4800577461719513 0.2332465648651123
vt 0.4289077818393707 0.43176329135894775
vt 0.5136752128601074 0.003136873245239258
vt 0.4388590455055237 0.4328036308288574
vt 0.5749214887619019 0.2552630305290222
vt 0.5684349536895752 0.3810267448425293
vt 0.4314793348312378 0.26966971158981323
vt 0.45736220479011536 0.3720819354057312
vt 0.4078475832939148 0.396894633769989
vt 0.6498497724533081 0.23535877466201782
vt 0.6839897036552429 0.2989689111709595
vt 0.5684349536895752 0.3810267448425293
vt 0.45736220479011536 0.3720819354057312
vt 0.561748743057251 0.7548731863498688
vt 0.4078475832939148 0.396894633769989
vt 0.3599373698234558 0.8351954966783524
vt 0.4188080132007599 0.6605777740478516
vt 0.44920140504837036 0.655293881893158
vt 0.2531786561012268 0.1779778003692627
vt 0.28335094451904297 0.14294540882110596
vt 0.3565845191478729 0.40205734968185425
vt 0.31492874026298523 0.18541616201400757
vt 0.35269543528556824 0.29328495264053345
vt 0.3565845191478729 0.40205734968185425
vt 0.8413912653923035 0.13305145502090454
vt 0.7139773964881897 0.23305624723434448
vt 0.8064250946044922 0.11066728830337524
vt 0.8594309687614441 0.1558084487915039
vt 0.7733528017997742 0.08686822652816772
vt 0.7139773964881897 0.23305624723434448
vt 0.7290415167808533 0.1238141655921936
vt 0.8064250946044922 0.11066728830337524
vt 0.4650906026363373 0.18417435884475708
vt 0.4095912575721741 0.4499306082725525
vt 0.40183013677597046 0.4412524700164795
vt 0.386917382478714 0.36207419633865356
vt 0.33092209696769714 0.47532570362091064
vt 0.3601703345775604 0.3173498511314392
vt 0.33092209696769714 0.47532570362091064
vt 0.386917382478714 0.36207419633865356
vt 0.33046719431877136 0.47413498163223267
vt 0.23992958664894104 0.44055765867233276
vt 0.22546963393688202 0.38080108165740967
vt 0.33046719431877136 0.47413498163223267
vt 0.443624347448349 0.6053578555583954
vt 0.5545233488082886 0.8195249736309052
vt 0.44920140504837036 0.655293881893158
vt 0.525964081287384 0.7143053114414215
vt 0.4095912575721741 0.4499306082725525
vt 0.33349645137786865 0.393970251083374
vt 0.3882950246334076 0.44289642572402954
vt 0.41266098618507385 0.4895697236061096
vt 0.33349645137786865 0.393970251083374
vt 0.4388590455055237 0.4328036308288574
vt 0.6973461508750916 0.04978001117706299
vt 0.6728892922401428 0.1672307848930359
vt 0.6664839386940002 0.037763118743896484
vt 0.7290415167808533 0.1238141655921936
vt 0.7294849157333374 0.06007838249206543
vt 0.7733528017997742 0.08686822652816772
vt 0.38435640931129456 0.25929325819015503
vt 0.35269543528556824 0.29328495264053345
vt 0.31492874026298523 0.18541616201400757
vt 0.38435640931129456 0.25929325819015503
vt 0.38242316246032715 -0.035463809967041016
vt 0.43239349126815796 -0.029746294021606445
vt 0.5158407688140869 0.20584142208099365
vt 0.6043510437011719 0.011944353580474854
vt 0.5769672989845276 0.17628294229507446
vt 0.5749214887619019 0.2552630305290222
vt 0.4388590455055237 0.4328036308288574
vt 0.5120391249656677 0.2633506655693054
vt 0.41757139563560486 0.15686500072479248
vt 0.43239349126815796 -0.029746294021606445
vt 0.4692002832889557 0.043663978576660156
vt 0.492016464471817 0.38260310888290405
vt 0.4314793348312378 0.26966971158981323
vt 0.49313458800315857 0.3353953957557678
vt 0.5635209083557129 0.4722081422805786
vt 0.492016464471817 0.38260310888290405
vt 0.5155830383300781 0.34348857402801514
vt 0.45736220479011536 0.3720819354057312
vt 0.6602815985679626 0.8038924336433411
vt 0.6147811412811279 0.8065711259841919
vt 0.492016464471817 0.38260310888290405
vt 0.28766703605651855 0.35383516550064087
vt 0.22263750433921814 0.18358421325683594
vt 0.2531786561012268 0.1779778003692627
vt 0.2186831831932068 0.01953822374343872
vt 0.3601703345775604 0.3173498511314392
vt 0.4314793348312378 0.26966971158981323
vt 0.386917382478714 0.36207419633865356
vt 0.4286831319332123 0.25788140296936035
vt 0.4078475832939148 0.396894633769989
vt 0.386917382478714 0.36207419633865356
vt 0.4314793348312378 0.26966971158981323
vt 0.3565845191478729 0.40205734968185425
vt 0.28766703605651855 0.35383516550064087
vt 0.2531786561012268 0.1779778003692627
vt 0.28766703605651855 0.35383516550064087
vt 0.3565845191478729 0.40205734968185425
vt 0.3295801877975464 0.4158691167831421
vt 0.28335094451904297 0.14294540882110596
vt 0.2186831831932068 0.01953822374343872
vt 0.3388674259185791 0.12265640497207642
vt 0.31492874026298523 0.18541616201400757
vt 0.3388674259185791 0.12265640497207642
vt 0.38435640931129456 0.25929325819015503
vt 0.33092209696769714 0.47532570362091064
vt 0.33046719431877136 0.47413498163223267
vt 0.22546963393688202 0.38080108165740967
vt 0.43239349126815796 -0.029746294021606445
vt 0.5136752128601074 0.003136873245239258
vt 0.4692002832889557 0.043663978576660156
vt 0.7198293805122375 0.780924066901207
vt 0.6577490568161011 0.5794597864151001
vt 0.7534990906715393 0.7709215432405472
vt 0.659376859664917 0.6841597855091095
vt 0.659376859664917 0.6841597855091095
vt 0.5635209083557129 0.4722081422805786
vt 0.6577490568161011 0.5794597864151001
vt 0.5684349536895752 0.3810267448425293
vt 0.45274481177330017 0.4772353172302246
vt 0.4388590455055237 0.4328036308288574
vt 0.561748743057251 0.7548731863498688
vt 0.45736220479011536 0.3720819354057312
vt 0.6147811412811279 0.8065711259841919
vt 0.5136752128601074 0.003136873245239258
vt 0.5016838312149048 0.23739880323410034
vt 0.4800577461719513 0.2332465648651123
vt 0.5016838312149048 0.23739880323410034
vt 0.5769672989845276 0.17628294229507446
vt 0.5120391249656677 0.2633506655693054
vt 0.23992958664894104 0.44055765867233276
vt 0.29063764214515686 0.855909451842308
vt 0.21561746299266815 0.47319328784942627
vt 0.1948021948337555 0.43200957775115967
vt 0.22546963393688202 0.38080108165740967
vt 0.23992958664894104 0.44055765867233276
vt 0.5545233488082886 0.8195249736309052
vt 0.46046182513237 0.8581832349300385
vt 0.44920140504837036 0.655293881893158
vt 0.4362443685531616 0.7529924958944321
vt 0.46046182513237 0.8581832349300385
vt 0.40555262565612793 0.8406827449798584
vt 0.39623862504959106 0.44265609979629517
vt 0.3565845191478729 0.40205734968185425
vt 0.35269543528556824 0.29328495264053345
vt 0.3565845191478729 0.40205734968185425
vt 0.39623862504959106 0.44265609979629517
vt 0.3295801877975464 0.4158691167831421
vt 0.6664839386940002 0.037763118743896484
vt 0.5769672989845276 0.17628294229507446
vt 0.6043510437011719 0.011944353580474854
vt 0.5749214887619019 0.2552630305290222
vt 0.5961591005325317 0.18353337049484253
vt 0.6728892922401428 0.1672307848930359
vt 0.15084709227085114 0.045917630195617676
vt 0.20929557085037231 0.0073438286781311035
vt 0.2186831831932068 0.01953822374343872
vt 0.4362443685531616 0.7529924958944321
vt 0.40555262565612793 0.8406827449798584
vt 0.3599373698234558 0.8351954966783524
vt 0.7534990906715393 0.7709215432405472
vt 0.6577490568161011 0.5794597864151001
vt 0.8170144557952881 0.7379469871520996
vt 0.3147289752960205 0.8491749167442322
vt 0.29063764214515686 0.855909451842308
vt 0.23992958664894104 0.44055765867233276
vt 0.6973461508750916 0.04978001117706299
vt 0.7294849157333374 0.06007838249206543
vt 0.6728892922401428 0.1672307848930359
vt 0.4650906026363373 0.18417435884475708
vt 0.40183013677597046 0.4412524700164795
vt 0.3957051634788513 0.36649060249328613
vt 0.3882950246334076 0.44289642572402954
vt 0.35269543528556824 0.29328495264053345
vt 0.3957051634788513 0.36649060249328613
vt 0.3388674259185791 0.12265640497207642
vt 0.38242316246032715 -0.035463809967041016
vt 0.38435640931129456 0.25929325819015503
vt 0.561748743057251 0.7548731863498688
vt 0.5545233488082886 0.8195249736309052
vt 0.5281609296798706 0.7244915664196014
vt 0.5281609296798706 0.7244915664196014
vt 0.5545233488082886 0.8195249736309052
vt 0.525964081287384 0.7143053114414215
vt 0.4388590455055237 0.4328036308288574
vt 0.33349645137786865 0.393970251083374
vt 0.4289077818393707 0.43176329135894775
vt 0.5120391249656677 0.2633506655693054
vt 0.4388590455055237 0.4328036308288574
vt 0.4289077818393707 0.43176329135894775
vt 0.2531786561012268 0.1779778003692627
vt 0.2186831831932068 0.01953822374343872
vt 0.28335094451904297 0.14294540882110596
vt 0.7290415167808533 0.1238141655921936
vt 0.6728892922401428 0.1672307848930359
vt 0.7294849157333374 0.06007838249206543
vt 0.6728892922401428 0.1672307848930359
vt 0.6498497724533081 0.23535877466201782
vt 0.5684349536895752 0.3810267448425293
vt 0.5016838312149048 0.23739880323410034
vt 0.5136752128601074 0.003136873245239258
vt 0.5158407688140869 0.20584142208099365
vt 0.5769672989845276 0.17628294229507446
vt 0.5016838312149048 0.23739880323410034
vt 0.5158407688140869 0.20584142208099365
vt 0.2186831831932068 0.01953822374343872
vt 0.22263750433921814 0.18358421325683594
vt 0.15084709227085114 0.045917630195617676
vt 0.5749214887619019 0.2552630305290222
vt 0.5120391249656677 0.2633506655693054
vt 0.5769672989845276 0.17628294229507446
vt 0.5769672989845276 0.17628294229507446
vt 0.5961591005325317 0.18353337049484253
vt 0.5749214887619019 0.2552630305290222
vt 0.8594309687614441 0.1558084487915039
vt 0.6839897036552429 0.2989689111709595
vt 0.7139773964881897 0.23305624723434448
vt 0.6839897036552429 0.2989689111709595
vt 0.6498497724533081 0.23535877466201782
vt 0.7139773964881897 0.23305624723434448
vt 0.4650906026363373 0.18417435884475708
vt 0.41757139563560486 0.15686500072479248
vt 0.4692002832889557 0.043663978576660156
vt 0.5136752128601074 0.003136873245239258
vt 0.4650906026363373 0.18417435884475708
vt 0.4692002832889557 0.043663978576660156
vt 0.5136752128601074 0.003136873245239258
vt 0.5388455986976624 0.016184747219085693
vt 0.5158407688140869 0.20584142208099365
vt 0.49313458800315857 0.3353953957557678
vt 0.4314793348312378 0.26966971158981323
vt 0.4286831319332123 0.25788140296936035
vt 0.443624347448349 0.6053578555583954
vt 0.44920140504837036 0.655293881893158
vt 0.4188080132007599 0.6605777740478516
vt 0.386917382478714 0.36207419633865356
vt 0.3643295168876648 0.48541349172592163
vt 0.33046719431877136 0.47413498163223267
vt 0.4314793348312378 0.26966971158981323
vt 0.492016464471817 0.38260310888290405
vt 0.45736220479011536 0.3720819354057312
vt 0.659376859664917 0.6841597855091095
vt 0.6901667714118958 0.7809736579656601
vt 0.6602815985679626 0.8038924336433411
vt 0.5545233488082886 0.8195249736309052
vt 0.561748743057251 0.7548731863498688
vt 0.6147811412811279 0.8065711259841919
vt 0.3599373698234558 0.8351954966783524
vt 0.44920140504837036 0.655293881893158
vt 0.4362443685531616 0.7529924958944321
vt 0.46046182513237 0.8581832349300385
vt 0.4362443685531616 0.7529924958944321
vt 0.44920140504837036 0.655293881893158
vt 0.1948021948337555 0.43200957775115967
vt 0.23992958664894104 0.44055765867233276
vt 0.21561746299266815 0.47319328784942627
vt 0.6901667714118958 0.7809736579656601
vt 0.659376859664917 0.6841597855091095
vt 0.7198293805122375 0.780924066901207
vt 0.4650906026363373 0.18417435884475708
vt 0.4289077818393707 0.43176329135894775
vt 0.4095912575721741 0.4499306082725525
vt 0.33349645137786865 0.393970251083374
vt 0.4095912575721741 0.4499306082725525
vt 0.4289077818393707 0.43176329135894775
vt 0.38435640931129456 0.25929325819015503
vt 0.43239349126815796 -0.029746294021606445
vt 0.41757139563560486 0.15686500072479248
vt 0.3957051634788513 0.36649060249328613
vt 0.38435640931129456 0.25929325819015503
vt 0.41757139563560486 0.15686500072479248
vt 0.40183013677597046 0.4412524700164795
vt 0.4095912575721741 0.4499306082725525
vt 0.3882950246334076 0.44289642572402954
vt 0.3882950246334076 0.44289642572402954
vt 0.3957051634788513 0.36649060249328613
vt 0.40183013677597046 0.4412524700164795
vt 0.492016464471817 0.38260310888290405
vt 0.49313458800315857 0.3353953957557678
vt 0.5155830383300781 0.34348857402801514
vt 0.4388590455055237 0.4328036308288574
vt 0.45274481177330017 0.4772353172302246
vt 0.41266098618507385 0.4895697236061096
vt 0.38242316246032715 -0.035463809967041016
vt 0.3388674259185791 0.12265640497207642
vt 0.3122895658016205 -0.026753783226013184
vt 0.3388674259185791 0.12265640497207642
vt 0.2186831831932068 0.01953822374343872
vt 0.3122895658016205 -0.026753783226013184
vt 0.6664839386940002 0.037763118743896484
vt 0.6728892922401428 0.1672307848930359
vt 0.5961591005325317 0.18353337049484253
vt 0.6664839386940002 0.037763118743896484
vt 0.5961591005325317 0.18353337049484253
vt 0.5769672989845276 0.17628294229507446
vt 0.28335094451904297 0.14294540882110596
vt 0.3388674259185791 0.12265640497207642
vt 0.31492874026298523 0.18541616201400757
vt 0.28335094451904297 0.14294540882110596
vt 0.31492874026298523 0.18541616201400757
vt 0.3565845191478729 0.40205734968185425
vt 0.5120391249656677 0.2633506655693054
vt 0.4800577461719513 0.2332465648651123
vt 0.5016838312149048 0.23739880323410034
vt 0.4800577461719513 0.2332465648651123
vt 0.5120391249656677 0.2633506655693054
vt 0.4289077818393707 0.43176329135894775
vt 0.6498497724533081 0.23535877466201782
vt 0.7290415167808533 0.1238141655921936
vt 0.7139773964881897 0.23305624723434448
vt 0.6728892922401428 0.1672307848930359
vt 0.7290415167808533 0.1238141655921936
vt 0.6498497724533081 0.23535877466201782
vt 0.33046719431877136 0.47413498163223267
vt 0.3643295168876648 0.48541349172592163
vt 0.3599373698234558 0.8351954966783524
vt 0.3599373698234558 0.8351954966783524
vt 0.3643295168876648 0.48541349172592163
vt 0.4188080132007599 0.6605777740478516
vt 0.386917382478714 0.36207419633865356
vt 0.4188080132007599 0.6605777740478516
vt 0.3643295168876648 0.48541349172592163
vt 0.443624347448349 0.6053578555583954
vt 0.443624347448349 0.6053578555583954
vt 0.386917382478714 0.36207419633865356
vt 0.525964081287384 0.7143053114414215
vt 0.4078475832939148 0.396894633769989
vt 0.525964081287384 0.7143053114414215
vt 0.386917382478714 0.36207419633865356
vt 0.525964081287384 0.7143053114414215
vt 0.4078475832939148 0.396894633769989
vt 0.5281609296798706 0.7244915664196014
vt 0.5281609296798706 0.7244915664196014
vt 0.4078475832939148 0.396894633769989
vt 0.561748743057251 0.7548731863498688

g Object05
s 1
usemtl Object05
f 3/3/3 2/2/2 1/1/1 
f 6/6/6 5/5/5 4/4/4 
f 9/9/9 8/8/8 7/7/7 
f 12/12/12 11/11/11 10/10/10 
f 15/15/15 14/14/14 13/13/13 
f 16/16/16 13/13/13 14/14/14 
f 19/19/19 18/18/18 17/17/17 
f 22/22/22 21/21/21 20/20/20 
f 25/25/25 24/24/24 23/23/23 
f 28/28/28 27/27/27 26/26/26 
f 31/31/31 30/30/30 29/29/29 
f 32/32/32 29/29/29 30/30/30 
f 35/35/35 34/34/34 33/33/33 
f 38/38/38 37/37/37 36/36/36 
f 41/41/41 40/40/40 39/39/39 
f 44/44/44 43/43/43 42/42/42 
f 47/47/47 46/46/46 45/45/45 
f 50/50/50 49/49/49 48/48/48 
f 53/53/53 52/52/52 51/51/51 
f 56/56/56 55/55/55 54/54/54 
f 57/57/57 54/54/54 55/55/55 
f 60/60/60 59/59/59 58/58/58 
f 61/61/61 58/58/58 59/59/59 
f 64/64/64 63/63/63 62/62/62 
f 67/67/67 66/66/66 65/65/65 
f 70/70/70 69/69/69 68/68/68 
f 73/73/73 72/72/72 71/71/71 
f 76/76/76 75/75/75 74/74/74 
f 77/77/77 74/74/74 75/75/75 
f 80/80/80 79/79/79 78/78/78 
f 83/83/83 82/82/82 81/81/81 
f 86/86/86 85/85/85 84/84/84 
f 89/89/89 88/88/88 87/87/87 
f 92/92/92 91/91/91 90/90/90 
f 95/95/95 94/94/94 93/93/93 
f 98/98/98 97/97/97 96/96/96 
f 101/101/101 100/100/100 99/99/99 
f 104/104/104 103/103/103 102/102/102 
f 107/107/107 106/106/106 105/105/105 
f 110/110/110 109/109/109 108/108/108 
f 113/113/113 112/112/112 111/111/111 
f 114/114/114 111/111/111 112/112/112 
f 117/117/117 116/116/116 115/115/115 
f 118/118/118 116/116/116 117/117/117 
f 121/121/121 120/120/120 119/119/119 
f 122/122/122 119/119/119 120/120/120 
f 125/125/125 124/124/124 123/123/123 
f 128/128/128 127/127/127 126/126/126 
f 131/131/131 130/130/130 129/129/129 
f 134/134/134 133/133/133 132/132/132 
f 137/137/137 136/136/136 135/135/135 
f 140/140/140 139/139/139 138/138/138 
f 143/143/143 142/142/142 141/141/141 
f 146/146/146 145/145/145 144/144/144 
f 147/147/147 144/144/144 145/145/145 
f 150/150/150 149/149/149 148/148/148 
f 153/153/153 152/152/152 151/151/151 
f 156/156/156 155/155/155 154/154/154 
f 159/159/159 158/158/158 157/157/157 
f 162/162/162 161/161/161 160/160/160 
f 165/165/165 164/164/164 163/163/163 
f 168/168/168 167/167/167 166/166/166 
f 171/171/171 170/170/170 169/169/169 
f 174/174/174 173/173/173 172/172/172 
f 177/177/177 176/176/176 175/175/175 
f 180/180/180 179/179/179 178/178/178 
f 183/183/183 182/182/182 181/181/181 
f 186/186/186 185/185/185 184/184/184 
f 189/189/189 188/188/188 187/187/187 
f 192/192/192 191/191/191 190/190/190 
f 195/195/195 194/194/194 193/193/193 
f 198/198/198 197/197/197 196/196/196 
f 201/201/201 200/200/200 199/199/199 
f 204/204/204 203/203/203 202/202/202 
f 207/207/207 206/206/206 205/205/205 
f 210/210/210 209/209/209 208/208/208 
f 213/213/213 212/212/212 211/211/211 
f 216/216/216 215/215/215 214/214/214 
f 219/219/219 218/218/218 217/217/217 
f 222/222/222 221/221/221 220/220/220 
f 225/225/225 224/224/224 223/223/223 
f 228/228/228 227/227/227 226/226/226 
f 231/231/231 230/230/230 229/229/229 
f 234/234/234 233/233/233 232/232/232 
f 237/237/237 236/236/236 235/235/235 
f 240/240/240 239/239/239 238/238/238 
f 243/243/243 242/242/242 241/241/241 
f 246/246/246 245/245/245 244/244/244 
f 249/249/249 248/248/248 247/247/247 
f 252/252/252 251/251/251 250/250/250 
f 255/255/255 254/254/254 253/253/253 
f 258/258/258 257/257/257 256/256/256 
f 261/261/261 260/260/260 259/259/259 
f 264/264/264 263/263/263 262/262/262 
f 267/267/267 266/266/266 265/265/265 
f 270/270/270 269/269/269 268/268/268 
f 273/273/273 272/272/272 271/271/271 
f 276/276/276 275/275/275 274/274/274 
f 279/279/279 278/278/278 277/277/277 
f 282/282/282 281/281/281 280/280/280 
f 285/285/285 284/284/284 283/283/283 
f 288/288/288 287/287/287 286/286/286 
f 291/291/291 290/290/290 289/289/289 
f 294/294/294 293/293/293 292/292/292 
f 297/297/297 296/296/296 295/295/295 
f 300/300/300 299/299/299 298/298/298 
f 303/303/303 302/302/302 301/301/301 
f 306/306/306 305/305/305 304/304/304 
f 309/309/309 308/308/308 307/307/307 
f 312/312/312 311/311/311 310/310/310 
f 315/315/315 314/314/314 313/313/313 
f 318/318/318 317/317/317 316/316/316 
f 321/321/321 320/320/320 319/319/319 
f 324/324/324 323/323/323 322/322/322 
f 327/327/327 326/326/326 325/325/325 
f 330/330/330 329/329/329 328/328/328 
f 333/333/333 332/332/332 331/331/331 
f 336/336/336 335/335/335 334/334/334 
f 339/339/339 338/338/338 337/337/337 
f 342/342/342 341/341/341 340/340/340 
f 345/345/345 344/344/344 343/343/343 
f 348/348/348 347/347/347 346/346/346 
f 351/351/351 350/350/350 349/349/349 
f 354/354/354 353/353/353 352/352/352 
f 355/355/355 352/352/352 353/353/353 
f 358/358/358 357/357/357 356/356/356 
f 361/361/361 360/360/360 359/359/359 
f 364/364/364 363/363/363 362/362/362 
f 367/367/367 366/366/366 365/365/365 

