v 0.16792112588882446 0.05857899785041809 0.20116916298866272
v -0.08360064029693604 0.01670379936695099 0.17143958806991577
v 0.11625874042510986 0.16797736287117004 0.1354038417339325
v -0.08360064029693604 0.01670379936695099 0.17143958806991577
v 0.16792112588882446 0.05857899785041809 0.20116916298866272
v 0.020239949226379395 -0.20132023096084595 0.22723260521888733
v -0.2036832571029663 -0.08465532958507538 -0.07242725789546967
v -0.1630420684814453 0.14183399081230164 -0.14531537890434265
v -0.09120899438858032 0.22500258684158325 -0.032601580023765564
v 0.0900833010673523 0.0034352540969848633 -0.22723257541656494
v -0.2036832571029663 -0.08465532958507538 -0.07242725789546967
v 0.073871910572052 -0.29432666301727295 -0.04453064501285553
v 0.0900833010673523 0.0034352540969848633 -0.22723257541656494
v 0.073871910572052 -0.29432666301727295 -0.04453064501285553
v 0.2036832571029663 -0.06638786196708679 0.029086381196975708
v 0.0900833010673523 0.0034352540969848633 -0.22723257541656494
v 0.2036832571029663 -0.06638786196708679 0.029086381196975708
v 0.12290060520172119 0.21091683208942413 -0.003920421004295349
v -0.2036832571029663 -0.08465532958507538 -0.07242725789546967
v -0.09120899438858032 0.22500258684158325 -0.032601580023765564
v -0.08360064029693604 0.01670379936695099 0.17143958806991577
v -0.2036832571029663 -0.08465532958507538 -0.07242725789546967
v 0.020239949226379395 -0.20132023096084595 0.22723260521888733
v 0.073871910572052 -0.29432666301727295 -0.04453064501285553
v 0.020239949226379395 -0.20132023096084595 0.22723260521888733
v -0.2036832571029663 -0.08465532958507538 -0.07242725789546967
v -0.08360064029693604 0.01670379936695099 0.17143958806991577
v 0.2036832571029663 -0.06638786196708679 0.029086381196975708
v 0.020239949226379395 -0.20132023096084595 0.22723260521888733
v 0.16792112588882446 0.05857899785041809 0.20116916298866272
v 0.020239949226379395 -0.20132023096084595 0.22723260521888733
v 0.2036832571029663 -0.06638786196708679 0.029086381196975708
v 0.073871910572052 -0.29432666301727295 -0.04453064501285553
v 0.11625874042510986 0.16797736287117004 0.1354038417339325
v 0.2036832571029663 -0.06638786196708679 0.029086381196975708
v 0.16792112588882446 0.05857899785041809 0.20116916298866272
v 0.2036832571029663 -0.06638786196708679 0.029086381196975708
v 0.11625874042510986 0.16797736287117004 0.1354038417339325
v 0.12290060520172119 0.21091683208942413 -0.003920421004295349
v 0.11625874042510986 0.16797736287117004 0.1354038417339325
v -0.09120899438858032 0.22500258684158325 -0.032601580023765564
v 0.12290060520172119 0.21091683208942413 -0.003920421004295349
v -0.09120899438858032 0.22500258684158325 -0.032601580023765564
v 0.11625874042510986 0.16797736287117004 0.1354038417339325
v -0.08360064029693604 0.01670379936695099 0.17143958806991577
v -0.1630420684814453 0.14183399081230164 -0.14531537890434265
v -0.001502692699432373 0.29432666301727295 -0.15326149761676788
v -0.09120899438858032 0.22500258684158325 -0.032601580023765564
v -0.09120899438858032 0.22500258684158325 -0.032601580023765564
v -0.001502692699432373 0.29432666301727295 -0.15326149761676788
v 0.12290060520172119 0.21091683208942413 -0.003920421004295349
v -0.001502692699432373 0.29432666301727295 -0.15326149761676788
v 0.0900833010673523 0.0034352540969848633 -0.22723257541656494
v 0.12290060520172119 0.21091683208942413 -0.003920421004295349
v -0.001502692699432373 0.29432666301727295 -0.15326149761676788
v -0.1630420684814453 0.14183399081230164 -0.14531537890434265
v 0.0900833010673523 0.0034352540969848633 -0.22723257541656494
v -0.1630420684814453 0.14183399081230164 -0.14531537890434265
v -0.2036832571029663 -0.08465532958507538 -0.07242725789546967
v 0.0900833010673523 0.0034352540969848633 -0.22723257541656494
vn -0.1777268946170807 0.44401395320892334 0.8782167434692383
vn -0.1777268946170807 0.44401395320892334 0.8782167434692383
vn -0.1777268946170807 0.44401395320892334 0.8782167434692383
vn -0.1449575424194336 0.17993757128715515 0.9729387760162354
vn -0.1449575275182724 0.17993757128715515 0.9729387760162354
vn -0.1449575573205948 0.17993757128715515 0.9729387760162354
vn -0.889798641204834 0.27650097012519836 0.3630501329898834
vn -0.8897987604141235 0.27650099992752075 0.3630501925945282
vn -0.8897987604141235 0.27650102972984314 0.3630501627922058
vn -0.2870759069919586 -0.4895670413970947 -0.8233537673950195
vn -0.287075936794281 -0.4895670413970947 -0.8233537673950195
vn -0.2870759069919586 -0.4895670413970947 -0.8233537673950195
vn 0.8287367820739746 -0.32476910948753357 -0.4557636082172394
vn 0.8287367820739746 -0.32476910948753357 -0.45576363801956177
vn 0.8287367224693298 -0.3247690796852112 -0.45576366782188416
vn 0.9120385646820068 0.22486799955368042 -0.3429577052593231
vn 0.9120385646820068 0.22486799955368042 -0.34295767545700073
vn 0.9120385646820068 0.22486799955368042 -0.34295767545700073
vn -0.9014852643013 0.28561508655548096 0.3251897692680359
vn -0.9014851450920105 0.28561508655548096 0.3251897692680359
vn -0.9014851450920105 0.28561508655548096 0.3251897394657135
vn -0.6055526733398438 -0.7819050550460815 0.14808925986289978
vn -0.6055526733398438 -0.7819050550460815 0.14808927476406097
vn -0.6055526733398438 -0.7819050550460815 0.14808927476406097
vn -0.8193395733833313 -0.2594006359577179 0.5112670063972473
vn -0.8193395733833313 -0.2594006657600403 0.5112670660018921
vn -0.8193395733833313 -0.2594006657600403 0.5112670063972473
vn 0.7918532490730286 -0.40402451157569885 0.45796582102775574
vn 0.7918532490730286 -0.40402451157569885 0.45796579122543335
vn 0.7918532490730286 -0.40402451157569885 0.45796579122543335
vn 0.7666682600975037 -0.5458123683929443 0.33809563517570496
vn 0.7666682004928589 -0.5458124279975891 0.33809566497802734
vn 0.7666682004928589 -0.5458124279975891 0.33809563517570496
vn 0.9199314117431641 0.38241201639175415 -0.08652883768081665
vn 0.9199314117431641 0.38241201639175415 -0.08652884513139725
vn 0.9199314117431641 0.38241198658943176 -0.08652883768081665
vn 0.9468544721603394 0.29191291332244873 0.1351054310798645
vn 0.9468544721603394 0.29191288352012634 0.1351054459810257
vn 0.9468544721603394 0.29191285371780396 0.1351054310798645
vn 0.02325340546667576 0.9550720453262329 0.2954600155353546
vn 0.02325340360403061 0.9550720453262329 0.29545995593070984
vn 0.02325340546667576 0.9550720453262329 0.29545995593070984
vn -0.36655160784721375 0.6441957950592041 0.6713059544563293
vn -0.36655157804489136 0.6441957950592041 0.6713059544563293
vn -0.36655157804489136 0.6441957354545593 0.6713059544563293
vn -0.6858010292053223 0.7215191721916199 -0.09532595425844193
vn -0.6858009696006775 0.7215191721916199 -0.09532593935728073
vn -0.6858010292053223 0.7215191721916199 -0.09532593935728073
vn -0.008840641938149929 0.8698694109916687 0.4932030141353607
vn -0.008840641006827354 0.8698694109916687 0.49320298433303833
vn -0.008840641006827354 0.8698694109916687 0.4932030141353607
vn 0.8048271536827087 0.37116628885269165 -0.4631294012069702
vn 0.8048271536827087 0.37116625905036926 -0.46312934160232544
vn 0.8048271536827087 0.37116625905036926 -0.4631294012069702
vn -0.21419598162174225 0.17684561014175415 -0.9606485366821289
vn -0.21419599652290344 0.17684559524059296 -0.9606486558914185
vn -0.21419599652290344 0.17684558033943176 -0.9606486558914185
vn -0.4045492708683014 -0.21357624232769012 -0.8892272710800171
vn -0.4045492708683014 -0.21357622742652893 -0.8892272710800171
vn -0.40454933047294617 -0.21357624232769012 -0.8892272710800171
vt 0.42520591616630554 0.7451980412006378
vt 0.9213056564331055 0.9255247563123703
vt 0.36812812089920044 0.9515581764280796
vt 0.9213056564331055 0.9255247563123703
vt 0.42520591616630554 0.7451980412006378
vt 0.713258683681488 0.8291904032230377
vt 0.9567781090736389 0.9389685541391373
vt 0.6330673694610596 0.9111780524253845
vt 0.6363626718521118 0.9520442336797714
vt 0.6306724548339844 0.8814776763319969
vt 0.9567781090736389 0.9389685541391373
vt 0.7487311363220215 0.815746620297432
vt 0.6306724548339844 0.8814776763319969
vt 0.7487311363220215 0.815746620297432
vt 0.3982323706150055 0.7281920611858368
vt 0.6306724548339844 0.8814776763319969
vt 0.3982323706150055 0.7281920611858368
vt 0.3326556086540222 0.9650019705295563
vt 0.9567781090736389 0.9389685541391373
vt 0.6363626718521118 0.9520442336797714
vt 0.9213056564331055 0.9255247563123703
vt 0.9567781090736389 0.9389685541391373
vt 0.713258683681488 0.8291904032230377
vt 0.7487311363220215 0.815746620297432
vt 0.713258683681488 0.8291904032230377
vt 0.9567781090736389 0.9389685541391373
vt 0.9213056564331055 0.9255247563123703
vt 0.3982323706150055 0.7281920611858368
vt 0.713258683681488 0.8291904032230377
vt 0.42520591616630554 0.7451980412006378
vt 0.713258683681488 0.8291904032230377
vt 0.3982323706150055 0.7281920611858368
vt 0.7487311363220215 0.815746620297432
vt 0.36812812089920044 0.9515581764280796
vt 0.3982323706150055 0.7281920611858368
vt 0.42520591616630554 0.7451980412006378
vt 0.3982323706150055 0.7281920611858368
vt 0.36812812089920044 0.9515581764280796
vt 0.3326556086540222 0.9650019705295563
vt 0.36812812089920044 0.9515581764280796
vt 0.6363626718521118 0.9520442336797714
vt 0.3326556086540222 0.9650019705295563
vt 0.6363626718521118 0.9520442336797714
vt 0.36812812089920044 0.9515581764280796
vt 0.9213056564331055 0.9255247563123703
vt 0.6330673694610596 0.9111780524253845
vt 0.59787917137146 0.9639552310109138
vt 0.6363626718521118 0.9520442336797714
vt 0.6363626718521118 0.9520442336797714
vt 0.59787917137146 0.9639552310109138
vt 0.3326556086540222 0.9650019705295563
vt 0.59787917137146 0.9639552310109138
vt 0.6306724548339844 0.8814776763319969
vt 0.3326556086540222 0.9650019705295563
vt 0.59787917137146 0.9639552310109138
vt 0.6330673694610596 0.9111780524253845
vt 0.6306724548339844 0.8814776763319969
vt 0.6330673694610596 0.9111780524253845
vt 0.9567781090736389 0.9389685541391373
vt 0.6306724548339844 0.8814776763319969

g Object005
s 1
usemtl Object005
f 3/3/3 2/2/2 1/1/1 
f 6/6/6 5/5/5 4/4/4 
f 9/9/9 8/8/8 7/7/7 
f 12/12/12 11/11/11 10/10/10 
f 15/15/15 14/14/14 13/13/13 
f 18/18/18 17/17/17 16/16/16 
f 21/21/21 20/20/20 19/19/19 
f 24/24/24 23/23/23 22/22/22 
f 27/27/27 26/26/26 25/25/25 
f 30/30/30 29/29/29 28/28/28 
f 33/33/33 32/32/32 31/31/31 
f 36/36/36 35/35/35 34/34/34 
f 39/39/39 38/38/38 37/37/37 
f 42/42/42 41/41/41 40/40/40 
f 45/45/45 44/44/44 43/43/43 
f 48/48/48 47/47/47 46/46/46 
f 51/51/51 50/50/50 49/49/49 
f 54/54/54 53/53/53 52/52/52 
f 57/57/57 56/56/56 55/55/55 
f 60/60/60 59/59/59 58/58/58 

