v -4.595780372619629 -4.595506191253662 -0.05016881600022316
v 4.595780372619629 -4.595506191253662 -0.05016881600022316
v -4.595780372619629 4.595506191253662 0.05016881600022316
v 4.595780372619629 4.595506191253662 0.05016881600022316
vn -0.0 0.01096725556999445 -0.9999399185180664
vn -0.0 0.01096725556999445 -0.9999399185180664
vn -0.0 0.01096725556999445 -0.9999399185180664
vn -0.0 0.01096725556999445 -0.9999399185180664
vt 0.0 0.0
vt 1.0 0.0
vt 0.0 1.0
vt 1.0 1.0

g Plane01_move3
s 1
usemtl Plane01_move3
f 3/3/3 2/2/2 1/1/1 
f 2/2/2 3/3/3 4/4/4 

