v -23.02144432067871 -9.512699127197266 10.397201538085938
v 24.371986389160156 -12.051679611206055 6.286170959472656
v 23.579910278320312 0.11604690551757812 -3.9883270263671875
v -23.644872665405273 0.11605453491210938 2.2809600830078125
v -23.101531982421875 -18.930130004882812 19.091827392578125
v 24.294118881225586 -23.007991790771484 16.54096221923828
v -23.49112892150879 -28.085847854614258 29.084434509277344
v 23.913028717041016 -32.434730529785156 27.23589324951172
v -23.72852325439453 -36.543758392333984 40.787315368652344
v 23.728530883789062 -40.115692138671875 38.653465270996094
v -23.7285213470459 -41.59639358520508 50.69043731689453
v 23.72852897644043 -45.396244049072266 48.99536895751953
v -23.728527069091797 -46.503746032714844 63.13019561767578
v 23.728527069091797 -50.43051528930664 61.754478454589844
v -23.72852897644043 -50.87139129638672 77.24037170410156
v 23.72852325439453 -54.88737106323242 76.1522216796875
v -23.728532791137695 -54.326866149902344 92.17280578613281
v 23.7285213470459 -58.413734436035156 91.39199829101562
v -23.728534698486328 -56.50651550292969 107.07984924316406
v 23.728519439697266 -60.647708892822266 106.67657470703125
v -23.72853660583496 -57.07079315185547 121.13655090332031
v 23.728517532348633 -61.23097610473633 121.20722961425781
v -23.728534698486328 -56.26059341430664 135.024169921875
v 23.728519439697266 -60.40138244628906 135.43157958984375
v -23.728534698486328 -54.32135772705078 149.11126708984375
v 23.728519439697266 -58.41856384277344 149.8358612060547
v -23.72853660583496 -51.294822692871094 163.07763671875
v 23.728515625 -55.324005126953125 164.11581420898438
v -23.728538513183594 -47.22527313232422 176.60391235351562
v 23.728515625 -51.15656661987305 177.96665954589844
v -23.728534698486328 -42.16008377075195 189.37074279785156
v 23.728515625 -45.95208740234375 191.08328247070312
v -23.728538513183594 -35.51966857910156 202.1719970703125
v 23.728515625 -39.109275817871094 204.2760009765625
v -23.72853660583496 -26.635082244873047 215.492431640625
v 23.7285213470459 -29.946590423583984 218.01156616210938
v -23.728530883789062 -17.627105712890625 226.02578735351562
v 23.7285213470459 -20.631975173950195 228.90380859375
v -23.728532791137695 -8.497098922729492 234.75241088867188
v 23.7285213470459 -11.256645202636719 237.86642456054688
v -23.72852897644043 0.7968025207519531 242.67160034179688
v 23.72852325439453 -1.8717689514160156 245.8638916015625
v 3.0581936836242676 4.839996337890625 26.164085388183594
v -1.707580804824829 -26.4044246673584 -9.480789184570312
v -2.4394795894622803 -15.14260482788086 -18.9852294921875
v 2.3745946884155273 15.374652862548828 17.27777099609375
v 2.9404821395874023 -4.209781646728516 34.57946014404297
v -1.7478296756744385 -37.72838592529297 1.0532684326171875
v 2.4853930473327637 -11.786224365234375 43.023048400878906
v -2.0634312629699707 -48.73440170288086 13.297233581542969
v 2.0804243087768555 -17.959369659423828 51.88963317871094
v -2.0803654193878174 -58.70011901855469 27.551116943359375
v 2.080418825149536 -21.82619285583496 59.50971984863281
v -2.0803751945495605 -65.16648864746094 40.176048278808594
v 2.0804100036621094 -26.073184967041016 70.28792572021484
v -2.080380916595459 -70.86109924316406 54.596717834472656
v 2.080404043197632 -29.976696014404297 82.90187072753906
v -2.0803866386413574 -75.7821044921875 70.49070739746094
v 2.0803990364074707 -33.06332778930664 96.2352066040039
v -2.080392360687256 -79.67729187011719 87.32958221435547
v 2.0803940296173096 -34.96030807495117 109.17804718017578
v -2.080397367477417 -82.19392395019531 104.578369140625
v 2.0803894996643066 -35.425785064697266 120.76873016357422
v -2.0804028511047363 -82.87598419189453 121.57503509521484
v 2.0803847312927246 -34.71648025512695 132.90447998046875
v -2.080406904220581 -81.94548797607422 137.55123901367188
v 2.080380439758301 -33.00401306152344 145.34127807617188
v -2.0804121494293213 -79.73588562011719 153.6058349609375
v 2.080376386642456 -30.331384658813477 157.6761016845703
v -2.080415725708008 -76.28741455078125 169.517333984375
v 2.0803732872009277 -26.771148681640625 169.51370239257812
v -2.0804195404052734 -71.61065673828125 185.05685424804688
v 2.080369710922241 -22.4306583404541 180.46047973632812
v -2.0804264545440674 -65.68145751953125 199.9935302734375
v 2.080362319946289 -16.843292236328125 191.22503662109375
v -2.0804293155670166 -57.78559875488281 215.22293090820312
v 2.080359935760498 -9.405630111694336 202.38558959960938
v -2.080430507659912 -47.175987243652344 231.1183319091797
v 2.0803580284118652 -1.993072509765625 211.05178833007812
v -2.0804319381713867 -36.26594924926758 243.8777313232422
v 2.0803563594818115 5.860530853271484 218.55050659179688
v -2.0804336071014404 -25.614215850830078 254.06829833984375
v 2.080355167388916 14.681106567382812 226.062255859375
v -2.080434560775757 -15.75600814819336 262.47314453125
vn -0.09948049485683441 -0.6614753007888794 -0.7433398365974426
vn -0.09947510808706284 -0.6615668535232544 -0.7432589530944824
vn -0.10039037466049194 -0.6454126238822937 -0.7572082281112671
vn -0.10039035230875015 -0.6454125642776489 -0.7572082281112671
vn -0.09766558557748795 -0.7085740566253662 -0.6988449096679688
vn -0.09765932708978653 -0.7087762951850891 -0.6986406445503235
vn -0.09453927725553513 -0.7785472273826599 -0.6204245686531067
vn -0.09452467411756516 -0.7787951231002808 -0.6201153993606567
vn -0.08983862400054932 -0.8537150025367737 -0.5129324793815613
vn -0.08986134827136993 -0.8533833622932434 -0.5134801864624023
vn -0.08732498437166214 -0.9080221056938171 -0.40971967577934265
vn -0.08732500672340393 -0.9080314636230469 -0.409699022769928
vn -0.08733610063791275 -0.9398190975189209 -0.3303217589855194
vn -0.08733610808849335 -0.9398205280303955 -0.3303178548812866
vn -0.08733762055635452 -0.9617190361022949 -0.2597474455833435
vn -0.08733763545751572 -0.9617182016372681 -0.2597506046295166
vn -0.08733619749546051 -0.9789463877677917 -0.1844893842935562
vn -0.08733619749546051 -0.9789443016052246 -0.1845005601644516
vn -0.08734307438135147 -0.9919079542160034 -0.09214062988758087
vn -0.08734307438135147 -0.9919054508209229 -0.09216631948947906
vn -0.0873384103178978 -0.9961379170417786 0.009015875868499279
vn -0.08733843266963959 -0.9961375594139099 0.009058992378413677
vn -0.08733876049518585 -0.9914445281028748 0.09700343757867813
vn -0.08733876049518585 -0.9914442896842957 0.09700579196214676
vn -0.08733894675970078 -0.980945885181427 0.1735420674085617
vn -0.08733893930912018 -0.9809460043907166 0.1735418140888214
vn -0.08733884990215302 -0.9645081162452698 0.24919062852859497
vn -0.08733884990215302 -0.9645088911056519 0.24918784201145172
vn -0.0873383954167366 -0.9408051371574402 0.32750216126441956
vn -0.0873384028673172 -0.9408071041107178 0.3274962902069092
vn -0.08734440803527832 -0.9062715172767639 0.4135732650756836
vn -0.08734441548585892 -0.9062806367874146 0.4135534167289734
vn -0.08733097463846207 -0.8577992916107178 0.5065112709999084
vn -0.08733098953962326 -0.85780930519104 0.5064944624900818
vn -0.0873456671833992 -0.7943264842033386 0.6011788845062256
vn -0.0873456746339798 -0.7943167090415955 0.6011919379234314
vn -0.08734288811683655 -0.7236433625221252 0.6846250295639038
vn -0.08734290301799774 -0.7236199975013733 0.6846497654914856
vn -0.0873335525393486 -0.6675111651420593 0.7394604086875916
vn -0.08733359724283218 -0.6674896478652954 0.7394798994064331
vn -0.08732949942350388 -0.6461089849472046 0.758232593536377
vn -0.08732949942350388 -0.6461089253425598 0.758232593536377
vn -0.9948093891143799 0.049664583057165146 0.08881290256977081
vn -0.9948028326034546 0.04945317283272743 0.08900368213653564
vn -0.9936771988868713 0.02734733186662197 0.10889293998479843
vn -0.9936771988868713 0.027347330003976822 0.10889293998479843
vn -0.9950906038284302 0.08122625946998596 0.056542329490184784
vn -0.9950911998748779 0.08114173263311386 0.05665197595953941
vn -0.9953004121780396 0.08712214976549149 0.042269960045814514
vn -0.9952980875968933 0.08714301139116287 0.04228227958083153
vn -0.9959284663200378 0.08078941702842712 0.0399954691529274
vn -0.9959293007850647 0.08077973872423172 0.039994727820158005
vn -0.9961773157119751 0.079620860517025 0.035935238003730774
vn -0.9961773157119751 0.07962951809167862 0.03591551631689072
vn -0.9961782693862915 0.08240150660276413 0.0289632435888052
vn -0.9961782693862915 0.08240286260843277 0.028959378600120544
vn -0.996178388595581 0.08432113379240036 0.02277202717959881
vn -0.996178388595581 0.08432027697563171 0.022775165736675262
vn -0.9961782693862915 0.08583349734544754 0.01617032289505005
vn -0.9961782693862915 0.08583137392997742 0.01618141122162342
vn -0.9961788654327393 0.08696328848600388 0.008065680041909218
vn -0.9961788654327393 0.08696076273918152 0.008091304451227188
vn -0.9961785078048706 0.08733789622783661 -0.0007702028378844261
vn -0.9961785078048706 0.08733713626861572 -0.0008134025847539306
vn -0.9961785078048706 0.08692575991153717 -0.008504190482199192
vn -0.9961785078048706 0.08692552894353867 -0.008506501093506813
vn -0.9961785078048706 0.08600500226020813 -0.015215861611068249
vn -0.9961785078048706 0.08600503951311111 -0.015215606428682804
vn -0.9961785078048706 0.08456361293792725 -0.021849466487765312
vn -0.9961785078048706 0.08456432074308395 -0.02184673771262169
vn -0.9961785078048706 0.08248523622751236 -0.028717057779431343
vn -0.9961785078048706 0.08248723298311234 -0.02871127612888813
vn -0.9961789846420288 0.07944852858781815 -0.03626798838376999
vn -0.9961789846420288 0.07945752143859863 -0.03624806925654411
vn -0.9961777925491333 0.07521003484725952 -0.044420983642339706
vn -0.9961777925491333 0.07521989941596985 -0.04440413415431976
vn -0.9961791038513184 0.06964261829853058 -0.052698392421007156
vn -0.9961791038513184 0.06963270902633667 -0.052711427211761475
vn -0.9961788654327393 0.0634540542960167 -0.06001099571585655
vn -0.9961788654327393 0.063430555164814 -0.06003545597195625
vn -0.9961780309677124 0.05853787437081337 -0.06482799351215363
vn -0.9961780309677124 0.058516159653663635 -0.06484710425138474
vn -0.9961776733398438 0.05665379390120506 -0.06648572534322739
vn -0.9961776733398438 0.05665379390120506 -0.06648571789264679
vt 0.949999988079071 0.9999999962251049
vt 0.9500000476837158 0.0
vt 1.0000001192092896 0.0
vt 1.0 1.0
vt 0.8999999761581421 0.9999999924502099
vt 0.9000000953674316 0.0
vt 0.8500000238418579 0.9999999886753139
vt 0.8500000834465027 0.0
vt 0.800000011920929 0.9999999849004197
vt 0.8000000715255737 0.0
vt 0.75 0.9999999811255247
vt 0.7500000596046448 0.0
vt 0.699999988079071 0.9999999773506278
vt 0.7000000476837158 0.0
vt 0.6499999761581421 0.9999999735757328
vt 0.6500000953674316 0.0
vt 0.5999999642372131 0.9999999698008359
vt 0.6000000238418579 0.0
vt 0.5499999523162842 0.9999999660259391
vt 0.5500000715255737 0.0
vt 0.4999999403953552 0.9999999622510458
vt 0.5 0.0
vt 0.44999992847442627 0.999999958476149
vt 0.44999998807907104 0.0
vt 0.3999999165534973 0.9999999547012521
vt 0.3999999761581421 0.0
vt 0.34999990463256836 0.9999999509263553
vt 0.34999996423721313 0.0
vt 0.2999998927116394 0.999999947151462
vt 0.2999999523162842 0.0
vt 0.24999988079071045 0.9999999433765652
vt 0.24999994039535522 0.0
vt 0.1999998688697815 0.9999999396016719
vt 0.19999992847442627 -1.1920928955078125e-07
vt 0.14999985694885254 0.9999999358267715
vt 0.14999991655349731 -1.1920928955078125e-07
vt 0.09999984502792358 0.9999999320518782
vt 0.09999990463256836 -1.1920928955078125e-07
vt 0.04999983310699463 0.9999999282769778
vt 0.049999892711639404 -1.1920928955078125e-07
vt -1.1920928955078125e-07 0.9999999245020916
vt 0.0 -1.1920928955078125e-07
vt 0.949999988079071 0.9999999962251049
vt 0.9500000476837158 0.0
vt 1.0000001192092896 0.0
vt 1.0 1.0
vt 0.8999999761581421 0.9999999924502099
vt 0.9000000953674316 0.0
vt 0.8500000238418579 0.9999999886753139
vt 0.8500000834465027 0.0
vt 0.800000011920929 0.9999999849004197
vt 0.8000000715255737 0.0
vt 0.75 0.9999999811255247
vt 0.7500000596046448 0.0
vt 0.699999988079071 0.9999999773506278
vt 0.7000000476837158 0.0
vt 0.6499999761581421 0.9999999735757328
vt 0.6500000953674316 0.0
vt 0.5999999642372131 0.9999999698008359
vt 0.6000000238418579 0.0
vt 0.5499999523162842 0.9999999660259391
vt 0.5500000715255737 0.0
vt 0.4999999403953552 0.9999999622510458
vt 0.5 0.0
vt 0.44999992847442627 0.999999958476149
vt 0.44999998807907104 0.0
vt 0.3999999165534973 0.9999999547012521
vt 0.3999999761581421 0.0
vt 0.34999990463256836 0.9999999509263553
vt 0.34999996423721313 0.0
vt 0.2999998927116394 0.999999947151462
vt 0.2999999523162842 0.0
vt 0.24999988079071045 0.9999999433765652
vt 0.24999994039535522 0.0
vt 0.1999998688697815 0.9999999396016719
vt 0.19999992847442627 -1.1920928955078125e-07
vt 0.14999985694885254 0.9999999358267715
vt 0.14999991655349731 -1.1920928955078125e-07
vt 0.09999984502792358 0.9999999320518782
vt 0.09999990463256836 -1.1920928955078125e-07
vt 0.04999983310699463 0.9999999282769778
vt 0.049999892711639404 -1.1920928955078125e-07
vt -1.1920928955078125e-07 0.9999999245020916
vt 0.0 -1.1920928955078125e-07

g qiangci
s 1
usemtl qiangci
f 3/3/3 2/2/2 1/1/1 
f 4/4/4 3/3/3 1/1/1 
f 1/1/1 2/2/2 5/5/5 
f 2/2/2 6/6/6 5/5/5 
f 5/5/5 6/6/6 7/7/7 
f 6/6/6 8/8/8 7/7/7 
f 7/7/7 8/8/8 9/9/9 
f 8/8/8 10/10/10 9/9/9 
f 9/9/9 10/10/10 11/11/11 
f 10/10/10 12/12/12 11/11/11 
f 11/11/11 12/12/12 13/13/13 
f 12/12/12 14/14/14 13/13/13 
f 13/13/13 14/14/14 15/15/15 
f 14/14/14 16/16/16 15/15/15 
f 15/15/15 16/16/16 17/17/17 
f 16/16/16 18/18/18 17/17/17 
f 17/17/17 18/18/18 19/19/19 
f 18/18/18 20/20/20 19/19/19 
f 19/19/19 20/20/20 21/21/21 
f 20/20/20 22/22/22 21/21/21 
f 21/21/21 22/22/22 23/23/23 
f 22/22/22 24/24/24 23/23/23 
f 23/23/23 24/24/24 25/25/25 
f 24/24/24 26/26/26 25/25/25 
f 25/25/25 26/26/26 27/27/27 
f 26/26/26 28/28/28 27/27/27 
f 27/27/27 28/28/28 29/29/29 
f 28/28/28 30/30/30 29/29/29 
f 29/29/29 30/30/30 31/31/31 
f 30/30/30 32/32/32 31/31/31 
f 31/31/31 32/32/32 33/33/33 
f 32/32/32 34/34/34 33/33/33 
f 33/33/33 34/34/34 35/35/35 
f 34/34/34 36/36/36 35/35/35 
f 35/35/35 36/36/36 37/37/37 
f 36/36/36 38/38/38 37/37/37 
f 37/37/37 38/38/38 39/39/39 
f 38/38/38 40/40/40 39/39/39 
f 39/39/39 40/40/40 41/41/41 
f 40/40/40 42/42/42 41/41/41 
f 45/45/45 44/44/44 43/43/43 
f 46/46/46 45/45/45 43/43/43 
f 43/43/43 44/44/44 47/47/47 
f 44/44/44 48/48/48 47/47/47 
f 47/47/47 48/48/48 49/49/49 
f 48/48/48 50/50/50 49/49/49 
f 49/49/49 50/50/50 51/51/51 
f 50/50/50 52/52/52 51/51/51 
f 51/51/51 52/52/52 53/53/53 
f 52/52/52 54/54/54 53/53/53 
f 53/53/53 54/54/54 55/55/55 
f 54/54/54 56/56/56 55/55/55 
f 55/55/55 56/56/56 57/57/57 
f 56/56/56 58/58/58 57/57/57 
f 57/57/57 58/58/58 59/59/59 
f 58/58/58 60/60/60 59/59/59 
f 59/59/59 60/60/60 61/61/61 
f 60/60/60 62/62/62 61/61/61 
f 61/61/61 62/62/62 63/63/63 
f 62/62/62 64/64/64 63/63/63 
f 63/63/63 64/64/64 65/65/65 
f 64/64/64 66/66/66 65/65/65 
f 65/65/65 66/66/66 67/67/67 
f 66/66/66 68/68/68 67/67/67 
f 67/67/67 68/68/68 69/69/69 
f 68/68/68 70/70/70 69/69/69 
f 69/69/69 70/70/70 71/71/71 
f 70/70/70 72/72/72 71/71/71 
f 71/71/71 72/72/72 73/73/73 
f 72/72/72 74/74/74 73/73/73 
f 73/73/73 74/74/74 75/75/75 
f 74/74/74 76/76/76 75/75/75 
f 75/75/75 76/76/76 77/77/77 
f 76/76/76 78/78/78 77/77/77 
f 77/77/77 78/78/78 79/79/79 
f 78/78/78 80/80/80 79/79/79 
f 79/79/79 80/80/80 81/81/81 
f 80/80/80 82/82/82 81/81/81 
f 81/81/81 82/82/82 83/83/83 
f 82/82/82 84/84/84 83/83/83 

