v -0.0 0.0 1.5152615308761597
v -0.057671207934617996 0.2899327278137207 1.4861462116241455
v -1.2921648639974137e-08 0.2956128716468811 1.4861462116241455
v -0.11312615126371384 0.5687235593795776 1.399919033050537
v -2.534672560727813e-08 0.5798655152320862 1.399919033050537
v -0.221904918551445 0.5357258915901184 1.399919033050537
v -0.11312613636255264 0.27311068773269653 1.4861462116241455
v -0.0 0.0 1.5152615308761597
v -0.32215598225593567 0.48214057087898254 1.399919033050537
v -0.16423369944095612 0.24579313397407532 1.4861462116241455
v -0.0 0.0 1.5152615308761597
v -0.4100268483161926 0.4100268483161926 1.399919033050537
v -0.20902985334396362 0.20902985334396362 1.4861462116241455
v -0.0 0.0 1.5152615308761597
v -0.48214057087898254 0.32215598225593567 1.399919033050537
v -0.24579313397407532 0.16423369944095612 1.4861462116241455
v -0.0 0.0 1.5152615308761597
v -0.5357258915901184 0.22190484404563904 1.399919033050537
v -0.27311068773269653 0.11312609910964966 1.4861462116241455
v -0.0 0.0 1.5152615308761597
v -0.5687235593795776 0.11312601715326309 1.399919033050537
v -0.2899327576160431 0.057671140879392624 1.4861462116241455
v -0.0 0.0 1.5152615308761597
v -0.5798655152320862 -1.8894417053161305e-07 1.399919033050537
v -0.2956128716468811 -9.632289987848708e-08 1.4861462116241455
v -0.0 0.0 1.5152615308761597
v -0.5687234997749329 -0.11312638968229294 1.399919033050537
v -0.2899326980113983 -0.05767132714390755 1.4861462116241455
v -0.0 0.0 1.5152615308761597
v -0.5357257723808289 -0.2219051718711853 1.399919033050537
v -0.27311059832572937 -0.11312627792358398 1.4861462116241455
v -0.0 0.0 1.5152615308761597
v -0.4821403920650482 -0.32215631008148193 1.399919033050537
v -0.24579301476478577 -0.16423386335372925 1.4861462116241455
v -0.0 0.0 1.5152615308761597
v -0.4100266098976135 -0.41002708673477173 1.399919033050537
v -0.20902973413467407 -0.20903000235557556 1.4861462116241455
v -0.0 0.0 1.5152615308761597
v -0.3221556842327118 -0.48214077949523926 1.399919033050537
v -0.16423353552818298 -0.24579322338104248 1.4861462116241455
v -0.0 0.0 1.5152615308761597
v -0.22190450131893158 -0.5357260704040527 1.399919033050537
v -0.11312592029571533 -0.2731107771396637 1.4861462116241455
v -0.0 0.0 1.5152615308761597
v -0.11312565207481384 -0.5687236785888672 1.399919033050537
v -0.0576709508895874 -0.2899327874183655 1.4861462116241455
v -0.0 0.0 1.5152615308761597
v 5.599176802206784e-07 -0.5798655152320862 1.399919033050537
v 2.8544354790938087e-07 -0.2956128716468811 1.4861462116241455
v -0.0 0.0 1.5152615308761597
v 0.11312675476074219 -0.5687234401702881 1.399919033050537
v 0.05767151713371277 -0.2899326980113983 1.4861462116241455
v -0.0 0.0 1.5152615308761597
v 0.22190551459789276 -0.5357256531715393 1.399919033050537
v 0.11312644928693771 -0.2731105387210846 1.4861462116241455
v -0.0 0.0 1.5152615308761597
v 0.3221566081047058 -0.4821401834487915 1.399919033050537
v 0.1642340123653412 -0.2457929104566574 1.4861462116241455
v -0.0 0.0 1.5152615308761597
v 0.4100273549556732 -0.41002631187438965 1.399919033050537
v 0.2090301215648651 -0.20902958512306213 1.4861462116241455
v -0.0 0.0 1.5152615308761597
v 0.48214101791381836 -0.3221553862094879 1.399919033050537
v 0.24579332768917084 -0.16423337161540985 1.4861462116241455
v -0.0 0.0 1.5152615308761597
v 0.5357261896133423 -0.22190414369106293 1.399919033050537
v 0.27311083674430847 -0.1131257489323616 1.4861462116241455
v -0.0 0.0 1.5152615308761597
v 0.568723738193512 -0.113125279545784 1.399919033050537
v 0.28993284702301025 -0.05767076462507248 1.4861462116241455
v -0.0 0.0 1.5152615308761597
v 0.5798655152320862 9.308911899097438e-07 1.399919033050537
v 0.2956128716468811 4.745641888348473e-07 1.4861462116241455
v -0.0 0.0 1.5152615308761597
v 0.5687233805656433 0.11312710493803024 1.399919033050537
v 0.28993263840675354 0.057671695947647095 1.4861462116241455
v -0.0 0.0 1.5152615308761597
v 0.535725474357605 0.2219058871269226 1.399919033050537
v 0.2731104791164398 0.11312663555145264 1.4861462116241455
v -0.0 0.0 1.5152615308761597
v 0.4821399450302124 0.3221569359302521 1.399919033050537
v 0.24579282104969025 0.16423417627811432 1.4861462116241455
v -0.0 0.0 1.5152615308761597
v 0.41002604365348816 0.4100276231765747 1.399919033050537
v 0.20902946591377258 0.20903025567531586 1.4861462116241455
v -0.0 0.0 1.5152615308761597
v 0.32215505838394165 0.4821411967277527 1.399919033050537
v 0.16423320770263672 0.2457934468984604 1.4861462116241455
v -0.0 0.0 1.5152615308761597
v 0.22190381586551666 0.5357263684272766 1.399919033050537
v 0.11312557756900787 0.27311092615127563 1.4861462116241455
v -0.0 0.0 1.5152615308761597
v 0.11312491446733475 0.5687237977981567 1.399919033050537
v 0.057670578360557556 0.28993287682533264 1.4861462116241455
v -0.0 0.0 1.5152615308761597
v -2.534672560727813e-08 0.5798655152320862 1.399919033050537
v -1.2921648639974137e-08 0.2956128716468811 1.4861462116241455
v -0.0 0.0 1.5152615308761597
v 0.4676966369152069 0.6999605894088745 1.2598938941955566
v 0.5952655673027039 0.5952678918838501 1.2598938941955566
v 0.3221544027328491 0.7777541279792786 1.2598938941955566
v 0.16423192620277405 0.8256589770317078 1.2598938941955566
v -3.6797743518945936e-08 0.8418342471122742 1.2598938941955566
v 0.5952649116516113 0.8908807635307312 1.0714517831802368
v 0.7576293349266052 0.7576322555541992 1.0714517831802368
v 0.6999587416648865 0.4676993489265442 1.2598938941955566
v 0.7777528762817383 0.3221573829650879 1.2598938941955566
v 0.82565838098526 0.16423511505126953 1.2598938941955566
v 0.8418342471122742 1.3514445527107455e-06 1.2598938941955566
v 0.825658917427063 -0.16423244774341583 1.2598938941955566
v 0.7777539491653442 -0.3221549093723297 1.2598938941955566
v 0.6999602913856506 -0.4676971137523651 1.2598938941955566
v 0.5952674150466919 -0.5952659249305725 1.2598938941955566
v 0.46769893169403076 -0.6999590396881104 1.2598938941955566
v 0.3221569061279297 -0.7777530550956726 1.2598938941955566
v 0.16423457860946655 -0.8256585001945496 1.2598938941955566
v 8.128744752866623e-07 -0.8418342471122742 1.2598938941955566
v -0.16423299908638 -0.8256587982177734 1.2598938941955566
v -0.3221554160118103 -0.7777537107467651 1.2598938941955566
v -0.4676975607872009 -0.699959933757782 1.2598938941955566
v -0.5952663421630859 -0.595267117023468 1.2598938941955566
v -0.6999593377113342 -0.46769848465919495 1.2598938941955566
v -0.7777532935142517 -0.3221563994884491 1.2598938941955566
v -0.8256586194038391 -0.16423405706882477 1.2598938941955566
v -0.8418342471122742 -2.7430442628428864e-07 1.2598938941955566
v -0.8256586790084839 0.1642335206270218 1.2598938941955566
v -0.7777535319328308 0.3221558928489685 1.2598938941955566
v -0.6999596357345581 0.46769800782203674 1.2598938941955566
v -0.5952666997909546 0.5952666997909546 1.2598938941955566
v -0.46769800782203674 0.6999596357345581 1.2598938941955566
v -0.32215598225593567 0.777753472328186 1.2598938941955566
v -0.1642337292432785 0.8256586194038391 1.2598938941955566
v -3.6797743518945936e-08 0.8418342471122742 1.2598938941955566
v -0.20902986824512482 1.0508641004562378 1.0714517831802368
v -4.683464283061767e-08 1.0714517831802368 1.0714517831802368
v -0.41002681851387024 0.9898923635482788 1.0714517831802368
v -0.5952666401863098 0.8908796310424805 1.0714517831802368
v -0.7576307654380798 0.7576307654380798 1.0714517831802368
v -0.8908796310424805 0.5952666401863098 1.0714517831802368
v -0.9898924827575684 0.4100266695022583 1.0714517831802368
v -1.0508641004562378 0.20902961492538452 1.0714517831802368
v -1.0714517831802368 -3.4912332580461225e-07 1.0714517831802368
v -1.0508641004562378 -0.20903028547763824 1.0714517831802368
v -0.9898920655250549 -0.41002729535102844 1.0714517831802368
v -0.890879213809967 -0.5952671766281128 1.0714517831802368
v -0.7576303482055664 -0.757631242275238 1.0714517831802368
v -0.5952661037445068 -0.8908799886703491 1.0714517831802368
v -0.41002604365348816 -0.9898926615715027 1.0714517831802368
v -0.2090289294719696 -1.0508642196655273 1.0714517831802368
v 1.0345928558308515e-06 -1.0714517831802368 1.0714517831802368
v 0.20903097093105316 -1.0508638620376587 1.0714517831802368
v 0.4100279211997986 -0.9898918867111206 1.0714517831802368
v 0.5952677726745605 -0.8908788561820984 1.0714517831802368
v 0.757631778717041 -0.7576298117637634 1.0714517831802368
v 0.8908804059028625 -0.5952655076980591 1.0714517831802368
v 0.9898929595947266 -0.410025417804718 1.0714517831802368
v 1.0508644580841064 -0.2090282440185547 1.0714517831802368
v 1.0714517831802368 1.7200626416524756e-06 1.0714517831802368
v 1.0508637428283691 0.20903164148330688 1.0714517831802368
v 0.9898915886878967 0.4100286066532135 1.0714517831802368
v 0.890878438949585 0.5952683687210083 1.0714517831802368
v 1.163991093635559 -0.48213887214660645 0.8418341875076294
v 1.0475645065307617 -0.6999582052230835 0.8418341875076294
v 1.2356858253479004 -0.2457912415266037 0.8418341875076294
v 1.2598940134048462 2.0225797925377265e-06 0.8418341875076294
v 1.235685110092163 0.24579522013664246 0.8418341875076294
v 1.1639894247055054 0.4821425974369049 0.8418341875076294
v 1.0475623607635498 0.6999616026878357 0.8418341875076294
v 0.890877902507782 0.8908812403678894 0.8418341875076294
v 0.6999574899673462 1.04756498336792 0.8418341875076294
v 0.48213815689086914 1.1639913320541382 0.8418341875076294
v 0.4100247621536255 0.9898931384086609 1.0714517831802368
v 0.20902757346630096 1.050864577293396 1.0714517831802368
v -4.683464283061767e-08 1.0714517831802368 1.0714517831802368
v 0.24579045176506042 1.2356860637664795 0.8418341875076294
v -5.507171607632699e-08 1.2598940134048462 0.8418341875076294
v 1.2933555841445923 0.5357281565666199 0.5798654556274414
v 1.3730195760726929 0.2731129825115204 0.5798654556274414
v 1.399919033050537 2.2473700482805725e-06 0.5798654556274414
v 1.3730204105377197 -0.273108571767807 0.5798654556274414
v 1.2933573722839355 -0.5357239842414856 0.5798654556274414
v 1.1639912128448486 -0.7777518033981323 0.5798654556274414
v 0.8908807039260864 -0.890878438949585 0.8418341875076294
v 0.6999608874320984 -1.0475627183914185 0.8418341875076294
v 0.4821418821811676 -1.1639896631240845 0.8418341875076294
v 0.245794415473938 -1.2356852293014526 0.8418341875076294
v 1.2165526186436182e-06 -1.2598940134048462 0.8418341875076294
v -0.24579204618930817 -1.2356857061386108 0.8418341875076294
v -0.48213961720466614 -1.1639906167984009 0.8418341875076294
v -0.699958860874176 -1.0475640296936035 0.8418341875076294
v -0.8908790349960327 -0.8908802270889282 0.8418341875076294
v -1.0475631952285767 -0.6999602317810059 0.8418341875076294
v -1.1639900207519531 -0.4821411073207855 0.8418341875076294
v -1.2356854677200317 -0.2457936406135559 0.8418341875076294
v -1.2598940134048462 -4.1052558685805707e-07 0.8418341875076294
v -1.2356854677200317 0.24579282104969025 0.8418341875076294
v -1.1639903783798218 0.4821403920650482 0.8418341875076294
v -1.0475636720657349 0.6999595165252686 0.8418341875076294
v -0.8908796310424805 0.8908796310424805 0.8418341875076294
v -0.6999595165252686 1.0475636720657349 0.8418341875076294
v -0.48214051127433777 1.1639903783798218 0.8418341875076294
v -0.24579313397407532 1.2356854677200317 0.8418341875076294
v -5.507171607632699e-08 1.2598940134048462 0.8418341875076294
v -0.27311068773269653 1.3730199337005615 0.5798654556274414
v -6.119240225643807e-08 1.399919033050537 0.5798654556274414
v -0.5357257723808289 1.2933566570281982 0.5798654556274414
v -0.7777532935142517 1.1639902591705322 0.5798654556274414
v -0.989892303943634 0.989892303943634 0.5798654556274414
v -1.1639902591705322 0.7777532935142517 0.5798654556274414
v -1.2933566570281982 0.5357256531715393 0.5798654556274414
v -1.373020052909851 0.2731103301048279 0.5798654556274414
v -1.399919033050537 -4.5615155386258266e-07 0.5798654556274414
v -1.3730199337005615 -0.2731112241744995 0.5798654556274414
v -1.2933562994003296 -0.5357264280319214 0.5798654556274414
v -1.1639896631240845 -0.7777540683746338 0.5798654556274414
v -0.9898917078971863 -0.9898929595947266 0.5798654556274414
v -0.7777525782585144 -1.1639907360076904 0.5798654556274414
v -0.5357248187065125 -1.2933571338653564 0.5798654556274414
v -0.27310946583747864 -1.3730202913284302 0.5798654556274414
v 1.3517607158064493e-06 -1.399919033050537 0.5798654556274414
v 0.27311211824417114 -1.373019814491272 0.5798654556274414
v 0.5357272624969482 -1.293355941772461 0.5798654556274414
v 0.7777547836303711 -1.1639891862869263 0.5798654556274414
v 0.9898935556411743 -0.989890992641449 0.5798654556274414
v -0.28993144631385803 -1.4575905799865723 0.2956129014492035
v -0.5687224268913269 -1.3730205297470093 0.2956129014492035
v 1.4350214314617915e-06 -1.4861462116241455 0.2956129014492035
v 0.2899342477321625 -1.4575899839401245 0.2956129014492035
v 0.568725049495697 -1.3730193376541138 0.2956129014492035
v 0.8256601691246033 -1.2356843948364258 0.2956129014492035
v 1.0508654117584229 -1.0508626699447632 0.2956129014492035
v 1.2356864213943481 -0.8256569504737854 0.2956129014492035
v 1.373020887374878 -0.5687215328216553 0.2956129014492035
v 1.4575906991958618 -0.2899304926395416 0.2956129014492035
v 1.4861462116241455 2.385795141890412e-06 0.2956129014492035
v 1.4575897455215454 0.2899352014064789 0.2956129014492035
v 1.3730189800262451 0.5687259435653687 0.2956129014492035
v 1.2356839179992676 0.8256609439849854 0.2956129014492035
v 1.163988709449768 0.7777555584907532 0.5798654556274414
v 0.9898903369903564 0.9898942112922668 0.5798654556274414
v 0.777751088142395 1.1639916896820068 0.5798654556274414
v 0.5357231497764587 1.2933577299118042 0.5798654556274414
v 0.27310770750045776 1.3730206489562988 0.5798654556274414
v -6.119240225643807e-08 1.399919033050537 0.5798654556274414
v 1.0508619546890259 1.0508661270141602 0.2956129014492035
v 0.8256560564041138 1.235687017440796 0.2956129014492035
v 0.5687206387519836 1.3730212450027466 0.2956129014492035
v 0.2899295687675476 1.457590937614441 0.2956129014492035
v -6.496151883084167e-08 1.4861462116241455 0.2956129014492035
v 0.8418317437171936 1.2598956823349 1.1439907154908724e-07
v 1.071449637413025 1.0714538097381592 1.1439907154908724e-07
v 1.2598923444747925 0.8418365716934204 1.1439907154908724e-07
v 1.3999180793762207 0.5798680186271667 1.1439907154908724e-07
v 1.4861457347869873 0.29561537504196167 1.1439907154908724e-07
v 1.5152615308761597 2.4325358936039265e-06 1.1439907154908724e-07
v 1.4861466884613037 -0.29561057686805725 1.1439907154908724e-07
v 1.3999199867248535 -0.579863429069519 1.1439907154908724e-07
v 1.2598950862884521 -0.8418325185775757 1.1439907154908724e-07
v 1.0714530944824219 -1.0714503526687622 1.1439907154908724e-07
v 0.8418357968330383 -1.2598929405212402 1.1439907154908724e-07
v 0.5798670649528503 -1.399918556213379 1.1439907154908724e-07
v 0.29561445116996765 -1.4861458539962769 1.1439907154908724e-07
v 1.4631352769356454e-06 -1.5152615308761597 1.1439907154908724e-07
v -0.29561156034469604 -1.4861464500427246 1.1439907154908724e-07
v -0.5798643827438354 -1.3999196290969849 1.1439907154908724e-07
v -0.8256577253341675 -1.23568594455719 0.2956129014492035
v -1.0508633852005005 -1.0508646965026855 0.2956129014492035
v -1.235684871673584 -0.8256592750549316 0.2956129014492035
v -1.373019814491272 -0.5687242150306702 0.2956129014492035
v -1.4575902223587036 -0.28993335366249084 0.2956129014492035
v -1.4861462116241455 -4.842478915634274e-07 0.2956129014492035
v -1.4575903415679932 0.28993239998817444 0.2956129014492035
v -1.3730201721191406 0.5687232613563538 0.2956129014492035
v -1.2356854677200317 0.8256585001945496 0.2956129014492035
v -1.0508641004562378 1.0508641004562378 0.2956129014492035
v -0.8256585001945496 1.2356854677200317 0.2956129014492035
v -0.5687234401702881 1.373020052909851 0.2956129014492035
v -0.2899327278137207 1.4575902223587036 0.2956129014492035
v -6.496151883084167e-08 1.4861462116241455 0.2956129014492035
v -0.2956128716468811 1.4861462116241455 1.1439907154908724e-07
v -6.62341861357163e-08 1.5152615308761597 1.1439907154908724e-07
v -0.5798653960227966 1.3999191522598267 1.1439907154908724e-07
v -0.8418341875076294 1.2598940134048462 1.1439907154908724e-07
v -1.0714517831802368 1.0714517831802368 1.1439907154908724e-07
v -1.2598940134048462 0.8418341875076294 1.1439907154908724e-07
v -1.3999192714691162 0.5798652768135071 1.1439907154908724e-07
v -1.486146330833435 0.29561251401901245 1.1439907154908724e-07
v -1.5152615308761597 -4.937349444844585e-07 1.1439907154908724e-07
v -1.486146092414856 -0.29561346769332886 1.1439907154908724e-07
v -1.399918794631958 -0.5798661708831787 1.1439907154908724e-07
v -1.2598934173583984 -0.8418349623680115 1.1439907154908724e-07
v -1.0714510679244995 -1.0714523792266846 1.1439907154908724e-07
v -0.8418332934379578 -1.259894609451294 1.1439907154908724e-07
v 0.5798625946044922 1.3999203443527222 1.1439907154908724e-07
v 0.29560965299606323 1.4861468076705933 1.1439907154908724e-07
v -6.62341861357163e-08 1.5152615308761597 1.1439907154908724e-07
vn -0.0 0.0 1.0
vn -0.039207085967063904 0.19710732996463776 0.9795976281166077
vn -0.0 0.2009688913822174 0.9795976281166077
vn -0.0756729394197464 0.3804337680339813 0.9217069745063782
vn -0.0 0.3878869116306305 0.921707034111023
vn -0.14843787252902985 0.35836076736450195 0.9217069745063782
vn -0.0769074335694313 0.18567103147506714 0.9795976281166077
vn -0.0 0.0 1.0
vn -0.2154984027147293 0.32251617312431335 0.921707034111023
vn -0.11165235936641693 0.16709955036640167 0.9795976281166077
vn -0.0 0.0 1.0
vn -0.2742774486541748 0.2742774486541748 0.9217069745063782
vn -0.14210647344589233 0.14210642874240875 0.9795976281166077
vn -0.0 0.0 1.0
vn -0.32251620292663574 0.21549837291240692 0.9217069745063782
vn -0.16709955036640167 0.11165237426757812 0.9795976281166077
vn -0.0 0.0 1.0
vn -0.35836082696914673 0.14843781292438507 0.921707034111023
vn -0.18567107617855072 0.07690742611885071 0.9795976281166077
vn -0.0 0.0 1.0
vn -0.38043370842933655 0.07567287236452103 0.921707034111023
vn -0.19710737466812134 0.039207033812999725 0.9795976281166077
vn -0.0 0.0 1.0
vn -0.3878869414329529 0.0 0.9217069745063782
vn -0.2009689062833786 0.0 0.9795976281166077
vn -0.0 0.0 1.0
vn -0.38043370842933655 -0.07567314803600311 0.921707034111023
vn -0.19710732996463776 -0.03920719400048256 0.9795976281166077
vn -0.0 0.0 1.0
vn -0.3583606779575348 -0.14843805134296417 0.921707034111023
vn -0.18567100167274475 -0.07690754532814026 0.9795976281166077
vn -0.0 0.0 1.0
vn -0.3225160837173462 -0.21549853682518005 0.9217069745063782
vn -0.1670994907617569 -0.11165239661931992 0.9795976281166077
vn -0.0 0.0 1.0
vn -0.2742772102355957 -0.27427759766578674 0.921707034111023
vn -0.14210636913776398 -0.1421065628528595 0.9795976281166077
vn -0.0 0.0 1.0
vn -0.21549811959266663 -0.32251638174057007 0.9217069745063782
vn -0.11165222525596619 -0.16709962487220764 0.9795976281166077
vn -0.0 0.0 1.0
vn -0.14843763411045074 -0.3583608567714691 0.921707034111023
vn -0.07690731436014175 -0.1856711357831955 0.9795976281166077
vn -0.0 0.0 1.0
vn -0.07567263394594193 -0.3804338574409485 0.9217069745063782
vn -0.03920689970254898 -0.19710737466812134 0.9795976281166077
vn -0.0 0.0 1.0
vn 3.3078055139412754e-07 -0.3878869414329529 0.9217069745063782
vn -0.0 -0.2009689062833786 0.9795976281166077
vn -0.0 0.0 1.0
vn 0.075673408806324 -0.38043367862701416 0.921707034111023
vn 0.03920731693506241 -0.19710730016231537 0.9795976281166077
vn -0.0 0.0 1.0
vn 0.14843827486038208 -0.35836055874824524 0.921707034111023
vn 0.076907679438591 -0.18567094206809998 0.9795976281166077
vn -0.0 0.0 1.0
vn 0.21549879014492035 -0.3225158751010895 0.921707034111023
vn 0.11165255308151245 -0.16709941625595093 0.9795976281166077
vn -0.0 0.0 1.0
vn 0.27427780628204346 -0.27427709102630615 0.921707034111023
vn 0.14210666716098785 -0.14210627973079681 0.9795976281166077
vn -0.0 0.0 1.0
vn 0.32251644134521484 -0.21549800038337708 0.921707034111023
vn 0.16709966957569122 -0.11165214329957962 0.9795976281166077
vn -0.0 0.0 1.0
vn 0.35836103558540344 -0.14843730628490448 0.9217069745063782
vn 0.18567119538784027 -0.076907217502594 0.9795976281166077
vn -0.0 0.0 1.0
vn 0.3804338574409485 -0.07567239552736282 0.921707034111023
vn 0.19710740447044373 -0.03920677304267883 0.9795976281166077
vn -0.0 0.0 1.0
vn 0.3878869414329529 5.769984454673249e-07 0.9217069745063782
vn 0.2009689062833786 3.357444029461476e-07 0.9795976281166077
vn -0.0 0.0 1.0
vn 0.380433589220047 0.0756736472249031 0.921707034111023
vn 0.19710730016231537 0.03920741006731987 0.9795976281166077
vn -0.0 0.0 1.0
vn 0.35836055874824524 0.14843854308128357 0.9217069745063782
vn 0.18567094206809998 0.07690777629613876 0.9795976281166077
vn -0.0 0.0 1.0
vn 0.3225157558917999 0.21549902856349945 0.9217069745063782
vn 0.16709935665130615 0.1116526648402214 0.9795976281166077
vn -0.0 0.0 1.0
vn 0.2742769420146942 0.2742779850959778 0.921707034111023
vn 0.14210619032382965 0.14210675656795502 0.9795976281166077
vn -0.0 0.0 1.0
vn 0.21549780666828156 0.3225165903568268 0.9217069745063782
vn 0.11165200918912888 0.1670997440814972 0.9795976281166077
vn -0.0 0.0 1.0
vn 0.14843714237213135 0.35836106538772583 0.9217069745063782
vn 0.07690708339214325 0.18567121028900146 0.9795976281166077
vn -0.0 0.0 1.0
vn 0.07567236572504044 0.3804338574409485 0.921707034111023
vn 0.03920675441622734 0.19710738956928253 0.9795976281166077
vn -0.0 0.0 1.0
vn -0.0 0.3878869116306305 0.921707034111023
vn -0.0 0.2009688913822174 0.9795976281166077
vn -0.0 0.0 1.0
vn 0.31099337339401245 0.46543654799461365 0.8286446332931519
vn 0.3958199918270111 0.3958214223384857 0.8286446332931519
vn 0.21421554684638977 0.5171651244163513 0.8286446928977966
vn 0.10920578241348267 0.5490192174911499 0.8286446928977966
vn -3.664140422188211e-07 0.5597749352455139 0.8286446928977966
vn 0.3945322334766388 0.590461790561676 0.7040591239929199
vn 0.5021448731422424 0.5021467208862305 0.7040591239929199
vn 0.46543532609939575 0.3109951913356781 0.8286446928977966
vn 0.5171642303466797 0.2142176330089569 0.8286446928977966
vn 0.549018919467926 0.1092076227068901 0.8286446928977966
vn 0.5597749948501587 8.322151074935391e-07 0.8286446928977966
vn 0.5490192174911499 -0.10920579731464386 0.8286446928977966
vn 0.5171650052070618 -0.21421580016613007 0.8286446928977966
vn 0.46543627977371216 -0.3109937906265259 0.8286446928977966
vn 0.3958211839199066 -0.39582017064094543 0.8286446928977966
vn 0.3109949231147766 -0.46543559432029724 0.8286446332931519
vn 0.2142172008752823 -0.517164409160614 0.8286446928977966
vn 0.10920728743076324 -0.5490190386772156 0.8286446332931519
vn 5.160931095815613e-07 -0.5597749948501587 0.8286446332931519
vn -0.10920620709657669 -0.5490192174911499 0.8286446928977966
vn -0.2142162024974823 -0.5171648859977722 0.8286446332931519
vn -0.3109939396381378 -0.46543607115745544 0.8286446928977966
vn -0.3958204388618469 -0.3958209455013275 0.8286446928977966
vn -0.4654357433319092 -0.31099459528923035 0.8286446332931519
vn -0.5171646475791931 -0.21421687304973602 0.8286446332931519
vn -0.5490190386772156 -0.10920693725347519 0.8286446928977966
vn -0.5597749948501587 0.0 0.8286446928977966
vn -0.5490190982818604 0.10920650511980057 0.8286446928977966
vn -0.5171647071838379 0.21421653032302856 0.8286446332931519
vn -0.4654359221458435 0.31099435687065125 0.8286446928977966
vn -0.3958207070827484 0.3958207368850708 0.8286446332931519
vn -0.31099435687065125 0.4654358923435211 0.8286446928977966
vn -0.21421654522418976 0.5171647667884827 0.8286446332931519
vn -0.1092066541314125 0.5490191578865051 0.8286446332931519
vn -3.664140422188211e-07 0.5597749352455139 0.8286446928977966
vn -0.13854169845581055 0.6964962482452393 0.7040590643882751
vn -4.1987209442595486e-07 0.7101413607597351 0.7040591239929199
vn -0.2717592120170593 0.6560851335525513 0.7040591239929199
vn -0.3945334255695343 0.590461015701294 0.7040590643882751
vn -0.5021457672119141 0.5021458864212036 0.7040591239929199
vn -0.590461015701294 0.39453354477882385 0.7040590643882751
vn -0.6560852527618408 0.27175918221473694 0.7040590047836304
vn -0.696496307849884 0.13854146003723145 0.7040590643882751
vn -0.7101414203643799 0.0 0.7040591239929199
vn -0.6964961886405945 -0.1385420709848404 0.7040590643882751
vn -0.6560850143432617 -0.27175968885421753 0.7040590643882751
vn -0.5904609560966492 -0.3945337235927582 0.7040590643882751
vn -0.502145528793335 -0.5021461248397827 0.7040590643882751
vn -0.3945330083370209 -0.5904613137245178 0.7040590047836304
vn -0.2717587649822235 -0.6560854315757751 0.7040590643882751
vn -0.1385410726070404 -0.6964963674545288 0.7040590643882751
vn 6.669967547168199e-07 -0.7101414203643799 0.7040590643882751
vn 0.13854244351387024 -0.6964961886405945 0.7040590643882751
vn 0.27176007628440857 -0.6560847759246826 0.7040590643882751
vn 0.3945342004299164 -0.5904605984687805 0.7040590047836304
vn 0.5021464824676514 -0.5021451711654663 0.7040590643882751
vn 0.5904614329338074 -0.394532710313797 0.7040590643882751
vn 0.6560855507850647 -0.2717583179473877 0.7040591239929199
vn 0.6964965462684631 -0.13854064047336578 0.7040590047836304
vn 0.7101413607597351 1.1342543757564272e-06 0.7040591239929199
vn 0.6964959502220154 0.13854290544986725 0.7040590643882751
vn 0.6560846567153931 0.2717605233192444 0.7040590643882751
vn 0.5904602408409119 0.39453449845314026 0.7040591239929199
vn 0.7699060440063477 -0.3189041018486023 0.5527611970901489
vn 0.6928972005844116 -0.46297788619995117 0.5527611374855042
vn 0.8173275589942932 -0.16257518529891968 0.5527611374855042
vn 0.8333397507667542 1.188414785247005e-06 0.5527611374855042
vn 0.817327082157135 0.16257792711257935 0.5527611374855042
vn 0.7699049711227417 0.31890669465065 0.5527611970901489
vn 0.692895770072937 0.4629800021648407 0.5527611374855042
vn 0.5892590284347534 0.5892612934112549 0.5527611970901489
vn 0.46297743916511536 0.6928975582122803 0.5527611970901489
vn 0.31890368461608887 0.7699061036109924 0.5527612566947937
vn 0.27175790071487427 0.6560856699943542 0.7040590643882751
vn 0.1385405957698822 0.6964964270591736 0.7040591239929199
vn -4.1987209442595486e-07 0.7101413607597351 0.7040591239929199
vn 0.1625751107931137 0.8173275589942932 0.5527612566947937
vn -5.671705594068044e-07 0.8333397507667542 0.5527611374855042
vn 0.8543714284896851 0.35389402508735657 0.3805371820926666
vn 0.9069962501525879 0.18041439354419708 0.38053712248802185
vn 0.9247655868530273 1.4547024420608068e-06 0.380537211894989
vn 0.9069968461990356 -0.18041138350963593 0.38053715229034424
vn 0.8543725609779358 -0.35389119386672974 0.38053715229034424
vn 0.7689151167869568 -0.5137712359428406 0.3805371820926666
vn 0.5892608761787415 -0.5892593860626221 0.5527611970901489
vn 0.4629795253276825 -0.6928961277008057 0.5527610778808594
vn 0.31890615820884705 -0.7699052095413208 0.5527610778808594
vn 0.16257746517658234 -0.8173271417617798 0.5527611970901489
vn 7.990856829565018e-07 -0.8333396911621094 0.5527611970901489
vn -0.16257581114768982 -0.8173274993896484 0.5527611970901489
vn -0.3189046382904053 -0.7699057459831238 0.5527612566947937
vn -0.46297815442085266 -0.6928970217704773 0.5527612566947937
vn -0.589259684085846 -0.5892605185508728 0.5527611970901489
vn -0.6928966045379639 -0.46297892928123474 0.5527611970901489
vn -0.7699053287506104 -0.3189057409763336 0.5527611970901489
vn -0.8173271417617798 -0.16257695853710175 0.5527611374855042
vn -0.8333396911621094 0.0 0.5527611970901489
vn -0.8173274397850037 0.1625763177871704 0.5527611374855042
vn -0.769905686378479 0.3189051151275635 0.5527611374855042
vn -0.6928966641426086 0.46297866106033325 0.5527612566947937
vn -0.5892601609230042 0.5892601609230042 0.5527612566947937
vn -0.462978720664978 0.6928966641426086 0.5527611970901489
vn -0.31890517473220825 0.7699055671691895 0.5527611374855042
vn -0.16257643699645996 0.8173274397850037 0.5527611374855042
vn -5.671705594068044e-07 0.8333397507667542 0.5527611374855042
vn -0.18041285872459412 0.906996488571167 0.38053715229034424
vn -6.665881642220484e-07 0.9247655868530273 0.38053715229034424
vn -0.35389232635498047 0.8543722033500671 0.3805370628833771
vn -0.5137723088264465 0.7689145803451538 0.3805370628833771
vn -0.6539080739021301 0.6539080739021301 0.38053712248802185
vn -0.7689145803451538 0.5137723088264465 0.3805370628833771
vn -0.8543720841407776 0.3538922071456909 0.38053715229034424
vn -0.9069965481758118 0.18041254580020905 0.380537211894989
vn -0.9247655868530273 0.0 0.38053715229034424
vn -0.906996488571167 -0.18041323125362396 0.38053715229034424
vn -0.8543718457221985 -0.353892982006073 0.3805372714996338
vn -0.7689142823219299 -0.5137726068496704 0.3805371820926666
vn -0.6539077758789062 -0.653908371925354 0.3805370628833771
vn -0.5137717127799988 -0.7689149379730225 0.3805372416973114
vn -0.3538917005062103 -0.8543722629547119 0.3805372416973114
vn -0.1804119348526001 -0.9069966673851013 0.3805372714996338
vn 8.482755902150529e-07 -0.9247657060623169 0.38053715229034424
vn 0.1804138720035553 -0.9069962501525879 0.380537211894989
vn 0.3538934588432312 -0.8543715476989746 0.38053715229034424
vn 0.5137730836868286 -0.7689139246940613 0.3805371820926666
vn 0.653908908367157 -0.6539071798324585 0.3805372416973114
vn -0.1913856863975525 -0.9621655941009521 0.19393017888069153
vn -0.375417560338974 -0.9063403010368347 0.19393011927604675
vn 9.838777259574272e-07 -0.9810153245925903 0.19393017888069153
vn 0.1913876235485077 -0.9621651768684387 0.19393013417720795
vn 0.3754193186759949 -0.9063395261764526 0.1939302384853363
vn 0.5450239181518555 -0.8156837821006775 0.19393032789230347
vn 0.6936835050582886 -0.6936816573143005 0.19393016397953033
vn 0.8156851530075073 -0.5450217723846436 0.19393011927604675
vn 0.9063405990600586 -0.37541696429252625 0.19393017888069153
vn 0.9621657133102417 -0.19138504564762115 0.19393017888069153
vn 0.9810153245925903 1.5005039131210651e-06 0.19393011927604675
vn 0.9621650576591492 0.19138827919960022 0.19393014907836914
vn 0.9063392877578735 0.37541988492012024 0.19393017888069153
vn 0.8156834840774536 0.5450243949890137 0.19393013417720795
vn 0.7689135670661926 0.5137736201286316 0.3805371820926666
vn 0.6539067625999451 0.6539093255996704 0.380537211894989
vn 0.5137708187103271 0.7689154744148254 0.380537211894989
vn 0.35389071702957153 0.8543727993965149 0.3805370330810547
vn 0.18041126430034637 0.9069968461990356 0.38053709268569946
vn -6.665881642220484e-07 0.9247655868530273 0.38053715229034424
vn 0.6936812996864319 0.693683922290802 0.19393014907836914
vn 0.5450211763381958 0.8156855702400208 0.1939302384853363
vn 0.37541642785072327 0.9063407778739929 0.19393011927604675
vn 0.19138503074645996 0.9621657133102417 0.19393011927604675
vn -6.358475843626366e-07 0.9810153245925903 0.19393017888069153
vn 0.5528934001922607 0.8274669051170349 0.09801742434501648
vn 0.7037005424499512 0.7037032246589661 0.09801719337701797
vn 0.8274648189544678 0.5528965592384338 0.09801731258630753
vn 0.9194300770759583 0.38084232807159424 0.09801747649908066
vn 0.9760621190071106 0.19415251910686493 0.09801728278398514
vn 0.9951847195625305 1.5536602404608857e-06 0.09801739454269409
vn 0.9760628342628479 -0.19414934515953064 0.09801742434501648
vn 0.9194313883781433 -0.38083937764167786 0.098017118871212
vn 0.8274666666984558 -0.552893877029419 0.09801735728979111
vn 0.7037028074264526 -0.7037009000778198 0.09801743924617767
vn 0.5528959035873413 -0.8274651765823364 0.09801749140024185
vn 0.3808416724205017 -0.9194303750991821 0.09801743924617767
vn 0.19415192306041718 -0.9760623574256897 0.09801730513572693
vn 9.974114618671592e-07 -0.9951847195625305 0.09801731258630753
vn -0.19415001571178436 -0.9760627150535583 0.09801729023456573
vn -0.38083988428115845 -0.9194310903549194 0.09801739454269409
vn -0.5450224280357361 -0.8156847357749939 0.19393010437488556
vn -0.6936822533607483 -0.6936830878257751 0.19393013417720795
vn -0.8156841397285461 -0.5450233221054077 0.19393016397953033
vn -0.9063398838043213 -0.3754187524318695 0.19393005967140198
vn -0.9621652364730835 -0.19138699769973755 0.19393007457256317
vn -0.9810153245925903 -3.179238206030277e-07 0.19393016397953033
vn -0.9621654748916626 0.1913863569498062 0.19393019378185272
vn -0.9063400030136108 0.37541818618774414 0.19393016397953033
vn -0.81568443775177 0.5450229048728943 0.19393019378185272
vn -0.6936826109886169 0.6936826109886169 0.19393019378185272
vn -0.5450228452682495 0.81568443775177 0.19393017888069153
vn -0.3754182457923889 0.9063400030136108 0.1939302235841751
vn -0.1913866102695465 0.962165355682373 0.19393019378185272
vn -6.358475843626366e-07 0.9810153245925903 0.19393017888069153
vn -0.1941508650779724 0.9760624766349792 0.09801728278398514
vn -6.497558615592425e-07 0.9951847195625305 0.09801729768514633
vn -0.38084056973457336 0.9194307923316956 0.0980173647403717
vn -0.5528949499130249 0.8274659514427185 0.09801749140024185
vn -0.703701913356781 0.703701913356781 0.09801744669675827
vn -0.827465832233429 0.5528949499130249 0.09801748394966125
vn -0.9194309115409851 0.3808404207229614 0.09801748394966125
vn -0.9760625958442688 0.1941506266593933 0.09801732003688812
vn -0.9951847195625305 -3.404625203984324e-07 0.09801731258630753
vn -0.9760623574256897 -0.1941513866186142 0.09801726788282394
vn -0.9194306135177612 -0.38084110617637634 0.0980171412229538
vn -0.8274655938148499 -0.5528953671455383 0.09801722317934036
vn -0.7037014365196228 -0.7037023305892944 0.0980173870921135
vn -0.5528945326805115 -0.8274661898612976 0.09801735728979111
vn 0.3808387517929077 0.9194316267967224 0.09801743179559708
vn 0.19414934515953064 0.9760628342628479 0.09801726043224335
vn -6.497558615592425e-07 0.9951847195625305 0.09801729768514633
vt 2.0821566693030036e-10 0.0
vt 0.030923493206501007 0.12170660495758057
vt 2.0821566693030036e-10 0.12170660495758057
vt 0.030923493206501007 0.24341320991516113
vt 2.0821566693030036e-10 0.24341320991516113
vt 0.061846986413002014 0.24341320991516113
vt 0.061846986413002014 0.12170660495758057
vt 0.030923493206501007 0.0
vt 0.09277047961950302 0.24341320991516113
vt 0.09277047961950302 0.12170660495758057
vt 0.061846986413002014 0.0
vt 0.12369397282600403 0.24341320991516113
vt 0.12369397282600403 0.12170660495758057
vt 0.09277047961950302 0.0
vt 0.15461745858192444 0.24341320991516113
vt 0.15461745858192444 0.12170660495758057
vt 0.12369397282600403 0.0
vt 0.18554095923900604 0.24341320991516113
vt 0.18554095923900604 0.12170660495758057
vt 0.15461745858192444 0.0
vt 0.21646444499492645 0.24341320991516113
vt 0.21646444499492645 0.12170660495758057
vt 0.18554095923900604 0.0
vt 0.24738793075084686 0.24341320991516113
vt 0.24738793075084686 0.12170660495758057
vt 0.21646444499492645 0.0
vt 0.2783114016056061 0.24341320991516113
vt 0.2783114016056061 0.12170660495758057
vt 0.24738793075084686 0.0
vt 0.3092349171638489 0.24341320991516113
vt 0.3092349171638489 0.12170660495758057
vt 0.2783114016056061 0.0
vt 0.3401584029197693 0.24341320991516113
vt 0.3401584029197693 0.12170660495758057
vt 0.3092349171638489 0.0
vt 0.3710819184780121 0.24341320991516113
vt 0.3710819184780121 0.12170660495758057
vt 0.3401584029197693 0.0
vt 0.4020054042339325 0.24341320991516113
vt 0.4020054042339325 0.12170660495758057
vt 0.3710819184780121 0.0
vt 0.4329289197921753 0.24341320991516113
vt 0.4329289197921753 0.12170660495758057
vt 0.4020054042339325 0.0
vt 0.4638524353504181 0.24341320991516113
vt 0.4638524353504181 0.12170660495758057
vt 0.4329289197921753 0.0
vt 0.4947759509086609 0.24341320991516113
vt 0.4947759509086609 0.12170660495758057
vt 0.4638524353504181 0.0
vt 0.5256994366645813 0.24341320991516113
vt 0.5256994366645813 0.12170660495758057
vt 0.4947759509086609 0.0
vt 0.5566229224205017 0.24341320991516113
vt 0.5566229224205017 0.12170660495758057
vt 0.5256994366645813 0.0
vt 0.5875464081764221 0.24341320991516113
vt 0.5875464081764221 0.12170660495758057
vt 0.5566229224205017 0.0
vt 0.6184698939323425 0.24341320991516113
vt 0.6184698939323425 0.12170660495758057
vt 0.5875464081764221 0.0
vt 0.6493934392929077 0.24341320991516113
vt 0.6493934392929077 0.12170660495758057
vt 0.6184698939323425 0.0
vt 0.6803169846534729 0.24341320991516113
vt 0.6803169846534729 0.12170660495758057
vt 0.6493934392929077 0.0
vt 0.7112404704093933 0.24341320991516113
vt 0.7112404704093933 0.12170660495758057
vt 0.6803169846534729 0.0
vt 0.7421639561653137 0.24341320991516113
vt 0.7421639561653137 0.12170660495758057
vt 0.7112404704093933 0.0
vt 0.7730874419212341 0.24341320991516113
vt 0.7730874419212341 0.12170660495758057
vt 0.7421639561653137 0.0
vt 0.8040109276771545 0.24341320991516113
vt 0.8040109276771545 0.12170660495758057
vt 0.7730874419212341 0.0
vt 0.8349344730377197 0.24341320991516113
vt 0.8349344730377197 0.12170660495758057
vt 0.8040109276771545 0.0
vt 0.8658579587936401 0.24341320991516113
vt 0.8658579587936401 0.12170660495758057
vt 0.8349344730377197 0.0
vt 0.8967815041542053 0.24341320991516113
vt 0.8967815041542053 0.12170660495758057
vt 0.8658579587936401 0.0
vt 0.9277049899101257 0.24341320991516113
vt 0.9277049899101257 0.12170660495758057
vt 0.8967815041542053 0.0
vt 0.9586284756660461 0.24341320991516113
vt 0.9586284756660461 0.12170660495758057
vt 0.9277049899101257 0.0
vt 0.9895520210266113 0.24341320991516113
vt 0.9895520210266113 0.12170660495758057
vt 0.9586284756660461 0.0
vt 0.8967815041542053 0.3651198148727417
vt 0.8658579587936401 0.3651198148727417
vt 0.9277049899101257 0.3651198148727417
vt 0.9586284756660461 0.3651198148727417
vt 0.9895520210266113 0.3651198148727417
vt 0.8967815041542053 0.48682641983032227
vt 0.8658579587936401 0.48682641983032227
vt 0.8349344730377197 0.3651198148727417
vt 0.8040109276771545 0.3651198148727417
vt 0.7730874419212341 0.3651198148727417
vt 0.7421639561653137 0.3651198148727417
vt 0.7112404704093933 0.3651198148727417
vt 0.6803169846534729 0.3651198148727417
vt 0.6493934392929077 0.3651198148727417
vt 0.6184698939323425 0.3651198148727417
vt 0.5875464081764221 0.3651198148727417
vt 0.5566229224205017 0.3651198148727417
vt 0.5256994366645813 0.3651198148727417
vt 0.4947759509086609 0.3651198148727417
vt 0.4638524353504181 0.3651198148727417
vt 0.4329289197921753 0.3651198148727417
vt 0.4020054042339325 0.3651198148727417
vt 0.3710819184780121 0.3651198148727417
vt 0.3401584029197693 0.3651198148727417
vt 0.3092349171638489 0.3651198148727417
vt 0.2783114016056061 0.3651198148727417
vt 0.24738793075084686 0.3651198148727417
vt 0.21646444499492645 0.3651198148727417
vt 0.18554095923900604 0.3651198148727417
vt 0.15461745858192444 0.3651198148727417
vt 0.12369397282600403 0.3651198148727417
vt 0.09277047961950302 0.3651198148727417
vt 0.061846986413002014 0.3651198148727417
vt 0.030923493206501007 0.3651198148727417
vt 2.0821566693030036e-10 0.3651198148727417
vt 0.030923493206501007 0.48682641983032227
vt 2.0821566693030036e-10 0.48682641983032227
vt 0.061846986413002014 0.48682641983032227
vt 0.09277047961950302 0.48682641983032227
vt 0.12369397282600403 0.48682641983032227
vt 0.15461745858192444 0.48682641983032227
vt 0.18554095923900604 0.48682641983032227
vt 0.21646444499492645 0.48682641983032227
vt 0.24738793075084686 0.48682641983032227
vt 0.2783114016056061 0.48682641983032227
vt 0.3092349171638489 0.48682641983032227
vt 0.3401584029197693 0.48682641983032227
vt 0.3710819184780121 0.48682641983032227
vt 0.4020054042339325 0.48682641983032227
vt 0.4329289197921753 0.48682641983032227
vt 0.4638524353504181 0.48682641983032227
vt 0.4947759509086609 0.48682641983032227
vt 0.5256994366645813 0.48682641983032227
vt 0.5566229224205017 0.48682641983032227
vt 0.5875464081764221 0.48682641983032227
vt 0.6184698939323425 0.48682641983032227
vt 0.6493934392929077 0.48682641983032227
vt 0.6803169846534729 0.48682641983032227
vt 0.7112404704093933 0.48682641983032227
vt 0.7421639561653137 0.48682641983032227
vt 0.7730874419212341 0.48682641983032227
vt 0.8040109276771545 0.48682641983032227
vt 0.8349344730377197 0.48682641983032227
vt 0.6803169846534729 0.6085329055786133
vt 0.6493934392929077 0.6085329055786133
vt 0.7112404704093933 0.6085329055786133
vt 0.7421639561653137 0.6085329055786133
vt 0.7730874419212341 0.6085329055786133
vt 0.8040109276771545 0.6085329055786133
vt 0.8349344730377197 0.6085329055786133
vt 0.8658579587936401 0.6085329055786133
vt 0.8967815041542053 0.6085329055786133
vt 0.9277049899101257 0.6085329055786133
vt 0.9277049899101257 0.48682641983032227
vt 0.9586284756660461 0.48682641983032227
vt 0.9895520210266113 0.48682641983032227
vt 0.9586284756660461 0.6085329055786133
vt 0.9895520210266113 0.6085329055786133
vt 0.8040109276771545 0.7302395105361938
vt 0.7730874419212341 0.7302395105361938
vt 0.7421639561653137 0.7302395105361938
vt 0.7112404704093933 0.7302395105361938
vt 0.6803169846534729 0.7302395105361938
vt 0.6493934392929077 0.7302395105361938
vt 0.6184698939323425 0.6085329055786133
vt 0.5875464081764221 0.6085329055786133
vt 0.5566229224205017 0.6085329055786133
vt 0.5256994366645813 0.6085329055786133
vt 0.4947759509086609 0.6085329055786133
vt 0.4638524353504181 0.6085329055786133
vt 0.4329289197921753 0.6085329055786133
vt 0.4020054042339325 0.6085329055786133
vt 0.3710819184780121 0.6085329055786133
vt 0.3401584029197693 0.6085329055786133
vt 0.3092349171638489 0.6085329055786133
vt 0.2783114016056061 0.6085329055786133
vt 0.24738793075084686 0.6085329055786133
vt 0.21646444499492645 0.6085329055786133
vt 0.18554095923900604 0.6085329055786133
vt 0.15461745858192444 0.6085329055786133
vt 0.12369397282600403 0.6085329055786133
vt 0.09277047961950302 0.6085329055786133
vt 0.061846986413002014 0.6085329055786133
vt 0.030923493206501007 0.6085329055786133
vt 2.0821566693030036e-10 0.6085329055786133
vt 0.030923493206501007 0.7302395105361938
vt 2.0821566693030036e-10 0.7302395105361938
vt 0.061846986413002014 0.7302395105361938
vt 0.09277047961950302 0.7302395105361938
vt 0.12369397282600403 0.7302395105361938
vt 0.15461745858192444 0.7302395105361938
vt 0.18554095923900604 0.7302395105361938
vt 0.21646444499492645 0.7302395105361938
vt 0.24738793075084686 0.7302395105361938
vt 0.2783114016056061 0.7302395105361938
vt 0.3092349171638489 0.7302395105361938
vt 0.3401584029197693 0.7302395105361938
vt 0.3710819184780121 0.7302395105361938
vt 0.4020054042339325 0.7302395105361938
vt 0.4329289197921753 0.7302395105361938
vt 0.4638524353504181 0.7302395105361938
vt 0.4947759509086609 0.7302395105361938
vt 0.5256994366645813 0.7302395105361938
vt 0.5566229224205017 0.7302395105361938
vt 0.5875464081764221 0.7302395105361938
vt 0.6184698939323425 0.7302395105361938
vt 0.4638524353504181 0.8519461154937744
vt 0.4329289197921753 0.8519461154937744
vt 0.4947759509086609 0.8519461154937744
vt 0.5256994366645813 0.8519461154937744
vt 0.5566229224205017 0.8519461154937744
vt 0.5875464081764221 0.8519461154937744
vt 0.6184698939323425 0.8519461154937744
vt 0.6493934392929077 0.8519461154937744
vt 0.6803169846534729 0.8519461154937744
vt 0.7112404704093933 0.8519461154937744
vt 0.7421639561653137 0.8519461154937744
vt 0.7730874419212341 0.8519461154937744
vt 0.8040109276771545 0.8519461154937744
vt 0.8349344730377197 0.8519461154937744
vt 0.8349344730377197 0.7302395105361938
vt 0.8658579587936401 0.7302395105361938
vt 0.8967815041542053 0.7302395105361938
vt 0.9277049899101257 0.7302395105361938
vt 0.9586284756660461 0.7302395105361938
vt 0.9895520210266113 0.7302395105361938
vt 0.8658579587936401 0.8519461154937744
vt 0.8967815041542053 0.8519461154937744
vt 0.9277049899101257 0.8519461154937744
vt 0.9586284756660461 0.8519461154937744
vt 0.9895520210266113 0.8519461154937744
vt 0.8967815041542053 0.973652720451355
vt 0.8658579587936401 0.973652720451355
vt 0.8349344730377197 0.973652720451355
vt 0.8040109276771545 0.973652720451355
vt 0.7730874419212341 0.973652720451355
vt 0.7421639561653137 0.973652720451355
vt 0.7112404704093933 0.973652720451355
vt 0.6803169846534729 0.973652720451355
vt 0.6493934392929077 0.973652720451355
vt 0.6184698939323425 0.973652720451355
vt 0.5875464081764221 0.973652720451355
vt 0.5566229224205017 0.973652720451355
vt 0.5256994366645813 0.973652720451355
vt 0.4947759509086609 0.973652720451355
vt 0.4638524353504181 0.973652720451355
vt 0.4329289197921753 0.973652720451355
vt 0.4020054042339325 0.8519461154937744
vt 0.3710819184780121 0.8519461154937744
vt 0.3401584029197693 0.8519461154937744
vt 0.3092349171638489 0.8519461154937744
vt 0.2783114016056061 0.8519461154937744
vt 0.24738793075084686 0.8519461154937744
vt 0.21646444499492645 0.8519461154937744
vt 0.18554095923900604 0.8519461154937744
vt 0.15461745858192444 0.8519461154937744
vt 0.12369397282600403 0.8519461154937744
vt 0.09277047961950302 0.8519461154937744
vt 0.061846986413002014 0.8519461154937744
vt 0.030923493206501007 0.8519461154937744
vt 2.0821566693030036e-10 0.8519461154937744
vt 0.030923493206501007 0.973652720451355
vt 2.0821566693030036e-10 0.973652720451355
vt 0.061846986413002014 0.973652720451355
vt 0.09277047961950302 0.973652720451355
vt 0.12369397282600403 0.973652720451355
vt 0.15461745858192444 0.973652720451355
vt 0.18554095923900604 0.973652720451355
vt 0.21646444499492645 0.973652720451355
vt 0.24738793075084686 0.973652720451355
vt 0.2783114016056061 0.973652720451355
vt 0.3092349171638489 0.973652720451355
vt 0.3401584029197693 0.973652720451355
vt 0.3710819184780121 0.973652720451355
vt 0.4020054042339325 0.973652720451355
vt 0.9277049899101257 0.973652720451355
vt 0.9586284756660461 0.973652720451355
vt 0.9895520210266113 0.973652720451355

g Sphere001
s 1
usemtl Sphere001
f 3/3/3 2/2/2 1/1/1 
f 2/2/2 3/3/3 4/4/4 
f 5/5/5 4/4/4 3/3/3 
f 4/4/4 6/6/6 2/2/2 
f 7/7/7 2/2/2 6/6/6 
f 2/2/2 7/7/7 8/8/8 
f 6/6/6 9/9/9 7/7/7 
f 10/10/10 7/7/7 9/9/9 
f 7/7/7 10/10/10 11/11/11 
f 9/9/9 12/12/12 10/10/10 
f 13/13/13 10/10/10 12/12/12 
f 10/10/10 13/13/13 14/14/14 
f 12/12/12 15/15/15 13/13/13 
f 16/16/16 13/13/13 15/15/15 
f 13/13/13 16/16/16 17/17/17 
f 15/15/15 18/18/18 16/16/16 
f 19/19/19 16/16/16 18/18/18 
f 16/16/16 19/19/19 20/20/20 
f 18/18/18 21/21/21 19/19/19 
f 22/22/22 19/19/19 21/21/21 
f 19/19/19 22/22/22 23/23/23 
f 21/21/21 24/24/24 22/22/22 
f 25/25/25 22/22/22 24/24/24 
f 22/22/22 25/25/25 26/26/26 
f 24/24/24 27/27/27 25/25/25 
f 28/28/28 25/25/25 27/27/27 
f 25/25/25 28/28/28 29/29/29 
f 27/27/27 30/30/30 28/28/28 
f 31/31/31 28/28/28 30/30/30 
f 28/28/28 31/31/31 32/32/32 
f 30/30/30 33/33/33 31/31/31 
f 34/34/34 31/31/31 33/33/33 
f 31/31/31 34/34/34 35/35/35 
f 33/33/33 36/36/36 34/34/34 
f 37/37/37 34/34/34 36/36/36 
f 34/34/34 37/37/37 38/38/38 
f 36/36/36 39/39/39 37/37/37 
f 40/40/40 37/37/37 39/39/39 
f 37/37/37 40/40/40 41/41/41 
f 39/39/39 42/42/42 40/40/40 
f 43/43/43 40/40/40 42/42/42 
f 40/40/40 43/43/43 44/44/44 
f 42/42/42 45/45/45 43/43/43 
f 46/46/46 43/43/43 45/45/45 
f 43/43/43 46/46/46 47/47/47 
f 45/45/45 48/48/48 46/46/46 
f 49/49/49 46/46/46 48/48/48 
f 46/46/46 49/49/49 50/50/50 
f 48/48/48 51/51/51 49/49/49 
f 52/52/52 49/49/49 51/51/51 
f 49/49/49 52/52/52 53/53/53 
f 51/51/51 54/54/54 52/52/52 
f 55/55/55 52/52/52 54/54/54 
f 52/52/52 55/55/55 56/56/56 
f 54/54/54 57/57/57 55/55/55 
f 58/58/58 55/55/55 57/57/57 
f 55/55/55 58/58/58 59/59/59 
f 57/57/57 60/60/60 58/58/58 
f 61/61/61 58/58/58 60/60/60 
f 58/58/58 61/61/61 62/62/62 
f 60/60/60 63/63/63 61/61/61 
f 64/64/64 61/61/61 63/63/63 
f 61/61/61 64/64/64 65/65/65 
f 63/63/63 66/66/66 64/64/64 
f 67/67/67 64/64/64 66/66/66 
f 64/64/64 67/67/67 68/68/68 
f 66/66/66 69/69/69 67/67/67 
f 70/70/70 67/67/67 69/69/69 
f 67/67/67 70/70/70 71/71/71 
f 69/69/69 72/72/72 70/70/70 
f 73/73/73 70/70/70 72/72/72 
f 70/70/70 73/73/73 74/74/74 
f 72/72/72 75/75/75 73/73/73 
f 76/76/76 73/73/73 75/75/75 
f 73/73/73 76/76/76 77/77/77 
f 75/75/75 78/78/78 76/76/76 
f 79/79/79 76/76/76 78/78/78 
f 76/76/76 79/79/79 80/80/80 
f 78/78/78 81/81/81 79/79/79 
f 82/82/82 79/79/79 81/81/81 
f 79/79/79 82/82/82 83/83/83 
f 81/81/81 84/84/84 82/82/82 
f 85/85/85 82/82/82 84/84/84 
f 82/82/82 85/85/85 86/86/86 
f 84/84/84 87/87/87 85/85/85 
f 88/88/88 85/85/85 87/87/87 
f 85/85/85 88/88/88 89/89/89 
f 87/87/87 90/90/90 88/88/88 
f 91/91/91 88/88/88 90/90/90 
f 88/88/88 91/91/91 92/92/92 
f 90/90/90 93/93/93 91/91/91 
f 94/94/94 91/91/91 93/93/93 
f 91/91/91 94/94/94 95/95/95 
f 93/93/93 96/96/96 94/94/94 
f 97/97/97 94/94/94 96/96/96 
f 94/94/94 97/97/97 98/98/98 
f 87/87/87 84/84/84 99/99/99 
f 100/100/100 99/99/99 84/84/84 
f 90/90/90 87/87/87 101/101/101 
f 99/99/99 101/101/101 87/87/87 
f 93/93/93 90/90/90 102/102/102 
f 101/101/101 102/102/102 90/90/90 
f 96/96/96 93/93/93 103/103/103 
f 102/102/102 103/103/103 93/93/93 
f 99/99/99 100/100/100 104/104/104 
f 105/105/105 104/104/104 100/100/100 
f 100/100/100 106/106/106 105/105/105 
f 106/106/106 100/100/100 81/81/81 
f 81/81/81 78/78/78 106/106/106 
f 107/107/107 106/106/106 78/78/78 
f 78/78/78 75/75/75 107/107/107 
f 108/108/108 107/107/107 75/75/75 
f 75/75/75 72/72/72 108/108/108 
f 109/109/109 108/108/108 72/72/72 
f 72/72/72 69/69/69 109/109/109 
f 110/110/110 109/109/109 69/69/69 
f 69/69/69 66/66/66 110/110/110 
f 111/111/111 110/110/110 66/66/66 
f 66/66/66 63/63/63 111/111/111 
f 112/112/112 111/111/111 63/63/63 
f 63/63/63 60/60/60 112/112/112 
f 113/113/113 112/112/112 60/60/60 
f 60/60/60 57/57/57 113/113/113 
f 114/114/114 113/113/113 57/57/57 
f 57/57/57 54/54/54 114/114/114 
f 115/115/115 114/114/114 54/54/54 
f 54/54/54 51/51/51 115/115/115 
f 116/116/116 115/115/115 51/51/51 
f 51/51/51 48/48/48 116/116/116 
f 117/117/117 116/116/116 48/48/48 
f 48/48/48 45/45/45 117/117/117 
f 118/118/118 117/117/117 45/45/45 
f 45/45/45 42/42/42 118/118/118 
f 119/119/119 118/118/118 42/42/42 
f 42/42/42 39/39/39 119/119/119 
f 120/120/120 119/119/119 39/39/39 
f 39/39/39 36/36/36 120/120/120 
f 121/121/121 120/120/120 36/36/36 
f 36/36/36 33/33/33 121/121/121 
f 122/122/122 121/121/121 33/33/33 
f 33/33/33 30/30/30 122/122/122 
f 123/123/123 122/122/122 30/30/30 
f 30/30/30 27/27/27 123/123/123 
f 124/124/124 123/123/123 27/27/27 
f 27/27/27 24/24/24 124/124/124 
f 125/125/125 124/124/124 24/24/24 
f 24/24/24 21/21/21 125/125/125 
f 126/126/126 125/125/125 21/21/21 
f 21/21/21 18/18/18 126/126/126 
f 127/127/127 126/126/126 18/18/18 
f 18/18/18 15/15/15 127/127/127 
f 128/128/128 127/127/127 15/15/15 
f 15/15/15 12/12/12 128/128/128 
f 129/129/129 128/128/128 12/12/12 
f 12/12/12 9/9/9 129/129/129 
f 130/130/130 129/129/129 9/9/9 
f 9/9/9 6/6/6 130/130/130 
f 131/131/131 130/130/130 6/6/6 
f 6/6/6 4/4/4 131/131/131 
f 132/132/132 131/131/131 4/4/4 
f 4/4/4 5/5/5 132/132/132 
f 133/133/133 132/132/132 5/5/5 
f 132/132/132 133/133/133 134/134/134 
f 135/135/135 134/134/134 133/133/133 
f 131/131/131 132/132/132 136/136/136 
f 134/134/134 136/136/136 132/132/132 
f 130/130/130 131/131/131 137/137/137 
f 136/136/136 137/137/137 131/131/131 
f 129/129/129 130/130/130 138/138/138 
f 137/137/137 138/138/138 130/130/130 
f 128/128/128 129/129/129 139/139/139 
f 138/138/138 139/139/139 129/129/129 
f 139/139/139 140/140/140 128/128/128 
f 127/127/127 128/128/128 140/140/140 
f 140/140/140 141/141/141 127/127/127 
f 126/126/126 127/127/127 141/141/141 
f 141/141/141 142/142/142 126/126/126 
f 125/125/125 126/126/126 142/142/142 
f 142/142/142 143/143/143 125/125/125 
f 124/124/124 125/125/125 143/143/143 
f 143/143/143 144/144/144 124/124/124 
f 123/123/123 124/124/124 144/144/144 
f 144/144/144 145/145/145 123/123/123 
f 122/122/122 123/123/123 145/145/145 
f 145/145/145 146/146/146 122/122/122 
f 121/121/121 122/122/122 146/146/146 
f 146/146/146 147/147/147 121/121/121 
f 120/120/120 121/121/121 147/147/147 
f 147/147/147 148/148/148 120/120/120 
f 119/119/119 120/120/120 148/148/148 
f 148/148/148 149/149/149 119/119/119 
f 118/118/118 119/119/119 149/149/149 
f 149/149/149 150/150/150 118/118/118 
f 117/117/117 118/118/118 150/150/150 
f 150/150/150 151/151/151 117/117/117 
f 116/116/116 117/117/117 151/151/151 
f 151/151/151 152/152/152 116/116/116 
f 115/115/115 116/116/116 152/152/152 
f 152/152/152 153/153/153 115/115/115 
f 114/114/114 115/115/115 153/153/153 
f 153/153/153 154/154/154 114/114/114 
f 113/113/113 114/114/114 154/154/154 
f 154/154/154 155/155/155 113/113/113 
f 112/112/112 113/113/113 155/155/155 
f 155/155/155 156/156/156 112/112/112 
f 111/111/111 112/112/112 156/156/156 
f 156/156/156 157/157/157 111/111/111 
f 110/110/110 111/111/111 157/157/157 
f 157/157/157 158/158/158 110/110/110 
f 109/109/109 110/110/110 158/158/158 
f 158/158/158 159/159/159 109/109/109 
f 108/108/108 109/109/109 159/159/159 
f 159/159/159 160/160/160 108/108/108 
f 107/107/107 108/108/108 160/160/160 
f 160/160/160 161/161/161 107/107/107 
f 106/106/106 107/107/107 161/161/161 
f 161/161/161 105/105/105 106/106/106 
f 156/156/156 155/155/155 162/162/162 
f 163/163/163 162/162/162 155/155/155 
f 157/157/157 156/156/156 164/164/164 
f 162/162/162 164/164/164 156/156/156 
f 158/158/158 157/157/157 165/165/165 
f 164/164/164 165/165/165 157/157/157 
f 159/159/159 158/158/158 166/166/166 
f 165/165/165 166/166/166 158/158/158 
f 160/160/160 159/159/159 167/167/167 
f 166/166/166 167/167/167 159/159/159 
f 161/161/161 160/160/160 168/168/168 
f 167/167/167 168/168/168 160/160/160 
f 105/105/105 161/161/161 169/169/169 
f 168/168/168 169/169/169 161/161/161 
f 169/169/169 170/170/170 105/105/105 
f 104/104/104 105/105/105 170/170/170 
f 170/170/170 171/171/171 104/104/104 
f 172/172/172 104/104/104 171/171/171 
f 104/104/104 172/172/172 99/99/99 
f 101/101/101 99/99/99 172/172/172 
f 172/172/172 173/173/173 101/101/101 
f 102/102/102 101/101/101 173/173/173 
f 173/173/173 174/174/174 102/102/102 
f 103/103/103 102/102/102 174/174/174 
f 173/173/173 172/172/172 175/175/175 
f 171/171/171 175/175/175 172/172/172 
f 174/174/174 173/173/173 176/176/176 
f 175/175/175 176/176/176 173/173/173 
f 167/167/167 166/166/166 177/177/177 
f 178/178/178 177/177/177 166/166/166 
f 166/166/166 165/165/165 178/178/178 
f 179/179/179 178/178/178 165/165/165 
f 165/165/165 164/164/164 179/179/179 
f 180/180/180 179/179/179 164/164/164 
f 164/164/164 162/162/162 180/180/180 
f 181/181/181 180/180/180 162/162/162 
f 162/162/162 163/163/163 181/181/181 
f 182/182/182 181/181/181 163/163/163 
f 163/163/163 183/183/183 182/182/182 
f 183/183/183 163/163/163 154/154/154 
f 154/154/154 153/153/153 183/183/183 
f 184/184/184 183/183/183 153/153/153 
f 153/153/153 152/152/152 184/184/184 
f 185/185/185 184/184/184 152/152/152 
f 152/152/152 151/151/151 185/185/185 
f 186/186/186 185/185/185 151/151/151 
f 151/151/151 150/150/150 186/186/186 
f 187/187/187 186/186/186 150/150/150 
f 150/150/150 149/149/149 187/187/187 
f 188/188/188 187/187/187 149/149/149 
f 149/149/149 148/148/148 188/188/188 
f 189/189/189 188/188/188 148/148/148 
f 148/148/148 147/147/147 189/189/189 
f 190/190/190 189/189/189 147/147/147 
f 147/147/147 146/146/146 190/190/190 
f 191/191/191 190/190/190 146/146/146 
f 146/146/146 145/145/145 191/191/191 
f 192/192/192 191/191/191 145/145/145 
f 145/145/145 144/144/144 192/192/192 
f 193/193/193 192/192/192 144/144/144 
f 144/144/144 143/143/143 193/193/193 
f 194/194/194 193/193/193 143/143/143 
f 143/143/143 142/142/142 194/194/194 
f 195/195/195 194/194/194 142/142/142 
f 142/142/142 141/141/141 195/195/195 
f 196/196/196 195/195/195 141/141/141 
f 141/141/141 140/140/140 196/196/196 
f 197/197/197 196/196/196 140/140/140 
f 140/140/140 139/139/139 197/197/197 
f 198/198/198 197/197/197 139/139/139 
f 139/139/139 138/138/138 198/198/198 
f 199/199/199 198/198/198 138/138/138 
f 138/138/138 137/137/137 199/199/199 
f 200/200/200 199/199/199 137/137/137 
f 137/137/137 136/136/136 200/200/200 
f 201/201/201 200/200/200 136/136/136 
f 136/136/136 134/134/134 201/201/201 
f 202/202/202 201/201/201 134/134/134 
f 134/134/134 135/135/135 202/202/202 
f 203/203/203 202/202/202 135/135/135 
f 202/202/202 203/203/203 204/204/204 
f 205/205/205 204/204/204 203/203/203 
f 201/201/201 202/202/202 206/206/206 
f 204/204/204 206/206/206 202/202/202 
f 200/200/200 201/201/201 207/207/207 
f 206/206/206 207/207/207 201/201/201 
f 199/199/199 200/200/200 208/208/208 
f 207/207/207 208/208/208 200/200/200 
f 198/198/198 199/199/199 209/209/209 
f 208/208/208 209/209/209 199/199/199 
f 209/209/209 210/210/210 198/198/198 
f 197/197/197 198/198/198 210/210/210 
f 210/210/210 211/211/211 197/197/197 
f 196/196/196 197/197/197 211/211/211 
f 211/211/211 212/212/212 196/196/196 
f 195/195/195 196/196/196 212/212/212 
f 212/212/212 213/213/213 195/195/195 
f 194/194/194 195/195/195 213/213/213 
f 213/213/213 214/214/214 194/194/194 
f 193/193/193 194/194/194 214/214/214 
f 214/214/214 215/215/215 193/193/193 
f 192/192/192 193/193/193 215/215/215 
f 215/215/215 216/216/216 192/192/192 
f 191/191/191 192/192/192 216/216/216 
f 216/216/216 217/217/217 191/191/191 
f 190/190/190 191/191/191 217/217/217 
f 217/217/217 218/218/218 190/190/190 
f 189/189/189 190/190/190 218/218/218 
f 218/218/218 219/219/219 189/189/189 
f 188/188/188 189/189/189 219/219/219 
f 219/219/219 220/220/220 188/188/188 
f 187/187/187 188/188/188 220/220/220 
f 220/220/220 221/221/221 187/187/187 
f 186/186/186 187/187/187 221/221/221 
f 221/221/221 222/222/222 186/186/186 
f 185/185/185 186/186/186 222/222/222 
f 222/222/222 223/223/223 185/185/185 
f 184/184/184 185/185/185 223/223/223 
f 223/223/223 224/224/224 184/184/184 
f 183/183/183 184/184/184 224/224/224 
f 224/224/224 182/182/182 183/183/183 
f 219/219/219 218/218/218 225/225/225 
f 226/226/226 225/225/225 218/218/218 
f 220/220/220 219/219/219 227/227/227 
f 225/225/225 227/227/227 219/219/219 
f 221/221/221 220/220/220 228/228/228 
f 227/227/227 228/228/228 220/220/220 
f 222/222/222 221/221/221 229/229/229 
f 228/228/228 229/229/229 221/221/221 
f 223/223/223 222/222/222 230/230/230 
f 229/229/229 230/230/230 222/222/222 
f 224/224/224 223/223/223 231/231/231 
f 230/230/230 231/231/231 223/223/223 
f 182/182/182 224/224/224 232/232/232 
f 231/231/231 232/232/232 224/224/224 
f 232/232/232 233/233/233 182/182/182 
f 181/181/181 182/182/182 233/233/233 
f 233/233/233 234/234/234 181/181/181 
f 180/180/180 181/181/181 234/234/234 
f 234/234/234 235/235/235 180/180/180 
f 179/179/179 180/180/180 235/235/235 
f 235/235/235 236/236/236 179/179/179 
f 178/178/178 179/179/179 236/236/236 
f 236/236/236 237/237/237 178/178/178 
f 177/177/177 178/178/178 237/237/237 
f 237/237/237 238/238/238 177/177/177 
f 239/239/239 177/177/177 238/238/238 
f 177/177/177 239/239/239 167/167/167 
f 168/168/168 167/167/167 239/239/239 
f 239/239/239 240/240/240 168/168/168 
f 169/169/169 168/168/168 240/240/240 
f 240/240/240 241/241/241 169/169/169 
f 170/170/170 169/169/169 241/241/241 
f 241/241/241 242/242/242 170/170/170 
f 171/171/171 170/170/170 242/242/242 
f 242/242/242 243/243/243 171/171/171 
f 175/175/175 171/171/171 243/243/243 
f 243/243/243 244/244/244 175/175/175 
f 176/176/176 175/175/175 244/244/244 
f 240/240/240 239/239/239 245/245/245 
f 238/238/238 245/245/245 239/239/239 
f 241/241/241 240/240/240 246/246/246 
f 245/245/245 246/246/246 240/240/240 
f 242/242/242 241/241/241 247/247/247 
f 246/246/246 247/247/247 241/241/241 
f 243/243/243 242/242/242 248/248/248 
f 247/247/247 248/248/248 242/242/242 
f 244/244/244 243/243/243 249/249/249 
f 248/248/248 249/249/249 243/243/243 
f 246/246/246 245/245/245 250/250/250 
f 251/251/251 250/250/250 245/245/245 
f 245/245/245 238/238/238 251/251/251 
f 252/252/252 251/251/251 238/238/238 
f 238/238/238 237/237/237 252/252/252 
f 253/253/253 252/252/252 237/237/237 
f 237/237/237 236/236/236 253/253/253 
f 254/254/254 253/253/253 236/236/236 
f 236/236/236 235/235/235 254/254/254 
f 255/255/255 254/254/254 235/235/235 
f 235/235/235 234/234/234 255/255/255 
f 256/256/256 255/255/255 234/234/234 
f 234/234/234 233/233/233 256/256/256 
f 257/257/257 256/256/256 233/233/233 
f 233/233/233 232/232/232 257/257/257 
f 258/258/258 257/257/257 232/232/232 
f 232/232/232 231/231/231 258/258/258 
f 259/259/259 258/258/258 231/231/231 
f 231/231/231 230/230/230 259/259/259 
f 260/260/260 259/259/259 230/230/230 
f 230/230/230 229/229/229 260/260/260 
f 261/261/261 260/260/260 229/229/229 
f 229/229/229 228/228/228 261/261/261 
f 262/262/262 261/261/261 228/228/228 
f 228/228/228 227/227/227 262/262/262 
f 263/263/263 262/262/262 227/227/227 
f 227/227/227 225/225/225 263/263/263 
f 264/264/264 263/263/263 225/225/225 
f 225/225/225 226/226/226 264/264/264 
f 265/265/265 264/264/264 226/226/226 
f 226/226/226 266/266/266 265/265/265 
f 266/266/266 226/226/226 217/217/217 
f 217/217/217 216/216/216 266/266/266 
f 267/267/267 266/266/266 216/216/216 
f 216/216/216 215/215/215 267/267/267 
f 268/268/268 267/267/267 215/215/215 
f 215/215/215 214/214/214 268/268/268 
f 269/269/269 268/268/268 214/214/214 
f 214/214/214 213/213/213 269/269/269 
f 270/270/270 269/269/269 213/213/213 
f 213/213/213 212/212/212 270/270/270 
f 271/271/271 270/270/270 212/212/212 
f 212/212/212 211/211/211 271/271/271 
f 272/272/272 271/271/271 211/211/211 
f 211/211/211 210/210/210 272/272/272 
f 273/273/273 272/272/272 210/210/210 
f 210/210/210 209/209/209 273/273/273 
f 274/274/274 273/273/273 209/209/209 
f 209/209/209 208/208/208 274/274/274 
f 275/275/275 274/274/274 208/208/208 
f 208/208/208 207/207/207 275/275/275 
f 276/276/276 275/275/275 207/207/207 
f 207/207/207 206/206/206 276/276/276 
f 277/277/277 276/276/276 206/206/206 
f 206/206/206 204/204/204 277/277/277 
f 278/278/278 277/277/277 204/204/204 
f 204/204/204 205/205/205 278/278/278 
f 279/279/279 278/278/278 205/205/205 
f 278/278/278 279/279/279 280/280/280 
f 281/281/281 280/280/280 279/279/279 
f 277/277/277 278/278/278 282/282/282 
f 280/280/280 282/282/282 278/278/278 
f 276/276/276 277/277/277 283/283/283 
f 282/282/282 283/283/283 277/277/277 
f 275/275/275 276/276/276 284/284/284 
f 283/283/283 284/284/284 276/276/276 
f 274/274/274 275/275/275 285/285/285 
f 284/284/284 285/285/285 275/275/275 
f 285/285/285 286/286/286 274/274/274 
f 273/273/273 274/274/274 286/286/286 
f 286/286/286 287/287/287 273/273/273 
f 272/272/272 273/273/273 287/287/287 
f 287/287/287 288/288/288 272/272/272 
f 271/271/271 272/272/272 288/288/288 
f 288/288/288 289/289/289 271/271/271 
f 270/270/270 271/271/271 289/289/289 
f 289/289/289 290/290/290 270/270/270 
f 269/269/269 270/270/270 290/290/290 
f 290/290/290 291/291/291 269/269/269 
f 268/268/268 269/269/269 291/291/291 
f 291/291/291 292/292/292 268/268/268 
f 267/267/267 268/268/268 292/292/292 
f 292/292/292 293/293/293 267/267/267 
f 266/266/266 267/267/267 293/293/293 
f 293/293/293 265/265/265 266/266/266 
f 84/84/84 81/81/81 100/100/100 
f 155/155/155 154/154/154 163/163/163 
f 218/218/218 217/217/217 226/226/226 
f 247/247/247 246/246/246 294/294/294 
f 250/250/250 294/294/294 246/246/246 
f 294/294/294 295/295/295 247/247/247 
f 248/248/248 247/247/247 295/295/295 
f 295/295/295 296/296/296 248/248/248 
f 249/249/249 248/248/248 296/296/296 

